extern void abort(void);

extern void __assert_fail (const char *__assertion, const char *__file,
      unsigned int __line, const char *__function)
     __attribute__ ((__nothrow__ , __leaf__)) __attribute__ ((__noreturn__));
extern void __assert_perror_fail (int __errnum, const char *__file,
      unsigned int __line, const char *__function)
     __attribute__ ((__nothrow__ , __leaf__)) __attribute__ ((__noreturn__));
extern void __assert (const char *__assertion, const char *__file, int __line)
     __attribute__ ((__nothrow__ , __leaf__)) __attribute__ ((__noreturn__));

void reach_error() { ((void) sizeof ((0) ? 1 : 0), __extension__ ({ if (0) ; else __assert_fail ("0", "32_1_cilled_ok_nondet_linux-3.4-32_1-drivers--isdn--hisax--sedlbauer_cs.ko-ldv_main0_sequence_infinite_withcheck_stateful.cil.out.c", 3, __extension__ __PRETTY_FUNCTION__); })); }
typedef unsigned char __u8;
typedef unsigned short __u16;
typedef int __s32;
typedef unsigned int __u32;
typedef unsigned long long __u64;
typedef unsigned char u8;
typedef short s16;
typedef unsigned short u16;
typedef unsigned int u32;
typedef long long s64;
typedef unsigned long long u64;
typedef long __kernel_long_t;
typedef unsigned long __kernel_ulong_t;
typedef int __kernel_pid_t;
typedef unsigned int __kernel_uid32_t;
typedef unsigned int __kernel_gid32_t;
typedef __kernel_ulong_t __kernel_size_t;
typedef __kernel_long_t __kernel_ssize_t;
typedef long long __kernel_loff_t;
typedef __kernel_long_t __kernel_time_t;
typedef __kernel_long_t __kernel_clock_t;
typedef int __kernel_timer_t;
typedef int __kernel_clockid_t;
typedef __u32 __kernel_dev_t;
typedef __kernel_dev_t dev_t;
typedef unsigned short umode_t;
typedef __kernel_pid_t pid_t;
typedef __kernel_clockid_t clockid_t;
typedef _Bool bool;
typedef __kernel_uid32_t uid_t;
typedef __kernel_gid32_t gid_t;
typedef __kernel_loff_t loff_t;
typedef __kernel_size_t size_t;
typedef __kernel_ssize_t ssize_t;
typedef __kernel_time_t time_t;
typedef unsigned char u_char;
typedef unsigned short u_short;
typedef unsigned int u_int;
typedef __s32 int32_t;
typedef __u32 uint32_t;
typedef u64 dma_addr_t;
typedef unsigned int gfp_t;
typedef u64 phys_addr_t;
typedef phys_addr_t resource_size_t;
struct __anonstruct_atomic_t_7 {
   int counter ;
};
typedef struct __anonstruct_atomic_t_7 atomic_t;
struct __anonstruct_atomic64_t_8 {
   long counter ;
};
typedef struct __anonstruct_atomic64_t_8 atomic64_t;
struct list_head {
   struct list_head *next ;
   struct list_head *prev ;
};
struct hlist_node;
struct hlist_head {
   struct hlist_node *first ;
};
struct hlist_node {
   struct hlist_node *next ;
   struct hlist_node **pprev ;
};
struct rcu_head {
   struct rcu_head *next ;
   void (*func)(struct rcu_head *head ) ;
};
struct module;
struct module;
typedef void (*ctor_fn_t)(void);
struct _ddebug {
   char const *modname ;
   char const *function ;
   char const *filename ;
   char const *format ;
   unsigned int lineno : 18 ;
   unsigned int flags : 8 ;
} __attribute__((__aligned__(8))) ;
struct device;
struct device;
struct completion;
struct completion;
struct pt_regs;
struct pt_regs;
struct pid;
struct pid;
struct timespec;
struct timespec;
struct page;
struct page;
struct task_struct;
struct task_struct;
struct task_struct;
struct mm_struct;
struct mm_struct;
struct pt_regs {
   unsigned long r15 ;
   unsigned long r14 ;
   unsigned long r13 ;
   unsigned long r12 ;
   unsigned long bp ;
   unsigned long bx ;
   unsigned long r11 ;
   unsigned long r10 ;
   unsigned long r9 ;
   unsigned long r8 ;
   unsigned long ax ;
   unsigned long cx ;
   unsigned long dx ;
   unsigned long si ;
   unsigned long di ;
   unsigned long orig_ax ;
   unsigned long ip ;
   unsigned long cs ;
   unsigned long flags ;
   unsigned long sp ;
   unsigned long ss ;
};
struct __anonstruct____missing_field_name_15 {
   unsigned int a ;
   unsigned int b ;
};
struct __anonstruct____missing_field_name_16 {
   u16 limit0 ;
   u16 base0 ;
   unsigned int base1 : 8 ;
   unsigned int type : 4 ;
   unsigned int s : 1 ;
   unsigned int dpl : 2 ;
   unsigned int p : 1 ;
   unsigned int limit : 4 ;
   unsigned int avl : 1 ;
   unsigned int l : 1 ;
   unsigned int d : 1 ;
   unsigned int g : 1 ;
   unsigned int base2 : 8 ;
};
union __anonunion____missing_field_name_14 {
   struct __anonstruct____missing_field_name_15 __annonCompField5 ;
   struct __anonstruct____missing_field_name_16 __annonCompField6 ;
};
struct desc_struct {
   union __anonunion____missing_field_name_14 __annonCompField7 ;
} __attribute__((__packed__)) ;
typedef unsigned long pgdval_t;
typedef unsigned long pgprotval_t;
struct pgprot {
   pgprotval_t pgprot ;
};
typedef struct pgprot pgprot_t;
struct __anonstruct_pgd_t_20 {
   pgdval_t pgd ;
};
typedef struct __anonstruct_pgd_t_20 pgd_t;
typedef struct page *pgtable_t;
struct file;
struct file;
struct page;
struct thread_struct;
struct thread_struct;
struct mm_struct;
struct desc_struct;
struct task_struct;
struct cpumask;
struct cpumask;
struct arch_spinlock;
struct arch_spinlock;
struct task_struct;
struct kernel_vm86_regs {
   struct pt_regs pt ;
   unsigned short es ;
   unsigned short __esh ;
   unsigned short ds ;
   unsigned short __dsh ;
   unsigned short fs ;
   unsigned short __fsh ;
   unsigned short gs ;
   unsigned short __gsh ;
};
union __anonunion____missing_field_name_24 {
   struct pt_regs *regs ;
   struct kernel_vm86_regs *vm86 ;
};
struct math_emu_info {
   long ___orig_eip ;
   union __anonunion____missing_field_name_24 __annonCompField8 ;
};
struct task_struct;
struct bug_entry {
   int bug_addr_disp ;
   int file_disp ;
   unsigned short line ;
   unsigned short flags ;
};
struct pt_regs;
struct cpumask {
   unsigned long bits[((4096UL + 8UL * sizeof(long )) - 1UL) / (8UL * sizeof(long ))] ;
};
typedef struct cpumask cpumask_t;
typedef struct cpumask *cpumask_var_t;
struct static_key;
struct static_key;
struct pt_regs;
struct i387_fsave_struct {
   u32 cwd ;
   u32 swd ;
   u32 twd ;
   u32 fip ;
   u32 fcs ;
   u32 foo ;
   u32 fos ;
   u32 st_space[20] ;
   u32 status ;
};
struct __anonstruct____missing_field_name_31 {
   u64 rip ;
   u64 rdp ;
};
struct __anonstruct____missing_field_name_32 {
   u32 fip ;
   u32 fcs ;
   u32 foo ;
   u32 fos ;
};
union __anonunion____missing_field_name_30 {
   struct __anonstruct____missing_field_name_31 __annonCompField12 ;
   struct __anonstruct____missing_field_name_32 __annonCompField13 ;
};
union __anonunion____missing_field_name_33 {
   u32 padding1[12] ;
   u32 sw_reserved[12] ;
};
struct i387_fxsave_struct {
   u16 cwd ;
   u16 swd ;
   u16 twd ;
   u16 fop ;
   union __anonunion____missing_field_name_30 __annonCompField14 ;
   u32 mxcsr ;
   u32 mxcsr_mask ;
   u32 st_space[32] ;
   u32 xmm_space[64] ;
   u32 padding[12] ;
   union __anonunion____missing_field_name_33 __annonCompField15 ;
} __attribute__((__aligned__(16))) ;
struct i387_soft_struct {
   u32 cwd ;
   u32 swd ;
   u32 twd ;
   u32 fip ;
   u32 fcs ;
   u32 foo ;
   u32 fos ;
   u32 st_space[20] ;
   u8 ftop ;
   u8 changed ;
   u8 lookahead ;
   u8 no_update ;
   u8 rm ;
   u8 alimit ;
   struct math_emu_info *info ;
   u32 entry_eip ;
};
struct ymmh_struct {
   u32 ymmh_space[64] ;
};
struct xsave_hdr_struct {
   u64 xstate_bv ;
   u64 reserved1[2] ;
   u64 reserved2[5] ;
} __attribute__((__packed__)) ;
struct xsave_struct {
   struct i387_fxsave_struct i387 ;
   struct xsave_hdr_struct xsave_hdr ;
   struct ymmh_struct ymmh ;
} __attribute__((__packed__, __aligned__(64))) ;
union thread_xstate {
   struct i387_fsave_struct fsave ;
   struct i387_fxsave_struct fxsave ;
   struct i387_soft_struct soft ;
   struct xsave_struct xsave ;
};
struct fpu {
   unsigned int last_cpu ;
   unsigned int has_fpu ;
   union thread_xstate *state ;
};
struct kmem_cache;
struct perf_event;
struct perf_event;
struct thread_struct {
   struct desc_struct tls_array[3] ;
   unsigned long sp0 ;
   unsigned long sp ;
   unsigned long usersp ;
   unsigned short es ;
   unsigned short ds ;
   unsigned short fsindex ;
   unsigned short gsindex ;
   unsigned long fs ;
   unsigned long gs ;
   struct perf_event *ptrace_bps[4] ;
   unsigned long debugreg6 ;
   unsigned long ptrace_dr7 ;
   unsigned long cr2 ;
   unsigned long trap_nr ;
   unsigned long error_code ;
   struct fpu fpu ;
   unsigned long *io_bitmap_ptr ;
   unsigned long iopl ;
   unsigned int io_bitmap_max ;
};
typedef atomic64_t atomic_long_t;
typedef u16 __ticket_t;
typedef u32 __ticketpair_t;
struct __raw_tickets {
   __ticket_t head ;
   __ticket_t tail ;
};
union __anonunion____missing_field_name_36 {
   __ticketpair_t head_tail ;
   struct __raw_tickets tickets ;
};
struct arch_spinlock {
   union __anonunion____missing_field_name_36 __annonCompField17 ;
};
typedef struct arch_spinlock arch_spinlock_t;
struct task_struct;
struct raw_spinlock {
   arch_spinlock_t raw_lock ;
   unsigned int magic ;
   unsigned int owner_cpu ;
   void *owner ;
};
typedef struct raw_spinlock raw_spinlock_t;
union __anonunion____missing_field_name_39 {
   struct raw_spinlock rlock ;
};
struct spinlock {
   union __anonunion____missing_field_name_39 __annonCompField19 ;
};
typedef struct spinlock spinlock_t;
struct seqcount {
   unsigned int sequence ;
};
typedef struct seqcount seqcount_t;
struct timespec {
   __kernel_time_t tv_sec ;
   long tv_nsec ;
};
struct __wait_queue_head {
   spinlock_t lock ;
   struct list_head task_list ;
};
typedef struct __wait_queue_head wait_queue_head_t;
struct task_struct;
struct __anonstruct_nodemask_t_42 {
   unsigned long bits[(((unsigned long )(1 << 10) + 8UL * sizeof(long )) - 1UL) / (8UL * sizeof(long ))] ;
};
typedef struct __anonstruct_nodemask_t_42 nodemask_t;
struct page;
struct mutex {
   atomic_t count ;
   spinlock_t wait_lock ;
   struct list_head wait_list ;
   struct task_struct *owner ;
   char const *name ;
   void *magic ;
};
struct mutex_waiter {
   struct list_head list ;
   struct task_struct *task ;
   void *magic ;
};
struct rw_semaphore;
struct rw_semaphore;
struct rw_semaphore {
   long count ;
   raw_spinlock_t wait_lock ;
   struct list_head wait_list ;
};
struct completion {
   unsigned int done ;
   wait_queue_head_t wait ;
};
struct page;
struct resource {
   resource_size_t start ;
   resource_size_t end ;
   char const *name ;
   unsigned long flags ;
   struct resource *parent ;
   struct resource *sibling ;
   struct resource *child ;
};
struct device;
struct pci_dev;
struct pci_dev;
struct device;
union ktime {
   s64 tv64 ;
};
typedef union ktime ktime_t;
struct tvec_base;
struct tvec_base;
struct timer_list {
   struct list_head entry ;
   unsigned long expires ;
   struct tvec_base *base ;
   void (*function)(unsigned long ) ;
   unsigned long data ;
   int slack ;
   int start_pid ;
   void *start_site ;
   char start_comm[16] ;
};
struct hrtimer;
struct hrtimer;
enum hrtimer_restart;
struct work_struct;
struct work_struct;
struct work_struct {
   atomic_long_t data ;
   struct list_head entry ;
   void (*func)(struct work_struct *work ) ;
};
struct device;
struct pm_message {
   int event ;
};
typedef struct pm_message pm_message_t;
struct dev_pm_ops {
   int (*prepare)(struct device *dev ) ;
   void (*complete)(struct device *dev ) ;
   int (*suspend)(struct device *dev ) ;
   int (*resume)(struct device *dev ) ;
   int (*freeze)(struct device *dev ) ;
   int (*thaw)(struct device *dev ) ;
   int (*poweroff)(struct device *dev ) ;
   int (*restore)(struct device *dev ) ;
   int (*suspend_late)(struct device *dev ) ;
   int (*resume_early)(struct device *dev ) ;
   int (*freeze_late)(struct device *dev ) ;
   int (*thaw_early)(struct device *dev ) ;
   int (*poweroff_late)(struct device *dev ) ;
   int (*restore_early)(struct device *dev ) ;
   int (*suspend_noirq)(struct device *dev ) ;
   int (*resume_noirq)(struct device *dev ) ;
   int (*freeze_noirq)(struct device *dev ) ;
   int (*thaw_noirq)(struct device *dev ) ;
   int (*poweroff_noirq)(struct device *dev ) ;
   int (*restore_noirq)(struct device *dev ) ;
   int (*runtime_suspend)(struct device *dev ) ;
   int (*runtime_resume)(struct device *dev ) ;
   int (*runtime_idle)(struct device *dev ) ;
};
enum rpm_status {
    RPM_ACTIVE = 0,
    RPM_RESUMING = 1,
    RPM_SUSPENDED = 2,
    RPM_SUSPENDING = 3
} ;
enum rpm_request {
    RPM_REQ_NONE = 0,
    RPM_REQ_IDLE = 1,
    RPM_REQ_SUSPEND = 2,
    RPM_REQ_AUTOSUSPEND = 3,
    RPM_REQ_RESUME = 4
} ;
struct wakeup_source;
struct wakeup_source;
struct pm_subsys_data {
   spinlock_t lock ;
   unsigned int refcount ;
};
struct dev_pm_qos_request;
struct pm_qos_constraints;
struct dev_pm_info {
   pm_message_t power_state ;
   unsigned int can_wakeup : 1 ;
   unsigned int async_suspend : 1 ;
   bool is_prepared : 1 ;
   bool is_suspended : 1 ;
   bool ignore_children : 1 ;
   spinlock_t lock ;
   struct list_head entry ;
   struct completion completion ;
   struct wakeup_source *wakeup ;
   bool wakeup_path : 1 ;
   struct timer_list suspend_timer ;
   unsigned long timer_expires ;
   struct work_struct work ;
   wait_queue_head_t wait_queue ;
   atomic_t usage_count ;
   atomic_t child_count ;
   unsigned int disable_depth : 3 ;
   unsigned int idle_notification : 1 ;
   unsigned int request_pending : 1 ;
   unsigned int deferred_resume : 1 ;
   unsigned int run_wake : 1 ;
   unsigned int runtime_auto : 1 ;
   unsigned int no_callbacks : 1 ;
   unsigned int irq_safe : 1 ;
   unsigned int use_autosuspend : 1 ;
   unsigned int timer_autosuspends : 1 ;
   enum rpm_request request ;
   enum rpm_status runtime_status ;
   int runtime_error ;
   int autosuspend_delay ;
   unsigned long last_busy ;
   unsigned long active_jiffies ;
   unsigned long suspended_jiffies ;
   unsigned long accounting_timestamp ;
   ktime_t suspend_time ;
   s64 max_time_suspended_ns ;
   struct dev_pm_qos_request *pq_req ;
   struct pm_subsys_data *subsys_data ;
   struct pm_qos_constraints *constraints ;
};
struct dev_pm_domain {
   struct dev_pm_ops ops ;
};
struct pci_bus;
struct pci_bus;
struct __anonstruct_mm_context_t_112 {
   void *ldt ;
   int size ;
   unsigned short ia32_compat ;
   struct mutex lock ;
   void *vdso ;
};
typedef struct __anonstruct_mm_context_t_112 mm_context_t;
struct pci_dev;
struct pci_dev;
struct vm_area_struct;
struct vm_area_struct;
struct page;
struct vm_area_struct;
struct completion;
struct rb_node {
   unsigned long rb_parent_color ;
   struct rb_node *rb_right ;
   struct rb_node *rb_left ;
} __attribute__((__aligned__(sizeof(long )))) ;
struct rb_root {
   struct rb_node *rb_node ;
};
struct nsproxy;
struct nsproxy;
struct cred;
struct cred;
struct file;
struct task_struct;
typedef __u64 Elf64_Addr;
typedef __u16 Elf64_Half;
typedef __u32 Elf64_Word;
typedef __u64 Elf64_Xword;
struct elf64_sym {
   Elf64_Word st_name ;
   unsigned char st_info ;
   unsigned char st_other ;
   Elf64_Half st_shndx ;
   Elf64_Addr st_value ;
   Elf64_Xword st_size ;
};
typedef struct elf64_sym Elf64_Sym;
struct file;
struct sock;
struct sock;
struct kobject;
struct kobject;
enum kobj_ns_type {
    KOBJ_NS_TYPE_NONE = 0,
    KOBJ_NS_TYPE_NET = 1,
    KOBJ_NS_TYPES = 2
} ;
struct kobj_ns_type_operations {
   enum kobj_ns_type type ;
   void *(*grab_current_ns)(void) ;
   void const *(*netlink_ns)(struct sock *sk ) ;
   void const *(*initial_ns)(void) ;
   void (*drop_ns)(void * ) ;
};
struct kobject;
struct module;
enum kobj_ns_type;
struct attribute {
   char const *name ;
   umode_t mode ;
};
struct attribute_group {
   char const *name ;
   umode_t (*is_visible)(struct kobject * , struct attribute * , int ) ;
   struct attribute **attrs ;
};
struct file;
struct vm_area_struct;
struct bin_attribute {
   struct attribute attr ;
   size_t size ;
   void *private ;
   ssize_t (*read)(struct file * , struct kobject * , struct bin_attribute * , char * ,
                   loff_t , size_t ) ;
   ssize_t (*write)(struct file * , struct kobject * , struct bin_attribute * , char * ,
                    loff_t , size_t ) ;
   int (*mmap)(struct file * , struct kobject * , struct bin_attribute *attr , struct vm_area_struct *vma ) ;
};
struct sysfs_ops {
   ssize_t (*show)(struct kobject * , struct attribute * , char * ) ;
   ssize_t (*store)(struct kobject * , struct attribute * , char const * , size_t ) ;
   void const *(*namespace)(struct kobject * , struct attribute const * ) ;
};
struct sysfs_dirent;
struct sysfs_dirent;
struct kref {
   atomic_t refcount ;
};
struct kset;
struct kobj_type;
struct kobject {
   char const *name ;
   struct list_head entry ;
   struct kobject *parent ;
   struct kset *kset ;
   struct kobj_type *ktype ;
   struct sysfs_dirent *sd ;
   struct kref kref ;
   unsigned int state_initialized : 1 ;
   unsigned int state_in_sysfs : 1 ;
   unsigned int state_add_uevent_sent : 1 ;
   unsigned int state_remove_uevent_sent : 1 ;
   unsigned int uevent_suppress : 1 ;
};
struct kobj_type {
   void (*release)(struct kobject *kobj ) ;
   struct sysfs_ops const *sysfs_ops ;
   struct attribute **default_attrs ;
   struct kobj_ns_type_operations const *(*child_ns_type)(struct kobject *kobj ) ;
   void const *(*namespace)(struct kobject *kobj ) ;
};
struct kobj_uevent_env {
   char *envp[32] ;
   int envp_idx ;
   char buf[2048] ;
   int buflen ;
};
struct kset_uevent_ops {
   int (* const filter)(struct kset *kset , struct kobject *kobj ) ;
   char const *(* const name)(struct kset *kset , struct kobject *kobj ) ;
   int (* const uevent)(struct kset *kset , struct kobject *kobj , struct kobj_uevent_env *env ) ;
};
struct sock;
struct kset {
   struct list_head list ;
   spinlock_t list_lock ;
   struct kobject kobj ;
   struct kset_uevent_ops const *uevent_ops ;
};
struct kernel_param;
struct kernel_param;
struct kernel_param_ops {
   int (*set)(char const *val , struct kernel_param const *kp ) ;
   int (*get)(char *buffer , struct kernel_param const *kp ) ;
   void (*free)(void *arg ) ;
};
struct kparam_string;
struct kparam_array;
union __anonunion____missing_field_name_199 {
   void *arg ;
   struct kparam_string const *str ;
   struct kparam_array const *arr ;
};
struct kernel_param {
   char const *name ;
   struct kernel_param_ops const *ops ;
   u16 perm ;
   s16 level ;
   union __anonunion____missing_field_name_199 __annonCompField32 ;
};
struct kparam_string {
   unsigned int maxlen ;
   char *string ;
};
struct kparam_array {
   unsigned int max ;
   unsigned int elemsize ;
   unsigned int *num ;
   struct kernel_param_ops const *ops ;
   void *elem ;
};
struct module;
struct module;
struct static_key {
   atomic_t enabled ;
};
struct module;
struct tracepoint;
struct tracepoint;
struct tracepoint_func {
   void *func ;
   void *data ;
};
struct tracepoint {
   char const *name ;
   struct static_key key ;
   void (*regfunc)(void) ;
   void (*unregfunc)(void) ;
   struct tracepoint_func *funcs ;
};
struct kernel_symbol {
   unsigned long value ;
   char const *name ;
};
struct mod_arch_specific {
};
struct module;
struct module_param_attrs;
struct module_kobject {
   struct kobject kobj ;
   struct module *mod ;
   struct kobject *drivers_dir ;
   struct module_param_attrs *mp ;
};
struct module_attribute {
   struct attribute attr ;
   ssize_t (*show)(struct module_attribute * , struct module_kobject * , char * ) ;
   ssize_t (*store)(struct module_attribute * , struct module_kobject * , char const * ,
                    size_t count ) ;
   void (*setup)(struct module * , char const * ) ;
   int (*test)(struct module * ) ;
   void (*free)(struct module * ) ;
};
struct exception_table_entry;
struct exception_table_entry;
enum module_state {
    MODULE_STATE_LIVE = 0,
    MODULE_STATE_COMING = 1,
    MODULE_STATE_GOING = 2
} ;
struct module_ref {
   unsigned long incs ;
   unsigned long decs ;
} __attribute__((__aligned__((2) * (sizeof(unsigned long )) ))) ;
struct module_sect_attrs;
struct module_notes_attrs;
struct ftrace_event_call;
struct module {
   enum module_state state ;
   struct list_head list ;
   char name[64UL - sizeof(unsigned long )] ;
   struct module_kobject mkobj ;
   struct module_attribute *modinfo_attrs ;
   char const *version ;
   char const *srcversion ;
   struct kobject *holders_dir ;
   struct kernel_symbol const *syms ;
   unsigned long const *crcs ;
   unsigned int num_syms ;
   struct kernel_param *kp ;
   unsigned int num_kp ;
   unsigned int num_gpl_syms ;
   struct kernel_symbol const *gpl_syms ;
   unsigned long const *gpl_crcs ;
   struct kernel_symbol const *unused_syms ;
   unsigned long const *unused_crcs ;
   unsigned int num_unused_syms ;
   unsigned int num_unused_gpl_syms ;
   struct kernel_symbol const *unused_gpl_syms ;
   unsigned long const *unused_gpl_crcs ;
   struct kernel_symbol const *gpl_future_syms ;
   unsigned long const *gpl_future_crcs ;
   unsigned int num_gpl_future_syms ;
   unsigned int num_exentries ;
   struct exception_table_entry *extable ;
   int (*init)(void) ;
   void *module_init ;
   void *module_core ;
   unsigned int init_size ;
   unsigned int core_size ;
   unsigned int init_text_size ;
   unsigned int core_text_size ;
   unsigned int init_ro_size ;
   unsigned int core_ro_size ;
   struct mod_arch_specific arch ;
   unsigned int taints ;
   unsigned int num_bugs ;
   struct list_head bug_list ;
   struct bug_entry *bug_table ;
   Elf64_Sym *symtab ;
   Elf64_Sym *core_symtab ;
   unsigned int num_symtab ;
   unsigned int core_num_syms ;
   char *strtab ;
   char *core_strtab ;
   struct module_sect_attrs *sect_attrs ;
   struct module_notes_attrs *notes_attrs ;
   char *args ;
   void *percpu ;
   unsigned int percpu_size ;
   unsigned int num_tracepoints ;
   struct tracepoint * const *tracepoints_ptrs ;
   unsigned int num_trace_bprintk_fmt ;
   char const **trace_bprintk_fmt_start ;
   struct ftrace_event_call **trace_events ;
   unsigned int num_trace_events ;
   struct list_head source_list ;
   struct list_head target_list ;
   struct task_struct *waiter ;
   void (*exit)(void) ;
   struct module_ref *refptr ;
   ctor_fn_t *ctors ;
   unsigned int num_ctors ;
};
struct task_struct;
struct kernel_cap_struct {
   __u32 cap[2] ;
};
typedef struct kernel_cap_struct kernel_cap_t;
struct user_namespace;
struct user_namespace;
struct prio_tree_node;
struct raw_prio_tree_node {
   struct prio_tree_node *left ;
   struct prio_tree_node *right ;
   struct prio_tree_node *parent ;
};
struct prio_tree_node {
   struct prio_tree_node *left ;
   struct prio_tree_node *right ;
   struct prio_tree_node *parent ;
   unsigned long start ;
   unsigned long last ;
};
struct address_space;
struct address_space;
union __anonunion____missing_field_name_203 {
   unsigned long index ;
   void *freelist ;
};
struct __anonstruct____missing_field_name_207 {
   unsigned int inuse : 16 ;
   unsigned int objects : 15 ;
   unsigned int frozen : 1 ;
};
union __anonunion____missing_field_name_206 {
   atomic_t _mapcount ;
   struct __anonstruct____missing_field_name_207 __annonCompField34 ;
};
struct __anonstruct____missing_field_name_205 {
   union __anonunion____missing_field_name_206 __annonCompField35 ;
   atomic_t _count ;
};
union __anonunion____missing_field_name_204 {
   unsigned long counters ;
   struct __anonstruct____missing_field_name_205 __annonCompField36 ;
};
struct __anonstruct____missing_field_name_202 {
   union __anonunion____missing_field_name_203 __annonCompField33 ;
   union __anonunion____missing_field_name_204 __annonCompField37 ;
};
struct __anonstruct____missing_field_name_209 {
   struct page *next ;
   int pages ;
   int pobjects ;
};
union __anonunion____missing_field_name_208 {
   struct list_head lru ;
   struct __anonstruct____missing_field_name_209 __annonCompField39 ;
};
union __anonunion____missing_field_name_210 {
   unsigned long private ;
   struct kmem_cache *slab ;
   struct page *first_page ;
};
struct page {
   unsigned long flags ;
   struct address_space *mapping ;
   struct __anonstruct____missing_field_name_202 __annonCompField38 ;
   union __anonunion____missing_field_name_208 __annonCompField40 ;
   union __anonunion____missing_field_name_210 __annonCompField41 ;
   unsigned long debug_flags ;
} __attribute__((__aligned__((2) * (sizeof(unsigned long )) ))) ;
struct __anonstruct_vm_set_212 {
   struct list_head list ;
   void *parent ;
   struct vm_area_struct *head ;
};
union __anonunion_shared_211 {
   struct __anonstruct_vm_set_212 vm_set ;
   struct raw_prio_tree_node prio_tree_node ;
};
struct anon_vma;
struct vm_operations_struct;
struct mempolicy;
struct vm_area_struct {
   struct mm_struct *vm_mm ;
   unsigned long vm_start ;
   unsigned long vm_end ;
   struct vm_area_struct *vm_next ;
   struct vm_area_struct *vm_prev ;
   pgprot_t vm_page_prot ;
   unsigned long vm_flags ;
   struct rb_node vm_rb ;
   union __anonunion_shared_211 shared ;
   struct list_head anon_vma_chain ;
   struct anon_vma *anon_vma ;
   struct vm_operations_struct const *vm_ops ;
   unsigned long vm_pgoff ;
   struct file *vm_file ;
   void *vm_private_data ;
   struct mempolicy *vm_policy ;
};
struct core_thread {
   struct task_struct *task ;
   struct core_thread *next ;
};
struct core_state {
   atomic_t nr_threads ;
   struct core_thread dumper ;
   struct completion startup ;
};
struct mm_rss_stat {
   atomic_long_t count[3] ;
};
struct linux_binfmt;
struct mmu_notifier_mm;
struct mm_struct {
   struct vm_area_struct *mmap ;
   struct rb_root mm_rb ;
   struct vm_area_struct *mmap_cache ;
   unsigned long (*get_unmapped_area)(struct file *filp , unsigned long addr , unsigned long len ,
                                      unsigned long pgoff , unsigned long flags ) ;
   void (*unmap_area)(struct mm_struct *mm , unsigned long addr ) ;
   unsigned long mmap_base ;
   unsigned long task_size ;
   unsigned long cached_hole_size ;
   unsigned long free_area_cache ;
   pgd_t *pgd ;
   atomic_t mm_users ;
   atomic_t mm_count ;
   int map_count ;
   spinlock_t page_table_lock ;
   struct rw_semaphore mmap_sem ;
   struct list_head mmlist ;
   unsigned long hiwater_rss ;
   unsigned long hiwater_vm ;
   unsigned long total_vm ;
   unsigned long locked_vm ;
   unsigned long pinned_vm ;
   unsigned long shared_vm ;
   unsigned long exec_vm ;
   unsigned long stack_vm ;
   unsigned long reserved_vm ;
   unsigned long def_flags ;
   unsigned long nr_ptes ;
   unsigned long start_code ;
   unsigned long end_code ;
   unsigned long start_data ;
   unsigned long end_data ;
   unsigned long start_brk ;
   unsigned long brk ;
   unsigned long start_stack ;
   unsigned long arg_start ;
   unsigned long arg_end ;
   unsigned long env_start ;
   unsigned long env_end ;
   unsigned long saved_auxv[44] ;
   struct mm_rss_stat rss_stat ;
   struct linux_binfmt *binfmt ;
   cpumask_var_t cpu_vm_mask_var ;
   mm_context_t context ;
   unsigned int faultstamp ;
   unsigned int token_priority ;
   unsigned int last_interval ;
   unsigned long flags ;
   struct core_state *core_state ;
   spinlock_t ioctx_lock ;
   struct hlist_head ioctx_list ;
   struct task_struct *owner ;
   struct file *exe_file ;
   unsigned long num_exe_file_vmas ;
   struct mmu_notifier_mm *mmu_notifier_mm ;
   pgtable_t pmd_huge_pte ;
   struct cpumask cpumask_allocation ;
};
typedef unsigned long cputime_t;
struct task_struct;
struct sem_undo_list;
struct sysv_sem {
   struct sem_undo_list *undo_list ;
};
struct siginfo;
struct siginfo;
struct __anonstruct_sigset_t_214 {
   unsigned long sig[1] ;
};
typedef struct __anonstruct_sigset_t_214 sigset_t;
typedef void __signalfn_t(int );
typedef __signalfn_t *__sighandler_t;
typedef void __restorefn_t(void);
typedef __restorefn_t *__sigrestore_t;
struct sigaction {
   __sighandler_t sa_handler ;
   unsigned long sa_flags ;
   __sigrestore_t sa_restorer ;
   sigset_t sa_mask ;
};
struct k_sigaction {
   struct sigaction sa ;
};
union sigval {
   int sival_int ;
   void *sival_ptr ;
};
typedef union sigval sigval_t;
struct __anonstruct__kill_216 {
   __kernel_pid_t _pid ;
   __kernel_uid32_t _uid ;
};
struct __anonstruct__timer_217 {
   __kernel_timer_t _tid ;
   int _overrun ;
   char _pad[sizeof(__kernel_uid32_t ) - sizeof(int )] ;
   sigval_t _sigval ;
   int _sys_private ;
};
struct __anonstruct__rt_218 {
   __kernel_pid_t _pid ;
   __kernel_uid32_t _uid ;
   sigval_t _sigval ;
};
struct __anonstruct__sigchld_219 {
   __kernel_pid_t _pid ;
   __kernel_uid32_t _uid ;
   int _status ;
   __kernel_clock_t _utime ;
   __kernel_clock_t _stime ;
};
struct __anonstruct__sigfault_220 {
   void *_addr ;
   short _addr_lsb ;
};
struct __anonstruct__sigpoll_221 {
   long _band ;
   int _fd ;
};
union __anonunion__sifields_215 {
   int _pad[(128UL - 4UL * sizeof(int )) / sizeof(int )] ;
   struct __anonstruct__kill_216 _kill ;
   struct __anonstruct__timer_217 _timer ;
   struct __anonstruct__rt_218 _rt ;
   struct __anonstruct__sigchld_219 _sigchld ;
   struct __anonstruct__sigfault_220 _sigfault ;
   struct __anonstruct__sigpoll_221 _sigpoll ;
};
struct siginfo {
   int si_signo ;
   int si_errno ;
   int si_code ;
   union __anonunion__sifields_215 _sifields ;
};
typedef struct siginfo siginfo_t;
struct siginfo;
struct task_struct;
struct user_struct;
struct sigpending {
   struct list_head list ;
   sigset_t signal ;
};
struct timespec;
struct pt_regs;
struct pid_namespace;
struct upid {
   int nr ;
   struct pid_namespace *ns ;
   struct hlist_node pid_chain ;
};
struct pid {
   atomic_t count ;
   unsigned int level ;
   struct hlist_head tasks[3] ;
   struct rcu_head rcu ;
   struct upid numbers[1] ;
};
struct pid_link {
   struct hlist_node node ;
   struct pid *pid ;
};
struct pid_namespace;
struct __anonstruct_seccomp_t_224 {
   int mode ;
};
typedef struct __anonstruct_seccomp_t_224 seccomp_t;
struct plist_head {
   struct list_head node_list ;
};
struct plist_node {
   int prio ;
   struct list_head prio_list ;
   struct list_head node_list ;
};
struct rt_mutex_waiter;
struct rt_mutex_waiter;
struct rlimit {
   unsigned long rlim_cur ;
   unsigned long rlim_max ;
};
struct task_struct;
struct timerqueue_node {
   struct rb_node node ;
   ktime_t expires ;
};
struct timerqueue_head {
   struct rb_root head ;
   struct timerqueue_node *next ;
};
struct hrtimer_clock_base;
struct hrtimer_clock_base;
struct hrtimer_cpu_base;
struct hrtimer_cpu_base;
enum hrtimer_restart {
    HRTIMER_NORESTART = 0,
    HRTIMER_RESTART = 1
} ;
struct hrtimer {
   struct timerqueue_node node ;
   ktime_t _softexpires ;
   enum hrtimer_restart (*function)(struct hrtimer * ) ;
   struct hrtimer_clock_base *base ;
   unsigned long state ;
   int start_pid ;
   void *start_site ;
   char start_comm[16] ;
};
struct hrtimer_clock_base {
   struct hrtimer_cpu_base *cpu_base ;
   int index ;
   clockid_t clockid ;
   struct timerqueue_head active ;
   ktime_t resolution ;
   ktime_t (*get_time)(void) ;
   ktime_t softirq_time ;
   ktime_t offset ;
};
struct hrtimer_cpu_base {
   raw_spinlock_t lock ;
   unsigned long active_bases ;
   ktime_t expires_next ;
   int hres_active ;
   int hang_detected ;
   unsigned long nr_events ;
   unsigned long nr_retries ;
   unsigned long nr_hangs ;
   ktime_t max_hang_time ;
   struct hrtimer_clock_base clock_base[3] ;
};
struct task_io_accounting {
   u64 rchar ;
   u64 wchar ;
   u64 syscr ;
   u64 syscw ;
   u64 read_bytes ;
   u64 write_bytes ;
   u64 cancelled_write_bytes ;
};
struct task_struct;
struct latency_record {
   unsigned long backtrace[12] ;
   unsigned int count ;
   unsigned long time ;
   unsigned long max ;
};
typedef int32_t key_serial_t;
typedef uint32_t key_perm_t;
struct key;
struct key;
struct user_struct;
struct signal_struct;
struct signal_struct;
struct cred;
struct key_type;
struct key_type;
struct keyring_list;
struct keyring_list;
struct key_user;
union __anonunion____missing_field_name_225 {
   time_t expiry ;
   time_t revoked_at ;
};
union __anonunion_type_data_226 {
   struct list_head link ;
   unsigned long x[2] ;
   void *p[2] ;
   int reject_error ;
};
union __anonunion_payload_227 {
   unsigned long value ;
   void *rcudata ;
   void *data ;
   struct keyring_list *subscriptions ;
};
struct key {
   atomic_t usage ;
   key_serial_t serial ;
   struct rb_node serial_node ;
   struct key_type *type ;
   struct rw_semaphore sem ;
   struct key_user *user ;
   void *security ;
   union __anonunion____missing_field_name_225 __annonCompField42 ;
   uid_t uid ;
   gid_t gid ;
   key_perm_t perm ;
   unsigned short quotalen ;
   unsigned short datalen ;
   unsigned long flags ;
   char *description ;
   union __anonunion_type_data_226 type_data ;
   union __anonunion_payload_227 payload ;
};
struct audit_context;
struct audit_context;
struct user_struct;
struct cred;
struct group_info {
   atomic_t usage ;
   int ngroups ;
   int nblocks ;
   gid_t small_block[32] ;
   gid_t *blocks[0] ;
};
struct thread_group_cred {
   atomic_t usage ;
   pid_t tgid ;
   spinlock_t lock ;
   struct key *session_keyring ;
   struct key *process_keyring ;
   struct rcu_head rcu ;
};
struct cred {
   atomic_t usage ;
   atomic_t subscribers ;
   void *put_addr ;
   unsigned int magic ;
   uid_t uid ;
   gid_t gid ;
   uid_t suid ;
   gid_t sgid ;
   uid_t euid ;
   gid_t egid ;
   uid_t fsuid ;
   gid_t fsgid ;
   unsigned int securebits ;
   kernel_cap_t cap_inheritable ;
   kernel_cap_t cap_permitted ;
   kernel_cap_t cap_effective ;
   kernel_cap_t cap_bset ;
   unsigned char jit_keyring ;
   struct key *thread_keyring ;
   struct key *request_key_auth ;
   struct thread_group_cred *tgcred ;
   void *security ;
   struct user_struct *user ;
   struct user_namespace *user_ns ;
   struct group_info *group_info ;
   struct rcu_head rcu ;
};
struct llist_node;
struct llist_node {
   struct llist_node *next ;
};
struct futex_pi_state;
struct futex_pi_state;
struct robust_list_head;
struct robust_list_head;
struct bio_list;
struct bio_list;
struct fs_struct;
struct fs_struct;
struct perf_event_context;
struct perf_event_context;
struct blk_plug;
struct blk_plug;
struct cfs_rq;
struct cfs_rq;
struct task_struct;
struct nsproxy;
struct user_namespace;
struct mm_struct;
struct sighand_struct {
   atomic_t count ;
   struct k_sigaction action[64] ;
   spinlock_t siglock ;
   wait_queue_head_t signalfd_wqh ;
};
struct pacct_struct {
   int ac_flag ;
   long ac_exitcode ;
   unsigned long ac_mem ;
   cputime_t ac_utime ;
   cputime_t ac_stime ;
   unsigned long ac_minflt ;
   unsigned long ac_majflt ;
};
struct cpu_itimer {
   cputime_t expires ;
   cputime_t incr ;
   u32 error ;
   u32 incr_error ;
};
struct task_cputime {
   cputime_t utime ;
   cputime_t stime ;
   unsigned long long sum_exec_runtime ;
};
struct thread_group_cputimer {
   struct task_cputime cputime ;
   int running ;
   raw_spinlock_t lock ;
};
struct autogroup;
struct autogroup;
struct tty_struct;
struct taskstats;
struct tty_audit_buf;
struct signal_struct {
   atomic_t sigcnt ;
   atomic_t live ;
   int nr_threads ;
   wait_queue_head_t wait_chldexit ;
   struct task_struct *curr_target ;
   struct sigpending shared_pending ;
   int group_exit_code ;
   int notify_count ;
   struct task_struct *group_exit_task ;
   int group_stop_count ;
   unsigned int flags ;
   unsigned int is_child_subreaper : 1 ;
   unsigned int has_child_subreaper : 1 ;
   struct list_head posix_timers ;
   struct hrtimer real_timer ;
   struct pid *leader_pid ;
   ktime_t it_real_incr ;
   struct cpu_itimer it[2] ;
   struct thread_group_cputimer cputimer ;
   struct task_cputime cputime_expires ;
   struct list_head cpu_timers[3] ;
   struct pid *tty_old_pgrp ;
   int leader ;
   struct tty_struct *tty ;
   struct autogroup *autogroup ;
   cputime_t utime ;
   cputime_t stime ;
   cputime_t cutime ;
   cputime_t cstime ;
   cputime_t gtime ;
   cputime_t cgtime ;
   cputime_t prev_utime ;
   cputime_t prev_stime ;
   unsigned long nvcsw ;
   unsigned long nivcsw ;
   unsigned long cnvcsw ;
   unsigned long cnivcsw ;
   unsigned long min_flt ;
   unsigned long maj_flt ;
   unsigned long cmin_flt ;
   unsigned long cmaj_flt ;
   unsigned long inblock ;
   unsigned long oublock ;
   unsigned long cinblock ;
   unsigned long coublock ;
   unsigned long maxrss ;
   unsigned long cmaxrss ;
   struct task_io_accounting ioac ;
   unsigned long long sum_sched_runtime ;
   struct rlimit rlim[16] ;
   struct pacct_struct pacct ;
   struct taskstats *stats ;
   unsigned int audit_tty ;
   struct tty_audit_buf *tty_audit_buf ;
   struct rw_semaphore group_rwsem ;
   int oom_adj ;
   int oom_score_adj ;
   int oom_score_adj_min ;
   struct mutex cred_guard_mutex ;
};
struct user_struct {
   atomic_t __count ;
   atomic_t processes ;
   atomic_t files ;
   atomic_t sigpending ;
   atomic_t inotify_watches ;
   atomic_t inotify_devs ;
   atomic_t fanotify_listeners ;
   atomic_long_t epoll_watches ;
   unsigned long mq_bytes ;
   unsigned long locked_shm ;
   struct key *uid_keyring ;
   struct key *session_keyring ;
   struct hlist_node uidhash_node ;
   uid_t uid ;
   struct user_namespace *user_ns ;
   atomic_long_t locked_vm ;
};
struct backing_dev_info;
struct backing_dev_info;
struct reclaim_state;
struct reclaim_state;
struct sched_info {
   unsigned long pcount ;
   unsigned long long run_delay ;
   unsigned long long last_arrival ;
   unsigned long long last_queued ;
};
struct task_delay_info {
   spinlock_t lock ;
   unsigned int flags ;
   struct timespec blkio_start ;
   struct timespec blkio_end ;
   u64 blkio_delay ;
   u64 swapin_delay ;
   u32 blkio_count ;
   u32 swapin_count ;
   struct timespec freepages_start ;
   struct timespec freepages_end ;
   u64 freepages_delay ;
   u32 freepages_count ;
};
struct io_context;
struct io_context;
struct audit_context;
struct mempolicy;
struct pipe_inode_info;
struct pipe_inode_info;
struct rq;
struct rq;
struct sched_class {
   struct sched_class const *next ;
   void (*enqueue_task)(struct rq *rq , struct task_struct *p , int flags ) ;
   void (*dequeue_task)(struct rq *rq , struct task_struct *p , int flags ) ;
   void (*yield_task)(struct rq *rq ) ;
   bool (*yield_to_task)(struct rq *rq , struct task_struct *p , bool preempt ) ;
   void (*check_preempt_curr)(struct rq *rq , struct task_struct *p , int flags ) ;
   struct task_struct *(*pick_next_task)(struct rq *rq ) ;
   void (*put_prev_task)(struct rq *rq , struct task_struct *p ) ;
   int (*select_task_rq)(struct task_struct *p , int sd_flag , int flags ) ;
   void (*pre_schedule)(struct rq *this_rq , struct task_struct *task ) ;
   void (*post_schedule)(struct rq *this_rq ) ;
   void (*task_waking)(struct task_struct *task ) ;
   void (*task_woken)(struct rq *this_rq , struct task_struct *task ) ;
   void (*set_cpus_allowed)(struct task_struct *p , struct cpumask const *newmask ) ;
   void (*rq_online)(struct rq *rq ) ;
   void (*rq_offline)(struct rq *rq ) ;
   void (*set_curr_task)(struct rq *rq ) ;
   void (*task_tick)(struct rq *rq , struct task_struct *p , int queued ) ;
   void (*task_fork)(struct task_struct *p ) ;
   void (*switched_from)(struct rq *this_rq , struct task_struct *task ) ;
   void (*switched_to)(struct rq *this_rq , struct task_struct *task ) ;
   void (*prio_changed)(struct rq *this_rq , struct task_struct *task , int oldprio ) ;
   unsigned int (*get_rr_interval)(struct rq *rq , struct task_struct *task ) ;
   void (*task_move_group)(struct task_struct *p , int on_rq ) ;
};
struct load_weight {
   unsigned long weight ;
   unsigned long inv_weight ;
};
struct sched_statistics {
   u64 wait_start ;
   u64 wait_max ;
   u64 wait_count ;
   u64 wait_sum ;
   u64 iowait_count ;
   u64 iowait_sum ;
   u64 sleep_start ;
   u64 sleep_max ;
   s64 sum_sleep_runtime ;
   u64 block_start ;
   u64 block_max ;
   u64 exec_max ;
   u64 slice_max ;
   u64 nr_migrations_cold ;
   u64 nr_failed_migrations_affine ;
   u64 nr_failed_migrations_running ;
   u64 nr_failed_migrations_hot ;
   u64 nr_forced_migrations ;
   u64 nr_wakeups ;
   u64 nr_wakeups_sync ;
   u64 nr_wakeups_migrate ;
   u64 nr_wakeups_local ;
   u64 nr_wakeups_remote ;
   u64 nr_wakeups_affine ;
   u64 nr_wakeups_affine_attempts ;
   u64 nr_wakeups_passive ;
   u64 nr_wakeups_idle ;
};
struct sched_entity {
   struct load_weight load ;
   struct rb_node run_node ;
   struct list_head group_node ;
   unsigned int on_rq ;
   u64 exec_start ;
   u64 sum_exec_runtime ;
   u64 vruntime ;
   u64 prev_sum_exec_runtime ;
   u64 nr_migrations ;
   struct sched_statistics statistics ;
   struct sched_entity *parent ;
   struct cfs_rq *cfs_rq ;
   struct cfs_rq *my_q ;
};
struct rt_rq;
struct sched_rt_entity {
   struct list_head run_list ;
   unsigned long timeout ;
   unsigned int time_slice ;
   int nr_cpus_allowed ;
   struct sched_rt_entity *back ;
   struct sched_rt_entity *parent ;
   struct rt_rq *rt_rq ;
   struct rt_rq *my_q ;
};
struct files_struct;
struct css_set;
struct compat_robust_list_head;
struct mem_cgroup;
struct memcg_batch_info {
   int do_batch ;
   struct mem_cgroup *memcg ;
   unsigned long nr_pages ;
   unsigned long memsw_nr_pages ;
};
struct task_struct {
   long volatile state ;
   void *stack ;
   atomic_t usage ;
   unsigned int flags ;
   unsigned int ptrace ;
   struct llist_node wake_entry ;
   int on_cpu ;
   int on_rq ;
   int prio ;
   int static_prio ;
   int normal_prio ;
   unsigned int rt_priority ;
   struct sched_class const *sched_class ;
   struct sched_entity se ;
   struct sched_rt_entity rt ;
   struct hlist_head preempt_notifiers ;
   unsigned char fpu_counter ;
   unsigned int policy ;
   cpumask_t cpus_allowed ;
   struct sched_info sched_info ;
   struct list_head tasks ;
   struct plist_node pushable_tasks ;
   struct mm_struct *mm ;
   struct mm_struct *active_mm ;
   unsigned int brk_randomized : 1 ;
   int exit_state ;
   int exit_code ;
   int exit_signal ;
   int pdeath_signal ;
   unsigned int jobctl ;
   unsigned int personality ;
   unsigned int did_exec : 1 ;
   unsigned int in_execve : 1 ;
   unsigned int in_iowait : 1 ;
   unsigned int sched_reset_on_fork : 1 ;
   unsigned int sched_contributes_to_load : 1 ;
   unsigned int irq_thread : 1 ;
   pid_t pid ;
   pid_t tgid ;
   unsigned long stack_canary ;
   struct task_struct *real_parent ;
   struct task_struct *parent ;
   struct list_head children ;
   struct list_head sibling ;
   struct task_struct *group_leader ;
   struct list_head ptraced ;
   struct list_head ptrace_entry ;
   struct pid_link pids[3] ;
   struct list_head thread_group ;
   struct completion *vfork_done ;
   int *set_child_tid ;
   int *clear_child_tid ;
   cputime_t utime ;
   cputime_t stime ;
   cputime_t utimescaled ;
   cputime_t stimescaled ;
   cputime_t gtime ;
   cputime_t prev_utime ;
   cputime_t prev_stime ;
   unsigned long nvcsw ;
   unsigned long nivcsw ;
   struct timespec start_time ;
   struct timespec real_start_time ;
   unsigned long min_flt ;
   unsigned long maj_flt ;
   struct task_cputime cputime_expires ;
   struct list_head cpu_timers[3] ;
   struct cred const *real_cred ;
   struct cred const *cred ;
   struct cred *replacement_session_keyring ;
   char comm[16] ;
   int link_count ;
   int total_link_count ;
   struct sysv_sem sysvsem ;
   unsigned long last_switch_count ;
   struct thread_struct thread ;
   struct fs_struct *fs ;
   struct files_struct *files ;
   struct nsproxy *nsproxy ;
   struct signal_struct *signal ;
   struct sighand_struct *sighand ;
   sigset_t blocked ;
   sigset_t real_blocked ;
   sigset_t saved_sigmask ;
   struct sigpending pending ;
   unsigned long sas_ss_sp ;
   size_t sas_ss_size ;
   int (*notifier)(void *priv ) ;
   void *notifier_data ;
   sigset_t *notifier_mask ;
   struct audit_context *audit_context ;
   uid_t loginuid ;
   unsigned int sessionid ;
   seccomp_t seccomp ;
   u32 parent_exec_id ;
   u32 self_exec_id ;
   spinlock_t alloc_lock ;
   raw_spinlock_t pi_lock ;
   struct plist_head pi_waiters ;
   struct rt_mutex_waiter *pi_blocked_on ;
   struct mutex_waiter *blocked_on ;
   unsigned int irq_events ;
   unsigned long hardirq_enable_ip ;
   unsigned long hardirq_disable_ip ;
   unsigned int hardirq_enable_event ;
   unsigned int hardirq_disable_event ;
   int hardirqs_enabled ;
   int hardirq_context ;
   unsigned long softirq_disable_ip ;
   unsigned long softirq_enable_ip ;
   unsigned int softirq_disable_event ;
   unsigned int softirq_enable_event ;
   int softirqs_enabled ;
   int softirq_context ;
   void *journal_info ;
   struct bio_list *bio_list ;
   struct blk_plug *plug ;
   struct reclaim_state *reclaim_state ;
   struct backing_dev_info *backing_dev_info ;
   struct io_context *io_context ;
   unsigned long ptrace_message ;
   siginfo_t *last_siginfo ;
   struct task_io_accounting ioac ;
   u64 acct_rss_mem1 ;
   u64 acct_vm_mem1 ;
   cputime_t acct_timexpd ;
   nodemask_t mems_allowed ;
   seqcount_t mems_allowed_seq ;
   int cpuset_mem_spread_rotor ;
   int cpuset_slab_spread_rotor ;
   struct css_set *cgroups ;
   struct list_head cg_list ;
   struct robust_list_head *robust_list ;
   struct compat_robust_list_head *compat_robust_list ;
   struct list_head pi_state_list ;
   struct futex_pi_state *pi_state_cache ;
   struct perf_event_context *perf_event_ctxp[2] ;
   struct mutex perf_event_mutex ;
   struct list_head perf_event_list ;
   struct mempolicy *mempolicy ;
   short il_next ;
   short pref_node_fork ;
   struct rcu_head rcu ;
   struct pipe_inode_info *splice_pipe ;
   struct task_delay_info *delays ;
   int make_it_fail ;
   int nr_dirtied ;
   int nr_dirtied_pause ;
   unsigned long dirty_paused_when ;
   int latency_record_count ;
   struct latency_record latency_record[32] ;
   unsigned long timer_slack_ns ;
   unsigned long default_timer_slack_ns ;
   struct list_head *scm_work_list ;
   unsigned long trace ;
   unsigned long trace_recursion ;
   struct memcg_batch_info memcg_batch ;
   atomic_t ptrace_bp_refcnt ;
};
struct pid_namespace;
struct kmem_cache_cpu {
   void **freelist ;
   unsigned long tid ;
   struct page *page ;
   struct page *partial ;
   int node ;
   unsigned int stat[26] ;
};
struct kmem_cache_node {
   spinlock_t list_lock ;
   unsigned long nr_partial ;
   struct list_head partial ;
   atomic_long_t nr_slabs ;
   atomic_long_t total_objects ;
   struct list_head full ;
};
struct kmem_cache_order_objects {
   unsigned long x ;
};
struct kmem_cache {
   struct kmem_cache_cpu *cpu_slab ;
   unsigned long flags ;
   unsigned long min_partial ;
   int size ;
   int objsize ;
   int offset ;
   int cpu_partial ;
   struct kmem_cache_order_objects oo ;
   struct kmem_cache_order_objects max ;
   struct kmem_cache_order_objects min ;
   gfp_t allocflags ;
   int refcount ;
   void (*ctor)(void * ) ;
   int inuse ;
   int align ;
   int reserved ;
   char const *name ;
   struct list_head list ;
   struct kobject kobj ;
   int remote_node_defrag_ratio ;
   struct kmem_cache_node *node[1 << 10] ;
};
typedef unsigned long kernel_ulong_t;
struct pci_device_id {
   __u32 vendor ;
   __u32 device ;
   __u32 subvendor ;
   __u32 subdevice ;
   __u32 class ;
   __u32 class_mask ;
   kernel_ulong_t driver_data ;
};
struct of_device_id {
   char name[32] ;
   char type[32] ;
   char compatible[128] ;
   void *data ;
};
struct pcmcia_device_id {
   __u16 match_flags ;
   __u16 manf_id ;
   __u16 card_id ;
   __u8 func_id ;
   __u8 function ;
   __u8 device_no ;
   __u32 prod_id_hash[4] __attribute__((__aligned__(sizeof(__u32 )))) ;
   char const *prod_id[4] ;
   kernel_ulong_t driver_info ;
   char *cisfile ;
};
struct klist_node;
struct klist_node;
struct klist_node {
   void *n_klist ;
   struct list_head n_node ;
   struct kref n_ref ;
};
struct dma_map_ops;
struct dev_archdata {
   void *acpi_handle ;
   struct dma_map_ops *dma_ops ;
   void *iommu ;
};
struct device;
struct device_private;
struct device_private;
struct device_driver;
struct device_driver;
struct driver_private;
struct driver_private;
struct module;
struct class;
struct class;
struct subsys_private;
struct subsys_private;
struct bus_type;
struct bus_type;
struct device_node;
struct device_node;
struct iommu_ops;
struct iommu_ops;
struct bus_attribute {
   struct attribute attr ;
   ssize_t (*show)(struct bus_type *bus , char *buf ) ;
   ssize_t (*store)(struct bus_type *bus , char const *buf , size_t count ) ;
};
struct device_attribute;
struct driver_attribute;
struct bus_type {
   char const *name ;
   char const *dev_name ;
   struct device *dev_root ;
   struct bus_attribute *bus_attrs ;
   struct device_attribute *dev_attrs ;
   struct driver_attribute *drv_attrs ;
   int (*match)(struct device *dev , struct device_driver *drv ) ;
   int (*uevent)(struct device *dev , struct kobj_uevent_env *env ) ;
   int (*probe)(struct device *dev ) ;
   int (*remove)(struct device *dev ) ;
   void (*shutdown)(struct device *dev ) ;
   int (*suspend)(struct device *dev , pm_message_t state ) ;
   int (*resume)(struct device *dev ) ;
   struct dev_pm_ops const *pm ;
   struct iommu_ops *iommu_ops ;
   struct subsys_private *p ;
};
struct device_type;
struct device_driver {
   char const *name ;
   struct bus_type *bus ;
   struct module *owner ;
   char const *mod_name ;
   bool suppress_bind_attrs ;
   struct of_device_id const *of_match_table ;
   int (*probe)(struct device *dev ) ;
   int (*remove)(struct device *dev ) ;
   void (*shutdown)(struct device *dev ) ;
   int (*suspend)(struct device *dev , pm_message_t state ) ;
   int (*resume)(struct device *dev ) ;
   struct attribute_group const **groups ;
   struct dev_pm_ops const *pm ;
   struct driver_private *p ;
};
struct driver_attribute {
   struct attribute attr ;
   ssize_t (*show)(struct device_driver *driver , char *buf ) ;
   ssize_t (*store)(struct device_driver *driver , char const *buf , size_t count ) ;
};
struct class_attribute;
struct class {
   char const *name ;
   struct module *owner ;
   struct class_attribute *class_attrs ;
   struct device_attribute *dev_attrs ;
   struct bin_attribute *dev_bin_attrs ;
   struct kobject *dev_kobj ;
   int (*dev_uevent)(struct device *dev , struct kobj_uevent_env *env ) ;
   char *(*devnode)(struct device *dev , umode_t *mode ) ;
   void (*class_release)(struct class *class ) ;
   void (*dev_release)(struct device *dev ) ;
   int (*suspend)(struct device *dev , pm_message_t state ) ;
   int (*resume)(struct device *dev ) ;
   struct kobj_ns_type_operations const *ns_type ;
   void const *(*namespace)(struct device *dev ) ;
   struct dev_pm_ops const *pm ;
   struct subsys_private *p ;
};
struct class_attribute {
   struct attribute attr ;
   ssize_t (*show)(struct class *class , struct class_attribute *attr , char *buf ) ;
   ssize_t (*store)(struct class *class , struct class_attribute *attr , char const *buf ,
                    size_t count ) ;
   void const *(*namespace)(struct class *class , struct class_attribute const *attr ) ;
};
struct device_type {
   char const *name ;
   struct attribute_group const **groups ;
   int (*uevent)(struct device *dev , struct kobj_uevent_env *env ) ;
   char *(*devnode)(struct device *dev , umode_t *mode ) ;
   void (*release)(struct device *dev ) ;
   struct dev_pm_ops const *pm ;
};
struct device_attribute {
   struct attribute attr ;
   ssize_t (*show)(struct device *dev , struct device_attribute *attr , char *buf ) ;
   ssize_t (*store)(struct device *dev , struct device_attribute *attr , char const *buf ,
                    size_t count ) ;
};
struct device_dma_parameters {
   unsigned int max_segment_size ;
   unsigned long segment_boundary_mask ;
};
struct dma_coherent_mem;
struct device {
   struct device *parent ;
   struct device_private *p ;
   struct kobject kobj ;
   char const *init_name ;
   struct device_type const *type ;
   struct mutex mutex ;
   struct bus_type *bus ;
   struct device_driver *driver ;
   void *platform_data ;
   struct dev_pm_info power ;
   struct dev_pm_domain *pm_domain ;
   int numa_node ;
   u64 *dma_mask ;
   u64 coherent_dma_mask ;
   struct device_dma_parameters *dma_parms ;
   struct list_head dma_pools ;
   struct dma_coherent_mem *dma_mem ;
   struct dev_archdata archdata ;
   struct device_node *of_node ;
   dev_t devt ;
   u32 id ;
   spinlock_t devres_lock ;
   struct list_head devres_head ;
   struct klist_node knode_class ;
   struct class *class ;
   struct attribute_group const **groups ;
   void (*release)(struct device *dev ) ;
};
struct wakeup_source {
   char const *name ;
   struct list_head entry ;
   spinlock_t lock ;
   struct timer_list timer ;
   unsigned long timer_expires ;
   ktime_t total_time ;
   ktime_t max_time ;
   ktime_t last_time ;
   unsigned long event_count ;
   unsigned long active_count ;
   unsigned long relax_count ;
   unsigned long hit_count ;
   unsigned int active : 1 ;
};
struct module;
struct proc_dir_entry;
struct proc_dir_entry;
struct module;
struct proc_dir_entry;
struct pt_regs;
struct task_struct;
struct mm_struct;
struct pt_regs;
struct exception_table_entry {
   unsigned long insn ;
   unsigned long fixup ;
};
struct task_struct;
struct device;
struct device;
struct hotplug_slot;
struct pci_slot {
   struct pci_bus *bus ;
   struct list_head list ;
   struct hotplug_slot *hotplug ;
   unsigned char number ;
   struct kobject kobj ;
};
typedef int pci_power_t;
typedef unsigned int pci_channel_state_t;
enum pci_channel_state {
    pci_channel_io_normal = 1,
    pci_channel_io_frozen = 2,
    pci_channel_io_perm_failure = 3
} ;
typedef unsigned short pci_dev_flags_t;
typedef unsigned short pci_bus_flags_t;
struct pcie_link_state;
struct pcie_link_state;
struct pci_vpd;
struct pci_vpd;
struct pci_sriov;
struct pci_sriov;
struct pci_ats;
struct pci_ats;
struct pci_driver;
union __anonunion____missing_field_name_247 {
   struct pci_sriov *sriov ;
   struct pci_dev *physfn ;
};
struct pci_dev {
   struct list_head bus_list ;
   struct pci_bus *bus ;
   struct pci_bus *subordinate ;
   void *sysdata ;
   struct proc_dir_entry *procent ;
   struct pci_slot *slot ;
   unsigned int devfn ;
   unsigned short vendor ;
   unsigned short device ;
   unsigned short subsystem_vendor ;
   unsigned short subsystem_device ;
   unsigned int class ;
   u8 revision ;
   u8 hdr_type ;
   u8 pcie_cap ;
   u8 pcie_type : 4 ;
   u8 pcie_mpss : 3 ;
   u8 rom_base_reg ;
   u8 pin ;
   struct pci_driver *driver ;
   u64 dma_mask ;
   struct device_dma_parameters dma_parms ;
   pci_power_t current_state ;
   int pm_cap ;
   unsigned int pme_support : 5 ;
   unsigned int pme_interrupt : 1 ;
   unsigned int pme_poll : 1 ;
   unsigned int d1_support : 1 ;
   unsigned int d2_support : 1 ;
   unsigned int no_d1d2 : 1 ;
   unsigned int mmio_always_on : 1 ;
   unsigned int wakeup_prepared : 1 ;
   unsigned int d3_delay ;
   struct pcie_link_state *link_state ;
   pci_channel_state_t error_state ;
   struct device dev ;
   int cfg_size ;
   unsigned int irq ;
   struct resource resource[17] ;
   unsigned int transparent : 1 ;
   unsigned int multifunction : 1 ;
   unsigned int is_added : 1 ;
   unsigned int is_busmaster : 1 ;
   unsigned int no_msi : 1 ;
   unsigned int block_cfg_access : 1 ;
   unsigned int broken_parity_status : 1 ;
   unsigned int irq_reroute_variant : 2 ;
   unsigned int msi_enabled : 1 ;
   unsigned int msix_enabled : 1 ;
   unsigned int ari_enabled : 1 ;
   unsigned int is_managed : 1 ;
   unsigned int is_pcie : 1 ;
   unsigned int needs_freset : 1 ;
   unsigned int state_saved : 1 ;
   unsigned int is_physfn : 1 ;
   unsigned int is_virtfn : 1 ;
   unsigned int reset_fn : 1 ;
   unsigned int is_hotplug_bridge : 1 ;
   unsigned int __aer_firmware_first_valid : 1 ;
   unsigned int __aer_firmware_first : 1 ;
   pci_dev_flags_t dev_flags ;
   atomic_t enable_cnt ;
   u32 saved_config_space[16] ;
   struct hlist_head saved_cap_space ;
   struct bin_attribute *rom_attr ;
   int rom_attr_enabled ;
   struct bin_attribute *res_attr[17] ;
   struct bin_attribute *res_attr_wc[17] ;
   struct list_head msi_list ;
   struct kset *msi_kset ;
   struct pci_vpd *vpd ;
   union __anonunion____missing_field_name_247 __annonCompField44 ;
   struct pci_ats *ats ;
};
struct pci_ops;
struct pci_bus {
   struct list_head node ;
   struct pci_bus *parent ;
   struct list_head children ;
   struct list_head devices ;
   struct pci_dev *self ;
   struct list_head slots ;
   struct resource *resource[4] ;
   struct list_head resources ;
   struct pci_ops *ops ;
   void *sysdata ;
   struct proc_dir_entry *procdir ;
   unsigned char number ;
   unsigned char primary ;
   unsigned char secondary ;
   unsigned char subordinate ;
   unsigned char max_bus_speed ;
   unsigned char cur_bus_speed ;
   char name[48] ;
   unsigned short bridge_ctl ;
   pci_bus_flags_t bus_flags ;
   struct device *bridge ;
   struct device dev ;
   struct bin_attribute *legacy_io ;
   struct bin_attribute *legacy_mem ;
   unsigned int is_added : 1 ;
};
struct pci_ops {
   int (*read)(struct pci_bus *bus , unsigned int devfn , int where , int size , u32 *val ) ;
   int (*write)(struct pci_bus *bus , unsigned int devfn , int where , int size ,
                u32 val ) ;
};
struct pci_dynids {
   spinlock_t lock ;
   struct list_head list ;
};
typedef unsigned int pci_ers_result_t;
struct pci_error_handlers {
   pci_ers_result_t (*error_detected)(struct pci_dev *dev , enum pci_channel_state error ) ;
   pci_ers_result_t (*mmio_enabled)(struct pci_dev *dev ) ;
   pci_ers_result_t (*link_reset)(struct pci_dev *dev ) ;
   pci_ers_result_t (*slot_reset)(struct pci_dev *dev ) ;
   void (*resume)(struct pci_dev *dev ) ;
};
struct module;
struct pci_driver {
   struct list_head node ;
   char const *name ;
   struct pci_device_id const *id_table ;
   int (*probe)(struct pci_dev *dev , struct pci_device_id const *id ) ;
   void (*remove)(struct pci_dev *dev ) ;
   int (*suspend)(struct pci_dev *dev , pm_message_t state ) ;
   int (*suspend_late)(struct pci_dev *dev , pm_message_t state ) ;
   int (*resume_early)(struct pci_dev *dev ) ;
   int (*resume)(struct pci_dev *dev ) ;
   void (*shutdown)(struct pci_dev *dev ) ;
   struct pci_error_handlers *err_handler ;
   struct device_driver driver ;
   struct pci_dynids dynids ;
};
struct scatterlist {
   unsigned long sg_magic ;
   unsigned long page_link ;
   unsigned int offset ;
   unsigned int length ;
   dma_addr_t dma_address ;
   unsigned int dma_length ;
};
struct task_struct;
struct task_struct;
struct mempolicy;
struct anon_vma;
struct user_struct;
struct mm_struct;
struct vm_area_struct;
struct vm_fault {
   unsigned int flags ;
   unsigned long pgoff ;
   void *virtual_address ;
   struct page *page ;
};
struct vm_operations_struct {
   void (*open)(struct vm_area_struct *area ) ;
   void (*close)(struct vm_area_struct *area ) ;
   int (*fault)(struct vm_area_struct *vma , struct vm_fault *vmf ) ;
   int (*page_mkwrite)(struct vm_area_struct *vma , struct vm_fault *vmf ) ;
   int (*access)(struct vm_area_struct *vma , unsigned long addr , void *buf , int len ,
                 int write ) ;
   int (*set_policy)(struct vm_area_struct *vma , struct mempolicy *new ) ;
   struct mempolicy *(*get_policy)(struct vm_area_struct *vma , unsigned long addr ) ;
   int (*migrate)(struct vm_area_struct *vma , nodemask_t const *from , nodemask_t const *to ,
                  unsigned long flags ) ;
};
struct page;
struct dma_attrs {
   unsigned long flags[((4UL + 8UL * sizeof(long )) - 1UL) / (8UL * sizeof(long ))] ;
};
enum dma_data_direction {
    DMA_BIDIRECTIONAL = 0,
    DMA_TO_DEVICE = 1,
    DMA_FROM_DEVICE = 2,
    DMA_NONE = 3
} ;
struct dma_map_ops {
   void *(*alloc)(struct device *dev , size_t size , dma_addr_t *dma_handle , gfp_t gfp ,
                  struct dma_attrs *attrs ) ;
   void (*free)(struct device *dev , size_t size , void *vaddr , dma_addr_t dma_handle ,
                struct dma_attrs *attrs ) ;
   int (*mmap)(struct device * , struct vm_area_struct * , void * , dma_addr_t ,
               size_t , struct dma_attrs *attrs ) ;
   dma_addr_t (*map_page)(struct device *dev , struct page *page , unsigned long offset ,
                          size_t size , enum dma_data_direction dir , struct dma_attrs *attrs ) ;
   void (*unmap_page)(struct device *dev , dma_addr_t dma_handle , size_t size , enum dma_data_direction dir ,
                      struct dma_attrs *attrs ) ;
   int (*map_sg)(struct device *dev , struct scatterlist *sg , int nents , enum dma_data_direction dir ,
                 struct dma_attrs *attrs ) ;
   void (*unmap_sg)(struct device *dev , struct scatterlist *sg , int nents , enum dma_data_direction dir ,
                    struct dma_attrs *attrs ) ;
   void (*sync_single_for_cpu)(struct device *dev , dma_addr_t dma_handle , size_t size ,
                               enum dma_data_direction dir ) ;
   void (*sync_single_for_device)(struct device *dev , dma_addr_t dma_handle , size_t size ,
                                  enum dma_data_direction dir ) ;
   void (*sync_sg_for_cpu)(struct device *dev , struct scatterlist *sg , int nents ,
                           enum dma_data_direction dir ) ;
   void (*sync_sg_for_device)(struct device *dev , struct scatterlist *sg , int nents ,
                              enum dma_data_direction dir ) ;
   int (*mapping_error)(struct device *dev , dma_addr_t dma_addr ) ;
   int (*dma_supported)(struct device *dev , u64 mask ) ;
   int (*set_dma_mask)(struct device *dev , u64 mask ) ;
   int is_phys ;
};
struct device;
struct scatterlist;
struct bus_type;
struct device;
struct dma_attrs;
struct scatterlist;
struct socket_state_t {
   u_int flags ;
   u_int csc_mask ;
   u_char Vcc ;
   u_char Vpp ;
   u_char io_irq ;
};
typedef struct socket_state_t socket_state_t;
struct pccard_io_map {
   u_char map ;
   u_char flags ;
   u_short speed ;
   phys_addr_t start ;
   phys_addr_t stop ;
};
struct pccard_mem_map {
   u_char map ;
   u_char flags ;
   u_short speed ;
   phys_addr_t static_start ;
   u_int card_start ;
   struct resource *res ;
};
typedef struct pccard_mem_map pccard_mem_map;
struct io_window_t {
   u_int InUse ;
   u_int Config ;
   struct resource *res ;
};
typedef struct io_window_t io_window_t;
struct pcmcia_socket;
struct pcmcia_socket;
struct pccard_resource_ops;
struct pccard_resource_ops;
struct config_t;
struct config_t;
struct pcmcia_callback;
struct pcmcia_callback;
struct pccard_operations {
   int (*init)(struct pcmcia_socket *s ) ;
   int (*suspend)(struct pcmcia_socket *s ) ;
   int (*get_status)(struct pcmcia_socket *s , u_int *value ) ;
   int (*set_socket)(struct pcmcia_socket *s , socket_state_t *state ) ;
   int (*set_io_map)(struct pcmcia_socket *s , struct pccard_io_map *io ) ;
   int (*set_mem_map)(struct pcmcia_socket *s , struct pccard_mem_map *mem ) ;
};
struct pcmcia_socket {
   struct module *owner ;
   socket_state_t socket ;
   u_int state ;
   u_int suspended_state ;
   u_short functions ;
   u_short lock_count ;
   pccard_mem_map cis_mem ;
   void *cis_virt ;
   io_window_t io[2] ;
   pccard_mem_map win[4] ;
   struct list_head cis_cache ;
   size_t fake_cis_len ;
   u8 *fake_cis ;
   struct list_head socket_list ;
   struct completion socket_released ;
   unsigned int sock ;
   u_int features ;
   u_int irq_mask ;
   u_int map_size ;
   u_int io_offset ;
   u_int pci_irq ;
   struct pci_dev *cb_dev ;
   u8 resource_setup_done ;
   struct pccard_operations *ops ;
   struct pccard_resource_ops *resource_ops ;
   void *resource_data ;
   void (*zoom_video)(struct pcmcia_socket * , int ) ;
   int (*power_hook)(struct pcmcia_socket *sock , int operation ) ;
   void (*tune_bridge)(struct pcmcia_socket *sock , struct pci_bus *bus ) ;
   struct task_struct *thread ;
   struct completion thread_done ;
   unsigned int thread_events ;
   unsigned int sysfs_events ;
   struct mutex skt_mutex ;
   struct mutex ops_mutex ;
   spinlock_t thread_lock ;
   struct pcmcia_callback *callback ;
   struct list_head devices_list ;
   u8 device_count ;
   u8 pcmcia_pfc ;
   atomic_t present ;
   unsigned int pcmcia_irq ;
   struct device dev ;
   void *driver_data ;
   int resume_status ;
};
struct pcmcia_socket;
struct pcmcia_device;
struct pcmcia_device;
struct config_t;
struct pcmcia_dynids {
   struct mutex lock ;
   struct list_head list ;
};
struct pcmcia_driver {
   char const *name ;
   int (*probe)(struct pcmcia_device *dev ) ;
   void (*remove)(struct pcmcia_device *dev ) ;
   int (*suspend)(struct pcmcia_device *dev ) ;
   int (*resume)(struct pcmcia_device *dev ) ;
   struct module *owner ;
   struct pcmcia_device_id const *id_table ;
   struct device_driver drv ;
   struct pcmcia_dynids dynids ;
};
struct pcmcia_device {
   struct pcmcia_socket *socket ;
   char *devname ;
   u8 device_no ;
   u8 func ;
   struct config_t *function_config ;
   struct list_head socket_device_list ;
   unsigned int irq ;
   struct resource *resource[6] ;
   resource_size_t card_addr ;
   unsigned int vpp ;
   unsigned int config_flags ;
   unsigned int config_base ;
   unsigned int config_index ;
   unsigned int config_regs ;
   unsigned int io_lines ;
   u16 suspended : 1 ;
   u16 _irq : 1 ;
   u16 _io : 1 ;
   u16 _win : 4 ;
   u16 _locked : 1 ;
   u16 allow_func_id_match : 1 ;
   u16 has_manf_id : 1 ;
   u16 has_card_id : 1 ;
   u16 has_func_id : 1 ;
   u16 reserved : 4 ;
   u8 func_id ;
   u16 manf_id ;
   u16 card_id ;
   char *prod_id[4] ;
   u64 dma_mask ;
   struct device dev ;
   void *priv ;
   unsigned int open ;
};
struct IsdnCardState;
typedef struct IsdnCardState IsdnCardState_t;
struct IsdnCard;
typedef struct IsdnCard IsdnCard_t;
struct IsdnCard {
   int typ ;
   int protocol ;
   unsigned long para[4] ;
   IsdnCardState_t *cs ;
};
struct local_info_t {
   struct pcmcia_device *p_dev ;
   int stop ;
   int cardnr ;
};
typedef struct local_info_t local_info_t;
long ldv__builtin_expect(long val , long res ) ;
extern int ( printk)(char const *fmt , ...) ;
extern int ( __dynamic_dev_dbg)(struct _ddebug *descriptor ,
                                                        struct device const *dev ,
                                                        char const *fmt , ...) ;
void mutex_lock(struct mutex *lock ) ;
int __attribute__((__warn_unused_result__)) mutex_lock_interruptible(struct mutex *lock ) ;
int __attribute__((__warn_unused_result__)) mutex_lock_killable(struct mutex *lock ) ;
int mutex_trylock(struct mutex *lock ) ;
void mutex_unlock(struct mutex *lock ) ;
int atomic_dec_and_mutex_lock(atomic_t *cnt , struct mutex *lock ) ;
extern struct kernel_param_ops param_ops_int ;
extern struct module __this_module ;
int init_module(void) ;
void cleanup_module(void) ;
extern void kfree(void const * ) ;
extern int __VERIFIER_nondet_int(void);
extern void abort(void);
void assume_abort_if_not(int cond) {
  if(!cond) {abort();}
}
extern void *malloc(size_t size);
long ldv_is_err(const void *ptr)
{
  return ((unsigned long)ptr > ((unsigned long)-4095));
}
void *ldv_malloc(size_t size)
{
 if (__VERIFIER_nondet_int()) {
  void *res = malloc(size);
  assume_abort_if_not(!ldv_is_err(res));
  return res;
 } else {
  return ((void *)0);
 }
}
void *__kmalloc(size_t size, gfp_t t)
{
 return ldv_malloc(size);
}
 static void *( __attribute__((__always_inline__)) kmalloc)(size_t size ,
                                                                    gfp_t flags ) __attribute__((__no_instrument_function__)) ;
 static void *( __attribute__((__always_inline__)) kmalloc)(size_t size ,
                                                                    gfp_t flags )
{ void *tmp___10 ;
  {
  {
  tmp___10 = __kmalloc(size, flags);
  }
  return (tmp___10);
}
}
 static void *kzalloc(size_t size , gfp_t flags ) __attribute__((__no_instrument_function__)) ;
void *ldv_zalloc(size_t size ) ;
 static void *kzalloc(size_t size , gfp_t flags )
{ void *tmp___7 ;
  unsigned int __cil_tmp4 ;
  {
  {
  __cil_tmp4 = flags | 32768U;
  tmp___7 = kmalloc(size, __cil_tmp4);
  }
  return (tmp___7);
}
}
extern int pcmcia_register_driver(struct pcmcia_driver *driver ) ;
extern void pcmcia_unregister_driver(struct pcmcia_driver *driver ) ;
extern int pcmcia_loop_config(struct pcmcia_device *p_dev , int (*conf_check)(struct pcmcia_device *p_dev ,
                                                                              void *priv_data ) ,
                              void *priv_data ) ;
extern int pcmcia_request_io(struct pcmcia_device *p_dev ) ;
extern int pcmcia_enable_device(struct pcmcia_device *p_dev ) ;
extern void pcmcia_disable_device(struct pcmcia_device *p_dev ) ;
extern void HiSax_closecard(int ) ;
extern int hisax_init_pcmcia(void * , int * , IsdnCard_t * ) ;
static char const __mod_description54[65] __attribute__((__used__, __unused__,
__section__(".modinfo"), __aligned__(1))) =
  { (char const )'d', (char const )'e', (char const )'s', (char const )'c',
        (char const )'r', (char const )'i', (char const )'p', (char const )'t',
        (char const )'i', (char const )'o', (char const )'n', (char const )'=',
        (char const )'I', (char const )'S', (char const )'D', (char const )'N',
        (char const )'4', (char const )'L', (char const )'i', (char const )'n',
        (char const )'u', (char const )'x', (char const )':', (char const )' ',
        (char const )'P', (char const )'C', (char const )'M', (char const )'C',
        (char const )'I', (char const )'A', (char const )' ', (char const )'c',
        (char const )'l', (char const )'i', (char const )'e', (char const )'n',
        (char const )'t', (char const )' ', (char const )'d', (char const )'r',
        (char const )'i', (char const )'v', (char const )'e', (char const )'r',
        (char const )' ', (char const )'f', (char const )'o', (char const )'r',
        (char const )' ', (char const )'S', (char const )'e', (char const )'d',
        (char const )'l', (char const )'b', (char const )'a', (char const )'u',
        (char const )'e', (char const )'r', (char const )' ', (char const )'c',
        (char const )'a', (char const )'r', (char const )'d', (char const )'s',
        (char const )'\000'};
static char const __mod_author55[22] __attribute__((__used__, __unused__, __section__(".modinfo"),
__aligned__(1))) =
  { (char const )'a', (char const )'u', (char const )'t', (char const )'h',
        (char const )'o', (char const )'r', (char const )'=', (char const )'M',
        (char const )'a', (char const )'r', (char const )'c', (char const )'u',
        (char const )'s', (char const )' ', (char const )'N', (char const )'i',
        (char const )'e', (char const )'m', (char const )'a', (char const )'n',
        (char const )'n', (char const )'\000'};
static char const __mod_license56[21] __attribute__((__used__, __unused__, __section__(".modinfo"),
__aligned__(1))) =
  { (char const )'l', (char const )'i', (char const )'c', (char const )'e',
        (char const )'n', (char const )'s', (char const )'e', (char const )'=',
        (char const )'D', (char const )'u', (char const )'a', (char const )'l',
        (char const )' ', (char const )'M', (char const )'P', (char const )'L',
        (char const )'/', (char const )'G', (char const )'P', (char const )'L',
        (char const )'\000'};
static int protocol = 2;
static char const __param_str_protocol[9] =
  { (char const )'p', (char const )'r', (char const )'o', (char const )'t',
        (char const )'o', (char const )'c', (char const )'o', (char const )'l',
        (char const )'\000'};
static struct kernel_param const __param_protocol __attribute__((__used__, __unused__,
__section__("__param"), __aligned__(sizeof(void *)))) = {__param_str_protocol, (struct kernel_param_ops const *)(& param_ops_int), (u16 )0,
    (s16 )0, {(void *)(& protocol)}};
static char const __mod_protocoltype64[22] __attribute__((__used__, __unused__,
__section__(".modinfo"), __aligned__(1))) =
  { (char const )'p', (char const )'a', (char const )'r', (char const )'m',
        (char const )'t', (char const )'y', (char const )'p', (char const )'e',
        (char const )'=', (char const )'p', (char const )'r', (char const )'o',
        (char const )'t', (char const )'o', (char const )'c', (char const )'o',
        (char const )'l', (char const )':', (char const )'i', (char const )'n',
        (char const )'t', (char const )'\000'};
static int sedlbauer_config(struct pcmcia_device *link ) __attribute__((__section__(".devinit.text"),
__no_instrument_function__)) ;
static void sedlbauer_release(struct pcmcia_device *link ) ;
static void sedlbauer_detach(struct pcmcia_device *link ) __attribute__((__section__(".devexit.text"),
__no_instrument_function__)) ;
static int sedlbauer_probe(struct pcmcia_device *link ) __attribute__((__section__(".devinit.text"),
__no_instrument_function__)) ;
static struct _ddebug __attribute__((__aligned__(8))) descriptor __attribute__((__used__,
__section__("__verbose"))) = {"sedlbauer_cs", "sedlbauer_probe", "/home/zakharov/launch/work/current--X--drivers/--X--defaultlinux-3.4--X--32_1--X--cpachecker/linux-3.4/csd_deg_dscv/3639/dscv_tempdir/dscv/ri/32_1/drivers/isdn/hisax/sedlbauer_cs.c.common.c",
    "sedlbauer_attach()\n", 81U, 0U};
static int sedlbauer_probe(struct pcmcia_device *link ) __attribute__((__section__(".devinit.text"),
__no_instrument_function__)) ;
static int sedlbauer_probe(struct pcmcia_device *link )
{ local_info_t *local ;
  long tmp___7 ;
  void *tmp___8 ;
  int tmp___9 ;
  struct _ddebug __attribute__((__aligned__(8))) *__cil_tmp6 ;
  unsigned int __cil_tmp7 ;
  unsigned int __cil_tmp8 ;
  int __cil_tmp9 ;
  int __cil_tmp10 ;
  long __cil_tmp11 ;
  unsigned long __cil_tmp12 ;
  unsigned long __cil_tmp13 ;
  struct device *__cil_tmp14 ;
  struct device const *__cil_tmp15 ;
  unsigned long __cil_tmp16 ;
  unsigned long __cil_tmp17 ;
  unsigned long __cil_tmp18 ;
  unsigned long __cil_tmp19 ;
  {
  {
  while (1) {
    while_continue: ;
    {
    while (1) {
      while_continue___0: ;
      {
      __cil_tmp6 = & descriptor;
      __cil_tmp7 = __cil_tmp6->flags;
      __cil_tmp8 = __cil_tmp7 & 1U;
      __cil_tmp9 = ! __cil_tmp8;
      __cil_tmp10 = ! __cil_tmp9;
      __cil_tmp11 = (long )__cil_tmp10;
      tmp___7 = ldv__builtin_expect(__cil_tmp11, 0L);
      }
      if (tmp___7) {
        {
        __cil_tmp12 = (unsigned long )link;
        __cil_tmp13 = __cil_tmp12 + 184;
        __cil_tmp14 = (struct device *)__cil_tmp13;
        __cil_tmp15 = (struct device const *)__cil_tmp14;
        __dynamic_dev_dbg(& descriptor, __cil_tmp15, "sedlbauer_attach()\n");
        }
      } else {
      }
      goto while_break___0;
    }
    while_break___0: ;
    }
    goto while_break;
  }
  while_break: ;
  }
  {
  tmp___8 = kzalloc(16UL, 208U);
  local = (local_info_t *)tmp___8;
  }
  if (! local) {
    return (-12);
  } else {
  }
  {
  __cil_tmp16 = (unsigned long )local;
  __cil_tmp17 = __cil_tmp16 + 12;
  *((int *)__cil_tmp17) = -1;
  *((struct pcmcia_device **)local) = link;
  __cil_tmp18 = (unsigned long )link;
  __cil_tmp19 = __cil_tmp18 + 952;
  *((void **)__cil_tmp19) = (void *)local;
  tmp___9 = sedlbauer_config(link);
  }
  return (tmp___9);
}
}
static void sedlbauer_detach(struct pcmcia_device *link ) __attribute__((__section__(".devexit.text"),
__no_instrument_function__)) ;
static struct _ddebug __attribute__((__aligned__(8))) descriptor___0 __attribute__((__used__,
__section__("__verbose"))) = {"sedlbauer_cs", "sedlbauer_detach", "/home/zakharov/launch/work/current--X--drivers/--X--defaultlinux-3.4--X--32_1--X--cpachecker/linux-3.4/csd_deg_dscv/3639/dscv_tempdir/dscv/ri/32_1/drivers/isdn/hisax/sedlbauer_cs.c.common.c",
    "sedlbauer_detach(0x%p)\n", 96U, 0U};
static void sedlbauer_detach(struct pcmcia_device *link ) __attribute__((__section__(".devexit.text"),
__no_instrument_function__)) ;
static void sedlbauer_detach(struct pcmcia_device *link )
{ long tmp___7 ;
  struct _ddebug __attribute__((__aligned__(8))) *__cil_tmp3 ;
  unsigned int __cil_tmp4 ;
  unsigned int __cil_tmp5 ;
  int __cil_tmp6 ;
  int __cil_tmp7 ;
  long __cil_tmp8 ;
  unsigned long __cil_tmp9 ;
  unsigned long __cil_tmp10 ;
  struct device *__cil_tmp11 ;
  struct device const *__cil_tmp12 ;
  unsigned long __cil_tmp13 ;
  unsigned long __cil_tmp14 ;
  void *__cil_tmp15 ;
  local_info_t *__cil_tmp16 ;
  unsigned long __cil_tmp17 ;
  unsigned long __cil_tmp18 ;
  unsigned long __cil_tmp19 ;
  unsigned long __cil_tmp20 ;
  void *__cil_tmp21 ;
  void const *__cil_tmp22 ;
  {
  {
  while (1) {
    while_continue: ;
    {
    while (1) {
      while_continue___0: ;
      {
      __cil_tmp3 = & descriptor___0;
      __cil_tmp4 = __cil_tmp3->flags;
      __cil_tmp5 = __cil_tmp4 & 1U;
      __cil_tmp6 = ! __cil_tmp5;
      __cil_tmp7 = ! __cil_tmp6;
      __cil_tmp8 = (long )__cil_tmp7;
      tmp___7 = ldv__builtin_expect(__cil_tmp8, 0L);
      }
      if (tmp___7) {
        {
        __cil_tmp9 = (unsigned long )link;
        __cil_tmp10 = __cil_tmp9 + 184;
        __cil_tmp11 = (struct device *)__cil_tmp10;
        __cil_tmp12 = (struct device const *)__cil_tmp11;
        __dynamic_dev_dbg(& descriptor___0, __cil_tmp12, "sedlbauer_detach(0x%p)\n",
                          link);
        }
      } else {
      }
      goto while_break___0;
    }
    while_break___0: ;
    }
    goto while_break;
  }
  while_break: ;
  }
  {
  __cil_tmp13 = (unsigned long )link;
  __cil_tmp14 = __cil_tmp13 + 952;
  __cil_tmp15 = *((void **)__cil_tmp14);
  __cil_tmp16 = (local_info_t *)__cil_tmp15;
  __cil_tmp17 = (unsigned long )__cil_tmp16;
  __cil_tmp18 = __cil_tmp17 + 8;
  *((int *)__cil_tmp18) = 1;
  sedlbauer_release(link);
  __cil_tmp19 = (unsigned long )link;
  __cil_tmp20 = __cil_tmp19 + 952;
  __cil_tmp21 = *((void **)__cil_tmp20);
  __cil_tmp22 = (void const *)__cil_tmp21;
  kfree(__cil_tmp22);
  }
  return;
}
}
static int sedlbauer_config_check(struct pcmcia_device *p_dev , void *priv_data )
{ int tmp___7 ;
  unsigned long __cil_tmp4 ;
  unsigned long __cil_tmp5 ;
  unsigned int __cil_tmp6 ;
  unsigned long __cil_tmp7 ;
  unsigned long __cil_tmp8 ;
  {
  {
  __cil_tmp4 = (unsigned long )p_dev;
  __cil_tmp5 = __cil_tmp4 + 124;
  __cil_tmp6 = *((unsigned int *)__cil_tmp5);
  if (__cil_tmp6 == 0U) {
    return (-22);
  } else {
  }
  }
  {
  __cil_tmp7 = (unsigned long )p_dev;
  __cil_tmp8 = __cil_tmp7 + 132;
  *((unsigned int *)__cil_tmp8) = 3U;
  tmp___7 = pcmcia_request_io(p_dev);
  }
  return (tmp___7);
}
}
static int sedlbauer_config(struct pcmcia_device *link ) __attribute__((__section__(".devinit.text"),
__no_instrument_function__)) ;
static struct _ddebug __attribute__((__aligned__(8))) descriptor___1 __attribute__((__used__,
__section__("__verbose"))) = {"sedlbauer_cs", "sedlbauer_config", "/home/zakharov/launch/work/current--X--drivers/--X--defaultlinux-3.4--X--32_1--X--cpachecker/linux-3.4/csd_deg_dscv/3639/dscv_tempdir/dscv/ri/32_1/drivers/isdn/hisax/sedlbauer_cs.c.common.c",
    "sedlbauer_config(0x%p)\n", 119U, 0U};
static int sedlbauer_config(struct pcmcia_device *link ) __attribute__((__section__(".devinit.text"),
__no_instrument_function__)) ;
static int sedlbauer_config(struct pcmcia_device *link )
{ int ret ;
  IsdnCard_t icard ;
  long tmp___7 ;
  struct _ddebug __attribute__((__aligned__(8))) *__cil_tmp5 ;
  unsigned int __cil_tmp6 ;
  unsigned int __cil_tmp7 ;
  int __cil_tmp8 ;
  int __cil_tmp9 ;
  long __cil_tmp10 ;
  unsigned long __cil_tmp11 ;
  unsigned long __cil_tmp12 ;
  struct device *__cil_tmp13 ;
  struct device const *__cil_tmp14 ;
  unsigned long __cil_tmp15 ;
  unsigned long __cil_tmp16 ;
  unsigned long __cil_tmp17 ;
  unsigned long __cil_tmp18 ;
  unsigned int __cil_tmp19 ;
  void *__cil_tmp20 ;
  unsigned long __cil_tmp21 ;
  unsigned long __cil_tmp22 ;
  unsigned long __cil_tmp23 ;
  unsigned long __cil_tmp24 ;
  unsigned long __cil_tmp25 ;
  unsigned int __cil_tmp26 ;
  unsigned long __cil_tmp27 ;
  unsigned long __cil_tmp28 ;
  unsigned long __cil_tmp29 ;
  unsigned long __cil_tmp30 ;
  unsigned long __cil_tmp31 ;
  unsigned long __cil_tmp32 ;
  unsigned long __cil_tmp33 ;
  struct resource *__cil_tmp34 ;
  resource_size_t __cil_tmp35 ;
  unsigned long __cil_tmp36 ;
  int *__cil_tmp37 ;
  IsdnCard_t *__cil_tmp38 ;
  void *__cil_tmp39 ;
  unsigned long __cil_tmp40 ;
  unsigned long __cil_tmp41 ;
  void *__cil_tmp42 ;
  local_info_t *__cil_tmp43 ;
  unsigned long __cil_tmp44 ;
  unsigned long __cil_tmp45 ;
  int *__cil_tmp46 ;
  unsigned long __cil_tmp47 ;
  unsigned long __cil_tmp48 ;
  unsigned long __cil_tmp49 ;
  unsigned long __cil_tmp50 ;
  struct resource *__cil_tmp51 ;
  unsigned long __cil_tmp52 ;
  unsigned long __cil_tmp53 ;
  void *__cil_tmp54 ;
  local_info_t *__cil_tmp55 ;
  unsigned long __cil_tmp56 ;
  unsigned long __cil_tmp57 ;
  {
  {
  while (1) {
    while_continue: ;
    {
    while (1) {
      while_continue___0: ;
      {
      __cil_tmp5 = & descriptor___1;
      __cil_tmp6 = __cil_tmp5->flags;
      __cil_tmp7 = __cil_tmp6 & 1U;
      __cil_tmp8 = ! __cil_tmp7;
      __cil_tmp9 = ! __cil_tmp8;
      __cil_tmp10 = (long )__cil_tmp9;
      tmp___7 = ldv__builtin_expect(__cil_tmp10, 0L);
      }
      if (tmp___7) {
        {
        __cil_tmp11 = (unsigned long )link;
        __cil_tmp12 = __cil_tmp11 + 184;
        __cil_tmp13 = (struct device *)__cil_tmp12;
        __cil_tmp14 = (struct device const *)__cil_tmp13;
        __dynamic_dev_dbg(& descriptor___1, __cil_tmp14, "sedlbauer_config(0x%p)\n",
                          link);
        }
      } else {
      }
      goto while_break___0;
    }
    while_break___0: ;
    }
    goto while_break;
  }
  while_break: ;
  }
  {
  __cil_tmp15 = (unsigned long )link;
  __cil_tmp16 = __cil_tmp15 + 116;
  __cil_tmp17 = (unsigned long )link;
  __cil_tmp18 = __cil_tmp17 + 116;
  __cil_tmp19 = *((unsigned int *)__cil_tmp18);
  *((unsigned int *)__cil_tmp16) = __cil_tmp19 | 3841U;
  __cil_tmp20 = (void *)0;
  ret = pcmcia_loop_config(link, & sedlbauer_config_check, __cil_tmp20);
  }
  if (ret) {
    goto failed;
  } else {
  }
  {
  ret = pcmcia_enable_device(link);
  }
  if (ret) {
    goto failed;
  } else {
  }
  {
  __cil_tmp21 = 0 * 8UL;
  __cil_tmp22 = 8 + __cil_tmp21;
  __cil_tmp23 = (unsigned long )(& icard) + __cil_tmp22;
  __cil_tmp24 = (unsigned long )link;
  __cil_tmp25 = __cil_tmp24 + 48;
  __cil_tmp26 = *((unsigned int *)__cil_tmp25);
  *((unsigned long *)__cil_tmp23) = (unsigned long )__cil_tmp26;
  __cil_tmp27 = 1 * 8UL;
  __cil_tmp28 = 8 + __cil_tmp27;
  __cil_tmp29 = (unsigned long )(& icard) + __cil_tmp28;
  __cil_tmp30 = 0 * 8UL;
  __cil_tmp31 = 56 + __cil_tmp30;
  __cil_tmp32 = (unsigned long )link;
  __cil_tmp33 = __cil_tmp32 + __cil_tmp31;
  __cil_tmp34 = *((struct resource **)__cil_tmp33);
  __cil_tmp35 = *((resource_size_t *)__cil_tmp34);
  *((unsigned long *)__cil_tmp29) = (unsigned long )__cil_tmp35;
  __cil_tmp36 = (unsigned long )(& icard) + 4;
  __cil_tmp37 = & protocol;
  *((int *)__cil_tmp36) = *__cil_tmp37;
  __cil_tmp38 = & icard;
  *((int *)__cil_tmp38) = 22;
  __cil_tmp39 = (void *)link;
  __cil_tmp40 = (unsigned long )link;
  __cil_tmp41 = __cil_tmp40 + 952;
  __cil_tmp42 = *((void **)__cil_tmp41);
  __cil_tmp43 = (local_info_t *)__cil_tmp42;
  __cil_tmp44 = (unsigned long )__cil_tmp43;
  __cil_tmp45 = __cil_tmp44 + 8;
  __cil_tmp46 = (int *)__cil_tmp45;
  ret = hisax_init_pcmcia(__cil_tmp39, __cil_tmp46, & icard);
  }
  if (ret < 0) {
    {
    __cil_tmp47 = 0 * 8UL;
    __cil_tmp48 = 56 + __cil_tmp47;
    __cil_tmp49 = (unsigned long )link;
    __cil_tmp50 = __cil_tmp49 + __cil_tmp48;
    __cil_tmp51 = *((struct resource **)__cil_tmp50);
    printk("<3>sedlbauer_cs: failed to initialize SEDLBAUER PCMCIA %d with %pR\n",
           ret, __cil_tmp51);
    sedlbauer_release(link);
    }
    return (-19);
  } else {
    __cil_tmp52 = (unsigned long )link;
    __cil_tmp53 = __cil_tmp52 + 952;
    __cil_tmp54 = *((void **)__cil_tmp53);
    __cil_tmp55 = (local_info_t *)__cil_tmp54;
    __cil_tmp56 = (unsigned long )__cil_tmp55;
    __cil_tmp57 = __cil_tmp56 + 12;
    *((int *)__cil_tmp57) = ret;
  }
  return (0);
  failed:
  {
  sedlbauer_release(link);
  }
  return (-19);
}
}
static void sedlbauer_release(struct pcmcia_device *link ) ;
static struct _ddebug __attribute__((__aligned__(8))) descriptor___2 __attribute__((__used__,
__section__("__verbose"))) = {"sedlbauer_cs", "sedlbauer_release", "/home/zakharov/launch/work/current--X--drivers/--X--defaultlinux-3.4--X--32_1--X--cpachecker/linux-3.4/csd_deg_dscv/3639/dscv_tempdir/dscv/ri/32_1/drivers/isdn/hisax/sedlbauer_cs.c.common.c",
    "sedlbauer_release(0x%p)\n", 158U, 0U};
static void sedlbauer_release(struct pcmcia_device *link )
{ local_info_t *local ;
  long tmp___7 ;
  unsigned long __cil_tmp4 ;
  unsigned long __cil_tmp5 ;
  void *__cil_tmp6 ;
  struct _ddebug __attribute__((__aligned__(8))) *__cil_tmp7 ;
  unsigned int __cil_tmp8 ;
  unsigned int __cil_tmp9 ;
  int __cil_tmp10 ;
  int __cil_tmp11 ;
  long __cil_tmp12 ;
  unsigned long __cil_tmp13 ;
  unsigned long __cil_tmp14 ;
  struct device *__cil_tmp15 ;
  struct device const *__cil_tmp16 ;
  unsigned long __cil_tmp17 ;
  unsigned long __cil_tmp18 ;
  int __cil_tmp19 ;
  unsigned long __cil_tmp20 ;
  unsigned long __cil_tmp21 ;
  int __cil_tmp22 ;
  {
  __cil_tmp4 = (unsigned long )link;
  __cil_tmp5 = __cil_tmp4 + 952;
  __cil_tmp6 = *((void **)__cil_tmp5);
  local = (local_info_t *)__cil_tmp6;
  {
  while (1) {
    while_continue: ;
    {
    while (1) {
      while_continue___0: ;
      {
      __cil_tmp7 = & descriptor___2;
      __cil_tmp8 = __cil_tmp7->flags;
      __cil_tmp9 = __cil_tmp8 & 1U;
      __cil_tmp10 = ! __cil_tmp9;
      __cil_tmp11 = ! __cil_tmp10;
      __cil_tmp12 = (long )__cil_tmp11;
      tmp___7 = ldv__builtin_expect(__cil_tmp12, 0L);
      }
      if (tmp___7) {
        {
        __cil_tmp13 = (unsigned long )link;
        __cil_tmp14 = __cil_tmp13 + 184;
        __cil_tmp15 = (struct device *)__cil_tmp14;
        __cil_tmp16 = (struct device const *)__cil_tmp15;
        __dynamic_dev_dbg(& descriptor___2, __cil_tmp16, "sedlbauer_release(0x%p)\n",
                          link);
        }
      } else {
      }
      goto while_break___0;
    }
    while_break___0: ;
    }
    goto while_break;
  }
  while_break: ;
  }
  if (local) {
    {
    __cil_tmp17 = (unsigned long )local;
    __cil_tmp18 = __cil_tmp17 + 12;
    __cil_tmp19 = *((int *)__cil_tmp18);
    if (__cil_tmp19 >= 0) {
      {
      __cil_tmp20 = (unsigned long )local;
      __cil_tmp21 = __cil_tmp20 + 12;
      __cil_tmp22 = *((int *)__cil_tmp21);
      HiSax_closecard(__cil_tmp22);
      }
    } else {
    }
    }
  } else {
  }
  {
  pcmcia_disable_device(link);
  }
  return;
}
}
static int sedlbauer_suspend(struct pcmcia_device *link )
{ local_info_t *dev ;
  unsigned long __cil_tmp3 ;
  unsigned long __cil_tmp4 ;
  void *__cil_tmp5 ;
  unsigned long __cil_tmp6 ;
  unsigned long __cil_tmp7 ;
  {
  __cil_tmp3 = (unsigned long )link;
  __cil_tmp4 = __cil_tmp3 + 952;
  __cil_tmp5 = *((void **)__cil_tmp4);
  dev = (local_info_t *)__cil_tmp5;
  __cil_tmp6 = (unsigned long )dev;
  __cil_tmp7 = __cil_tmp6 + 8;
  *((int *)__cil_tmp7) = 1;
  return (0);
}
}
static int sedlbauer_resume(struct pcmcia_device *link )
{ local_info_t *dev ;
  unsigned long __cil_tmp3 ;
  unsigned long __cil_tmp4 ;
  void *__cil_tmp5 ;
  unsigned long __cil_tmp6 ;
  unsigned long __cil_tmp7 ;
  {
  __cil_tmp3 = (unsigned long )link;
  __cil_tmp4 = __cil_tmp3 + 952;
  __cil_tmp5 = *((void **)__cil_tmp4);
  dev = (local_info_t *)__cil_tmp5;
  __cil_tmp6 = (unsigned long )dev;
  __cil_tmp7 = __cil_tmp6 + 8;
  *((int *)__cil_tmp7) = 0;
  return (0);
}
}
static struct pcmcia_device_id const sedlbauer_ids[7] = { {(__u16 )112, (unsigned short)0, (unsigned short)0, (unsigned char)0, (unsigned char)0,
      (unsigned char)0, {2180741621U, 4083232285U, (__u32 )1804978058, (__u32 )0},
      {"SEDLBAUER", "speed star II", "V 3.1", (char const *)((void *)0)}, 0UL, (char *)0},
        {(__u16 )112,
      (unsigned short)0, (unsigned short)0, (unsigned char)0, (unsigned char)0, (unsigned char)0,
      {2180741621U, 3840523282U, (__u32 )964394640, (__u32 )0}, {"SEDLBAUER", "ISDN-Adapter",
                                                                 "4D67", (char const *)((void *)0)},
      0UL, (char *)0},
        {(__u16 )112, (unsigned short)0, (unsigned short)0, (unsigned char)0, (unsigned char)0,
      (unsigned char)0, {2180741621U, 3840523282U, (__u32 )777813966, (__u32 )0},
      {"SEDLBAUER", "ISDN-Adapter", "4D98", (char const *)((void *)0)}, 0UL, (char *)0},
        {(__u16 )112,
      (unsigned short)0, (unsigned short)0, (unsigned char)0, (unsigned char)0, (unsigned char)0,
      {2180741621U, 3840523282U, 2377204734U, (__u32 )0}, {"SEDLBAUER", "ISDN-Adapter",
                                                           " (C) 93-94 VK", (char const *)((void *)0)},
      0UL, (char *)0},
        {(__u16 )112, (unsigned short)0, (unsigned short)0, (unsigned char)0, (unsigned char)0,
      (unsigned char)0, {2180741621U, 3840523282U, 3012668236U, (__u32 )0}, {"SEDLBAUER",
                                                                             "ISDN-Adapter",
                                                                             " (c) 93-95 VK",
                                                                             (char const *)((void *)0)},
      0UL, (char *)0},
        {(__u16 )48, (unsigned short)0, (unsigned short)0, (unsigned char)0, (unsigned char)0,
      (unsigned char)0, {3617459076U, (__u32 )567313326, (__u32 )0, (__u32 )0}, {"HST High Soft Tech GmbH",
                                                                                 "Saphir II B",
                                                                                 (char const *)((void *)0),
                                                                                 (char const *)((void *)0)},
      0UL, (char *)0},
        {(__u16 )0, (unsigned short)0, (unsigned short)0, (unsigned char)0, (unsigned char)0,
      (unsigned char)0, {0U, 0U, 0U, 0U}, {(char const *)0, (char const *)0, (char const *)0,
                                           (char const *)0}, 0UL, (char *)0}};
extern struct pcmcia_device_id const __mod_pcmcia_device_table __attribute__((__unused__,
__alias__("sedlbauer_ids"))) ;
static struct pcmcia_driver sedlbauer_driver =
     {"sedlbauer_cs", & sedlbauer_probe, & sedlbauer_detach, & sedlbauer_suspend, & sedlbauer_resume,
    & __this_module, sedlbauer_ids, {(char const *)0, (struct bus_type *)0, (struct module *)0,
                                     (char const *)0, (_Bool)0, (struct of_device_id const *)0,
                                     (int (*)(struct device *dev ))0, (int (*)(struct device *dev ))0,
                                     (void (*)(struct device *dev ))0, (int (*)(struct device *dev ,
                                                                                pm_message_t state ))0,
                                     (int (*)(struct device *dev ))0, (struct attribute_group const **)0,
                                     (struct dev_pm_ops const *)0, (struct driver_private *)0},
    {{{0}, {{{{{0U}}, 0U, 0U, (void *)0}}}, {(struct list_head *)0, (struct list_head *)0},
      (struct task_struct *)0, (char const *)0, (void *)0}, {(struct list_head *)0,
                                                               (struct list_head *)0}}};
static int init_sedlbauer_cs(void) __attribute__((__section__(".init.text"), __no_instrument_function__)) ;
static int init_sedlbauer_cs(void)
{ int tmp___7 ;
  {
  {
  tmp___7 = pcmcia_register_driver(& sedlbauer_driver);
  }
  return (tmp___7);
}
}
static void exit_sedlbauer_cs(void) __attribute__((__section__(".exit.text"), __no_instrument_function__)) ;
static void exit_sedlbauer_cs(void)
{
  {
  {
  pcmcia_unregister_driver(& sedlbauer_driver);
  }
  return;
}
}
int init_module(void)
{ int tmp___7 ;
  {
  {
  tmp___7 = init_sedlbauer_cs();
  }
  return (tmp___7);
}
}
void cleanup_module(void)
{
  {
  {
  exit_sedlbauer_cs();
  }
  return;
}
}
void ldv_check_final_state(void) ;
extern void ldv_check_return_value(int res ) ;
extern void ldv_initialize(void) ;
extern int __VERIFIER_nondet_int(void) ;
int LDV_IN_INTERRUPT ;
static int res_sedlbauer_probe_0 ;
void main(void)
{ struct pcmcia_device *var_group1 ;
  int tmp___7 ;
  int ldv_s_sedlbauer_driver_pcmcia_driver ;
  int tmp___8 ;
  int tmp___9 ;
  int __cil_tmp6 ;
  {
  {
  LDV_IN_INTERRUPT = 1;
  ldv_initialize();
  tmp___7 = init_sedlbauer_cs();
  }
  if (tmp___7) {
    goto ldv_final;
  } else {
  }
  ldv_s_sedlbauer_driver_pcmcia_driver = 0;
  {
  while (1) {
    while_continue: ;
    {
    tmp___9 = __VERIFIER_nondet_int();
    }
    if (tmp___9) {
    } else {
      {
      __cil_tmp6 = ldv_s_sedlbauer_driver_pcmcia_driver == 0;
      if (! __cil_tmp6) {
      } else {
        goto while_break;
      }
      }
    }
    {
    tmp___8 = __VERIFIER_nondet_int();
    }
    if (tmp___8 == 0) {
      goto case_0;
    } else
    if (tmp___8 == 1) {
      goto case_1;
    } else
    if (tmp___8 == 2) {
      goto case_2;
    } else {
      {
      goto switch_default;
      if (0) {
        case_0:
        if (ldv_s_sedlbauer_driver_pcmcia_driver == 0) {
          {
          res_sedlbauer_probe_0 = sedlbauer_probe(var_group1);
          ldv_check_return_value(res_sedlbauer_probe_0);
          }
          if (res_sedlbauer_probe_0) {
            goto ldv_module_exit;
          } else {
          }
          ldv_s_sedlbauer_driver_pcmcia_driver = 0;
        } else {
        }
        goto switch_break;
        case_1:
        {
        sedlbauer_suspend(var_group1);
        }
        goto switch_break;
        case_2:
        {
        sedlbauer_resume(var_group1);
        }
        goto switch_break;
        switch_default:
        goto switch_break;
      } else {
        switch_break: ;
      }
      }
    }
  }
  while_break: ;
  }
  ldv_module_exit:
  {
  exit_sedlbauer_cs();
  }
  ldv_final:
  {
  ldv_check_final_state();
  }
  return;
}
}
void ldv_blast_assert(void)
{
  {
  ERROR: {reach_error();abort();}
}
}
extern int __VERIFIER_nondet_int(void) ;
int ldv_mutex = 1;
int __attribute__((__warn_unused_result__)) mutex_lock_interruptible(struct mutex *lock )
{ int nondetermined ;
  {
  if (ldv_mutex == 1) {
  } else {
    {
    ldv_blast_assert();
    }
  }
  {
  nondetermined = __VERIFIER_nondet_int();
  }
  if (nondetermined) {
    ldv_mutex = 2;
    return (0);
  } else {
    return (-4);
  }
}
}
int __attribute__((__warn_unused_result__)) mutex_lock_killable(struct mutex *lock )
{ int nondetermined ;
  {
  if (ldv_mutex == 1) {
  } else {
    {
    ldv_blast_assert();
    }
  }
  {
  nondetermined = __VERIFIER_nondet_int();
  }
  if (nondetermined) {
    ldv_mutex = 2;
    return (0);
  } else {
    return (-4);
  }
}
}
int atomic_dec_and_mutex_lock(atomic_t *cnt , struct mutex *lock )
{ int atomic_value_after_dec ;
  {
  if (ldv_mutex == 1) {
  } else {
    {
    ldv_blast_assert();
    }
  }
  {
  atomic_value_after_dec = __VERIFIER_nondet_int();
  }
  if (atomic_value_after_dec == 0) {
    ldv_mutex = 2;
    return (1);
  } else {
  }
  return (0);
}
}
void mutex_lock(struct mutex *lock )
{
  {
  if (ldv_mutex == 1) {
  } else {
    {
    ldv_blast_assert();
    }
  }
  ldv_mutex = 2;
  return;
}
}
int mutex_trylock(struct mutex *lock )
{ int nondetermined ;
  {
  if (ldv_mutex == 1) {
  } else {
    {
    ldv_blast_assert();
    }
  }
  {
  nondetermined = __VERIFIER_nondet_int();
  }
  if (nondetermined) {
    ldv_mutex = 2;
    return (1);
  } else {
    return (0);
  }
}
}
void mutex_unlock(struct mutex *lock )
{
  {
  if (ldv_mutex == 2) {
  } else {
    {
    ldv_blast_assert();
    }
  }
  ldv_mutex = 1;
  return;
}
}
void ldv_check_final_state(void)
{
  {
  if (ldv_mutex == 1) {
  } else {
    {
    ldv_blast_assert();
    }
  }
  return;
}
}
long ldv__builtin_expect(long val , long res )
{
  {
  return (val);
}
}
void HiSax_closecard(int arg0) {
  return;
}
int __VERIFIER_nondet_int(void);
int __dynamic_dev_dbg(struct _ddebug *arg0, const struct device *arg1, const char *arg2, ...) {
  return __VERIFIER_nondet_int();
}
int __VERIFIER_nondet_int(void);
int hisax_init_pcmcia(void *arg0, int *arg1, IsdnCard_t *arg2) {
  return __VERIFIER_nondet_int();
}
void ldv_check_return_value(int arg0) {
  return;
}
void ldv_initialize() {
  return;
}
void pcmcia_disable_device(struct pcmcia_device *arg0) {
  return;
}
int __VERIFIER_nondet_int(void);
int pcmcia_enable_device(struct pcmcia_device *arg0) {
  return __VERIFIER_nondet_int();
}
int __VERIFIER_nondet_int(void);
int pcmcia_loop_config(struct pcmcia_device *arg0, int (*arg1)(struct pcmcia_device *p_dev, void *priv_data), void *arg2) {
  return __VERIFIER_nondet_int();
}
int __VERIFIER_nondet_int(void);
int pcmcia_register_driver(struct pcmcia_driver *arg0) {
  return __VERIFIER_nondet_int();
}
int __VERIFIER_nondet_int(void);
int pcmcia_request_io(struct pcmcia_device *arg0) {
  return __VERIFIER_nondet_int();
}
void pcmcia_unregister_driver(struct pcmcia_driver *arg0) {
  return;
}
int __VERIFIER_nondet_int(void);
int printk(const char *arg0, ...) {
  return __VERIFIER_nondet_int();
}
void free(void *);
void kfree(void const *p) {
  free((void *)p);
}
