extern void abort(void);

extern void __assert_fail (const char *__assertion, const char *__file,
      unsigned int __line, const char *__function)
     __attribute__ ((__nothrow__ , __leaf__)) __attribute__ ((__noreturn__));
extern void __assert_perror_fail (int __errnum, const char *__file,
      unsigned int __line, const char *__function)
     __attribute__ ((__nothrow__ , __leaf__)) __attribute__ ((__noreturn__));
extern void __assert (const char *__assertion, const char *__file, int __line)
     __attribute__ ((__nothrow__ , __leaf__)) __attribute__ ((__noreturn__));

void reach_error() { ((void) sizeof ((0) ? 1 : 0), __extension__ ({ if (0) ; else __assert_fail ("0", "32_1_cilled_ok_nondet_linux-3.4-32_1-drivers--usb--otg--nop-usb-xceiv.ko-ldv_main0_sequence_infinite_withcheck_stateful.cil.out.c", 3, __extension__ __PRETTY_FUNCTION__); })); }
typedef unsigned short __u16;
typedef unsigned int __u32;
typedef unsigned long long __u64;
typedef unsigned char u8;
typedef short s16;
typedef unsigned short u16;
typedef unsigned int u32;
typedef long long s64;
typedef unsigned long long u64;
typedef long __kernel_long_t;
typedef unsigned long __kernel_ulong_t;
typedef __kernel_ulong_t __kernel_size_t;
typedef __kernel_long_t __kernel_ssize_t;
typedef long long __kernel_loff_t;
typedef __u32 __kernel_dev_t;
typedef __kernel_dev_t dev_t;
typedef unsigned short umode_t;
typedef _Bool bool;
typedef __kernel_loff_t loff_t;
typedef __kernel_size_t size_t;
typedef __kernel_ssize_t ssize_t;
typedef u64 dma_addr_t;
typedef unsigned int gfp_t;
typedef u64 phys_addr_t;
typedef phys_addr_t resource_size_t;
struct __anonstruct_atomic_t_7 {
   int counter ;
};
typedef struct __anonstruct_atomic_t_7 atomic_t;
struct __anonstruct_atomic64_t_8 {
   long counter ;
};
typedef struct __anonstruct_atomic64_t_8 atomic64_t;
struct list_head {
   struct list_head *next ;
   struct list_head *prev ;
};
struct hlist_node;
struct hlist_head {
   struct hlist_node *first ;
};
struct hlist_node {
   struct hlist_node *next ;
   struct hlist_node **pprev ;
};
struct module;
struct module;
typedef void (*ctor_fn_t)(void);
struct device;
struct device;
struct completion;
struct completion;
struct atomic_notifier_head;
struct page;
struct page;
struct task_struct;
struct task_struct;
struct task_struct;
struct mm_struct;
struct mm_struct;
typedef unsigned long pgdval_t;
typedef unsigned long pgprotval_t;
struct pgprot {
   pgprotval_t pgprot ;
};
typedef struct pgprot pgprot_t;
struct __anonstruct_pgd_t_20 {
   pgdval_t pgd ;
};
typedef struct __anonstruct_pgd_t_20 pgd_t;
typedef struct page *pgtable_t;
struct file;
struct file;
struct page;
struct mm_struct;
struct task_struct;
struct cpumask;
struct cpumask;
struct arch_spinlock;
struct arch_spinlock;
struct task_struct;
struct task_struct;
struct bug_entry {
   int bug_addr_disp ;
   int file_disp ;
   unsigned short line ;
   unsigned short flags ;
};
struct cpumask {
   unsigned long bits[((4096UL + 8UL * sizeof(long )) - 1UL) / (8UL * sizeof(long ))] ;
};
typedef struct cpumask *cpumask_var_t;
struct static_key;
struct static_key;
struct kmem_cache;
typedef atomic64_t atomic_long_t;
typedef u16 __ticket_t;
typedef u32 __ticketpair_t;
struct __raw_tickets {
   __ticket_t head ;
   __ticket_t tail ;
};
union __anonunion____missing_field_name_36 {
   __ticketpair_t head_tail ;
   struct __raw_tickets tickets ;
};
struct arch_spinlock {
   union __anonunion____missing_field_name_36 __annonCompField17 ;
};
typedef struct arch_spinlock arch_spinlock_t;
struct task_struct;
struct lock_class_key {
};
struct raw_spinlock {
   arch_spinlock_t raw_lock ;
   unsigned int magic ;
   unsigned int owner_cpu ;
   void *owner ;
};
typedef struct raw_spinlock raw_spinlock_t;
union __anonunion____missing_field_name_39 {
   struct raw_spinlock rlock ;
};
struct spinlock {
   union __anonunion____missing_field_name_39 __annonCompField19 ;
};
typedef struct spinlock spinlock_t;
struct __wait_queue_head {
   spinlock_t lock ;
   struct list_head task_list ;
};
typedef struct __wait_queue_head wait_queue_head_t;
struct task_struct;
struct __anonstruct_nodemask_t_42 {
   unsigned long bits[(((unsigned long )(1 << 10) + 8UL * sizeof(long )) - 1UL) / (8UL * sizeof(long ))] ;
};
typedef struct __anonstruct_nodemask_t_42 nodemask_t;
struct page;
struct mutex {
   atomic_t count ;
   spinlock_t wait_lock ;
   struct list_head wait_list ;
   struct task_struct *owner ;
   char const *name ;
   void *magic ;
};
struct rw_semaphore;
struct rw_semaphore;
struct rw_semaphore {
   long count ;
   raw_spinlock_t wait_lock ;
   struct list_head wait_list ;
};
struct completion {
   unsigned int done ;
   wait_queue_head_t wait ;
};
struct notifier_block;
struct notifier_block;
struct notifier_block {
   int (*notifier_call)(struct notifier_block * , unsigned long , void * ) ;
   struct notifier_block *next ;
   int priority ;
};
struct atomic_notifier_head {
   spinlock_t lock ;
   struct notifier_block *head ;
};
struct page;
struct resource {
   resource_size_t start ;
   resource_size_t end ;
   char const *name ;
   unsigned long flags ;
   struct resource *parent ;
   struct resource *sibling ;
   struct resource *child ;
};
struct device;
struct device;
union ktime {
   s64 tv64 ;
};
typedef union ktime ktime_t;
struct tvec_base;
struct tvec_base;
struct timer_list {
   struct list_head entry ;
   unsigned long expires ;
   struct tvec_base *base ;
   void (*function)(unsigned long ) ;
   unsigned long data ;
   int slack ;
   int start_pid ;
   void *start_site ;
   char start_comm[16] ;
};
struct work_struct;
struct work_struct;
struct work_struct {
   atomic_long_t data ;
   struct list_head entry ;
   void (*func)(struct work_struct *work ) ;
};
struct device;
struct pm_message {
   int event ;
};
typedef struct pm_message pm_message_t;
struct dev_pm_ops {
   int (*prepare)(struct device *dev ) ;
   void (*complete)(struct device *dev ) ;
   int (*suspend)(struct device *dev ) ;
   int (*resume)(struct device *dev ) ;
   int (*freeze)(struct device *dev ) ;
   int (*thaw)(struct device *dev ) ;
   int (*poweroff)(struct device *dev ) ;
   int (*restore)(struct device *dev ) ;
   int (*suspend_late)(struct device *dev ) ;
   int (*resume_early)(struct device *dev ) ;
   int (*freeze_late)(struct device *dev ) ;
   int (*thaw_early)(struct device *dev ) ;
   int (*poweroff_late)(struct device *dev ) ;
   int (*restore_early)(struct device *dev ) ;
   int (*suspend_noirq)(struct device *dev ) ;
   int (*resume_noirq)(struct device *dev ) ;
   int (*freeze_noirq)(struct device *dev ) ;
   int (*thaw_noirq)(struct device *dev ) ;
   int (*poweroff_noirq)(struct device *dev ) ;
   int (*restore_noirq)(struct device *dev ) ;
   int (*runtime_suspend)(struct device *dev ) ;
   int (*runtime_resume)(struct device *dev ) ;
   int (*runtime_idle)(struct device *dev ) ;
};
enum rpm_status {
    RPM_ACTIVE = 0,
    RPM_RESUMING = 1,
    RPM_SUSPENDED = 2,
    RPM_SUSPENDING = 3
} ;
enum rpm_request {
    RPM_REQ_NONE = 0,
    RPM_REQ_IDLE = 1,
    RPM_REQ_SUSPEND = 2,
    RPM_REQ_AUTOSUSPEND = 3,
    RPM_REQ_RESUME = 4
} ;
struct wakeup_source;
struct wakeup_source;
struct pm_subsys_data {
   spinlock_t lock ;
   unsigned int refcount ;
};
struct dev_pm_qos_request;
struct pm_qos_constraints;
struct dev_pm_info {
   pm_message_t power_state ;
   unsigned int can_wakeup : 1 ;
   unsigned int async_suspend : 1 ;
   bool is_prepared : 1 ;
   bool is_suspended : 1 ;
   bool ignore_children : 1 ;
   spinlock_t lock ;
   struct list_head entry ;
   struct completion completion ;
   struct wakeup_source *wakeup ;
   bool wakeup_path : 1 ;
   struct timer_list suspend_timer ;
   unsigned long timer_expires ;
   struct work_struct work ;
   wait_queue_head_t wait_queue ;
   atomic_t usage_count ;
   atomic_t child_count ;
   unsigned int disable_depth : 3 ;
   unsigned int idle_notification : 1 ;
   unsigned int request_pending : 1 ;
   unsigned int deferred_resume : 1 ;
   unsigned int run_wake : 1 ;
   unsigned int runtime_auto : 1 ;
   unsigned int no_callbacks : 1 ;
   unsigned int irq_safe : 1 ;
   unsigned int use_autosuspend : 1 ;
   unsigned int timer_autosuspends : 1 ;
   enum rpm_request request ;
   enum rpm_status runtime_status ;
   int runtime_error ;
   int autosuspend_delay ;
   unsigned long last_busy ;
   unsigned long active_jiffies ;
   unsigned long suspended_jiffies ;
   unsigned long accounting_timestamp ;
   ktime_t suspend_time ;
   s64 max_time_suspended_ns ;
   struct dev_pm_qos_request *pq_req ;
   struct pm_subsys_data *subsys_data ;
   struct pm_qos_constraints *constraints ;
};
struct dev_pm_domain {
   struct dev_pm_ops ops ;
};
struct __anonstruct_mm_context_t_112 {
   void *ldt ;
   int size ;
   unsigned short ia32_compat ;
   struct mutex lock ;
   void *vdso ;
};
typedef struct __anonstruct_mm_context_t_112 mm_context_t;
struct vm_area_struct;
struct vm_area_struct;
struct page;
struct vm_area_struct;
struct completion;
struct rb_node {
   unsigned long rb_parent_color ;
   struct rb_node *rb_right ;
   struct rb_node *rb_left ;
} __attribute__((__aligned__(sizeof(long )))) ;
struct rb_root {
   struct rb_node *rb_node ;
};
struct file;
struct task_struct;
typedef __u64 Elf64_Addr;
typedef __u16 Elf64_Half;
typedef __u32 Elf64_Word;
typedef __u64 Elf64_Xword;
struct elf64_sym {
   Elf64_Word st_name ;
   unsigned char st_info ;
   unsigned char st_other ;
   Elf64_Half st_shndx ;
   Elf64_Addr st_value ;
   Elf64_Xword st_size ;
};
typedef struct elf64_sym Elf64_Sym;
struct file;
struct sock;
struct sock;
struct kobject;
struct kobject;
enum kobj_ns_type {
    KOBJ_NS_TYPE_NONE = 0,
    KOBJ_NS_TYPE_NET = 1,
    KOBJ_NS_TYPES = 2
} ;
struct kobj_ns_type_operations {
   enum kobj_ns_type type ;
   void *(*grab_current_ns)(void) ;
   void const *(*netlink_ns)(struct sock *sk ) ;
   void const *(*initial_ns)(void) ;
   void (*drop_ns)(void * ) ;
};
struct kobject;
struct module;
enum kobj_ns_type;
struct attribute {
   char const *name ;
   umode_t mode ;
};
struct attribute_group {
   char const *name ;
   umode_t (*is_visible)(struct kobject * , struct attribute * , int ) ;
   struct attribute **attrs ;
};
struct file;
struct vm_area_struct;
struct bin_attribute {
   struct attribute attr ;
   size_t size ;
   void *private ;
   ssize_t (*read)(struct file * , struct kobject * , struct bin_attribute * , char * ,
                   loff_t , size_t ) ;
   ssize_t (*write)(struct file * , struct kobject * , struct bin_attribute * , char * ,
                    loff_t , size_t ) ;
   int (*mmap)(struct file * , struct kobject * , struct bin_attribute *attr , struct vm_area_struct *vma ) ;
};
struct sysfs_ops {
   ssize_t (*show)(struct kobject * , struct attribute * , char * ) ;
   ssize_t (*store)(struct kobject * , struct attribute * , char const * , size_t ) ;
   void const *(*namespace)(struct kobject * , struct attribute const * ) ;
};
struct sysfs_dirent;
struct sysfs_dirent;
struct kref {
   atomic_t refcount ;
};
struct kset;
struct kobj_type;
struct kobject {
   char const *name ;
   struct list_head entry ;
   struct kobject *parent ;
   struct kset *kset ;
   struct kobj_type *ktype ;
   struct sysfs_dirent *sd ;
   struct kref kref ;
   unsigned int state_initialized : 1 ;
   unsigned int state_in_sysfs : 1 ;
   unsigned int state_add_uevent_sent : 1 ;
   unsigned int state_remove_uevent_sent : 1 ;
   unsigned int uevent_suppress : 1 ;
};
struct kobj_type {
   void (*release)(struct kobject *kobj ) ;
   struct sysfs_ops const *sysfs_ops ;
   struct attribute **default_attrs ;
   struct kobj_ns_type_operations const *(*child_ns_type)(struct kobject *kobj ) ;
   void const *(*namespace)(struct kobject *kobj ) ;
};
struct kobj_uevent_env {
   char *envp[32] ;
   int envp_idx ;
   char buf[2048] ;
   int buflen ;
};
struct kset_uevent_ops {
   int (* const filter)(struct kset *kset , struct kobject *kobj ) ;
   char const *(* const name)(struct kset *kset , struct kobject *kobj ) ;
   int (* const uevent)(struct kset *kset , struct kobject *kobj , struct kobj_uevent_env *env ) ;
};
struct sock;
struct kset {
   struct list_head list ;
   spinlock_t list_lock ;
   struct kobject kobj ;
   struct kset_uevent_ops const *uevent_ops ;
};
struct kernel_param;
struct kernel_param;
struct kernel_param_ops {
   int (*set)(char const *val , struct kernel_param const *kp ) ;
   int (*get)(char *buffer , struct kernel_param const *kp ) ;
   void (*free)(void *arg ) ;
};
struct kparam_string;
struct kparam_array;
union __anonunion____missing_field_name_199 {
   void *arg ;
   struct kparam_string const *str ;
   struct kparam_array const *arr ;
};
struct kernel_param {
   char const *name ;
   struct kernel_param_ops const *ops ;
   u16 perm ;
   s16 level ;
   union __anonunion____missing_field_name_199 __annonCompField32 ;
};
struct kparam_string {
   unsigned int maxlen ;
   char *string ;
};
struct kparam_array {
   unsigned int max ;
   unsigned int elemsize ;
   unsigned int *num ;
   struct kernel_param_ops const *ops ;
   void *elem ;
};
struct module;
struct module;
struct static_key {
   atomic_t enabled ;
};
struct module;
struct tracepoint;
struct tracepoint;
struct tracepoint_func {
   void *func ;
   void *data ;
};
struct tracepoint {
   char const *name ;
   struct static_key key ;
   void (*regfunc)(void) ;
   void (*unregfunc)(void) ;
   struct tracepoint_func *funcs ;
};
struct kernel_symbol {
   unsigned long value ;
   char const *name ;
};
struct mod_arch_specific {
};
struct module;
struct module_param_attrs;
struct module_kobject {
   struct kobject kobj ;
   struct module *mod ;
   struct kobject *drivers_dir ;
   struct module_param_attrs *mp ;
};
struct module_attribute {
   struct attribute attr ;
   ssize_t (*show)(struct module_attribute * , struct module_kobject * , char * ) ;
   ssize_t (*store)(struct module_attribute * , struct module_kobject * , char const * ,
                    size_t count ) ;
   void (*setup)(struct module * , char const * ) ;
   int (*test)(struct module * ) ;
   void (*free)(struct module * ) ;
};
struct exception_table_entry;
struct exception_table_entry;
struct notifier_block;
enum module_state {
    MODULE_STATE_LIVE = 0,
    MODULE_STATE_COMING = 1,
    MODULE_STATE_GOING = 2
} ;
struct module_ref {
   unsigned long incs ;
   unsigned long decs ;
} __attribute__((__aligned__((2) * (sizeof(unsigned long )) ))) ;
struct module_sect_attrs;
struct module_notes_attrs;
struct ftrace_event_call;
struct module {
   enum module_state state ;
   struct list_head list ;
   char name[64UL - sizeof(unsigned long )] ;
   struct module_kobject mkobj ;
   struct module_attribute *modinfo_attrs ;
   char const *version ;
   char const *srcversion ;
   struct kobject *holders_dir ;
   struct kernel_symbol const *syms ;
   unsigned long const *crcs ;
   unsigned int num_syms ;
   struct kernel_param *kp ;
   unsigned int num_kp ;
   unsigned int num_gpl_syms ;
   struct kernel_symbol const *gpl_syms ;
   unsigned long const *gpl_crcs ;
   struct kernel_symbol const *unused_syms ;
   unsigned long const *unused_crcs ;
   unsigned int num_unused_syms ;
   unsigned int num_unused_gpl_syms ;
   struct kernel_symbol const *unused_gpl_syms ;
   unsigned long const *unused_gpl_crcs ;
   struct kernel_symbol const *gpl_future_syms ;
   unsigned long const *gpl_future_crcs ;
   unsigned int num_gpl_future_syms ;
   unsigned int num_exentries ;
   struct exception_table_entry *extable ;
   int (*init)(void) ;
   void *module_init ;
   void *module_core ;
   unsigned int init_size ;
   unsigned int core_size ;
   unsigned int init_text_size ;
   unsigned int core_text_size ;
   unsigned int init_ro_size ;
   unsigned int core_ro_size ;
   struct mod_arch_specific arch ;
   unsigned int taints ;
   unsigned int num_bugs ;
   struct list_head bug_list ;
   struct bug_entry *bug_table ;
   Elf64_Sym *symtab ;
   Elf64_Sym *core_symtab ;
   unsigned int num_symtab ;
   unsigned int core_num_syms ;
   char *strtab ;
   char *core_strtab ;
   struct module_sect_attrs *sect_attrs ;
   struct module_notes_attrs *notes_attrs ;
   char *args ;
   void *percpu ;
   unsigned int percpu_size ;
   unsigned int num_tracepoints ;
   struct tracepoint * const *tracepoints_ptrs ;
   unsigned int num_trace_bprintk_fmt ;
   char const **trace_bprintk_fmt_start ;
   struct ftrace_event_call **trace_events ;
   unsigned int num_trace_events ;
   struct list_head source_list ;
   struct list_head target_list ;
   struct task_struct *waiter ;
   void (*exit)(void) ;
   struct module_ref *refptr ;
   ctor_fn_t *ctors ;
   unsigned int num_ctors ;
};
struct klist_node;
struct klist_node;
struct klist_node {
   void *n_klist ;
   struct list_head n_node ;
   struct kref n_ref ;
};
struct dma_map_ops;
struct dev_archdata {
   void *acpi_handle ;
   struct dma_map_ops *dma_ops ;
   void *iommu ;
};
struct pdev_archdata {
};
struct device;
struct device_private;
struct device_private;
struct device_driver;
struct device_driver;
struct driver_private;
struct driver_private;
struct module;
struct class;
struct class;
struct subsys_private;
struct subsys_private;
struct bus_type;
struct bus_type;
struct device_node;
struct device_node;
struct iommu_ops;
struct iommu_ops;
struct bus_attribute {
   struct attribute attr ;
   ssize_t (*show)(struct bus_type *bus , char *buf ) ;
   ssize_t (*store)(struct bus_type *bus , char const *buf , size_t count ) ;
};
struct device_attribute;
struct driver_attribute;
struct bus_type {
   char const *name ;
   char const *dev_name ;
   struct device *dev_root ;
   struct bus_attribute *bus_attrs ;
   struct device_attribute *dev_attrs ;
   struct driver_attribute *drv_attrs ;
   int (*match)(struct device *dev , struct device_driver *drv ) ;
   int (*uevent)(struct device *dev , struct kobj_uevent_env *env ) ;
   int (*probe)(struct device *dev ) ;
   int (*remove)(struct device *dev ) ;
   void (*shutdown)(struct device *dev ) ;
   int (*suspend)(struct device *dev , pm_message_t state ) ;
   int (*resume)(struct device *dev ) ;
   struct dev_pm_ops const *pm ;
   struct iommu_ops *iommu_ops ;
   struct subsys_private *p ;
};
struct device_type;
struct notifier_block;
struct of_device_id;
struct device_driver {
   char const *name ;
   struct bus_type *bus ;
   struct module *owner ;
   char const *mod_name ;
   bool suppress_bind_attrs ;
   struct of_device_id const *of_match_table ;
   int (*probe)(struct device *dev ) ;
   int (*remove)(struct device *dev ) ;
   void (*shutdown)(struct device *dev ) ;
   int (*suspend)(struct device *dev , pm_message_t state ) ;
   int (*resume)(struct device *dev ) ;
   struct attribute_group const **groups ;
   struct dev_pm_ops const *pm ;
   struct driver_private *p ;
};
struct driver_attribute {
   struct attribute attr ;
   ssize_t (*show)(struct device_driver *driver , char *buf ) ;
   ssize_t (*store)(struct device_driver *driver , char const *buf , size_t count ) ;
};
struct class_attribute;
struct class {
   char const *name ;
   struct module *owner ;
   struct class_attribute *class_attrs ;
   struct device_attribute *dev_attrs ;
   struct bin_attribute *dev_bin_attrs ;
   struct kobject *dev_kobj ;
   int (*dev_uevent)(struct device *dev , struct kobj_uevent_env *env ) ;
   char *(*devnode)(struct device *dev , umode_t *mode ) ;
   void (*class_release)(struct class *class ) ;
   void (*dev_release)(struct device *dev ) ;
   int (*suspend)(struct device *dev , pm_message_t state ) ;
   int (*resume)(struct device *dev ) ;
   struct kobj_ns_type_operations const *ns_type ;
   void const *(*namespace)(struct device *dev ) ;
   struct dev_pm_ops const *pm ;
   struct subsys_private *p ;
};
struct class_attribute {
   struct attribute attr ;
   ssize_t (*show)(struct class *class , struct class_attribute *attr , char *buf ) ;
   ssize_t (*store)(struct class *class , struct class_attribute *attr , char const *buf ,
                    size_t count ) ;
   void const *(*namespace)(struct class *class , struct class_attribute const *attr ) ;
};
struct device_type {
   char const *name ;
   struct attribute_group const **groups ;
   int (*uevent)(struct device *dev , struct kobj_uevent_env *env ) ;
   char *(*devnode)(struct device *dev , umode_t *mode ) ;
   void (*release)(struct device *dev ) ;
   struct dev_pm_ops const *pm ;
};
struct device_attribute {
   struct attribute attr ;
   ssize_t (*show)(struct device *dev , struct device_attribute *attr , char *buf ) ;
   ssize_t (*store)(struct device *dev , struct device_attribute *attr , char const *buf ,
                    size_t count ) ;
};
struct device_dma_parameters {
   unsigned int max_segment_size ;
   unsigned long segment_boundary_mask ;
};
struct dma_coherent_mem;
struct device {
   struct device *parent ;
   struct device_private *p ;
   struct kobject kobj ;
   char const *init_name ;
   struct device_type const *type ;
   struct mutex mutex ;
   struct bus_type *bus ;
   struct device_driver *driver ;
   void *platform_data ;
   struct dev_pm_info power ;
   struct dev_pm_domain *pm_domain ;
   int numa_node ;
   u64 *dma_mask ;
   u64 coherent_dma_mask ;
   struct device_dma_parameters *dma_parms ;
   struct list_head dma_pools ;
   struct dma_coherent_mem *dma_mem ;
   struct dev_archdata archdata ;
   struct device_node *of_node ;
   dev_t devt ;
   u32 id ;
   spinlock_t devres_lock ;
   struct list_head devres_head ;
   struct klist_node knode_class ;
   struct class *class ;
   struct attribute_group const **groups ;
   void (*release)(struct device *dev ) ;
};
struct wakeup_source {
   char const *name ;
   struct list_head entry ;
   spinlock_t lock ;
   struct timer_list timer ;
   unsigned long timer_expires ;
   ktime_t total_time ;
   ktime_t max_time ;
   ktime_t last_time ;
   unsigned long event_count ;
   unsigned long active_count ;
   unsigned long relax_count ;
   unsigned long hit_count ;
   unsigned int active : 1 ;
};
typedef unsigned long kernel_ulong_t;
struct of_device_id {
   char name[32] ;
   char type[32] ;
   char compatible[128] ;
   void *data ;
};
struct platform_device_id {
   char name[20] ;
   kernel_ulong_t driver_data __attribute__((__aligned__(sizeof(kernel_ulong_t )))) ;
};
struct mfd_cell;
struct mfd_cell;
struct platform_device {
   char const *name ;
   int id ;
   struct device dev ;
   u32 num_resources ;
   struct resource *resource ;
   struct platform_device_id const *id_entry ;
   struct mfd_cell *mfd_cell ;
   struct pdev_archdata archdata ;
};
struct platform_device_info {
   struct device *parent ;
   char const *name ;
   int id ;
   struct resource const *res ;
   unsigned int num_res ;
   void const *data ;
   size_t size_data ;
   u64 dma_mask ;
};
struct platform_driver {
   int (*probe)(struct platform_device * ) ;
   int (*remove)(struct platform_device * ) ;
   void (*shutdown)(struct platform_device * ) ;
   int (*suspend)(struct platform_device * , pm_message_t state ) ;
   int (*resume)(struct platform_device * ) ;
   struct device_driver driver ;
   struct platform_device_id const *id_table ;
};
struct dma_attrs {
   unsigned long flags[((4UL + 8UL * sizeof(long )) - 1UL) / (8UL * sizeof(long ))] ;
};
enum dma_data_direction {
    DMA_BIDIRECTIONAL = 0,
    DMA_TO_DEVICE = 1,
    DMA_FROM_DEVICE = 2,
    DMA_NONE = 3
} ;
struct prio_tree_node;
struct raw_prio_tree_node {
   struct prio_tree_node *left ;
   struct prio_tree_node *right ;
   struct prio_tree_node *parent ;
};
struct prio_tree_node {
   struct prio_tree_node *left ;
   struct prio_tree_node *right ;
   struct prio_tree_node *parent ;
   unsigned long start ;
   unsigned long last ;
};
struct task_struct;
struct task_struct;
struct address_space;
struct address_space;
union __anonunion____missing_field_name_203 {
   unsigned long index ;
   void *freelist ;
};
struct __anonstruct____missing_field_name_207 {
   unsigned int inuse : 16 ;
   unsigned int objects : 15 ;
   unsigned int frozen : 1 ;
};
union __anonunion____missing_field_name_206 {
   atomic_t _mapcount ;
   struct __anonstruct____missing_field_name_207 __annonCompField34 ;
};
struct __anonstruct____missing_field_name_205 {
   union __anonunion____missing_field_name_206 __annonCompField35 ;
   atomic_t _count ;
};
union __anonunion____missing_field_name_204 {
   unsigned long counters ;
   struct __anonstruct____missing_field_name_205 __annonCompField36 ;
};
struct __anonstruct____missing_field_name_202 {
   union __anonunion____missing_field_name_203 __annonCompField33 ;
   union __anonunion____missing_field_name_204 __annonCompField37 ;
};
struct __anonstruct____missing_field_name_209 {
   struct page *next ;
   int pages ;
   int pobjects ;
};
union __anonunion____missing_field_name_208 {
   struct list_head lru ;
   struct __anonstruct____missing_field_name_209 __annonCompField39 ;
};
union __anonunion____missing_field_name_210 {
   unsigned long private ;
   struct kmem_cache *slab ;
   struct page *first_page ;
};
struct page {
   unsigned long flags ;
   struct address_space *mapping ;
   struct __anonstruct____missing_field_name_202 __annonCompField38 ;
   union __anonunion____missing_field_name_208 __annonCompField40 ;
   union __anonunion____missing_field_name_210 __annonCompField41 ;
   unsigned long debug_flags ;
} __attribute__((__aligned__((2) * (sizeof(unsigned long )) ))) ;
struct __anonstruct_vm_set_212 {
   struct list_head list ;
   void *parent ;
   struct vm_area_struct *head ;
};
union __anonunion_shared_211 {
   struct __anonstruct_vm_set_212 vm_set ;
   struct raw_prio_tree_node prio_tree_node ;
};
struct anon_vma;
struct vm_operations_struct;
struct mempolicy;
struct vm_area_struct {
   struct mm_struct *vm_mm ;
   unsigned long vm_start ;
   unsigned long vm_end ;
   struct vm_area_struct *vm_next ;
   struct vm_area_struct *vm_prev ;
   pgprot_t vm_page_prot ;
   unsigned long vm_flags ;
   struct rb_node vm_rb ;
   union __anonunion_shared_211 shared ;
   struct list_head anon_vma_chain ;
   struct anon_vma *anon_vma ;
   struct vm_operations_struct const *vm_ops ;
   unsigned long vm_pgoff ;
   struct file *vm_file ;
   void *vm_private_data ;
   struct mempolicy *vm_policy ;
};
struct core_thread {
   struct task_struct *task ;
   struct core_thread *next ;
};
struct core_state {
   atomic_t nr_threads ;
   struct core_thread dumper ;
   struct completion startup ;
};
struct mm_rss_stat {
   atomic_long_t count[3] ;
};
struct linux_binfmt;
struct mmu_notifier_mm;
struct mm_struct {
   struct vm_area_struct *mmap ;
   struct rb_root mm_rb ;
   struct vm_area_struct *mmap_cache ;
   unsigned long (*get_unmapped_area)(struct file *filp , unsigned long addr , unsigned long len ,
                                      unsigned long pgoff , unsigned long flags ) ;
   void (*unmap_area)(struct mm_struct *mm , unsigned long addr ) ;
   unsigned long mmap_base ;
   unsigned long task_size ;
   unsigned long cached_hole_size ;
   unsigned long free_area_cache ;
   pgd_t *pgd ;
   atomic_t mm_users ;
   atomic_t mm_count ;
   int map_count ;
   spinlock_t page_table_lock ;
   struct rw_semaphore mmap_sem ;
   struct list_head mmlist ;
   unsigned long hiwater_rss ;
   unsigned long hiwater_vm ;
   unsigned long total_vm ;
   unsigned long locked_vm ;
   unsigned long pinned_vm ;
   unsigned long shared_vm ;
   unsigned long exec_vm ;
   unsigned long stack_vm ;
   unsigned long reserved_vm ;
   unsigned long def_flags ;
   unsigned long nr_ptes ;
   unsigned long start_code ;
   unsigned long end_code ;
   unsigned long start_data ;
   unsigned long end_data ;
   unsigned long start_brk ;
   unsigned long brk ;
   unsigned long start_stack ;
   unsigned long arg_start ;
   unsigned long arg_end ;
   unsigned long env_start ;
   unsigned long env_end ;
   unsigned long saved_auxv[44] ;
   struct mm_rss_stat rss_stat ;
   struct linux_binfmt *binfmt ;
   cpumask_var_t cpu_vm_mask_var ;
   mm_context_t context ;
   unsigned int faultstamp ;
   unsigned int token_priority ;
   unsigned int last_interval ;
   unsigned long flags ;
   struct core_state *core_state ;
   spinlock_t ioctx_lock ;
   struct hlist_head ioctx_list ;
   struct task_struct *owner ;
   struct file *exe_file ;
   unsigned long num_exe_file_vmas ;
   struct mmu_notifier_mm *mmu_notifier_mm ;
   pgtable_t pmd_huge_pte ;
   struct cpumask cpumask_allocation ;
};
struct mempolicy;
struct anon_vma;
struct mm_struct;
struct vm_area_struct;
struct vm_fault {
   unsigned int flags ;
   unsigned long pgoff ;
   void *virtual_address ;
   struct page *page ;
};
struct vm_operations_struct {
   void (*open)(struct vm_area_struct *area ) ;
   void (*close)(struct vm_area_struct *area ) ;
   int (*fault)(struct vm_area_struct *vma , struct vm_fault *vmf ) ;
   int (*page_mkwrite)(struct vm_area_struct *vma , struct vm_fault *vmf ) ;
   int (*access)(struct vm_area_struct *vma , unsigned long addr , void *buf , int len ,
                 int write ) ;
   int (*set_policy)(struct vm_area_struct *vma , struct mempolicy *new ) ;
   struct mempolicy *(*get_policy)(struct vm_area_struct *vma , unsigned long addr ) ;
   int (*migrate)(struct vm_area_struct *vma , nodemask_t const *from , nodemask_t const *to ,
                  unsigned long flags ) ;
};
struct page;
struct scatterlist {
   unsigned long sg_magic ;
   unsigned long page_link ;
   unsigned int offset ;
   unsigned int length ;
   dma_addr_t dma_address ;
   unsigned int dma_length ;
};
struct dma_map_ops {
   void *(*alloc)(struct device *dev , size_t size , dma_addr_t *dma_handle , gfp_t gfp ,
                  struct dma_attrs *attrs ) ;
   void (*free)(struct device *dev , size_t size , void *vaddr , dma_addr_t dma_handle ,
                struct dma_attrs *attrs ) ;
   int (*mmap)(struct device * , struct vm_area_struct * , void * , dma_addr_t ,
               size_t , struct dma_attrs *attrs ) ;
   dma_addr_t (*map_page)(struct device *dev , struct page *page , unsigned long offset ,
                          size_t size , enum dma_data_direction dir , struct dma_attrs *attrs ) ;
   void (*unmap_page)(struct device *dev , dma_addr_t dma_handle , size_t size , enum dma_data_direction dir ,
                      struct dma_attrs *attrs ) ;
   int (*map_sg)(struct device *dev , struct scatterlist *sg , int nents , enum dma_data_direction dir ,
                 struct dma_attrs *attrs ) ;
   void (*unmap_sg)(struct device *dev , struct scatterlist *sg , int nents , enum dma_data_direction dir ,
                    struct dma_attrs *attrs ) ;
   void (*sync_single_for_cpu)(struct device *dev , dma_addr_t dma_handle , size_t size ,
                               enum dma_data_direction dir ) ;
   void (*sync_single_for_device)(struct device *dev , dma_addr_t dma_handle , size_t size ,
                                  enum dma_data_direction dir ) ;
   void (*sync_sg_for_cpu)(struct device *dev , struct scatterlist *sg , int nents ,
                           enum dma_data_direction dir ) ;
   void (*sync_sg_for_device)(struct device *dev , struct scatterlist *sg , int nents ,
                              enum dma_data_direction dir ) ;
   int (*mapping_error)(struct device *dev , dma_addr_t dma_addr ) ;
   int (*dma_supported)(struct device *dev , u64 mask ) ;
   int (*set_dma_mask)(struct device *dev , u64 mask ) ;
   int is_phys ;
};
struct device;
struct scatterlist;
struct bus_type;
struct device;
struct dma_attrs;
struct scatterlist;
enum usb_otg_state {
    OTG_STATE_UNDEFINED = 0,
    OTG_STATE_B_IDLE = 1,
    OTG_STATE_B_SRP_INIT = 2,
    OTG_STATE_B_PERIPHERAL = 3,
    OTG_STATE_B_WAIT_ACON = 4,
    OTG_STATE_B_HOST = 5,
    OTG_STATE_A_IDLE = 6,
    OTG_STATE_A_WAIT_VRISE = 7,
    OTG_STATE_A_WAIT_BCON = 8,
    OTG_STATE_A_HOST = 9,
    OTG_STATE_A_SUSPEND = 10,
    OTG_STATE_A_PERIPHERAL = 11,
    OTG_STATE_A_WAIT_VFALL = 12,
    OTG_STATE_A_VBUS_ERR = 13
} ;
enum usb_phy_events {
    USB_EVENT_NONE = 0,
    USB_EVENT_VBUS = 1,
    USB_EVENT_ID = 2,
    USB_EVENT_CHARGER = 3,
    USB_EVENT_ENUMERATED = 4
} ;
struct usb_phy;
struct usb_phy;
struct usb_phy_io_ops {
   int (*read)(struct usb_phy *x , u32 reg ) ;
   int (*write)(struct usb_phy *x , u32 val , u32 reg ) ;
};
struct usb_bus;
struct usb_gadget;
struct usb_otg {
   u8 default_a ;
   struct usb_phy *phy ;
   struct usb_bus *host ;
   struct usb_gadget *gadget ;
   int (*set_host)(struct usb_otg *otg , struct usb_bus *host ) ;
   int (*set_peripheral)(struct usb_otg *otg , struct usb_gadget *gadget ) ;
   int (*set_vbus)(struct usb_otg *otg , bool enabled ) ;
   int (*start_srp)(struct usb_otg *otg ) ;
   int (*start_hnp)(struct usb_otg *otg ) ;
};
struct usb_phy {
   struct device *dev ;
   char const *label ;
   unsigned int flags ;
   enum usb_otg_state state ;
   enum usb_phy_events last_event ;
   struct usb_otg *otg ;
   struct device *io_dev ;
   struct usb_phy_io_ops *io_ops ;
   void *io_priv ;
   struct atomic_notifier_head notifier ;
   u16 port_status ;
   u16 port_change ;
   int (*init)(struct usb_phy *x ) ;
   void (*shutdown)(struct usb_phy *x ) ;
   int (*set_power)(struct usb_phy *x , unsigned int mA ) ;
   int (*set_suspend)(struct usb_phy *x , int suspend ) ;
};
struct kmem_cache_cpu {
   void **freelist ;
   unsigned long tid ;
   struct page *page ;
   struct page *partial ;
   int node ;
   unsigned int stat[26] ;
};
struct kmem_cache_node {
   spinlock_t list_lock ;
   unsigned long nr_partial ;
   struct list_head partial ;
   atomic_long_t nr_slabs ;
   atomic_long_t total_objects ;
   struct list_head full ;
};
struct kmem_cache_order_objects {
   unsigned long x ;
};
struct kmem_cache {
   struct kmem_cache_cpu *cpu_slab ;
   unsigned long flags ;
   unsigned long min_partial ;
   int size ;
   int objsize ;
   int offset ;
   int cpu_partial ;
   struct kmem_cache_order_objects oo ;
   struct kmem_cache_order_objects max ;
   struct kmem_cache_order_objects min ;
   gfp_t allocflags ;
   int refcount ;
   void (*ctor)(void * ) ;
   int inuse ;
   int align ;
   int reserved ;
   char const *name ;
   struct list_head list ;
   struct kobject kobj ;
   int remote_node_defrag_ratio ;
   struct kmem_cache_node *node[1 << 10] ;
};
struct nop_usb_xceiv {
   struct usb_phy phy ;
   struct device *dev ;
};
long ldv__builtin_expect(long val , long res ) ;
extern int ( printk)(char const *fmt , ...) ;
extern void __raw_spin_lock_init(raw_spinlock_t *lock , char const *name , struct lock_class_key *key ) ;
 static raw_spinlock_t *spinlock_check(spinlock_t *lock ) __attribute__((__no_instrument_function__)) ;
 static raw_spinlock_t *spinlock_check(spinlock_t *lock )
{
  {
  return ((struct raw_spinlock *)lock);
}
}
void mutex_lock(struct mutex *lock ) ;
int __attribute__((__warn_unused_result__)) mutex_lock_interruptible(struct mutex *lock ) ;
int __attribute__((__warn_unused_result__)) mutex_lock_killable(struct mutex *lock ) ;
int mutex_trylock(struct mutex *lock ) ;
void mutex_unlock(struct mutex *lock ) ;
int atomic_dec_and_mutex_lock(atomic_t *cnt , struct mutex *lock ) ;
extern struct module __this_module ;
int init_module(void) ;
void cleanup_module(void) ;
extern void *dev_get_drvdata(struct device const *dev ) ;
extern int dev_set_drvdata(struct device *dev , void *data ) ;
extern int ( dev_err)(struct device const *dev , char const *fmt
                                              , ...) ;
extern void platform_device_unregister(struct platform_device * ) ;
extern struct platform_device *platform_device_register_full(struct platform_device_info const *pdevinfo ) ;
 static struct platform_device *platform_device_register_resndata(struct device *parent ,
                                                                          char const *name ,
                                                                          int id ,
                                                                          struct resource const *res ,
                                                                          unsigned int num ,
                                                                          void const *data ,
                                                                          size_t size ) __attribute__((__no_instrument_function__)) ;
 static struct platform_device *platform_device_register_resndata(struct device *parent ,
                                                                          char const *name ,
                                                                          int id ,
                                                                          struct resource const *res ,
                                                                          unsigned int num ,
                                                                          void const *data ,
                                                                          size_t size )
{ struct platform_device_info pdevinfo ;
  struct platform_device *tmp ;
  struct platform_device_info *__cil_tmp10 ;
  unsigned long __cil_tmp11 ;
  unsigned long __cil_tmp12 ;
  unsigned long __cil_tmp13 ;
  unsigned long __cil_tmp14 ;
  unsigned long __cil_tmp15 ;
  unsigned long __cil_tmp16 ;
  unsigned long __cil_tmp17 ;
  struct platform_device_info const *__cil_tmp18 ;
  {
  {
  __cil_tmp10 = & pdevinfo;
  *((struct device **)__cil_tmp10) = parent;
  __cil_tmp11 = (unsigned long )(& pdevinfo) + 8;
  *((char const **)__cil_tmp11) = name;
  __cil_tmp12 = (unsigned long )(& pdevinfo) + 16;
  *((int *)__cil_tmp12) = id;
  __cil_tmp13 = (unsigned long )(& pdevinfo) + 24;
  *((struct resource const **)__cil_tmp13) = res;
  __cil_tmp14 = (unsigned long )(& pdevinfo) + 32;
  *((unsigned int *)__cil_tmp14) = num;
  __cil_tmp15 = (unsigned long )(& pdevinfo) + 40;
  *((void const **)__cil_tmp15) = data;
  __cil_tmp16 = (unsigned long )(& pdevinfo) + 48;
  *((size_t *)__cil_tmp16) = size;
  __cil_tmp17 = (unsigned long )(& pdevinfo) + 56;
  *((u64 *)__cil_tmp17) = (u64 )0;
  __cil_tmp18 = (struct platform_device_info const *)(& pdevinfo);
  tmp = platform_device_register_full(__cil_tmp18);
  }
  return (tmp);
}
}
 static struct platform_device *platform_device_register_simple(char const *name ,
                                                                        int id , struct resource const *res ,
                                                                        unsigned int num ) __attribute__((__no_instrument_function__)) ;
 static struct platform_device *platform_device_register_simple(char const *name ,
                                                                        int id , struct resource const *res ,
                                                                        unsigned int num )
{ struct platform_device *tmp ;
  void *__cil_tmp6 ;
  struct device *__cil_tmp7 ;
  void *__cil_tmp8 ;
  void const *__cil_tmp9 ;
  size_t __cil_tmp10 ;
  {
  {
  __cil_tmp6 = (void *)0;
  __cil_tmp7 = (struct device *)__cil_tmp6;
  __cil_tmp8 = (void *)0;
  __cil_tmp9 = (void const *)__cil_tmp8;
  __cil_tmp10 = (size_t )0;
  tmp = platform_device_register_resndata(__cil_tmp7, name, id, res, num, __cil_tmp9,
                                          __cil_tmp10);
  }
  return (tmp);
}
}
extern int platform_driver_register(struct platform_driver * ) ;
extern void platform_driver_unregister(struct platform_driver * ) ;
 static void *platform_get_drvdata(struct platform_device const *pdev ) __attribute__((__no_instrument_function__)) ;
 static void *platform_get_drvdata(struct platform_device const *pdev )
{ void *tmp ;
  unsigned long __cil_tmp3 ;
  unsigned long __cil_tmp4 ;
  struct device const *__cil_tmp5 ;
  {
  {
  __cil_tmp3 = (unsigned long )pdev;
  __cil_tmp4 = __cil_tmp3 + 16;
  __cil_tmp5 = (struct device const *)__cil_tmp4;
  tmp = dev_get_drvdata(__cil_tmp5);
  }
  return (tmp);
}
}
 static void platform_set_drvdata(struct platform_device *pdev , void *data ) __attribute__((__no_instrument_function__)) ;
 static void platform_set_drvdata(struct platform_device *pdev , void *data )
{ unsigned long __cil_tmp3 ;
  unsigned long __cil_tmp4 ;
  struct device *__cil_tmp5 ;
  {
  {
  __cil_tmp3 = (unsigned long )pdev;
  __cil_tmp4 = __cil_tmp3 + 16;
  __cil_tmp5 = (struct device *)__cil_tmp4;
  dev_set_drvdata(__cil_tmp5, data);
  }
  return;
}
}
extern int usb_set_transceiver(struct usb_phy * ) ;
void usb_nop_xceiv_register(void) ;
void usb_nop_xceiv_unregister(void) ;
extern void kfree(void const * ) ;
extern int __VERIFIER_nondet_int(void);
extern void abort(void);
void assume_abort_if_not(int cond) {
  if(!cond) {abort();}
}
extern void *malloc(size_t size);
long ldv_is_err(const void *ptr)
{
  return ((unsigned long)ptr > ((unsigned long)-4095));
}
void *ldv_malloc(size_t size)
{
 if (__VERIFIER_nondet_int()) {
  void *res = malloc(size);
  assume_abort_if_not(!ldv_is_err(res));
  return res;
 } else {
  return ((void *)0);
 }
}
void *__kmalloc(size_t size, gfp_t t)
{
 return ldv_malloc(size);
}
 static void *( __attribute__((__always_inline__)) kmalloc)(size_t size ,
                                                                    gfp_t flags ) __attribute__((__no_instrument_function__)) ;
 static void *( __attribute__((__always_inline__)) kmalloc)(size_t size ,
                                                                    gfp_t flags )
{ void *tmp___2 ;
  {
  {
  tmp___2 = __kmalloc(size, flags);
  }
  return (tmp___2);
}
}
 static void *kzalloc(size_t size , gfp_t flags ) __attribute__((__no_instrument_function__)) ;
void *ldv_zalloc(size_t size ) ;
 static void *kzalloc(size_t size , gfp_t flags )
{ void *tmp ;
  unsigned int __cil_tmp4 ;
  {
  {
  __cil_tmp4 = flags | 32768U;
  tmp = kmalloc(size, __cil_tmp4);
  }
  return (tmp);
}
}
static struct platform_device *pd ;
void usb_nop_xceiv_register(void)
{ void *__cil_tmp1 ;
  struct resource const *__cil_tmp2 ;
  {
  if (pd) {
    return;
  } else {
  }
  {
  __cil_tmp1 = (void *)0;
  __cil_tmp2 = (struct resource const *)__cil_tmp1;
  pd = platform_device_register_simple("nop_usb_xceiv", -1, __cil_tmp2, 0U);
  }
  if (! pd) {
    {
    printk("<3>Unable to register usb nop transceiver\n");
    }
    return;
  } else {
  }
  return;
}
}
extern void *__crc_usb_nop_xceiv_register __attribute__((__weak__)) ;
static unsigned long const __kcrctab_usb_nop_xceiv_register __attribute__((__used__,
__unused__, __section__("___kcrctab+usb_nop_xceiv_register"))) = (unsigned long const )((unsigned long )(& __crc_usb_nop_xceiv_register));
static char const __kstrtab_usb_nop_xceiv_register[23] __attribute__((__section__("__ksymtab_strings"),
__aligned__(1))) =
  { (char const )'u', (char const )'s', (char const )'b', (char const )'_',
        (char const )'n', (char const )'o', (char const )'p', (char const )'_',
        (char const )'x', (char const )'c', (char const )'e', (char const )'i',
        (char const )'v', (char const )'_', (char const )'r', (char const )'e',
        (char const )'g', (char const )'i', (char const )'s', (char const )'t',
        (char const )'e', (char const )'r', (char const )'\000'};
static struct kernel_symbol const __ksymtab_usb_nop_xceiv_register __attribute__((__used__,
__unused__, __section__("___ksymtab+usb_nop_xceiv_register"))) = {(unsigned long )(& usb_nop_xceiv_register), __kstrtab_usb_nop_xceiv_register};
void usb_nop_xceiv_unregister(void)
{ void *__cil_tmp1 ;
  {
  {
  platform_device_unregister(pd);
  __cil_tmp1 = (void *)0;
  pd = (struct platform_device *)__cil_tmp1;
  }
  return;
}
}
extern void *__crc_usb_nop_xceiv_unregister __attribute__((__weak__)) ;
static unsigned long const __kcrctab_usb_nop_xceiv_unregister __attribute__((__used__,
__unused__, __section__("___kcrctab+usb_nop_xceiv_unregister"))) = (unsigned long const )((unsigned long )(& __crc_usb_nop_xceiv_unregister));
static char const __kstrtab_usb_nop_xceiv_unregister[25] __attribute__((__section__("__ksymtab_strings"),
__aligned__(1))) =
  { (char const )'u', (char const )'s', (char const )'b', (char const )'_',
        (char const )'n', (char const )'o', (char const )'p', (char const )'_',
        (char const )'x', (char const )'c', (char const )'e', (char const )'i',
        (char const )'v', (char const )'_', (char const )'u', (char const )'n',
        (char const )'r', (char const )'e', (char const )'g', (char const )'i',
        (char const )'s', (char const )'t', (char const )'e', (char const )'r',
        (char const )'\000'};
static struct kernel_symbol const __ksymtab_usb_nop_xceiv_unregister __attribute__((__used__,
__unused__, __section__("___ksymtab+usb_nop_xceiv_unregister"))) = {(unsigned long )(& usb_nop_xceiv_unregister), __kstrtab_usb_nop_xceiv_unregister};
static int nop_set_suspend(struct usb_phy *x , int suspend )
{
  {
  return (0);
}
}
static int nop_set_peripheral(struct usb_otg *otg , struct usb_gadget *gadget )
{ unsigned long __cil_tmp3 ;
  unsigned long __cil_tmp4 ;
  void *__cil_tmp5 ;
  unsigned long __cil_tmp6 ;
  unsigned long __cil_tmp7 ;
  unsigned long __cil_tmp8 ;
  unsigned long __cil_tmp9 ;
  struct usb_phy *__cil_tmp10 ;
  unsigned long __cil_tmp11 ;
  unsigned long __cil_tmp12 ;
  {
  if (! otg) {
    return (-19);
  } else {
  }
  if (! gadget) {
    __cil_tmp3 = (unsigned long )otg;
    __cil_tmp4 = __cil_tmp3 + 24;
    __cil_tmp5 = (void *)0;
    *((struct usb_gadget **)__cil_tmp4) = (struct usb_gadget *)__cil_tmp5;
    return (-19);
  } else {
  }
  __cil_tmp6 = (unsigned long )otg;
  __cil_tmp7 = __cil_tmp6 + 24;
  *((struct usb_gadget **)__cil_tmp7) = gadget;
  __cil_tmp8 = (unsigned long )otg;
  __cil_tmp9 = __cil_tmp8 + 8;
  __cil_tmp10 = *((struct usb_phy **)__cil_tmp9);
  __cil_tmp11 = (unsigned long )__cil_tmp10;
  __cil_tmp12 = __cil_tmp11 + 20;
  *((enum usb_otg_state *)__cil_tmp12) = (enum usb_otg_state )1;
  return (0);
}
}
static int nop_set_host(struct usb_otg *otg , struct usb_bus *host )
{ unsigned long __cil_tmp3 ;
  unsigned long __cil_tmp4 ;
  void *__cil_tmp5 ;
  unsigned long __cil_tmp6 ;
  unsigned long __cil_tmp7 ;
  {
  if (! otg) {
    return (-19);
  } else {
  }
  if (! host) {
    __cil_tmp3 = (unsigned long )otg;
    __cil_tmp4 = __cil_tmp3 + 16;
    __cil_tmp5 = (void *)0;
    *((struct usb_bus **)__cil_tmp4) = (struct usb_bus *)__cil_tmp5;
    return (-19);
  } else {
  }
  __cil_tmp6 = (unsigned long )otg;
  __cil_tmp7 = __cil_tmp6 + 16;
  *((struct usb_bus **)__cil_tmp7) = host;
  return (0);
}
}
static struct lock_class_key __key___2 ;
static int nop_usb_xceiv_probe(struct platform_device *pdev ) __attribute__((__section__(".devinit.text"),
__no_instrument_function__)) ;
static int nop_usb_xceiv_probe(struct platform_device *pdev )
{ struct nop_usb_xceiv *nop ;
  int err ;
  void *tmp ;
  void *tmp___0 ;
  unsigned long __cil_tmp6 ;
  unsigned long __cil_tmp7 ;
  unsigned long __cil_tmp8 ;
  unsigned long __cil_tmp9 ;
  unsigned long __cil_tmp10 ;
  unsigned long __cil_tmp11 ;
  struct usb_otg *__cil_tmp12 ;
  void const *__cil_tmp13 ;
  unsigned long __cil_tmp14 ;
  unsigned long __cil_tmp15 ;
  unsigned long __cil_tmp16 ;
  unsigned long __cil_tmp17 ;
  unsigned long __cil_tmp18 ;
  unsigned long __cil_tmp19 ;
  unsigned long __cil_tmp20 ;
  unsigned long __cil_tmp21 ;
  unsigned long __cil_tmp22 ;
  unsigned long __cil_tmp23 ;
  unsigned long __cil_tmp24 ;
  unsigned long __cil_tmp25 ;
  unsigned long __cil_tmp26 ;
  unsigned long __cil_tmp27 ;
  unsigned long __cil_tmp28 ;
  unsigned long __cil_tmp29 ;
  unsigned long __cil_tmp30 ;
  unsigned long __cil_tmp31 ;
  struct usb_otg *__cil_tmp32 ;
  unsigned long __cil_tmp33 ;
  unsigned long __cil_tmp34 ;
  unsigned long __cil_tmp35 ;
  unsigned long __cil_tmp36 ;
  unsigned long __cil_tmp37 ;
  struct usb_otg *__cil_tmp38 ;
  unsigned long __cil_tmp39 ;
  unsigned long __cil_tmp40 ;
  unsigned long __cil_tmp41 ;
  unsigned long __cil_tmp42 ;
  unsigned long __cil_tmp43 ;
  struct usb_otg *__cil_tmp44 ;
  unsigned long __cil_tmp45 ;
  unsigned long __cil_tmp46 ;
  struct usb_phy *__cil_tmp47 ;
  unsigned long __cil_tmp48 ;
  unsigned long __cil_tmp49 ;
  struct device *__cil_tmp50 ;
  struct device const *__cil_tmp51 ;
  void *__cil_tmp52 ;
  unsigned long __cil_tmp53 ;
  unsigned long __cil_tmp54 ;
  unsigned long __cil_tmp55 ;
  spinlock_t *__cil_tmp56 ;
  unsigned long __cil_tmp57 ;
  unsigned long __cil_tmp58 ;
  unsigned long __cil_tmp59 ;
  struct raw_spinlock *__cil_tmp60 ;
  unsigned long __cil_tmp61 ;
  unsigned long __cil_tmp62 ;
  unsigned long __cil_tmp63 ;
  unsigned long __cil_tmp64 ;
  void *__cil_tmp65 ;
  unsigned long __cil_tmp66 ;
  unsigned long __cil_tmp67 ;
  unsigned long __cil_tmp68 ;
  struct usb_otg *__cil_tmp69 ;
  void const *__cil_tmp70 ;
  void const *__cil_tmp71 ;
  {
  {
  tmp = kzalloc(144UL, 208U);
  nop = (struct nop_usb_xceiv *)tmp;
  }
  if (! nop) {
    return (-12);
  } else {
  }
  {
  tmp___0 = kzalloc(72UL, 208U);
  __cil_tmp6 = 0 + 32;
  __cil_tmp7 = (unsigned long )nop;
  __cil_tmp8 = __cil_tmp7 + __cil_tmp6;
  *((struct usb_otg **)__cil_tmp8) = (struct usb_otg *)tmp___0;
  }
  {
  __cil_tmp9 = 0 + 32;
  __cil_tmp10 = (unsigned long )nop;
  __cil_tmp11 = __cil_tmp10 + __cil_tmp9;
  __cil_tmp12 = *((struct usb_otg **)__cil_tmp11);
  if (! __cil_tmp12) {
    {
    __cil_tmp13 = (void const *)nop;
    kfree(__cil_tmp13);
    }
    return (-12);
  } else {
  }
  }
  {
  __cil_tmp14 = (unsigned long )nop;
  __cil_tmp15 = __cil_tmp14 + 136;
  __cil_tmp16 = (unsigned long )pdev;
  __cil_tmp17 = __cil_tmp16 + 16;
  *((struct device **)__cil_tmp15) = (struct device *)__cil_tmp17;
  __cil_tmp18 = (unsigned long )nop;
  __cil_tmp19 = __cil_tmp18 + 136;
  *((struct device **)nop) = *((struct device **)__cil_tmp19);
  __cil_tmp20 = 0 + 8;
  __cil_tmp21 = (unsigned long )nop;
  __cil_tmp22 = __cil_tmp21 + __cil_tmp20;
  *((char const **)__cil_tmp22) = "nop-xceiv";
  __cil_tmp23 = 0 + 128;
  __cil_tmp24 = (unsigned long )nop;
  __cil_tmp25 = __cil_tmp24 + __cil_tmp23;
  *((int (**)(struct usb_phy *x , int suspend ))__cil_tmp25) = & nop_set_suspend;
  __cil_tmp26 = 0 + 20;
  __cil_tmp27 = (unsigned long )nop;
  __cil_tmp28 = __cil_tmp27 + __cil_tmp26;
  *((enum usb_otg_state *)__cil_tmp28) = (enum usb_otg_state )0;
  __cil_tmp29 = 0 + 32;
  __cil_tmp30 = (unsigned long )nop;
  __cil_tmp31 = __cil_tmp30 + __cil_tmp29;
  __cil_tmp32 = *((struct usb_otg **)__cil_tmp31);
  __cil_tmp33 = (unsigned long )__cil_tmp32;
  __cil_tmp34 = __cil_tmp33 + 8;
  *((struct usb_phy **)__cil_tmp34) = (struct usb_phy *)nop;
  __cil_tmp35 = 0 + 32;
  __cil_tmp36 = (unsigned long )nop;
  __cil_tmp37 = __cil_tmp36 + __cil_tmp35;
  __cil_tmp38 = *((struct usb_otg **)__cil_tmp37);
  __cil_tmp39 = (unsigned long )__cil_tmp38;
  __cil_tmp40 = __cil_tmp39 + 32;
  *((int (**)(struct usb_otg *otg , struct usb_bus *host ))__cil_tmp40) = & nop_set_host;
  __cil_tmp41 = 0 + 32;
  __cil_tmp42 = (unsigned long )nop;
  __cil_tmp43 = __cil_tmp42 + __cil_tmp41;
  __cil_tmp44 = *((struct usb_otg **)__cil_tmp43);
  __cil_tmp45 = (unsigned long )__cil_tmp44;
  __cil_tmp46 = __cil_tmp45 + 40;
  *((int (**)(struct usb_otg *otg , struct usb_gadget *gadget ))__cil_tmp46) = & nop_set_peripheral;
  __cil_tmp47 = (struct usb_phy *)nop;
  err = usb_set_transceiver(__cil_tmp47);
  }
  if (err) {
    {
    __cil_tmp48 = (unsigned long )pdev;
    __cil_tmp49 = __cil_tmp48 + 16;
    __cil_tmp50 = (struct device *)__cil_tmp49;
    __cil_tmp51 = (struct device const *)__cil_tmp50;
    dev_err(__cil_tmp51, "can\'t register transceiver, err: %d\n", err);
    }
    goto exit;
  } else {
  }
  {
  __cil_tmp52 = (void *)nop;
  platform_set_drvdata(pdev, __cil_tmp52);
  }
  {
  while (1) {
    while_continue: ;
    {
    while (1) {
      while_continue___0: ;
      {
      __cil_tmp53 = 0 + 64;
      __cil_tmp54 = (unsigned long )nop;
      __cil_tmp55 = __cil_tmp54 + __cil_tmp53;
      __cil_tmp56 = (spinlock_t *)__cil_tmp55;
      spinlock_check(__cil_tmp56);
      }
      {
      while (1) {
        while_continue___1: ;
        {
        __cil_tmp57 = 0 + 64;
        __cil_tmp58 = (unsigned long )nop;
        __cil_tmp59 = __cil_tmp58 + __cil_tmp57;
        __cil_tmp60 = (struct raw_spinlock *)__cil_tmp59;
        __raw_spin_lock_init(__cil_tmp60, "&(&(&nop->phy.notifier)->lock)->rlock",
                             & __key___2);
        }
        goto while_break___1;
      }
      while_break___1: ;
      }
      goto while_break___0;
    }
    while_break___0: ;
    }
    __cil_tmp61 = 64 + 24;
    __cil_tmp62 = 0 + __cil_tmp61;
    __cil_tmp63 = (unsigned long )nop;
    __cil_tmp64 = __cil_tmp63 + __cil_tmp62;
    __cil_tmp65 = (void *)0;
    *((struct notifier_block **)__cil_tmp64) = (struct notifier_block *)__cil_tmp65;
    goto while_break;
  }
  while_break: ;
  }
  return (0);
  exit:
  {
  __cil_tmp66 = 0 + 32;
  __cil_tmp67 = (unsigned long )nop;
  __cil_tmp68 = __cil_tmp67 + __cil_tmp66;
  __cil_tmp69 = *((struct usb_otg **)__cil_tmp68);
  __cil_tmp70 = (void const *)__cil_tmp69;
  kfree(__cil_tmp70);
  __cil_tmp71 = (void const *)nop;
  kfree(__cil_tmp71);
  }
  return (err);
}
}
static int nop_usb_xceiv_remove(struct platform_device *pdev ) __attribute__((__section__(".devexit.text"),
__no_instrument_function__)) ;
static int nop_usb_xceiv_remove(struct platform_device *pdev )
{ struct nop_usb_xceiv *nop ;
  void *tmp ;
  struct platform_device const *__cil_tmp4 ;
  void *__cil_tmp5 ;
  struct usb_phy *__cil_tmp6 ;
  void *__cil_tmp7 ;
  unsigned long __cil_tmp8 ;
  unsigned long __cil_tmp9 ;
  unsigned long __cil_tmp10 ;
  struct usb_otg *__cil_tmp11 ;
  void const *__cil_tmp12 ;
  void const *__cil_tmp13 ;
  {
  {
  __cil_tmp4 = (struct platform_device const *)pdev;
  tmp = platform_get_drvdata(__cil_tmp4);
  nop = (struct nop_usb_xceiv *)tmp;
  __cil_tmp5 = (void *)0;
  __cil_tmp6 = (struct usb_phy *)__cil_tmp5;
  usb_set_transceiver(__cil_tmp6);
  __cil_tmp7 = (void *)0;
  platform_set_drvdata(pdev, __cil_tmp7);
  __cil_tmp8 = 0 + 32;
  __cil_tmp9 = (unsigned long )nop;
  __cil_tmp10 = __cil_tmp9 + __cil_tmp8;
  __cil_tmp11 = *((struct usb_otg **)__cil_tmp10);
  __cil_tmp12 = (void const *)__cil_tmp11;
  kfree(__cil_tmp12);
  __cil_tmp13 = (void const *)nop;
  kfree(__cil_tmp13);
  }
  return (0);
}
}
static struct platform_driver nop_usb_xceiv_driver = {& nop_usb_xceiv_probe, & nop_usb_xceiv_remove, (void (*)(struct platform_device * ))0,
    (int (*)(struct platform_device * , pm_message_t state ))0, (int (*)(struct platform_device * ))0,
    {"nop_usb_xceiv", (struct bus_type *)0, & __this_module, (char const *)0, (_Bool)0,
     (struct of_device_id const *)0, (int (*)(struct device *dev ))0, (int (*)(struct device *dev ))0,
     (void (*)(struct device *dev ))0, (int (*)(struct device *dev , pm_message_t state ))0,
     (int (*)(struct device *dev ))0, (struct attribute_group const **)0, (struct dev_pm_ops const *)0,
     (struct driver_private *)0}, (struct platform_device_id const *)0};
static int nop_usb_xceiv_init(void) __attribute__((__section__(".init.text"), __no_instrument_function__)) ;
static int nop_usb_xceiv_init(void)
{ int tmp ;
  {
  {
  tmp = platform_driver_register(& nop_usb_xceiv_driver);
  }
  return (tmp);
}
}
int init_module(void)
{ int tmp ;
  {
  {
  tmp = nop_usb_xceiv_init();
  }
  return (tmp);
}
}
static void nop_usb_xceiv_exit(void) __attribute__((__section__(".exit.text"), __no_instrument_function__)) ;
static void nop_usb_xceiv_exit(void)
{
  {
  {
  platform_driver_unregister(& nop_usb_xceiv_driver);
  }
  return;
}
}
void cleanup_module(void)
{
  {
  {
  nop_usb_xceiv_exit();
  }
  return;
}
}
static char const __mod_alias173[29] __attribute__((__used__, __unused__, __section__(".modinfo"),
__aligned__(1))) =
  { (char const )'a', (char const )'l', (char const )'i', (char const )'a',
        (char const )'s', (char const )'=', (char const )'p', (char const )'l',
        (char const )'a', (char const )'t', (char const )'f', (char const )'o',
        (char const )'r', (char const )'m', (char const )':', (char const )'n',
        (char const )'o', (char const )'p', (char const )'_', (char const )'u',
        (char const )'s', (char const )'b', (char const )'_', (char const )'x',
        (char const )'c', (char const )'e', (char const )'i', (char const )'v',
        (char const )'\000'};
static char const __mod_author174[29] __attribute__((__used__, __unused__, __section__(".modinfo"),
__aligned__(1))) =
  { (char const )'a', (char const )'u', (char const )'t', (char const )'h',
        (char const )'o', (char const )'r', (char const )'=', (char const )'T',
        (char const )'e', (char const )'x', (char const )'a', (char const )'s',
        (char const )' ', (char const )'I', (char const )'n', (char const )'s',
        (char const )'t', (char const )'r', (char const )'u', (char const )'m',
        (char const )'e', (char const )'n', (char const )'t', (char const )'s',
        (char const )' ', (char const )'I', (char const )'n', (char const )'c',
        (char const )'\000'};
static char const __mod_description175[39] __attribute__((__used__, __unused__,
__section__(".modinfo"), __aligned__(1))) =
  { (char const )'d', (char const )'e', (char const )'s', (char const )'c',
        (char const )'r', (char const )'i', (char const )'p', (char const )'t',
        (char const )'i', (char const )'o', (char const )'n', (char const )'=',
        (char const )'N', (char const )'O', (char const )'P', (char const )' ',
        (char const )'U', (char const )'S', (char const )'B', (char const )' ',
        (char const )'T', (char const )'r', (char const )'a', (char const )'n',
        (char const )'s', (char const )'c', (char const )'e', (char const )'i',
        (char const )'v', (char const )'e', (char const )'r', (char const )' ',
        (char const )'d', (char const )'r', (char const )'i', (char const )'v',
        (char const )'e', (char const )'r', (char const )'\000'};
static char const __mod_license176[12] __attribute__((__used__, __unused__, __section__(".modinfo"),
__aligned__(1))) =
  { (char const )'l', (char const )'i', (char const )'c', (char const )'e',
        (char const )'n', (char const )'s', (char const )'e', (char const )'=',
        (char const )'G', (char const )'P', (char const )'L', (char const )'\000'};
void ldv_check_final_state(void) ;
extern void ldv_check_return_value(int res ) ;
extern void ldv_initialize(void) ;
extern int __VERIFIER_nondet_int(void) ;
int LDV_IN_INTERRUPT ;
static int res_nop_usb_xceiv_probe_5 ;
void main(void)
{ struct platform_device *var_group1 ;
  int tmp ;
  int ldv_s_nop_usb_xceiv_driver_platform_driver ;
  int tmp___0 ;
  int tmp___1 ;
  int __cil_tmp6 ;
  {
  {
  LDV_IN_INTERRUPT = 1;
  ldv_initialize();
  tmp = nop_usb_xceiv_init();
  }
  if (tmp) {
    goto ldv_final;
  } else {
  }
  ldv_s_nop_usb_xceiv_driver_platform_driver = 0;
  {
  while (1) {
    while_continue: ;
    {
    tmp___1 = __VERIFIER_nondet_int();
    }
    if (tmp___1) {
    } else {
      {
      __cil_tmp6 = ldv_s_nop_usb_xceiv_driver_platform_driver == 0;
      if (! __cil_tmp6) {
      } else {
        goto while_break;
      }
      }
    }
    {
    tmp___0 = __VERIFIER_nondet_int();
    }
    if (tmp___0 == 0) {
      goto case_0;
    } else {
      {
      goto switch_default;
      if (0) {
        case_0:
        if (ldv_s_nop_usb_xceiv_driver_platform_driver == 0) {
          {
          res_nop_usb_xceiv_probe_5 = nop_usb_xceiv_probe(var_group1);
          ldv_check_return_value(res_nop_usb_xceiv_probe_5);
          }
          if (res_nop_usb_xceiv_probe_5) {
            goto ldv_module_exit;
          } else {
          }
          ldv_s_nop_usb_xceiv_driver_platform_driver = 0;
        } else {
        }
        goto switch_break;
        switch_default:
        goto switch_break;
      } else {
        switch_break: ;
      }
      }
    }
  }
  while_break: ;
  }
  ldv_module_exit:
  {
  nop_usb_xceiv_exit();
  }
  ldv_final:
  {
  ldv_check_final_state();
  }
  return;
}
}
void ldv_blast_assert(void)
{
  {
  ERROR: {reach_error();abort();}
}
}
extern int __VERIFIER_nondet_int(void) ;
int ldv_mutex = 1;
int __attribute__((__warn_unused_result__)) mutex_lock_interruptible(struct mutex *lock )
{ int nondetermined ;
  {
  if (ldv_mutex == 1) {
  } else {
    {
    ldv_blast_assert();
    }
  }
  {
  nondetermined = __VERIFIER_nondet_int();
  }
  if (nondetermined) {
    ldv_mutex = 2;
    return (0);
  } else {
    return (-4);
  }
}
}
int __attribute__((__warn_unused_result__)) mutex_lock_killable(struct mutex *lock )
{ int nondetermined ;
  {
  if (ldv_mutex == 1) {
  } else {
    {
    ldv_blast_assert();
    }
  }
  {
  nondetermined = __VERIFIER_nondet_int();
  }
  if (nondetermined) {
    ldv_mutex = 2;
    return (0);
  } else {
    return (-4);
  }
}
}
int atomic_dec_and_mutex_lock(atomic_t *cnt , struct mutex *lock )
{ int atomic_value_after_dec ;
  {
  if (ldv_mutex == 1) {
  } else {
    {
    ldv_blast_assert();
    }
  }
  {
  atomic_value_after_dec = __VERIFIER_nondet_int();
  }
  if (atomic_value_after_dec == 0) {
    ldv_mutex = 2;
    return (1);
  } else {
  }
  return (0);
}
}
void mutex_lock(struct mutex *lock )
{
  {
  if (ldv_mutex == 1) {
  } else {
    {
    ldv_blast_assert();
    }
  }
  ldv_mutex = 2;
  return;
}
}
int mutex_trylock(struct mutex *lock )
{ int nondetermined ;
  {
  if (ldv_mutex == 1) {
  } else {
    {
    ldv_blast_assert();
    }
  }
  {
  nondetermined = __VERIFIER_nondet_int();
  }
  if (nondetermined) {
    ldv_mutex = 2;
    return (1);
  } else {
    return (0);
  }
}
}
void mutex_unlock(struct mutex *lock )
{
  {
  if (ldv_mutex == 2) {
  } else {
    {
    ldv_blast_assert();
    }
  }
  ldv_mutex = 1;
  return;
}
}
void ldv_check_final_state(void)
{
  {
  if (ldv_mutex == 1) {
  } else {
    {
    ldv_blast_assert();
    }
  }
  return;
}
}
long ldv__builtin_expect(long val , long res )
{
  {
  return (val);
}
}
void __raw_spin_lock_init(raw_spinlock_t *arg0, const char *arg1, struct lock_class_key *arg2) {
  return;
}
int __VERIFIER_nondet_int(void);
int dev_err(const struct device *arg0, const char *arg1, ...) {
  return __VERIFIER_nondet_int();
}
void *dev_get_drvdata(const struct device *arg0) {
  return ldv_malloc(0UL);
}
int __VERIFIER_nondet_int(void);
int dev_set_drvdata(struct device *arg0, void *arg1) {
  return __VERIFIER_nondet_int();
}
void ldv_check_return_value(int arg0) {
  return;
}
void ldv_initialize() {
  return;
}
struct platform_device *platform_device_register_full(const struct platform_device_info *arg0) {
  return ldv_malloc(sizeof(struct platform_device));
}
void platform_device_unregister(struct platform_device *arg0) {
  return;
}
int __VERIFIER_nondet_int(void);
int platform_driver_register(struct platform_driver *arg0) {
  return __VERIFIER_nondet_int();
}
void platform_driver_unregister(struct platform_driver *arg0) {
  return;
}
int __VERIFIER_nondet_int(void);
int printk(const char *arg0, ...) {
  return __VERIFIER_nondet_int();
}
int __VERIFIER_nondet_int(void);
int usb_set_transceiver(struct usb_phy *arg0) {
  return __VERIFIER_nondet_int();
}
void free(void *);
void kfree(void const *p) {
  free((void *)p);
}
