extern void abort(void);

extern void __assert_fail (const char *__assertion, const char *__file,
      unsigned int __line, const char *__function)
     __attribute__ ((__nothrow__ , __leaf__)) __attribute__ ((__noreturn__));
extern void __assert_perror_fail (int __errnum, const char *__file,
      unsigned int __line, const char *__function)
     __attribute__ ((__nothrow__ , __leaf__)) __attribute__ ((__noreturn__));
extern void __assert (const char *__assertion, const char *__file, int __line)
     __attribute__ ((__nothrow__ , __leaf__)) __attribute__ ((__noreturn__));

void reach_error() { ((void) sizeof ((0) ? 1 : 0), __extension__ ({ if (0) ; else __assert_fail ("0", "32_1_cilled_ok_nondet_linux-3.4-32_1-drivers--staging--comedi--drivers--adl_pci7296.ko-ldv_main0_sequence_infinite_withcheck_stateful.cil.out.c", 3, __extension__ __PRETTY_FUNCTION__); })); }
typedef unsigned short __u16;
typedef unsigned int __u32;
typedef unsigned long long __u64;
typedef unsigned char u8;
typedef short s16;
typedef unsigned short u16;
typedef unsigned int u32;
typedef long long s64;
typedef unsigned long long u64;
typedef long __kernel_long_t;
typedef unsigned long __kernel_ulong_t;
typedef __kernel_ulong_t __kernel_size_t;
typedef __kernel_long_t __kernel_ssize_t;
typedef long long __kernel_loff_t;
typedef __u32 __kernel_dev_t;
typedef __kernel_dev_t dev_t;
typedef unsigned short umode_t;
typedef _Bool bool;
typedef __kernel_loff_t loff_t;
typedef __kernel_size_t size_t;
typedef __kernel_ssize_t ssize_t;
typedef u64 dma_addr_t;
typedef unsigned int gfp_t;
typedef u64 phys_addr_t;
typedef phys_addr_t resource_size_t;
struct __anonstruct_atomic_t_7 {
   int counter ;
};
typedef struct __anonstruct_atomic_t_7 atomic_t;
struct __anonstruct_atomic64_t_8 {
   long counter ;
};
typedef struct __anonstruct_atomic64_t_8 atomic64_t;
struct list_head {
   struct list_head *next ;
   struct list_head *prev ;
};
struct hlist_node;
struct hlist_head {
   struct hlist_node *first ;
};
struct hlist_node {
   struct hlist_node *next ;
   struct hlist_node **pprev ;
};
struct module;
struct module;
typedef void (*ctor_fn_t)(void);
struct device;
struct device;
struct completion;
struct completion;
struct page;
struct page;
struct task_struct;
struct task_struct;
struct task_struct;
struct mm_struct;
struct mm_struct;
typedef unsigned long pgdval_t;
typedef unsigned long pgprotval_t;
struct pgprot {
   pgprotval_t pgprot ;
};
typedef struct pgprot pgprot_t;
struct __anonstruct_pgd_t_20 {
   pgdval_t pgd ;
};
typedef struct __anonstruct_pgd_t_20 pgd_t;
typedef struct page *pgtable_t;
struct file;
struct file;
struct page;
struct mm_struct;
struct task_struct;
struct cpumask;
struct cpumask;
struct arch_spinlock;
struct arch_spinlock;
struct task_struct;
struct task_struct;
struct bug_entry {
   int bug_addr_disp ;
   int file_disp ;
   unsigned short line ;
   unsigned short flags ;
};
struct cpumask {
   unsigned long bits[((4096UL + 8UL * sizeof(long )) - 1UL) / (8UL * sizeof(long ))] ;
};
typedef struct cpumask *cpumask_var_t;
struct static_key;
struct static_key;
struct kmem_cache;
typedef atomic64_t atomic_long_t;
typedef u16 __ticket_t;
typedef u32 __ticketpair_t;
struct __raw_tickets {
   __ticket_t head ;
   __ticket_t tail ;
};
union __anonunion____missing_field_name_36 {
   __ticketpair_t head_tail ;
   struct __raw_tickets tickets ;
};
struct arch_spinlock {
   union __anonunion____missing_field_name_36 __annonCompField17 ;
};
typedef struct arch_spinlock arch_spinlock_t;
struct task_struct;
struct lock_class_key {
};
struct raw_spinlock {
   arch_spinlock_t raw_lock ;
   unsigned int magic ;
   unsigned int owner_cpu ;
   void *owner ;
};
typedef struct raw_spinlock raw_spinlock_t;
union __anonunion____missing_field_name_39 {
   struct raw_spinlock rlock ;
};
struct spinlock {
   union __anonunion____missing_field_name_39 __annonCompField19 ;
};
typedef struct spinlock spinlock_t;
struct __wait_queue_head {
   spinlock_t lock ;
   struct list_head task_list ;
};
typedef struct __wait_queue_head wait_queue_head_t;
struct task_struct;
struct __anonstruct_nodemask_t_42 {
   unsigned long bits[(((unsigned long )(1 << 10) + 8UL * sizeof(long )) - 1UL) / (8UL * sizeof(long ))] ;
};
typedef struct __anonstruct_nodemask_t_42 nodemask_t;
struct page;
struct mutex {
   atomic_t count ;
   spinlock_t wait_lock ;
   struct list_head wait_list ;
   struct task_struct *owner ;
   char const *name ;
   void *magic ;
};
struct rw_semaphore;
struct rw_semaphore;
struct rw_semaphore {
   long count ;
   raw_spinlock_t wait_lock ;
   struct list_head wait_list ;
};
struct completion {
   unsigned int done ;
   wait_queue_head_t wait ;
};
struct page;
struct resource {
   resource_size_t start ;
   resource_size_t end ;
   char const *name ;
   unsigned long flags ;
   struct resource *parent ;
   struct resource *sibling ;
   struct resource *child ;
};
struct device;
struct pci_dev;
struct pci_dev;
struct device;
union ktime {
   s64 tv64 ;
};
typedef union ktime ktime_t;
struct tvec_base;
struct tvec_base;
struct timer_list {
   struct list_head entry ;
   unsigned long expires ;
   struct tvec_base *base ;
   void (*function)(unsigned long ) ;
   unsigned long data ;
   int slack ;
   int start_pid ;
   void *start_site ;
   char start_comm[16] ;
};
struct work_struct;
struct work_struct;
struct work_struct {
   atomic_long_t data ;
   struct list_head entry ;
   void (*func)(struct work_struct *work ) ;
};
struct device;
struct pm_message {
   int event ;
};
typedef struct pm_message pm_message_t;
struct dev_pm_ops {
   int (*prepare)(struct device *dev ) ;
   void (*complete)(struct device *dev ) ;
   int (*suspend)(struct device *dev ) ;
   int (*resume)(struct device *dev ) ;
   int (*freeze)(struct device *dev ) ;
   int (*thaw)(struct device *dev ) ;
   int (*poweroff)(struct device *dev ) ;
   int (*restore)(struct device *dev ) ;
   int (*suspend_late)(struct device *dev ) ;
   int (*resume_early)(struct device *dev ) ;
   int (*freeze_late)(struct device *dev ) ;
   int (*thaw_early)(struct device *dev ) ;
   int (*poweroff_late)(struct device *dev ) ;
   int (*restore_early)(struct device *dev ) ;
   int (*suspend_noirq)(struct device *dev ) ;
   int (*resume_noirq)(struct device *dev ) ;
   int (*freeze_noirq)(struct device *dev ) ;
   int (*thaw_noirq)(struct device *dev ) ;
   int (*poweroff_noirq)(struct device *dev ) ;
   int (*restore_noirq)(struct device *dev ) ;
   int (*runtime_suspend)(struct device *dev ) ;
   int (*runtime_resume)(struct device *dev ) ;
   int (*runtime_idle)(struct device *dev ) ;
};
enum rpm_status {
    RPM_ACTIVE = 0,
    RPM_RESUMING = 1,
    RPM_SUSPENDED = 2,
    RPM_SUSPENDING = 3
} ;
enum rpm_request {
    RPM_REQ_NONE = 0,
    RPM_REQ_IDLE = 1,
    RPM_REQ_SUSPEND = 2,
    RPM_REQ_AUTOSUSPEND = 3,
    RPM_REQ_RESUME = 4
} ;
struct wakeup_source;
struct wakeup_source;
struct pm_subsys_data {
   spinlock_t lock ;
   unsigned int refcount ;
};
struct dev_pm_qos_request;
struct pm_qos_constraints;
struct dev_pm_info {
   pm_message_t power_state ;
   unsigned int can_wakeup : 1 ;
   unsigned int async_suspend : 1 ;
   bool is_prepared : 1 ;
   bool is_suspended : 1 ;
   bool ignore_children : 1 ;
   spinlock_t lock ;
   struct list_head entry ;
   struct completion completion ;
   struct wakeup_source *wakeup ;
   bool wakeup_path : 1 ;
   struct timer_list suspend_timer ;
   unsigned long timer_expires ;
   struct work_struct work ;
   wait_queue_head_t wait_queue ;
   atomic_t usage_count ;
   atomic_t child_count ;
   unsigned int disable_depth : 3 ;
   unsigned int idle_notification : 1 ;
   unsigned int request_pending : 1 ;
   unsigned int deferred_resume : 1 ;
   unsigned int run_wake : 1 ;
   unsigned int runtime_auto : 1 ;
   unsigned int no_callbacks : 1 ;
   unsigned int irq_safe : 1 ;
   unsigned int use_autosuspend : 1 ;
   unsigned int timer_autosuspends : 1 ;
   enum rpm_request request ;
   enum rpm_status runtime_status ;
   int runtime_error ;
   int autosuspend_delay ;
   unsigned long last_busy ;
   unsigned long active_jiffies ;
   unsigned long suspended_jiffies ;
   unsigned long accounting_timestamp ;
   ktime_t suspend_time ;
   s64 max_time_suspended_ns ;
   struct dev_pm_qos_request *pq_req ;
   struct pm_subsys_data *subsys_data ;
   struct pm_qos_constraints *constraints ;
};
struct dev_pm_domain {
   struct dev_pm_ops ops ;
};
struct pci_bus;
struct pci_bus;
struct __anonstruct_mm_context_t_112 {
   void *ldt ;
   int size ;
   unsigned short ia32_compat ;
   struct mutex lock ;
   void *vdso ;
};
typedef struct __anonstruct_mm_context_t_112 mm_context_t;
struct pci_dev;
struct pci_dev;
struct vm_area_struct;
struct vm_area_struct;
struct page;
struct vm_area_struct;
struct completion;
struct rb_node {
   unsigned long rb_parent_color ;
   struct rb_node *rb_right ;
   struct rb_node *rb_left ;
} __attribute__((__aligned__(sizeof(long )))) ;
struct rb_root {
   struct rb_node *rb_node ;
};
struct file;
struct task_struct;
typedef __u64 Elf64_Addr;
typedef __u16 Elf64_Half;
typedef __u32 Elf64_Word;
typedef __u64 Elf64_Xword;
struct elf64_sym {
   Elf64_Word st_name ;
   unsigned char st_info ;
   unsigned char st_other ;
   Elf64_Half st_shndx ;
   Elf64_Addr st_value ;
   Elf64_Xword st_size ;
};
typedef struct elf64_sym Elf64_Sym;
struct file;
struct sock;
struct sock;
struct kobject;
struct kobject;
enum kobj_ns_type {
    KOBJ_NS_TYPE_NONE = 0,
    KOBJ_NS_TYPE_NET = 1,
    KOBJ_NS_TYPES = 2
} ;
struct kobj_ns_type_operations {
   enum kobj_ns_type type ;
   void *(*grab_current_ns)(void) ;
   void const *(*netlink_ns)(struct sock *sk ) ;
   void const *(*initial_ns)(void) ;
   void (*drop_ns)(void * ) ;
};
struct kobject;
struct module;
enum kobj_ns_type;
struct attribute {
   char const *name ;
   umode_t mode ;
};
struct attribute_group {
   char const *name ;
   umode_t (*is_visible)(struct kobject * , struct attribute * , int ) ;
   struct attribute **attrs ;
};
struct file;
struct vm_area_struct;
struct bin_attribute {
   struct attribute attr ;
   size_t size ;
   void *private ;
   ssize_t (*read)(struct file * , struct kobject * , struct bin_attribute * , char * ,
                   loff_t , size_t ) ;
   ssize_t (*write)(struct file * , struct kobject * , struct bin_attribute * , char * ,
                    loff_t , size_t ) ;
   int (*mmap)(struct file * , struct kobject * , struct bin_attribute *attr , struct vm_area_struct *vma ) ;
};
struct sysfs_ops {
   ssize_t (*show)(struct kobject * , struct attribute * , char * ) ;
   ssize_t (*store)(struct kobject * , struct attribute * , char const * , size_t ) ;
   void const *(*namespace)(struct kobject * , struct attribute const * ) ;
};
struct sysfs_dirent;
struct sysfs_dirent;
struct kref {
   atomic_t refcount ;
};
struct kset;
struct kobj_type;
struct kobject {
   char const *name ;
   struct list_head entry ;
   struct kobject *parent ;
   struct kset *kset ;
   struct kobj_type *ktype ;
   struct sysfs_dirent *sd ;
   struct kref kref ;
   unsigned int state_initialized : 1 ;
   unsigned int state_in_sysfs : 1 ;
   unsigned int state_add_uevent_sent : 1 ;
   unsigned int state_remove_uevent_sent : 1 ;
   unsigned int uevent_suppress : 1 ;
};
struct kobj_type {
   void (*release)(struct kobject *kobj ) ;
   struct sysfs_ops const *sysfs_ops ;
   struct attribute **default_attrs ;
   struct kobj_ns_type_operations const *(*child_ns_type)(struct kobject *kobj ) ;
   void const *(*namespace)(struct kobject *kobj ) ;
};
struct kobj_uevent_env {
   char *envp[32] ;
   int envp_idx ;
   char buf[2048] ;
   int buflen ;
};
struct kset_uevent_ops {
   int (* const filter)(struct kset *kset , struct kobject *kobj ) ;
   char const *(* const name)(struct kset *kset , struct kobject *kobj ) ;
   int (* const uevent)(struct kset *kset , struct kobject *kobj , struct kobj_uevent_env *env ) ;
};
struct sock;
struct kset {
   struct list_head list ;
   spinlock_t list_lock ;
   struct kobject kobj ;
   struct kset_uevent_ops const *uevent_ops ;
};
struct kernel_param;
struct kernel_param;
struct kernel_param_ops {
   int (*set)(char const *val , struct kernel_param const *kp ) ;
   int (*get)(char *buffer , struct kernel_param const *kp ) ;
   void (*free)(void *arg ) ;
};
struct kparam_string;
struct kparam_array;
union __anonunion____missing_field_name_199 {
   void *arg ;
   struct kparam_string const *str ;
   struct kparam_array const *arr ;
};
struct kernel_param {
   char const *name ;
   struct kernel_param_ops const *ops ;
   u16 perm ;
   s16 level ;
   union __anonunion____missing_field_name_199 __annonCompField32 ;
};
struct kparam_string {
   unsigned int maxlen ;
   char *string ;
};
struct kparam_array {
   unsigned int max ;
   unsigned int elemsize ;
   unsigned int *num ;
   struct kernel_param_ops const *ops ;
   void *elem ;
};
struct module;
struct module;
struct static_key {
   atomic_t enabled ;
};
struct module;
struct tracepoint;
struct tracepoint;
struct tracepoint_func {
   void *func ;
   void *data ;
};
struct tracepoint {
   char const *name ;
   struct static_key key ;
   void (*regfunc)(void) ;
   void (*unregfunc)(void) ;
   struct tracepoint_func *funcs ;
};
struct kernel_symbol {
   unsigned long value ;
   char const *name ;
};
struct mod_arch_specific {
};
struct module;
struct module_param_attrs;
struct module_kobject {
   struct kobject kobj ;
   struct module *mod ;
   struct kobject *drivers_dir ;
   struct module_param_attrs *mp ;
};
struct module_attribute {
   struct attribute attr ;
   ssize_t (*show)(struct module_attribute * , struct module_kobject * , char * ) ;
   ssize_t (*store)(struct module_attribute * , struct module_kobject * , char const * ,
                    size_t count ) ;
   void (*setup)(struct module * , char const * ) ;
   int (*test)(struct module * ) ;
   void (*free)(struct module * ) ;
};
struct exception_table_entry;
struct exception_table_entry;
enum module_state {
    MODULE_STATE_LIVE = 0,
    MODULE_STATE_COMING = 1,
    MODULE_STATE_GOING = 2
} ;
struct module_ref {
   unsigned long incs ;
   unsigned long decs ;
} __attribute__((__aligned__((2) * (sizeof(unsigned long )) ))) ;
struct module_sect_attrs;
struct module_notes_attrs;
struct ftrace_event_call;
struct module {
   enum module_state state ;
   struct list_head list ;
   char name[64UL - sizeof(unsigned long )] ;
   struct module_kobject mkobj ;
   struct module_attribute *modinfo_attrs ;
   char const *version ;
   char const *srcversion ;
   struct kobject *holders_dir ;
   struct kernel_symbol const *syms ;
   unsigned long const *crcs ;
   unsigned int num_syms ;
   struct kernel_param *kp ;
   unsigned int num_kp ;
   unsigned int num_gpl_syms ;
   struct kernel_symbol const *gpl_syms ;
   unsigned long const *gpl_crcs ;
   struct kernel_symbol const *unused_syms ;
   unsigned long const *unused_crcs ;
   unsigned int num_unused_syms ;
   unsigned int num_unused_gpl_syms ;
   struct kernel_symbol const *unused_gpl_syms ;
   unsigned long const *unused_gpl_crcs ;
   struct kernel_symbol const *gpl_future_syms ;
   unsigned long const *gpl_future_crcs ;
   unsigned int num_gpl_future_syms ;
   unsigned int num_exentries ;
   struct exception_table_entry *extable ;
   int (*init)(void) ;
   void *module_init ;
   void *module_core ;
   unsigned int init_size ;
   unsigned int core_size ;
   unsigned int init_text_size ;
   unsigned int core_text_size ;
   unsigned int init_ro_size ;
   unsigned int core_ro_size ;
   struct mod_arch_specific arch ;
   unsigned int taints ;
   unsigned int num_bugs ;
   struct list_head bug_list ;
   struct bug_entry *bug_table ;
   Elf64_Sym *symtab ;
   Elf64_Sym *core_symtab ;
   unsigned int num_symtab ;
   unsigned int core_num_syms ;
   char *strtab ;
   char *core_strtab ;
   struct module_sect_attrs *sect_attrs ;
   struct module_notes_attrs *notes_attrs ;
   char *args ;
   void *percpu ;
   unsigned int percpu_size ;
   unsigned int num_tracepoints ;
   struct tracepoint * const *tracepoints_ptrs ;
   unsigned int num_trace_bprintk_fmt ;
   char const **trace_bprintk_fmt_start ;
   struct ftrace_event_call **trace_events ;
   unsigned int num_trace_events ;
   struct list_head source_list ;
   struct list_head target_list ;
   struct task_struct *waiter ;
   void (*exit)(void) ;
   struct module_ref *refptr ;
   ctor_fn_t *ctors ;
   unsigned int num_ctors ;
};
struct kmem_cache_cpu {
   void **freelist ;
   unsigned long tid ;
   struct page *page ;
   struct page *partial ;
   int node ;
   unsigned int stat[26] ;
};
struct kmem_cache_node {
   spinlock_t list_lock ;
   unsigned long nr_partial ;
   struct list_head partial ;
   atomic_long_t nr_slabs ;
   atomic_long_t total_objects ;
   struct list_head full ;
};
struct kmem_cache_order_objects {
   unsigned long x ;
};
struct kmem_cache {
   struct kmem_cache_cpu *cpu_slab ;
   unsigned long flags ;
   unsigned long min_partial ;
   int size ;
   int objsize ;
   int offset ;
   int cpu_partial ;
   struct kmem_cache_order_objects oo ;
   struct kmem_cache_order_objects max ;
   struct kmem_cache_order_objects min ;
   gfp_t allocflags ;
   int refcount ;
   void (*ctor)(void * ) ;
   int inuse ;
   int align ;
   int reserved ;
   char const *name ;
   struct list_head list ;
   struct kobject kobj ;
   int remote_node_defrag_ratio ;
   struct kmem_cache_node *node[1 << 10] ;
};
struct prio_tree_node;
struct raw_prio_tree_node {
   struct prio_tree_node *left ;
   struct prio_tree_node *right ;
   struct prio_tree_node *parent ;
};
struct prio_tree_node {
   struct prio_tree_node *left ;
   struct prio_tree_node *right ;
   struct prio_tree_node *parent ;
   unsigned long start ;
   unsigned long last ;
};
struct task_struct;
struct task_struct;
struct address_space;
struct address_space;
union __anonunion____missing_field_name_202 {
   unsigned long index ;
   void *freelist ;
};
struct __anonstruct____missing_field_name_206 {
   unsigned int inuse : 16 ;
   unsigned int objects : 15 ;
   unsigned int frozen : 1 ;
};
union __anonunion____missing_field_name_205 {
   atomic_t _mapcount ;
   struct __anonstruct____missing_field_name_206 __annonCompField34 ;
};
struct __anonstruct____missing_field_name_204 {
   union __anonunion____missing_field_name_205 __annonCompField35 ;
   atomic_t _count ;
};
union __anonunion____missing_field_name_203 {
   unsigned long counters ;
   struct __anonstruct____missing_field_name_204 __annonCompField36 ;
};
struct __anonstruct____missing_field_name_201 {
   union __anonunion____missing_field_name_202 __annonCompField33 ;
   union __anonunion____missing_field_name_203 __annonCompField37 ;
};
struct __anonstruct____missing_field_name_208 {
   struct page *next ;
   int pages ;
   int pobjects ;
};
union __anonunion____missing_field_name_207 {
   struct list_head lru ;
   struct __anonstruct____missing_field_name_208 __annonCompField39 ;
};
union __anonunion____missing_field_name_209 {
   unsigned long private ;
   struct kmem_cache *slab ;
   struct page *first_page ;
};
struct page {
   unsigned long flags ;
   struct address_space *mapping ;
   struct __anonstruct____missing_field_name_201 __annonCompField38 ;
   union __anonunion____missing_field_name_207 __annonCompField40 ;
   union __anonunion____missing_field_name_209 __annonCompField41 ;
   unsigned long debug_flags ;
} __attribute__((__aligned__((2) * (sizeof(unsigned long )) ))) ;
struct __anonstruct_vm_set_211 {
   struct list_head list ;
   void *parent ;
   struct vm_area_struct *head ;
};
union __anonunion_shared_210 {
   struct __anonstruct_vm_set_211 vm_set ;
   struct raw_prio_tree_node prio_tree_node ;
};
struct anon_vma;
struct vm_operations_struct;
struct mempolicy;
struct vm_area_struct {
   struct mm_struct *vm_mm ;
   unsigned long vm_start ;
   unsigned long vm_end ;
   struct vm_area_struct *vm_next ;
   struct vm_area_struct *vm_prev ;
   pgprot_t vm_page_prot ;
   unsigned long vm_flags ;
   struct rb_node vm_rb ;
   union __anonunion_shared_210 shared ;
   struct list_head anon_vma_chain ;
   struct anon_vma *anon_vma ;
   struct vm_operations_struct const *vm_ops ;
   unsigned long vm_pgoff ;
   struct file *vm_file ;
   void *vm_private_data ;
   struct mempolicy *vm_policy ;
};
struct core_thread {
   struct task_struct *task ;
   struct core_thread *next ;
};
struct core_state {
   atomic_t nr_threads ;
   struct core_thread dumper ;
   struct completion startup ;
};
struct mm_rss_stat {
   atomic_long_t count[3] ;
};
struct linux_binfmt;
struct mmu_notifier_mm;
struct mm_struct {
   struct vm_area_struct *mmap ;
   struct rb_root mm_rb ;
   struct vm_area_struct *mmap_cache ;
   unsigned long (*get_unmapped_area)(struct file *filp , unsigned long addr , unsigned long len ,
                                      unsigned long pgoff , unsigned long flags ) ;
   void (*unmap_area)(struct mm_struct *mm , unsigned long addr ) ;
   unsigned long mmap_base ;
   unsigned long task_size ;
   unsigned long cached_hole_size ;
   unsigned long free_area_cache ;
   pgd_t *pgd ;
   atomic_t mm_users ;
   atomic_t mm_count ;
   int map_count ;
   spinlock_t page_table_lock ;
   struct rw_semaphore mmap_sem ;
   struct list_head mmlist ;
   unsigned long hiwater_rss ;
   unsigned long hiwater_vm ;
   unsigned long total_vm ;
   unsigned long locked_vm ;
   unsigned long pinned_vm ;
   unsigned long shared_vm ;
   unsigned long exec_vm ;
   unsigned long stack_vm ;
   unsigned long reserved_vm ;
   unsigned long def_flags ;
   unsigned long nr_ptes ;
   unsigned long start_code ;
   unsigned long end_code ;
   unsigned long start_data ;
   unsigned long end_data ;
   unsigned long start_brk ;
   unsigned long brk ;
   unsigned long start_stack ;
   unsigned long arg_start ;
   unsigned long arg_end ;
   unsigned long env_start ;
   unsigned long env_end ;
   unsigned long saved_auxv[44] ;
   struct mm_rss_stat rss_stat ;
   struct linux_binfmt *binfmt ;
   cpumask_var_t cpu_vm_mask_var ;
   mm_context_t context ;
   unsigned int faultstamp ;
   unsigned int token_priority ;
   unsigned int last_interval ;
   unsigned long flags ;
   struct core_state *core_state ;
   spinlock_t ioctx_lock ;
   struct hlist_head ioctx_list ;
   struct task_struct *owner ;
   struct file *exe_file ;
   unsigned long num_exe_file_vmas ;
   struct mmu_notifier_mm *mmu_notifier_mm ;
   pgtable_t pmd_huge_pte ;
   struct cpumask cpumask_allocation ;
};
struct mempolicy;
struct anon_vma;
struct mm_struct;
struct vm_area_struct;
struct vm_fault {
   unsigned int flags ;
   unsigned long pgoff ;
   void *virtual_address ;
   struct page *page ;
};
struct vm_operations_struct {
   void (*open)(struct vm_area_struct *area ) ;
   void (*close)(struct vm_area_struct *area ) ;
   int (*fault)(struct vm_area_struct *vma , struct vm_fault *vmf ) ;
   int (*page_mkwrite)(struct vm_area_struct *vma , struct vm_fault *vmf ) ;
   int (*access)(struct vm_area_struct *vma , unsigned long addr , void *buf , int len ,
                 int write ) ;
   int (*set_policy)(struct vm_area_struct *vma , struct mempolicy *new ) ;
   struct mempolicy *(*get_policy)(struct vm_area_struct *vma , unsigned long addr ) ;
   int (*migrate)(struct vm_area_struct *vma , nodemask_t const *from , nodemask_t const *to ,
                  unsigned long flags ) ;
};
struct page;
struct klist_node;
struct klist_node;
struct klist_node {
   void *n_klist ;
   struct list_head n_node ;
   struct kref n_ref ;
};
struct dma_map_ops;
struct dev_archdata {
   void *acpi_handle ;
   struct dma_map_ops *dma_ops ;
   void *iommu ;
};
struct device;
struct device_private;
struct device_private;
struct device_driver;
struct device_driver;
struct driver_private;
struct driver_private;
struct module;
struct class;
struct class;
struct subsys_private;
struct subsys_private;
struct bus_type;
struct bus_type;
struct device_node;
struct device_node;
struct iommu_ops;
struct iommu_ops;
struct bus_attribute {
   struct attribute attr ;
   ssize_t (*show)(struct bus_type *bus , char *buf ) ;
   ssize_t (*store)(struct bus_type *bus , char const *buf , size_t count ) ;
};
struct device_attribute;
struct driver_attribute;
struct bus_type {
   char const *name ;
   char const *dev_name ;
   struct device *dev_root ;
   struct bus_attribute *bus_attrs ;
   struct device_attribute *dev_attrs ;
   struct driver_attribute *drv_attrs ;
   int (*match)(struct device *dev , struct device_driver *drv ) ;
   int (*uevent)(struct device *dev , struct kobj_uevent_env *env ) ;
   int (*probe)(struct device *dev ) ;
   int (*remove)(struct device *dev ) ;
   void (*shutdown)(struct device *dev ) ;
   int (*suspend)(struct device *dev , pm_message_t state ) ;
   int (*resume)(struct device *dev ) ;
   struct dev_pm_ops const *pm ;
   struct iommu_ops *iommu_ops ;
   struct subsys_private *p ;
};
struct device_type;
struct of_device_id;
struct device_driver {
   char const *name ;
   struct bus_type *bus ;
   struct module *owner ;
   char const *mod_name ;
   bool suppress_bind_attrs ;
   struct of_device_id const *of_match_table ;
   int (*probe)(struct device *dev ) ;
   int (*remove)(struct device *dev ) ;
   void (*shutdown)(struct device *dev ) ;
   int (*suspend)(struct device *dev , pm_message_t state ) ;
   int (*resume)(struct device *dev ) ;
   struct attribute_group const **groups ;
   struct dev_pm_ops const *pm ;
   struct driver_private *p ;
};
struct driver_attribute {
   struct attribute attr ;
   ssize_t (*show)(struct device_driver *driver , char *buf ) ;
   ssize_t (*store)(struct device_driver *driver , char const *buf , size_t count ) ;
};
struct class_attribute;
struct class {
   char const *name ;
   struct module *owner ;
   struct class_attribute *class_attrs ;
   struct device_attribute *dev_attrs ;
   struct bin_attribute *dev_bin_attrs ;
   struct kobject *dev_kobj ;
   int (*dev_uevent)(struct device *dev , struct kobj_uevent_env *env ) ;
   char *(*devnode)(struct device *dev , umode_t *mode ) ;
   void (*class_release)(struct class *class ) ;
   void (*dev_release)(struct device *dev ) ;
   int (*suspend)(struct device *dev , pm_message_t state ) ;
   int (*resume)(struct device *dev ) ;
   struct kobj_ns_type_operations const *ns_type ;
   void const *(*namespace)(struct device *dev ) ;
   struct dev_pm_ops const *pm ;
   struct subsys_private *p ;
};
struct class_attribute {
   struct attribute attr ;
   ssize_t (*show)(struct class *class , struct class_attribute *attr , char *buf ) ;
   ssize_t (*store)(struct class *class , struct class_attribute *attr , char const *buf ,
                    size_t count ) ;
   void const *(*namespace)(struct class *class , struct class_attribute const *attr ) ;
};
struct device_type {
   char const *name ;
   struct attribute_group const **groups ;
   int (*uevent)(struct device *dev , struct kobj_uevent_env *env ) ;
   char *(*devnode)(struct device *dev , umode_t *mode ) ;
   void (*release)(struct device *dev ) ;
   struct dev_pm_ops const *pm ;
};
struct device_attribute {
   struct attribute attr ;
   ssize_t (*show)(struct device *dev , struct device_attribute *attr , char *buf ) ;
   ssize_t (*store)(struct device *dev , struct device_attribute *attr , char const *buf ,
                    size_t count ) ;
};
struct device_dma_parameters {
   unsigned int max_segment_size ;
   unsigned long segment_boundary_mask ;
};
struct dma_coherent_mem;
struct device {
   struct device *parent ;
   struct device_private *p ;
   struct kobject kobj ;
   char const *init_name ;
   struct device_type const *type ;
   struct mutex mutex ;
   struct bus_type *bus ;
   struct device_driver *driver ;
   void *platform_data ;
   struct dev_pm_info power ;
   struct dev_pm_domain *pm_domain ;
   int numa_node ;
   u64 *dma_mask ;
   u64 coherent_dma_mask ;
   struct device_dma_parameters *dma_parms ;
   struct list_head dma_pools ;
   struct dma_coherent_mem *dma_mem ;
   struct dev_archdata archdata ;
   struct device_node *of_node ;
   dev_t devt ;
   u32 id ;
   spinlock_t devres_lock ;
   struct list_head devres_head ;
   struct klist_node knode_class ;
   struct class *class ;
   struct attribute_group const **groups ;
   void (*release)(struct device *dev ) ;
};
struct wakeup_source {
   char const *name ;
   struct list_head entry ;
   spinlock_t lock ;
   struct timer_list timer ;
   unsigned long timer_expires ;
   ktime_t total_time ;
   ktime_t max_time ;
   ktime_t last_time ;
   unsigned long event_count ;
   unsigned long active_count ;
   unsigned long relax_count ;
   unsigned long hit_count ;
   unsigned int active : 1 ;
};
struct dma_attrs {
   unsigned long flags[((4UL + 8UL * sizeof(long )) - 1UL) / (8UL * sizeof(long ))] ;
};
enum dma_data_direction {
    DMA_BIDIRECTIONAL = 0,
    DMA_TO_DEVICE = 1,
    DMA_FROM_DEVICE = 2,
    DMA_NONE = 3
} ;
struct scatterlist {
   unsigned long sg_magic ;
   unsigned long page_link ;
   unsigned int offset ;
   unsigned int length ;
   dma_addr_t dma_address ;
   unsigned int dma_length ;
};
struct dma_map_ops {
   void *(*alloc)(struct device *dev , size_t size , dma_addr_t *dma_handle , gfp_t gfp ,
                  struct dma_attrs *attrs ) ;
   void (*free)(struct device *dev , size_t size , void *vaddr , dma_addr_t dma_handle ,
                struct dma_attrs *attrs ) ;
   int (*mmap)(struct device * , struct vm_area_struct * , void * , dma_addr_t ,
               size_t , struct dma_attrs *attrs ) ;
   dma_addr_t (*map_page)(struct device *dev , struct page *page , unsigned long offset ,
                          size_t size , enum dma_data_direction dir , struct dma_attrs *attrs ) ;
   void (*unmap_page)(struct device *dev , dma_addr_t dma_handle , size_t size , enum dma_data_direction dir ,
                      struct dma_attrs *attrs ) ;
   int (*map_sg)(struct device *dev , struct scatterlist *sg , int nents , enum dma_data_direction dir ,
                 struct dma_attrs *attrs ) ;
   void (*unmap_sg)(struct device *dev , struct scatterlist *sg , int nents , enum dma_data_direction dir ,
                    struct dma_attrs *attrs ) ;
   void (*sync_single_for_cpu)(struct device *dev , dma_addr_t dma_handle , size_t size ,
                               enum dma_data_direction dir ) ;
   void (*sync_single_for_device)(struct device *dev , dma_addr_t dma_handle , size_t size ,
                                  enum dma_data_direction dir ) ;
   void (*sync_sg_for_cpu)(struct device *dev , struct scatterlist *sg , int nents ,
                           enum dma_data_direction dir ) ;
   void (*sync_sg_for_device)(struct device *dev , struct scatterlist *sg , int nents ,
                              enum dma_data_direction dir ) ;
   int (*mapping_error)(struct device *dev , dma_addr_t dma_addr ) ;
   int (*dma_supported)(struct device *dev , u64 mask ) ;
   int (*set_dma_mask)(struct device *dev , u64 mask ) ;
   int is_phys ;
};
struct device;
struct scatterlist;
struct bus_type;
struct device;
struct dma_attrs;
struct scatterlist;
struct exception_table_entry {
   unsigned long insn ;
   unsigned long fixup ;
};
struct device;
struct comedi_insn {
   unsigned int insn ;
   unsigned int n ;
   unsigned int *data ;
   unsigned int subdev ;
   unsigned int chanspec ;
   unsigned int unused[3] ;
};
struct comedi_cmd {
   unsigned int subdev ;
   unsigned int flags ;
   unsigned int start_src ;
   unsigned int start_arg ;
   unsigned int scan_begin_src ;
   unsigned int scan_begin_arg ;
   unsigned int convert_src ;
   unsigned int convert_arg ;
   unsigned int scan_end_src ;
   unsigned int scan_end_arg ;
   unsigned int stop_src ;
   unsigned int stop_arg ;
   unsigned int *chanlist ;
   unsigned int chanlist_len ;
   short *data ;
   unsigned int data_len ;
};
struct comedi_krange {
   int min ;
   int max ;
   unsigned int flags ;
};
struct comedi_devconfig {
   char board_name[20] ;
   int options[32] ;
};
struct comedi_device;
struct comedi_async;
struct comedi_lrange;
struct comedi_subdevice {
   struct comedi_device *device ;
   int type ;
   int n_chan ;
   int subdev_flags ;
   int len_chanlist ;
   void *private ;
   struct comedi_async *async ;
   void *lock ;
   void *busy ;
   unsigned int runflags ;
   spinlock_t spin_lock ;
   int io_bits ;
   unsigned int maxdata ;
   unsigned int const *maxdata_list ;
   unsigned int flags ;
   unsigned int const *flaglist ;
   unsigned int settling_time_0 ;
   struct comedi_lrange const *range_table ;
   struct comedi_lrange const * const *range_table_list ;
   unsigned int *chanlist ;
   int (*insn_read)(struct comedi_device * , struct comedi_subdevice * , struct comedi_insn * ,
                    unsigned int * ) ;
   int (*insn_write)(struct comedi_device * , struct comedi_subdevice * , struct comedi_insn * ,
                     unsigned int * ) ;
   int (*insn_bits)(struct comedi_device * , struct comedi_subdevice * , struct comedi_insn * ,
                    unsigned int * ) ;
   int (*insn_config)(struct comedi_device * , struct comedi_subdevice * , struct comedi_insn * ,
                      unsigned int * ) ;
   int (*do_cmd)(struct comedi_device * , struct comedi_subdevice * ) ;
   int (*do_cmdtest)(struct comedi_device * , struct comedi_subdevice * , struct comedi_cmd * ) ;
   int (*poll)(struct comedi_device * , struct comedi_subdevice * ) ;
   int (*cancel)(struct comedi_device * , struct comedi_subdevice * ) ;
   int (*buf_change)(struct comedi_device *dev , struct comedi_subdevice *s , unsigned long new_size ) ;
   void (*munge)(struct comedi_device *dev , struct comedi_subdevice *s , void *data ,
                 unsigned int num_bytes , unsigned int start_chan_index ) ;
   enum dma_data_direction async_dma_dir ;
   unsigned int state ;
   struct device *class_dev ;
   int minor ;
};
struct comedi_buf_page {
   void *virt_addr ;
   dma_addr_t dma_addr ;
};
struct comedi_async {
   struct comedi_subdevice *subdevice ;
   void *prealloc_buf ;
   unsigned int prealloc_bufsz ;
   struct comedi_buf_page *buf_page_list ;
   unsigned int n_buf_pages ;
   unsigned int max_bufsize ;
   unsigned int mmap_count ;
   unsigned int buf_write_count ;
   unsigned int buf_write_alloc_count ;
   unsigned int buf_read_count ;
   unsigned int buf_read_alloc_count ;
   unsigned int buf_write_ptr ;
   unsigned int buf_read_ptr ;
   unsigned int cur_chan ;
   unsigned int scan_progress ;
   unsigned int munge_chan ;
   unsigned int munge_count ;
   unsigned int munge_ptr ;
   unsigned int events ;
   struct comedi_cmd cmd ;
   wait_queue_head_t wait_head ;
   unsigned int cb_mask ;
   int (*cb_func)(unsigned int flags , void * ) ;
   void *cb_arg ;
   int (*inttrig)(struct comedi_device *dev , struct comedi_subdevice *s , unsigned int x ) ;
};
struct comedi_driver {
   struct comedi_driver *next ;
   char const *driver_name ;
   struct module *module ;
   int (*attach)(struct comedi_device * , struct comedi_devconfig * ) ;
   int (*detach)(struct comedi_device * ) ;
   unsigned int num_names ;
   char const * const *board_name ;
   int offset ;
};
struct fasync_struct;
struct comedi_device {
   int use_count ;
   struct comedi_driver *driver ;
   void *private ;
   struct device *class_dev ;
   int minor ;
   struct device *hw_dev ;
   char const *board_name ;
   void const *board_ptr ;
   int attached ;
   spinlock_t spinlock ;
   struct mutex mutex ;
   int in_request_module ;
   int n_subdevices ;
   struct comedi_subdevice *subdevices ;
   unsigned long iobase ;
   unsigned int irq ;
   struct comedi_subdevice *read_subdev ;
   struct comedi_subdevice *write_subdev ;
   struct fasync_struct *async_queue ;
   int (*open)(struct comedi_device *dev ) ;
   void (*close)(struct comedi_device *dev ) ;
};
struct comedi_lrange {
   int length ;
   struct comedi_krange range[] ;
};
typedef unsigned long kernel_ulong_t;
struct pci_device_id {
   __u32 vendor ;
   __u32 device ;
   __u32 subvendor ;
   __u32 subdevice ;
   __u32 class ;
   __u32 class_mask ;
   kernel_ulong_t driver_data ;
};
struct of_device_id {
   char name[32] ;
   char type[32] ;
   char compatible[128] ;
   void *data ;
};
struct hotplug_slot;
struct pci_slot {
   struct pci_bus *bus ;
   struct list_head list ;
   struct hotplug_slot *hotplug ;
   unsigned char number ;
   struct kobject kobj ;
};
typedef int pci_power_t;
typedef unsigned int pci_channel_state_t;
enum pci_channel_state {
    pci_channel_io_normal = 1,
    pci_channel_io_frozen = 2,
    pci_channel_io_perm_failure = 3
} ;
typedef unsigned short pci_dev_flags_t;
typedef unsigned short pci_bus_flags_t;
struct pcie_link_state;
struct pcie_link_state;
struct pci_vpd;
struct pci_vpd;
struct pci_sriov;
struct pci_sriov;
struct pci_ats;
struct pci_ats;
struct proc_dir_entry;
struct pci_driver;
union __anonunion____missing_field_name_215 {
   struct pci_sriov *sriov ;
   struct pci_dev *physfn ;
};
struct pci_dev {
   struct list_head bus_list ;
   struct pci_bus *bus ;
   struct pci_bus *subordinate ;
   void *sysdata ;
   struct proc_dir_entry *procent ;
   struct pci_slot *slot ;
   unsigned int devfn ;
   unsigned short vendor ;
   unsigned short device ;
   unsigned short subsystem_vendor ;
   unsigned short subsystem_device ;
   unsigned int class ;
   u8 revision ;
   u8 hdr_type ;
   u8 pcie_cap ;
   u8 pcie_type : 4 ;
   u8 pcie_mpss : 3 ;
   u8 rom_base_reg ;
   u8 pin ;
   struct pci_driver *driver ;
   u64 dma_mask ;
   struct device_dma_parameters dma_parms ;
   pci_power_t current_state ;
   int pm_cap ;
   unsigned int pme_support : 5 ;
   unsigned int pme_interrupt : 1 ;
   unsigned int pme_poll : 1 ;
   unsigned int d1_support : 1 ;
   unsigned int d2_support : 1 ;
   unsigned int no_d1d2 : 1 ;
   unsigned int mmio_always_on : 1 ;
   unsigned int wakeup_prepared : 1 ;
   unsigned int d3_delay ;
   struct pcie_link_state *link_state ;
   pci_channel_state_t error_state ;
   struct device dev ;
   int cfg_size ;
   unsigned int irq ;
   struct resource resource[17] ;
   unsigned int transparent : 1 ;
   unsigned int multifunction : 1 ;
   unsigned int is_added : 1 ;
   unsigned int is_busmaster : 1 ;
   unsigned int no_msi : 1 ;
   unsigned int block_cfg_access : 1 ;
   unsigned int broken_parity_status : 1 ;
   unsigned int irq_reroute_variant : 2 ;
   unsigned int msi_enabled : 1 ;
   unsigned int msix_enabled : 1 ;
   unsigned int ari_enabled : 1 ;
   unsigned int is_managed : 1 ;
   unsigned int is_pcie : 1 ;
   unsigned int needs_freset : 1 ;
   unsigned int state_saved : 1 ;
   unsigned int is_physfn : 1 ;
   unsigned int is_virtfn : 1 ;
   unsigned int reset_fn : 1 ;
   unsigned int is_hotplug_bridge : 1 ;
   unsigned int __aer_firmware_first_valid : 1 ;
   unsigned int __aer_firmware_first : 1 ;
   pci_dev_flags_t dev_flags ;
   atomic_t enable_cnt ;
   u32 saved_config_space[16] ;
   struct hlist_head saved_cap_space ;
   struct bin_attribute *rom_attr ;
   int rom_attr_enabled ;
   struct bin_attribute *res_attr[17] ;
   struct bin_attribute *res_attr_wc[17] ;
   struct list_head msi_list ;
   struct kset *msi_kset ;
   struct pci_vpd *vpd ;
   union __anonunion____missing_field_name_215 __annonCompField42 ;
   struct pci_ats *ats ;
};
struct pci_ops;
struct pci_bus {
   struct list_head node ;
   struct pci_bus *parent ;
   struct list_head children ;
   struct list_head devices ;
   struct pci_dev *self ;
   struct list_head slots ;
   struct resource *resource[4] ;
   struct list_head resources ;
   struct pci_ops *ops ;
   void *sysdata ;
   struct proc_dir_entry *procdir ;
   unsigned char number ;
   unsigned char primary ;
   unsigned char secondary ;
   unsigned char subordinate ;
   unsigned char max_bus_speed ;
   unsigned char cur_bus_speed ;
   char name[48] ;
   unsigned short bridge_ctl ;
   pci_bus_flags_t bus_flags ;
   struct device *bridge ;
   struct device dev ;
   struct bin_attribute *legacy_io ;
   struct bin_attribute *legacy_mem ;
   unsigned int is_added : 1 ;
};
struct pci_ops {
   int (*read)(struct pci_bus *bus , unsigned int devfn , int where , int size , u32 *val ) ;
   int (*write)(struct pci_bus *bus , unsigned int devfn , int where , int size ,
                u32 val ) ;
};
struct pci_dynids {
   spinlock_t lock ;
   struct list_head list ;
};
typedef unsigned int pci_ers_result_t;
struct pci_error_handlers {
   pci_ers_result_t (*error_detected)(struct pci_dev *dev , enum pci_channel_state error ) ;
   pci_ers_result_t (*mmio_enabled)(struct pci_dev *dev ) ;
   pci_ers_result_t (*link_reset)(struct pci_dev *dev ) ;
   pci_ers_result_t (*slot_reset)(struct pci_dev *dev ) ;
   void (*resume)(struct pci_dev *dev ) ;
};
struct module;
struct pci_driver {
   struct list_head node ;
   char const *name ;
   struct pci_device_id const *id_table ;
   int (*probe)(struct pci_dev *dev , struct pci_device_id const *id ) ;
   void (*remove)(struct pci_dev *dev ) ;
   int (*suspend)(struct pci_dev *dev , pm_message_t state ) ;
   int (*suspend_late)(struct pci_dev *dev , pm_message_t state ) ;
   int (*resume_early)(struct pci_dev *dev ) ;
   int (*resume)(struct pci_dev *dev ) ;
   void (*shutdown)(struct pci_dev *dev ) ;
   struct pci_error_handlers *err_handler ;
   struct device_driver driver ;
   struct pci_dynids dynids ;
};
struct adl_pci7296_private {
   int data ;
   struct pci_dev *pci_dev ;
};
long ldv__builtin_expect(long val , long res ) ;
extern int ( printk)(char const *fmt , ...) ;
extern void __raw_spin_lock_init(raw_spinlock_t *lock , char const *name , struct lock_class_key *key ) ;
 static raw_spinlock_t *spinlock_check(spinlock_t *lock ) __attribute__((__no_instrument_function__)) ;
 static raw_spinlock_t *spinlock_check(spinlock_t *lock )
{
  {
  return ((struct raw_spinlock *)lock);
}
}
void mutex_lock(struct mutex *lock ) ;
int __attribute__((__warn_unused_result__)) mutex_lock_interruptible(struct mutex *lock ) ;
int __attribute__((__warn_unused_result__)) mutex_lock_killable(struct mutex *lock ) ;
int mutex_trylock(struct mutex *lock ) ;
void mutex_unlock(struct mutex *lock ) ;
int atomic_dec_and_mutex_lock(atomic_t *cnt , struct mutex *lock ) ;
extern struct module __this_module ;
int init_module(void) ;
void cleanup_module(void) ;
extern int __VERIFIER_nondet_int(void);
extern void abort(void);
void assume_abort_if_not(int cond) {
  if(!cond) {abort();}
}
extern void *malloc(size_t size);
long ldv_is_err(const void *ptr)
{
  return ((unsigned long)ptr > ((unsigned long)-4095));
}
void *ldv_malloc(size_t size)
{
 if (__VERIFIER_nondet_int()) {
  void *res = malloc(size);
  assume_abort_if_not(!ldv_is_err(res));
  return res;
 } else {
  return ((void *)0);
 }
}
void *__kmalloc(size_t size, gfp_t t)
{
 return ldv_malloc(size);
}
 static void *( __attribute__((__always_inline__)) kmalloc)(size_t size ,
                                                                    gfp_t flags ) __attribute__((__no_instrument_function__)) ;
 static void *( __attribute__((__always_inline__)) kmalloc)(size_t size ,
                                                                    gfp_t flags )
{ void *tmp___2 ;
  {
  {
  tmp___2 = __kmalloc(size, flags);
  }
  return (tmp___2);
}
}
 static void *kmalloc_array(size_t n , size_t size , gfp_t flags ) __attribute__((__no_instrument_function__)) ;
 static void *kmalloc_array(size_t n , size_t size , gfp_t flags )
{ void *tmp ;
  unsigned long __cil_tmp5 ;
  size_t __cil_tmp6 ;
  {
  if (size != 0UL) {
    {
    __cil_tmp5 = 0xffffffffffffffffUL / size;
    if (n > __cil_tmp5) {
      return ((void *)0);
    } else {
    }
    }
  } else {
  }
  {
  __cil_tmp6 = n * size;
  tmp = __kmalloc(__cil_tmp6, flags);
  }
  return (tmp);
}
}
 static void *kcalloc(size_t n , size_t size , gfp_t flags ) __attribute__((__no_instrument_function__)) ;
void *ldv_calloc(size_t nmemb , size_t size ) ;
 static void *kcalloc(size_t n , size_t size , gfp_t flags )
{ void *tmp ;
  unsigned int __cil_tmp5 ;
  {
  {
  __cil_tmp5 = flags | 32768U;
  tmp = kmalloc_array(n, size, __cil_tmp5);
  }
  return (tmp);
}
}
 static void *kzalloc(size_t size , gfp_t flags ) __attribute__((__no_instrument_function__)) ;
void *ldv_zalloc(size_t size ) ;
 static void *kzalloc(size_t size , gfp_t flags )
{ void *tmp ;
  unsigned int __cil_tmp4 ;
  {
  {
  __cil_tmp4 = flags | 32768U;
  tmp = kmalloc(size, __cil_tmp4);
  }
  return (tmp);
}
}
extern int comedi_driver_register(struct comedi_driver * ) ;
extern int comedi_driver_unregister(struct comedi_driver * ) ;
static struct lock_class_key __key___2 ;
 static int alloc_subdevices(struct comedi_device *dev , unsigned int num_subdevices ) __attribute__((__no_instrument_function__)) ;
 static int alloc_subdevices(struct comedi_device *dev , unsigned int num_subdevices )
{ unsigned int i ;
  void *tmp ;
  unsigned long __cil_tmp5 ;
  unsigned long __cil_tmp6 ;
  size_t __cil_tmp7 ;
  unsigned long __cil_tmp8 ;
  unsigned long __cil_tmp9 ;
  unsigned long __cil_tmp10 ;
  unsigned long __cil_tmp11 ;
  struct comedi_subdevice *__cil_tmp12 ;
  unsigned long __cil_tmp13 ;
  unsigned long __cil_tmp14 ;
  struct comedi_subdevice *__cil_tmp15 ;
  struct comedi_subdevice *__cil_tmp16 ;
  unsigned long __cil_tmp17 ;
  unsigned long __cil_tmp18 ;
  struct comedi_subdevice *__cil_tmp19 ;
  struct comedi_subdevice *__cil_tmp20 ;
  unsigned long __cil_tmp21 ;
  unsigned long __cil_tmp22 ;
  unsigned long __cil_tmp23 ;
  unsigned long __cil_tmp24 ;
  struct comedi_subdevice *__cil_tmp25 ;
  struct comedi_subdevice *__cil_tmp26 ;
  unsigned long __cil_tmp27 ;
  unsigned long __cil_tmp28 ;
  spinlock_t *__cil_tmp29 ;
  unsigned long __cil_tmp30 ;
  unsigned long __cil_tmp31 ;
  struct comedi_subdevice *__cil_tmp32 ;
  struct comedi_subdevice *__cil_tmp33 ;
  unsigned long __cil_tmp34 ;
  unsigned long __cil_tmp35 ;
  struct raw_spinlock *__cil_tmp36 ;
  unsigned long __cil_tmp37 ;
  unsigned long __cil_tmp38 ;
  struct comedi_subdevice *__cil_tmp39 ;
  struct comedi_subdevice *__cil_tmp40 ;
  unsigned long __cil_tmp41 ;
  unsigned long __cil_tmp42 ;
  {
  {
  __cil_tmp5 = (unsigned long )dev;
  __cil_tmp6 = __cil_tmp5 + 172;
  *((int *)__cil_tmp6) = (int )num_subdevices;
  __cil_tmp7 = (size_t )num_subdevices;
  tmp = kcalloc(__cil_tmp7, 256UL, 208U);
  __cil_tmp8 = (unsigned long )dev;
  __cil_tmp9 = __cil_tmp8 + 176;
  *((struct comedi_subdevice **)__cil_tmp9) = (struct comedi_subdevice *)tmp;
  }
  {
  __cil_tmp10 = (unsigned long )dev;
  __cil_tmp11 = __cil_tmp10 + 176;
  __cil_tmp12 = *((struct comedi_subdevice **)__cil_tmp11);
  if (! __cil_tmp12) {
    return (-12);
  } else {
  }
  }
  i = 0U;
  {
  while (1) {
    while_continue: ;
    if (i < num_subdevices) {
    } else {
      goto while_break;
    }
    __cil_tmp13 = (unsigned long )dev;
    __cil_tmp14 = __cil_tmp13 + 176;
    __cil_tmp15 = *((struct comedi_subdevice **)__cil_tmp14);
    __cil_tmp16 = __cil_tmp15 + i;
    *((struct comedi_device **)__cil_tmp16) = dev;
    __cil_tmp17 = (unsigned long )dev;
    __cil_tmp18 = __cil_tmp17 + 176;
    __cil_tmp19 = *((struct comedi_subdevice **)__cil_tmp18);
    __cil_tmp20 = __cil_tmp19 + i;
    __cil_tmp21 = (unsigned long )__cil_tmp20;
    __cil_tmp22 = __cil_tmp21 + 232;
    *((enum dma_data_direction *)__cil_tmp22) = (enum dma_data_direction )3;
    {
    while (1) {
      while_continue___0: ;
      {
      __cil_tmp23 = (unsigned long )dev;
      __cil_tmp24 = __cil_tmp23 + 176;
      __cil_tmp25 = *((struct comedi_subdevice **)__cil_tmp24);
      __cil_tmp26 = __cil_tmp25 + i;
      __cil_tmp27 = (unsigned long )__cil_tmp26;
      __cil_tmp28 = __cil_tmp27 + 64;
      __cil_tmp29 = (spinlock_t *)__cil_tmp28;
      spinlock_check(__cil_tmp29);
      }
      {
      while (1) {
        while_continue___1: ;
        {
        __cil_tmp30 = (unsigned long )dev;
        __cil_tmp31 = __cil_tmp30 + 176;
        __cil_tmp32 = *((struct comedi_subdevice **)__cil_tmp31);
        __cil_tmp33 = __cil_tmp32 + i;
        __cil_tmp34 = (unsigned long )__cil_tmp33;
        __cil_tmp35 = __cil_tmp34 + 64;
        __cil_tmp36 = (struct raw_spinlock *)__cil_tmp35;
        __raw_spin_lock_init(__cil_tmp36, "&(&dev->subdevices[i].spin_lock)->rlock",
                             & __key___2);
        }
        goto while_break___1;
      }
      while_break___1: ;
      }
      goto while_break___0;
    }
    while_break___0: ;
    }
    __cil_tmp37 = (unsigned long )dev;
    __cil_tmp38 = __cil_tmp37 + 176;
    __cil_tmp39 = *((struct comedi_subdevice **)__cil_tmp38);
    __cil_tmp40 = __cil_tmp39 + i;
    __cil_tmp41 = (unsigned long )__cil_tmp40;
    __cil_tmp42 = __cil_tmp41 + 248;
    *((int *)__cil_tmp42) = -1;
    i = i + 1U;
  }
  while_break: ;
  }
  return (0);
}
}
 static int alloc_private(struct comedi_device *dev , int size ) __attribute__((__no_instrument_function__)) ;
 static int alloc_private(struct comedi_device *dev , int size )
{ unsigned long __cil_tmp3 ;
  unsigned long __cil_tmp4 ;
  size_t __cil_tmp5 ;
  unsigned long __cil_tmp6 ;
  unsigned long __cil_tmp7 ;
  void *__cil_tmp8 ;
  {
  {
  __cil_tmp3 = (unsigned long )dev;
  __cil_tmp4 = __cil_tmp3 + 16;
  __cil_tmp5 = (size_t )size;
  *((void **)__cil_tmp4) = kzalloc(__cil_tmp5, 208U);
  }
  {
  __cil_tmp6 = (unsigned long )dev;
  __cil_tmp7 = __cil_tmp6 + 16;
  __cil_tmp8 = *((void **)__cil_tmp7);
  if (! __cil_tmp8) {
    return (-12);
  } else {
  }
  }
  return (0);
}
}
extern int comedi_pci_auto_config(struct pci_dev *pcidev , char const *board_name ) ;
extern void comedi_pci_auto_unconfig(struct pci_dev *pcidev ) ;
extern void pci_dev_put(struct pci_dev *dev ) ;
extern struct pci_dev *pci_get_device(unsigned int vendor , unsigned int device ,
                                      struct pci_dev *from ) ;
extern int __attribute__((__warn_unused_result__)) pci_enable_device(struct pci_dev *dev ) ;
extern void pci_disable_device(struct pci_dev *dev ) ;
extern int __attribute__((__warn_unused_result__)) pci_request_regions(struct pci_dev * ,
                                                                        char const * ) ;
extern void pci_release_regions(struct pci_dev * ) ;
extern int __attribute__((__warn_unused_result__)) __pci_register_driver(struct pci_driver * ,
                                                                          struct module * ,
                                                                          char const *mod_name ) ;
extern void pci_unregister_driver(struct pci_driver *dev ) ;
 static int comedi_pci_enable(struct pci_dev *pdev , char const *res_name ) __attribute__((__no_instrument_function__)) ;
 static int comedi_pci_enable(struct pci_dev *pdev , char const *res_name )
{ int rc ;
  {
  {
  rc = (int )pci_enable_device(pdev);
  }
  if (rc < 0) {
    return (rc);
  } else {
  }
  {
  rc = (int )pci_request_regions(pdev, res_name);
  }
  if (rc < 0) {
    {
    pci_disable_device(pdev);
    }
  } else {
  }
  return (rc);
}
}
 static void comedi_pci_disable(struct pci_dev *pdev ) __attribute__((__no_instrument_function__)) ;
 static void comedi_pci_disable(struct pci_dev *pdev )
{
  {
  {
  pci_release_regions(pdev);
  pci_disable_device(pdev);
  }
  return;
}
}
extern int subdev_8255_init(struct comedi_device *dev , struct comedi_subdevice *s ,
                            int (*cb)(int , int , int , unsigned long ) , unsigned long arg ) ;
extern void subdev_8255_cleanup(struct comedi_device *dev , struct comedi_subdevice *s ) ;
static struct pci_device_id const adl_pci7296_pci_table[2] __attribute__((__section__(".devinit.rodata"))) = { {(__u32 )5194,
      (__u32 )29334, (__u32 )(~ 0), (__u32 )(~ 0), 0U, 0U, 0UL},
        {(__u32 )0, 0U, 0U, 0U, 0U, 0U, 0UL}};
extern struct pci_device_id const __mod_pci_device_table __attribute__((__unused__,
__alias__("adl_pci7296_pci_table"))) ;
static int adl_pci7296_attach(struct comedi_device *dev , struct comedi_devconfig *it ) ;
static int adl_pci7296_detach(struct comedi_device *dev ) ;
static struct comedi_driver driver_adl_pci7296 =
     {(struct comedi_driver *)0, "adl_pci7296", & __this_module, & adl_pci7296_attach,
    & adl_pci7296_detach, 0U, (char const * const *)0, 0};
static int adl_pci7296_attach(struct comedi_device *dev , struct comedi_devconfig *it )
{ struct pci_dev *pcidev ;
  struct comedi_subdevice *s ;
  int bus ;
  int slot ;
  int ret ;
  int tmp ;
  int tmp___0 ;
  int tmp___1 ;
  void *__cil_tmp11 ;
  unsigned long __cil_tmp12 ;
  unsigned long __cil_tmp13 ;
  int __cil_tmp14 ;
  unsigned long __cil_tmp15 ;
  unsigned long __cil_tmp16 ;
  unsigned long __cil_tmp17 ;
  unsigned long __cil_tmp18 ;
  unsigned long __cil_tmp19 ;
  unsigned long __cil_tmp20 ;
  unsigned long __cil_tmp21 ;
  unsigned long __cil_tmp22 ;
  unsigned long __cil_tmp23 ;
  unsigned long __cil_tmp24 ;
  int __cil_tmp25 ;
  int __cil_tmp26 ;
  unsigned int __cil_tmp27 ;
  int __cil_tmp28 ;
  unsigned int __cil_tmp29 ;
  void *__cil_tmp30 ;
  unsigned long __cil_tmp31 ;
  unsigned long __cil_tmp32 ;
  unsigned long __cil_tmp33 ;
  unsigned long __cil_tmp34 ;
  unsigned short __cil_tmp35 ;
  int __cil_tmp36 ;
  unsigned long __cil_tmp37 ;
  unsigned long __cil_tmp38 ;
  unsigned short __cil_tmp39 ;
  int __cil_tmp40 ;
  unsigned long __cil_tmp41 ;
  unsigned long __cil_tmp42 ;
  struct pci_bus *__cil_tmp43 ;
  unsigned long __cil_tmp44 ;
  unsigned long __cil_tmp45 ;
  unsigned char __cil_tmp46 ;
  int __cil_tmp47 ;
  unsigned int __cil_tmp48 ;
  unsigned long __cil_tmp49 ;
  unsigned long __cil_tmp50 ;
  unsigned int __cil_tmp51 ;
  unsigned int __cil_tmp52 ;
  unsigned int __cil_tmp53 ;
  unsigned long __cil_tmp54 ;
  unsigned long __cil_tmp55 ;
  void *__cil_tmp56 ;
  struct adl_pci7296_private *__cil_tmp57 ;
  unsigned long __cil_tmp58 ;
  unsigned long __cil_tmp59 ;
  unsigned long __cil_tmp60 ;
  unsigned long __cil_tmp61 ;
  int __cil_tmp62 ;
  unsigned long __cil_tmp63 ;
  unsigned long __cil_tmp64 ;
  unsigned long __cil_tmp65 ;
  unsigned long __cil_tmp66 ;
  unsigned long __cil_tmp67 ;
  unsigned long __cil_tmp68 ;
  resource_size_t __cil_tmp69 ;
  unsigned long __cil_tmp70 ;
  unsigned long __cil_tmp71 ;
  unsigned long __cil_tmp72 ;
  unsigned long __cil_tmp73 ;
  unsigned long __cil_tmp74 ;
  struct comedi_subdevice *__cil_tmp75 ;
  void *__cil_tmp76 ;
  int (*__cil_tmp77)(int , int , int , unsigned long ) ;
  unsigned long __cil_tmp78 ;
  unsigned long __cil_tmp79 ;
  unsigned long __cil_tmp80 ;
  unsigned long __cil_tmp81 ;
  unsigned long __cil_tmp82 ;
  struct comedi_subdevice *__cil_tmp83 ;
  void *__cil_tmp84 ;
  int (*__cil_tmp85)(int , int , int , unsigned long ) ;
  unsigned long __cil_tmp86 ;
  unsigned long __cil_tmp87 ;
  unsigned long __cil_tmp88 ;
  unsigned long __cil_tmp89 ;
  unsigned long __cil_tmp90 ;
  unsigned long __cil_tmp91 ;
  struct comedi_subdevice *__cil_tmp92 ;
  void *__cil_tmp93 ;
  int (*__cil_tmp94)(int , int , int , unsigned long ) ;
  unsigned long __cil_tmp95 ;
  unsigned long __cil_tmp96 ;
  unsigned long __cil_tmp97 ;
  unsigned long __cil_tmp98 ;
  unsigned long __cil_tmp99 ;
  unsigned long __cil_tmp100 ;
  struct comedi_subdevice *__cil_tmp101 ;
  void *__cil_tmp102 ;
  int (*__cil_tmp103)(int , int , int , unsigned long ) ;
  unsigned long __cil_tmp104 ;
  unsigned long __cil_tmp105 ;
  unsigned long __cil_tmp106 ;
  unsigned long __cil_tmp107 ;
  unsigned long __cil_tmp108 ;
  unsigned long __cil_tmp109 ;
  int __cil_tmp110 ;
  unsigned long __cil_tmp111 ;
  unsigned long __cil_tmp112 ;
  int __cil_tmp113 ;
  {
  {
  __cil_tmp11 = (void *)0;
  pcidev = (struct pci_dev *)__cil_tmp11;
  __cil_tmp12 = (unsigned long )dev;
  __cil_tmp13 = __cil_tmp12 + 32;
  __cil_tmp14 = *((int *)__cil_tmp13);
  printk("<6>comedi%d: attach adl_pci7432\n", __cil_tmp14);
  __cil_tmp15 = (unsigned long )dev;
  __cil_tmp16 = __cil_tmp15 + 48;
  *((char const **)__cil_tmp16) = "pci7432";
  __cil_tmp17 = 0 * 4UL;
  __cil_tmp18 = 20 + __cil_tmp17;
  __cil_tmp19 = (unsigned long )it;
  __cil_tmp20 = __cil_tmp19 + __cil_tmp18;
  bus = *((int *)__cil_tmp20);
  __cil_tmp21 = 1 * 4UL;
  __cil_tmp22 = 20 + __cil_tmp21;
  __cil_tmp23 = (unsigned long )it;
  __cil_tmp24 = __cil_tmp23 + __cil_tmp22;
  slot = *((int *)__cil_tmp24);
  __cil_tmp25 = (int )16UL;
  tmp = alloc_private(dev, __cil_tmp25);
  }
  if (tmp < 0) {
    return (-12);
  } else {
  }
  {
  tmp___0 = alloc_subdevices(dev, 4U);
  }
  if (tmp___0 < 0) {
    return (-12);
  } else {
  }
  {
  while (1) {
    while_continue: ;
    {
    __cil_tmp26 = ~ 0;
    __cil_tmp27 = (unsigned int )__cil_tmp26;
    __cil_tmp28 = ~ 0;
    __cil_tmp29 = (unsigned int )__cil_tmp28;
    pcidev = pci_get_device(__cil_tmp27, __cil_tmp29, pcidev);
    }
    {
    __cil_tmp30 = (void *)0;
    __cil_tmp31 = (unsigned long )__cil_tmp30;
    __cil_tmp32 = (unsigned long )pcidev;
    if (__cil_tmp32 != __cil_tmp31) {
    } else {
      goto while_break;
    }
    }
    {
    __cil_tmp33 = (unsigned long )pcidev;
    __cil_tmp34 = __cil_tmp33 + 60;
    __cil_tmp35 = *((unsigned short *)__cil_tmp34);
    __cil_tmp36 = (int )__cil_tmp35;
    if (__cil_tmp36 == 5194) {
      {
      __cil_tmp37 = (unsigned long )pcidev;
      __cil_tmp38 = __cil_tmp37 + 62;
      __cil_tmp39 = *((unsigned short *)__cil_tmp38);
      __cil_tmp40 = (int )__cil_tmp39;
      if (__cil_tmp40 == 29334) {
        if (bus) {
          goto _L;
        } else
        if (slot) {
          _L:
          {
          __cil_tmp41 = (unsigned long )pcidev;
          __cil_tmp42 = __cil_tmp41 + 16;
          __cil_tmp43 = *((struct pci_bus **)__cil_tmp42);
          __cil_tmp44 = (unsigned long )__cil_tmp43;
          __cil_tmp45 = __cil_tmp44 + 152;
          __cil_tmp46 = *((unsigned char *)__cil_tmp45);
          __cil_tmp47 = (int )__cil_tmp46;
          if (__cil_tmp47 != bus) {
            goto while_continue;
          } else {
            {
            __cil_tmp48 = (unsigned int )slot;
            __cil_tmp49 = (unsigned long )pcidev;
            __cil_tmp50 = __cil_tmp49 + 56;
            __cil_tmp51 = *((unsigned int *)__cil_tmp50);
            __cil_tmp52 = __cil_tmp51 >> 3;
            __cil_tmp53 = __cil_tmp52 & 31U;
            if (__cil_tmp53 != __cil_tmp48) {
              goto while_continue;
            } else {
            }
            }
          }
          }
        } else {
        }
        {
        __cil_tmp54 = (unsigned long )dev;
        __cil_tmp55 = __cil_tmp54 + 16;
        __cil_tmp56 = *((void **)__cil_tmp55);
        __cil_tmp57 = (struct adl_pci7296_private *)__cil_tmp56;
        __cil_tmp58 = (unsigned long )__cil_tmp57;
        __cil_tmp59 = __cil_tmp58 + 8;
        *((struct pci_dev **)__cil_tmp59) = pcidev;
        tmp___1 = comedi_pci_enable(pcidev, "adl_pci7296");
        }
        if (tmp___1 < 0) {
          {
          __cil_tmp60 = (unsigned long )dev;
          __cil_tmp61 = __cil_tmp60 + 32;
          __cil_tmp62 = *((int *)__cil_tmp61);
          printk("<3>comedi%d: Failed to enable PCI device and request regions\n",
                 __cil_tmp62);
          }
          return (-5);
        } else {
        }
        {
        __cil_tmp63 = (unsigned long )dev;
        __cil_tmp64 = __cil_tmp63 + 184;
        __cil_tmp65 = 2 * 56UL;
        __cil_tmp66 = 920 + __cil_tmp65;
        __cil_tmp67 = (unsigned long )pcidev;
        __cil_tmp68 = __cil_tmp67 + __cil_tmp66;
        __cil_tmp69 = *((resource_size_t *)__cil_tmp68);
        *((unsigned long *)__cil_tmp64) = (unsigned long )__cil_tmp69;
        __cil_tmp70 = (unsigned long )dev;
        __cil_tmp71 = __cil_tmp70 + 184;
        __cil_tmp72 = *((unsigned long *)__cil_tmp71);
        printk("<6>comedi: base addr %4lx\n", __cil_tmp72);
        __cil_tmp73 = (unsigned long )dev;
        __cil_tmp74 = __cil_tmp73 + 176;
        __cil_tmp75 = *((struct comedi_subdevice **)__cil_tmp74);
        s = __cil_tmp75 + 0;
        __cil_tmp76 = (void *)0;
        __cil_tmp77 = (int (*)(int , int , int , unsigned long ))__cil_tmp76;
        __cil_tmp78 = (unsigned long )dev;
        __cil_tmp79 = __cil_tmp78 + 184;
        __cil_tmp80 = *((unsigned long *)__cil_tmp79);
        subdev_8255_init(dev, s, __cil_tmp77, __cil_tmp80);
        __cil_tmp81 = (unsigned long )dev;
        __cil_tmp82 = __cil_tmp81 + 176;
        __cil_tmp83 = *((struct comedi_subdevice **)__cil_tmp82);
        s = __cil_tmp83 + 1;
        __cil_tmp84 = (void *)0;
        __cil_tmp85 = (int (*)(int , int , int , unsigned long ))__cil_tmp84;
        __cil_tmp86 = (unsigned long )dev;
        __cil_tmp87 = __cil_tmp86 + 184;
        __cil_tmp88 = *((unsigned long *)__cil_tmp87);
        __cil_tmp89 = __cil_tmp88 + 4UL;
        ret = subdev_8255_init(dev, s, __cil_tmp85, __cil_tmp89);
        }
        if (ret < 0) {
          return (ret);
        } else {
        }
        {
        __cil_tmp90 = (unsigned long )dev;
        __cil_tmp91 = __cil_tmp90 + 176;
        __cil_tmp92 = *((struct comedi_subdevice **)__cil_tmp91);
        s = __cil_tmp92 + 2;
        __cil_tmp93 = (void *)0;
        __cil_tmp94 = (int (*)(int , int , int , unsigned long ))__cil_tmp93;
        __cil_tmp95 = (unsigned long )dev;
        __cil_tmp96 = __cil_tmp95 + 184;
        __cil_tmp97 = *((unsigned long *)__cil_tmp96);
        __cil_tmp98 = __cil_tmp97 + 8UL;
        ret = subdev_8255_init(dev, s, __cil_tmp94, __cil_tmp98);
        }
        if (ret < 0) {
          return (ret);
        } else {
        }
        {
        __cil_tmp99 = (unsigned long )dev;
        __cil_tmp100 = __cil_tmp99 + 176;
        __cil_tmp101 = *((struct comedi_subdevice **)__cil_tmp100);
        s = __cil_tmp101 + 3;
        __cil_tmp102 = (void *)0;
        __cil_tmp103 = (int (*)(int , int , int , unsigned long ))__cil_tmp102;
        __cil_tmp104 = (unsigned long )dev;
        __cil_tmp105 = __cil_tmp104 + 184;
        __cil_tmp106 = *((unsigned long *)__cil_tmp105);
        __cil_tmp107 = __cil_tmp106 + 12UL;
        ret = subdev_8255_init(dev, s, __cil_tmp103, __cil_tmp107);
        }
        if (ret < 0) {
          return (ret);
        } else {
        }
        {
        __cil_tmp108 = (unsigned long )dev;
        __cil_tmp109 = __cil_tmp108 + 32;
        __cil_tmp110 = *((int *)__cil_tmp109);
        printk("<7>comedi%d: adl_pci7432 attached\n", __cil_tmp110);
        }
        return (1);
      } else {
      }
      }
    } else {
    }
    }
  }
  while_break: ;
  }
  {
  __cil_tmp111 = (unsigned long )dev;
  __cil_tmp112 = __cil_tmp111 + 32;
  __cil_tmp113 = *((int *)__cil_tmp112);
  printk("<3>comedi%d: no supported board found! (req. bus/slot : %d/%d)\n", __cil_tmp113,
         bus, slot);
  }
  return (-5);
}
}
static int adl_pci7296_detach(struct comedi_device *dev )
{ unsigned long __cil_tmp2 ;
  unsigned long __cil_tmp3 ;
  int __cil_tmp4 ;
  unsigned long __cil_tmp5 ;
  unsigned long __cil_tmp6 ;
  void *__cil_tmp7 ;
  unsigned long __cil_tmp8 ;
  unsigned long __cil_tmp9 ;
  void *__cil_tmp10 ;
  struct adl_pci7296_private *__cil_tmp11 ;
  unsigned long __cil_tmp12 ;
  unsigned long __cil_tmp13 ;
  unsigned long __cil_tmp14 ;
  unsigned long __cil_tmp15 ;
  unsigned long __cil_tmp16 ;
  unsigned long __cil_tmp17 ;
  void *__cil_tmp18 ;
  struct adl_pci7296_private *__cil_tmp19 ;
  unsigned long __cil_tmp20 ;
  unsigned long __cil_tmp21 ;
  struct pci_dev *__cil_tmp22 ;
  unsigned long __cil_tmp23 ;
  unsigned long __cil_tmp24 ;
  void *__cil_tmp25 ;
  struct adl_pci7296_private *__cil_tmp26 ;
  unsigned long __cil_tmp27 ;
  unsigned long __cil_tmp28 ;
  struct pci_dev *__cil_tmp29 ;
  unsigned long __cil_tmp30 ;
  unsigned long __cil_tmp31 ;
  unsigned long __cil_tmp32 ;
  unsigned long __cil_tmp33 ;
  struct comedi_subdevice *__cil_tmp34 ;
  struct comedi_subdevice *__cil_tmp35 ;
  unsigned long __cil_tmp36 ;
  unsigned long __cil_tmp37 ;
  struct comedi_subdevice *__cil_tmp38 ;
  struct comedi_subdevice *__cil_tmp39 ;
  unsigned long __cil_tmp40 ;
  unsigned long __cil_tmp41 ;
  struct comedi_subdevice *__cil_tmp42 ;
  struct comedi_subdevice *__cil_tmp43 ;
  unsigned long __cil_tmp44 ;
  unsigned long __cil_tmp45 ;
  struct comedi_subdevice *__cil_tmp46 ;
  struct comedi_subdevice *__cil_tmp47 ;
  {
  {
  __cil_tmp2 = (unsigned long )dev;
  __cil_tmp3 = __cil_tmp2 + 32;
  __cil_tmp4 = *((int *)__cil_tmp3);
  printk("<6>comedi%d: pci7432: remove\n", __cil_tmp4);
  }
  {
  __cil_tmp5 = (unsigned long )dev;
  __cil_tmp6 = __cil_tmp5 + 16;
  __cil_tmp7 = *((void **)__cil_tmp6);
  if ((struct adl_pci7296_private *)__cil_tmp7) {
    {
    __cil_tmp8 = (unsigned long )dev;
    __cil_tmp9 = __cil_tmp8 + 16;
    __cil_tmp10 = *((void **)__cil_tmp9);
    __cil_tmp11 = (struct adl_pci7296_private *)__cil_tmp10;
    __cil_tmp12 = (unsigned long )__cil_tmp11;
    __cil_tmp13 = __cil_tmp12 + 8;
    if (*((struct pci_dev **)__cil_tmp13)) {
      {
      __cil_tmp14 = (unsigned long )dev;
      __cil_tmp15 = __cil_tmp14 + 184;
      if (*((unsigned long *)__cil_tmp15)) {
        {
        __cil_tmp16 = (unsigned long )dev;
        __cil_tmp17 = __cil_tmp16 + 16;
        __cil_tmp18 = *((void **)__cil_tmp17);
        __cil_tmp19 = (struct adl_pci7296_private *)__cil_tmp18;
        __cil_tmp20 = (unsigned long )__cil_tmp19;
        __cil_tmp21 = __cil_tmp20 + 8;
        __cil_tmp22 = *((struct pci_dev **)__cil_tmp21);
        comedi_pci_disable(__cil_tmp22);
        }
      } else {
      }
      }
      {
      __cil_tmp23 = (unsigned long )dev;
      __cil_tmp24 = __cil_tmp23 + 16;
      __cil_tmp25 = *((void **)__cil_tmp24);
      __cil_tmp26 = (struct adl_pci7296_private *)__cil_tmp25;
      __cil_tmp27 = (unsigned long )__cil_tmp26;
      __cil_tmp28 = __cil_tmp27 + 8;
      __cil_tmp29 = *((struct pci_dev **)__cil_tmp28);
      pci_dev_put(__cil_tmp29);
      }
    } else {
    }
    }
  } else {
  }
  }
  {
  __cil_tmp30 = (unsigned long )dev;
  __cil_tmp31 = __cil_tmp30 + 176;
  if (*((struct comedi_subdevice **)__cil_tmp31)) {
    {
    __cil_tmp32 = (unsigned long )dev;
    __cil_tmp33 = __cil_tmp32 + 176;
    __cil_tmp34 = *((struct comedi_subdevice **)__cil_tmp33);
    __cil_tmp35 = __cil_tmp34 + 0;
    subdev_8255_cleanup(dev, __cil_tmp35);
    __cil_tmp36 = (unsigned long )dev;
    __cil_tmp37 = __cil_tmp36 + 176;
    __cil_tmp38 = *((struct comedi_subdevice **)__cil_tmp37);
    __cil_tmp39 = __cil_tmp38 + 1;
    subdev_8255_cleanup(dev, __cil_tmp39);
    __cil_tmp40 = (unsigned long )dev;
    __cil_tmp41 = __cil_tmp40 + 176;
    __cil_tmp42 = *((struct comedi_subdevice **)__cil_tmp41);
    __cil_tmp43 = __cil_tmp42 + 2;
    subdev_8255_cleanup(dev, __cil_tmp43);
    __cil_tmp44 = (unsigned long )dev;
    __cil_tmp45 = __cil_tmp44 + 176;
    __cil_tmp46 = *((struct comedi_subdevice **)__cil_tmp45);
    __cil_tmp47 = __cil_tmp46 + 3;
    subdev_8255_cleanup(dev, __cil_tmp47);
    }
  } else {
  }
  }
  return (0);
}
}
static int driver_adl_pci7296_pci_probe(struct pci_dev *dev , struct pci_device_id const *ent ) __attribute__((__section__(".devinit.text"),
__no_instrument_function__)) ;
static int driver_adl_pci7296_pci_probe(struct pci_dev *dev , struct pci_device_id const *ent )
{ int tmp ;
  unsigned long __cil_tmp4 ;
  char const *__cil_tmp5 ;
  {
  {
  __cil_tmp4 = (unsigned long )(& driver_adl_pci7296) + 8;
  __cil_tmp5 = *((char const **)__cil_tmp4);
  tmp = comedi_pci_auto_config(dev, __cil_tmp5);
  }
  return (tmp);
}
}
static void driver_adl_pci7296_pci_remove(struct pci_dev *dev ) __attribute__((__section__(".devexit.text"),
__no_instrument_function__)) ;
static void driver_adl_pci7296_pci_remove(struct pci_dev *dev )
{
  {
  {
  comedi_pci_auto_unconfig(dev);
  }
  return;
}
}
static struct pci_driver driver_adl_pci7296_pci_driver =
     {{(struct list_head *)0, (struct list_head *)0}, (char const *)0, adl_pci7296_pci_table,
    & driver_adl_pci7296_pci_probe, & driver_adl_pci7296_pci_remove, (int (*)(struct pci_dev *dev ,
                                                                              pm_message_t state ))0,
    (int (*)(struct pci_dev *dev , pm_message_t state ))0, (int (*)(struct pci_dev *dev ))0,
    (int (*)(struct pci_dev *dev ))0, (void (*)(struct pci_dev *dev ))0, (struct pci_error_handlers *)0,
    {(char const *)0, (struct bus_type *)0, (struct module *)0, (char const *)0,
     (_Bool)0, (struct of_device_id const *)0, (int (*)(struct device *dev ))0,
     (int (*)(struct device *dev ))0, (void (*)(struct device *dev ))0, (int (*)(struct device *dev ,
                                                                                 pm_message_t state ))0,
     (int (*)(struct device *dev ))0, (struct attribute_group const **)0, (struct dev_pm_ops const *)0,
     (struct driver_private *)0}, {{{{{{0U}}, 0U, 0U, (void *)0}}}, {(struct list_head *)0,
                                                                     (struct list_head *)0}}};
static int driver_adl_pci7296_init_module(void) __attribute__((__section__(".init.text"),
__no_instrument_function__)) ;
static int driver_adl_pci7296_init_module(void)
{ int retval ;
  int tmp ;
  unsigned long __cil_tmp3 ;
  unsigned long __cil_tmp4 ;
  char const *__cil_tmp5 ;
  char *__cil_tmp6 ;
  {
  {
  retval = comedi_driver_register(& driver_adl_pci7296);
  }
  if (retval < 0) {
    return (retval);
  } else {
  }
  {
  __cil_tmp3 = (unsigned long )(& driver_adl_pci7296_pci_driver) + 16;
  __cil_tmp4 = (unsigned long )(& driver_adl_pci7296) + 8;
  __cil_tmp5 = *((char const **)__cil_tmp4);
  __cil_tmp6 = (char *)__cil_tmp5;
  *((char const **)__cil_tmp3) = (char const *)__cil_tmp6;
  tmp = (int )__pci_register_driver(& driver_adl_pci7296_pci_driver, & __this_module,
                                    "adl_pci7296");
  }
  return (tmp);
}
}
static void driver_adl_pci7296_cleanup_module(void) __attribute__((__section__(".exit.text"),
__no_instrument_function__)) ;
static void driver_adl_pci7296_cleanup_module(void)
{
  {
  {
  pci_unregister_driver(& driver_adl_pci7296_pci_driver);
  comedi_driver_unregister(& driver_adl_pci7296);
  }
  return;
}
}
int init_module(void)
{ int tmp ;
  {
  {
  tmp = driver_adl_pci7296_init_module();
  }
  return (tmp);
}
}
void cleanup_module(void)
{
  {
  {
  driver_adl_pci7296_cleanup_module();
  }
  return;
}
}
static char const __mod_author216[36] __attribute__((__used__, __unused__, __section__(".modinfo"),
__aligned__(1))) =
  { (char const )'a', (char const )'u', (char const )'t', (char const )'h',
        (char const )'o', (char const )'r', (char const )'=', (char const )'C',
        (char const )'o', (char const )'m', (char const )'e', (char const )'d',
        (char const )'i', (char const )' ', (char const )'h', (char const )'t',
        (char const )'t', (char const )'p', (char const )':', (char const )'/',
        (char const )'/', (char const )'w', (char const )'w', (char const )'w',
        (char const )'.', (char const )'c', (char const )'o', (char const )'m',
        (char const )'e', (char const )'d', (char const )'i', (char const )'.',
        (char const )'o', (char const )'r', (char const )'g', (char const )'\000'};
static char const __mod_description217[36] __attribute__((__used__, __unused__,
__section__(".modinfo"), __aligned__(1))) =
  { (char const )'d', (char const )'e', (char const )'s', (char const )'c',
        (char const )'r', (char const )'i', (char const )'p', (char const )'t',
        (char const )'i', (char const )'o', (char const )'n', (char const )'=',
        (char const )'C', (char const )'o', (char const )'m', (char const )'e',
        (char const )'d', (char const )'i', (char const )' ', (char const )'l',
        (char const )'o', (char const )'w', (char const )'-', (char const )'l',
        (char const )'e', (char const )'v', (char const )'e', (char const )'l',
        (char const )' ', (char const )'d', (char const )'r', (char const )'i',
        (char const )'v', (char const )'e', (char const )'r', (char const )'\000'};
static char const __mod_license218[12] __attribute__((__used__, __unused__, __section__(".modinfo"),
__aligned__(1))) =
  { (char const )'l', (char const )'i', (char const )'c', (char const )'e',
        (char const )'n', (char const )'s', (char const )'e', (char const )'=',
        (char const )'G', (char const )'P', (char const )'L', (char const )'\000'};
void ldv_check_final_state(void) ;
extern void ldv_initialize(void) ;
extern int __VERIFIER_nondet_int(void) ;
int LDV_IN_INTERRUPT ;
void main(void)
{ struct comedi_device *var_group1 ;
  struct comedi_devconfig *var_group2 ;
  int tmp ;
  int tmp___0 ;
  int tmp___1 ;
  {
  {
  LDV_IN_INTERRUPT = 1;
  ldv_initialize();
  tmp = driver_adl_pci7296_init_module();
  }
  if (tmp) {
    goto ldv_final;
  } else {
  }
  {
  while (1) {
    while_continue: ;
    {
    tmp___1 = __VERIFIER_nondet_int();
    }
    if (tmp___1) {
    } else {
      goto while_break;
    }
    {
    tmp___0 = __VERIFIER_nondet_int();
    }
    if (tmp___0 == 0) {
      goto case_0;
    } else
    if (tmp___0 == 1) {
      goto case_1;
    } else {
      {
      goto switch_default;
      if (0) {
        case_0:
        {
        adl_pci7296_attach(var_group1, var_group2);
        }
        goto switch_break;
        case_1:
        {
        adl_pci7296_detach(var_group1);
        }
        goto switch_break;
        switch_default:
        goto switch_break;
      } else {
        switch_break: ;
      }
      }
    }
  }
  while_break: ;
  }
  {
  driver_adl_pci7296_cleanup_module();
  }
  ldv_final:
  {
  ldv_check_final_state();
  }
  return;
}
}
void ldv_blast_assert(void)
{
  {
  ERROR: {reach_error();abort();}
}
}
extern int __VERIFIER_nondet_int(void) ;
int ldv_mutex = 1;
int __attribute__((__warn_unused_result__)) mutex_lock_interruptible(struct mutex *lock )
{ int nondetermined ;
  {
  if (ldv_mutex == 1) {
  } else {
    {
    ldv_blast_assert();
    }
  }
  {
  nondetermined = __VERIFIER_nondet_int();
  }
  if (nondetermined) {
    ldv_mutex = 2;
    return (0);
  } else {
    return (-4);
  }
}
}
int __attribute__((__warn_unused_result__)) mutex_lock_killable(struct mutex *lock )
{ int nondetermined ;
  {
  if (ldv_mutex == 1) {
  } else {
    {
    ldv_blast_assert();
    }
  }
  {
  nondetermined = __VERIFIER_nondet_int();
  }
  if (nondetermined) {
    ldv_mutex = 2;
    return (0);
  } else {
    return (-4);
  }
}
}
int atomic_dec_and_mutex_lock(atomic_t *cnt , struct mutex *lock )
{ int atomic_value_after_dec ;
  {
  if (ldv_mutex == 1) {
  } else {
    {
    ldv_blast_assert();
    }
  }
  {
  atomic_value_after_dec = __VERIFIER_nondet_int();
  }
  if (atomic_value_after_dec == 0) {
    ldv_mutex = 2;
    return (1);
  } else {
  }
  return (0);
}
}
void mutex_lock(struct mutex *lock )
{
  {
  if (ldv_mutex == 1) {
  } else {
    {
    ldv_blast_assert();
    }
  }
  ldv_mutex = 2;
  return;
}
}
int mutex_trylock(struct mutex *lock )
{ int nondetermined ;
  {
  if (ldv_mutex == 1) {
  } else {
    {
    ldv_blast_assert();
    }
  }
  {
  nondetermined = __VERIFIER_nondet_int();
  }
  if (nondetermined) {
    ldv_mutex = 2;
    return (1);
  } else {
    return (0);
  }
}
}
void mutex_unlock(struct mutex *lock )
{
  {
  if (ldv_mutex == 2) {
  } else {
    {
    ldv_blast_assert();
    }
  }
  ldv_mutex = 1;
  return;
}
}
void ldv_check_final_state(void)
{
  {
  if (ldv_mutex == 1) {
  } else {
    {
    ldv_blast_assert();
    }
  }
  return;
}
}
long ldv__builtin_expect(long val , long res )
{
  {
  return (val);
}
}
int __VERIFIER_nondet_int(void);
int __pci_register_driver(struct pci_driver *arg0, struct module *arg1, const char *arg2) {
  return __VERIFIER_nondet_int();
}
void __raw_spin_lock_init(raw_spinlock_t *arg0, const char *arg1, struct lock_class_key *arg2) {
  return;
}
int __VERIFIER_nondet_int(void);
int comedi_driver_register(struct comedi_driver *arg0) {
  return __VERIFIER_nondet_int();
}
int __VERIFIER_nondet_int(void);
int comedi_driver_unregister(struct comedi_driver *arg0) {
  return __VERIFIER_nondet_int();
}
int __VERIFIER_nondet_int(void);
int comedi_pci_auto_config(struct pci_dev *arg0, const char *arg1) {
  return __VERIFIER_nondet_int();
}
void comedi_pci_auto_unconfig(struct pci_dev *arg0) {
  return;
}
void ldv_initialize() {
  return;
}
void pci_dev_put(struct pci_dev *arg0) {
  return;
}
void pci_disable_device(struct pci_dev *arg0) {
  return;
}
int __VERIFIER_nondet_int(void);
int pci_enable_device(struct pci_dev *arg0) {
  return __VERIFIER_nondet_int();
}
struct pci_dev *pci_get_device(unsigned int arg0, unsigned int arg1, struct pci_dev *arg2) {
  return ldv_malloc(sizeof(struct pci_dev));
}
void pci_release_regions(struct pci_dev *arg0) {
  return;
}
int __VERIFIER_nondet_int(void);
int pci_request_regions(struct pci_dev *arg0, const char *arg1) {
  return __VERIFIER_nondet_int();
}
void pci_unregister_driver(struct pci_driver *arg0) {
  return;
}
int __VERIFIER_nondet_int(void);
int printk(const char *arg0, ...) {
  return __VERIFIER_nondet_int();
}
void subdev_8255_cleanup(struct comedi_device *arg0, struct comedi_subdevice *arg1) {
  return;
}
int __VERIFIER_nondet_int(void);
int subdev_8255_init(struct comedi_device *arg0, struct comedi_subdevice *arg1, int (*arg2)(int, int, int, unsigned long), unsigned long arg3) {
  return __VERIFIER_nondet_int();
}
void free(void *);
void kfree(void const *p) {
  free((void *)p);
}
