extern void abort(void);

extern void __assert_fail (const char *__assertion, const char *__file,
      unsigned int __line, const char *__function)
     __attribute__ ((__nothrow__ , __leaf__)) __attribute__ ((__noreturn__));
extern void __assert_perror_fail (int __errnum, const char *__file,
      unsigned int __line, const char *__function)
     __attribute__ ((__nothrow__ , __leaf__)) __attribute__ ((__noreturn__));
extern void __assert (const char *__assertion, const char *__file, int __line)
     __attribute__ ((__nothrow__ , __leaf__)) __attribute__ ((__noreturn__));

void reach_error() { ((void) sizeof ((0) ? 1 : 0), __extension__ ({ if (0) ; else __assert_fail ("0", "32_1_cilled_ok_nondet_linux-3.4-32_1-drivers--hwmon--gpio-fan.ko-ldv_main0_sequence_infinite_withcheck_stateful.cil.out.c", 3, __extension__ __PRETTY_FUNCTION__); })); }
typedef unsigned short __u16;
typedef unsigned int __u32;
typedef unsigned long long __u64;
typedef unsigned char u8;
typedef short s16;
typedef unsigned short u16;
typedef unsigned int u32;
typedef long long s64;
typedef unsigned long long u64;
typedef long __kernel_long_t;
typedef unsigned long __kernel_ulong_t;
typedef __kernel_ulong_t __kernel_size_t;
typedef __kernel_long_t __kernel_ssize_t;
typedef long long __kernel_loff_t;
typedef __u32 __kernel_dev_t;
typedef __kernel_dev_t dev_t;
typedef unsigned short umode_t;
typedef _Bool bool;
typedef __kernel_loff_t loff_t;
typedef __kernel_size_t size_t;
typedef __kernel_ssize_t ssize_t;
typedef unsigned int gfp_t;
typedef u64 phys_addr_t;
typedef phys_addr_t resource_size_t;
struct __anonstruct_atomic_t_7 {
   int counter ;
};
typedef struct __anonstruct_atomic_t_7 atomic_t;
struct __anonstruct_atomic64_t_8 {
   long counter ;
};
typedef struct __anonstruct_atomic64_t_8 atomic64_t;
struct list_head {
   struct list_head *next ;
   struct list_head *prev ;
};
struct module;
struct module;
typedef void (*ctor_fn_t)(void);
struct device;
struct device;
struct completion;
struct completion;
struct page;
struct page;
struct task_struct;
struct task_struct;
struct task_struct;
struct file;
struct file;
struct page;
struct task_struct;
struct arch_spinlock;
struct arch_spinlock;
struct task_struct;
struct task_struct;
struct bug_entry {
   int bug_addr_disp ;
   int file_disp ;
   unsigned short line ;
   unsigned short flags ;
};
struct static_key;
struct static_key;
struct kmem_cache;
typedef atomic64_t atomic_long_t;
typedef u16 __ticket_t;
typedef u32 __ticketpair_t;
struct __raw_tickets {
   __ticket_t head ;
   __ticket_t tail ;
};
union __anonunion____missing_field_name_36 {
   __ticketpair_t head_tail ;
   struct __raw_tickets tickets ;
};
struct arch_spinlock {
   union __anonunion____missing_field_name_36 __annonCompField17 ;
};
typedef struct arch_spinlock arch_spinlock_t;
struct task_struct;
struct lock_class_key {
};
struct raw_spinlock {
   arch_spinlock_t raw_lock ;
   unsigned int magic ;
   unsigned int owner_cpu ;
   void *owner ;
};
union __anonunion____missing_field_name_39 {
   struct raw_spinlock rlock ;
};
struct spinlock {
   union __anonunion____missing_field_name_39 __annonCompField19 ;
};
typedef struct spinlock spinlock_t;
struct __wait_queue_head {
   spinlock_t lock ;
   struct list_head task_list ;
};
typedef struct __wait_queue_head wait_queue_head_t;
struct task_struct;
struct page;
struct mutex {
   atomic_t count ;
   spinlock_t wait_lock ;
   struct list_head wait_list ;
   struct task_struct *owner ;
   char const *name ;
   void *magic ;
};
struct completion {
   unsigned int done ;
   wait_queue_head_t wait ;
};
struct page;
struct resource {
   resource_size_t start ;
   resource_size_t end ;
   char const *name ;
   unsigned long flags ;
   struct resource *parent ;
   struct resource *sibling ;
   struct resource *child ;
};
struct device;
struct device;
union ktime {
   s64 tv64 ;
};
typedef union ktime ktime_t;
struct tvec_base;
struct tvec_base;
struct timer_list {
   struct list_head entry ;
   unsigned long expires ;
   struct tvec_base *base ;
   void (*function)(unsigned long ) ;
   unsigned long data ;
   int slack ;
   int start_pid ;
   void *start_site ;
   char start_comm[16] ;
};
struct work_struct;
struct work_struct;
struct work_struct {
   atomic_long_t data ;
   struct list_head entry ;
   void (*func)(struct work_struct *work ) ;
};
struct device;
struct pm_message {
   int event ;
};
typedef struct pm_message pm_message_t;
struct dev_pm_ops {
   int (*prepare)(struct device *dev ) ;
   void (*complete)(struct device *dev ) ;
   int (*suspend)(struct device *dev ) ;
   int (*resume)(struct device *dev ) ;
   int (*freeze)(struct device *dev ) ;
   int (*thaw)(struct device *dev ) ;
   int (*poweroff)(struct device *dev ) ;
   int (*restore)(struct device *dev ) ;
   int (*suspend_late)(struct device *dev ) ;
   int (*resume_early)(struct device *dev ) ;
   int (*freeze_late)(struct device *dev ) ;
   int (*thaw_early)(struct device *dev ) ;
   int (*poweroff_late)(struct device *dev ) ;
   int (*restore_early)(struct device *dev ) ;
   int (*suspend_noirq)(struct device *dev ) ;
   int (*resume_noirq)(struct device *dev ) ;
   int (*freeze_noirq)(struct device *dev ) ;
   int (*thaw_noirq)(struct device *dev ) ;
   int (*poweroff_noirq)(struct device *dev ) ;
   int (*restore_noirq)(struct device *dev ) ;
   int (*runtime_suspend)(struct device *dev ) ;
   int (*runtime_resume)(struct device *dev ) ;
   int (*runtime_idle)(struct device *dev ) ;
};
enum rpm_status {
    RPM_ACTIVE = 0,
    RPM_RESUMING = 1,
    RPM_SUSPENDED = 2,
    RPM_SUSPENDING = 3
} ;
enum rpm_request {
    RPM_REQ_NONE = 0,
    RPM_REQ_IDLE = 1,
    RPM_REQ_SUSPEND = 2,
    RPM_REQ_AUTOSUSPEND = 3,
    RPM_REQ_RESUME = 4
} ;
struct wakeup_source;
struct wakeup_source;
struct pm_subsys_data {
   spinlock_t lock ;
   unsigned int refcount ;
};
struct dev_pm_qos_request;
struct pm_qos_constraints;
struct dev_pm_info {
   pm_message_t power_state ;
   unsigned int can_wakeup : 1 ;
   unsigned int async_suspend : 1 ;
   bool is_prepared : 1 ;
   bool is_suspended : 1 ;
   bool ignore_children : 1 ;
   spinlock_t lock ;
   struct list_head entry ;
   struct completion completion ;
   struct wakeup_source *wakeup ;
   bool wakeup_path : 1 ;
   struct timer_list suspend_timer ;
   unsigned long timer_expires ;
   struct work_struct work ;
   wait_queue_head_t wait_queue ;
   atomic_t usage_count ;
   atomic_t child_count ;
   unsigned int disable_depth : 3 ;
   unsigned int idle_notification : 1 ;
   unsigned int request_pending : 1 ;
   unsigned int deferred_resume : 1 ;
   unsigned int run_wake : 1 ;
   unsigned int runtime_auto : 1 ;
   unsigned int no_callbacks : 1 ;
   unsigned int irq_safe : 1 ;
   unsigned int use_autosuspend : 1 ;
   unsigned int timer_autosuspends : 1 ;
   enum rpm_request request ;
   enum rpm_status runtime_status ;
   int runtime_error ;
   int autosuspend_delay ;
   unsigned long last_busy ;
   unsigned long active_jiffies ;
   unsigned long suspended_jiffies ;
   unsigned long accounting_timestamp ;
   ktime_t suspend_time ;
   s64 max_time_suspended_ns ;
   struct dev_pm_qos_request *pq_req ;
   struct pm_subsys_data *subsys_data ;
   struct pm_qos_constraints *constraints ;
};
struct dev_pm_domain {
   struct dev_pm_ops ops ;
};
struct vm_area_struct;
struct vm_area_struct;
struct page;
struct vm_area_struct;
struct completion;
struct file;
struct task_struct;
typedef __u64 Elf64_Addr;
typedef __u16 Elf64_Half;
typedef __u32 Elf64_Word;
typedef __u64 Elf64_Xword;
struct elf64_sym {
   Elf64_Word st_name ;
   unsigned char st_info ;
   unsigned char st_other ;
   Elf64_Half st_shndx ;
   Elf64_Addr st_value ;
   Elf64_Xword st_size ;
};
typedef struct elf64_sym Elf64_Sym;
struct file;
struct sock;
struct sock;
struct kobject;
struct kobject;
enum kobj_ns_type {
    KOBJ_NS_TYPE_NONE = 0,
    KOBJ_NS_TYPE_NET = 1,
    KOBJ_NS_TYPES = 2
} ;
struct kobj_ns_type_operations {
   enum kobj_ns_type type ;
   void *(*grab_current_ns)(void) ;
   void const *(*netlink_ns)(struct sock *sk ) ;
   void const *(*initial_ns)(void) ;
   void (*drop_ns)(void * ) ;
};
struct kobject;
struct module;
enum kobj_ns_type;
struct attribute {
   char const *name ;
   umode_t mode ;
};
struct attribute_group {
   char const *name ;
   umode_t (*is_visible)(struct kobject * , struct attribute * , int ) ;
   struct attribute **attrs ;
};
struct file;
struct vm_area_struct;
struct bin_attribute {
   struct attribute attr ;
   size_t size ;
   void *private ;
   ssize_t (*read)(struct file * , struct kobject * , struct bin_attribute * , char * ,
                   loff_t , size_t ) ;
   ssize_t (*write)(struct file * , struct kobject * , struct bin_attribute * , char * ,
                    loff_t , size_t ) ;
   int (*mmap)(struct file * , struct kobject * , struct bin_attribute *attr , struct vm_area_struct *vma ) ;
};
struct sysfs_ops {
   ssize_t (*show)(struct kobject * , struct attribute * , char * ) ;
   ssize_t (*store)(struct kobject * , struct attribute * , char const * , size_t ) ;
   void const *(*namespace)(struct kobject * , struct attribute const * ) ;
};
struct sysfs_dirent;
struct sysfs_dirent;
struct kref {
   atomic_t refcount ;
};
enum kobject_action {
    KOBJ_ADD = 0,
    KOBJ_REMOVE = 1,
    KOBJ_CHANGE = 2,
    KOBJ_MOVE = 3,
    KOBJ_ONLINE = 4,
    KOBJ_OFFLINE = 5,
    KOBJ_MAX = 6
} ;
struct kset;
struct kobj_type;
struct kobject {
   char const *name ;
   struct list_head entry ;
   struct kobject *parent ;
   struct kset *kset ;
   struct kobj_type *ktype ;
   struct sysfs_dirent *sd ;
   struct kref kref ;
   unsigned int state_initialized : 1 ;
   unsigned int state_in_sysfs : 1 ;
   unsigned int state_add_uevent_sent : 1 ;
   unsigned int state_remove_uevent_sent : 1 ;
   unsigned int uevent_suppress : 1 ;
};
struct kobj_type {
   void (*release)(struct kobject *kobj ) ;
   struct sysfs_ops const *sysfs_ops ;
   struct attribute **default_attrs ;
   struct kobj_ns_type_operations const *(*child_ns_type)(struct kobject *kobj ) ;
   void const *(*namespace)(struct kobject *kobj ) ;
};
struct kobj_uevent_env {
   char *envp[32] ;
   int envp_idx ;
   char buf[2048] ;
   int buflen ;
};
struct kset_uevent_ops {
   int (* const filter)(struct kset *kset , struct kobject *kobj ) ;
   char const *(* const name)(struct kset *kset , struct kobject *kobj ) ;
   int (* const uevent)(struct kset *kset , struct kobject *kobj , struct kobj_uevent_env *env ) ;
};
struct sock;
struct kset {
   struct list_head list ;
   spinlock_t list_lock ;
   struct kobject kobj ;
   struct kset_uevent_ops const *uevent_ops ;
};
struct kernel_param;
struct kernel_param;
struct kernel_param_ops {
   int (*set)(char const *val , struct kernel_param const *kp ) ;
   int (*get)(char *buffer , struct kernel_param const *kp ) ;
   void (*free)(void *arg ) ;
};
struct kparam_string;
struct kparam_array;
union __anonunion____missing_field_name_199 {
   void *arg ;
   struct kparam_string const *str ;
   struct kparam_array const *arr ;
};
struct kernel_param {
   char const *name ;
   struct kernel_param_ops const *ops ;
   u16 perm ;
   s16 level ;
   union __anonunion____missing_field_name_199 __annonCompField32 ;
};
struct kparam_string {
   unsigned int maxlen ;
   char *string ;
};
struct kparam_array {
   unsigned int max ;
   unsigned int elemsize ;
   unsigned int *num ;
   struct kernel_param_ops const *ops ;
   void *elem ;
};
struct module;
struct module;
struct static_key {
   atomic_t enabled ;
};
struct module;
struct tracepoint;
struct tracepoint;
struct tracepoint_func {
   void *func ;
   void *data ;
};
struct tracepoint {
   char const *name ;
   struct static_key key ;
   void (*regfunc)(void) ;
   void (*unregfunc)(void) ;
   struct tracepoint_func *funcs ;
};
struct kernel_symbol {
   unsigned long value ;
   char const *name ;
};
struct mod_arch_specific {
};
struct module;
struct module_param_attrs;
struct module_kobject {
   struct kobject kobj ;
   struct module *mod ;
   struct kobject *drivers_dir ;
   struct module_param_attrs *mp ;
};
struct module_attribute {
   struct attribute attr ;
   ssize_t (*show)(struct module_attribute * , struct module_kobject * , char * ) ;
   ssize_t (*store)(struct module_attribute * , struct module_kobject * , char const * ,
                    size_t count ) ;
   void (*setup)(struct module * , char const * ) ;
   int (*test)(struct module * ) ;
   void (*free)(struct module * ) ;
};
struct exception_table_entry;
struct exception_table_entry;
enum module_state {
    MODULE_STATE_LIVE = 0,
    MODULE_STATE_COMING = 1,
    MODULE_STATE_GOING = 2
} ;
struct module_ref {
   unsigned long incs ;
   unsigned long decs ;
} __attribute__((__aligned__((2) * (sizeof(unsigned long )) ))) ;
struct module_sect_attrs;
struct module_notes_attrs;
struct ftrace_event_call;
struct module {
   enum module_state state ;
   struct list_head list ;
   char name[64UL - sizeof(unsigned long )] ;
   struct module_kobject mkobj ;
   struct module_attribute *modinfo_attrs ;
   char const *version ;
   char const *srcversion ;
   struct kobject *holders_dir ;
   struct kernel_symbol const *syms ;
   unsigned long const *crcs ;
   unsigned int num_syms ;
   struct kernel_param *kp ;
   unsigned int num_kp ;
   unsigned int num_gpl_syms ;
   struct kernel_symbol const *gpl_syms ;
   unsigned long const *gpl_crcs ;
   struct kernel_symbol const *unused_syms ;
   unsigned long const *unused_crcs ;
   unsigned int num_unused_syms ;
   unsigned int num_unused_gpl_syms ;
   struct kernel_symbol const *unused_gpl_syms ;
   unsigned long const *unused_gpl_crcs ;
   struct kernel_symbol const *gpl_future_syms ;
   unsigned long const *gpl_future_crcs ;
   unsigned int num_gpl_future_syms ;
   unsigned int num_exentries ;
   struct exception_table_entry *extable ;
   int (*init)(void) ;
   void *module_init ;
   void *module_core ;
   unsigned int init_size ;
   unsigned int core_size ;
   unsigned int init_text_size ;
   unsigned int core_text_size ;
   unsigned int init_ro_size ;
   unsigned int core_ro_size ;
   struct mod_arch_specific arch ;
   unsigned int taints ;
   unsigned int num_bugs ;
   struct list_head bug_list ;
   struct bug_entry *bug_table ;
   Elf64_Sym *symtab ;
   Elf64_Sym *core_symtab ;
   unsigned int num_symtab ;
   unsigned int core_num_syms ;
   char *strtab ;
   char *core_strtab ;
   struct module_sect_attrs *sect_attrs ;
   struct module_notes_attrs *notes_attrs ;
   char *args ;
   void *percpu ;
   unsigned int percpu_size ;
   unsigned int num_tracepoints ;
   struct tracepoint * const *tracepoints_ptrs ;
   unsigned int num_trace_bprintk_fmt ;
   char const **trace_bprintk_fmt_start ;
   struct ftrace_event_call **trace_events ;
   unsigned int num_trace_events ;
   struct list_head source_list ;
   struct list_head target_list ;
   struct task_struct *waiter ;
   void (*exit)(void) ;
   struct module_ref *refptr ;
   ctor_fn_t *ctors ;
   unsigned int num_ctors ;
};
struct kmem_cache_cpu {
   void **freelist ;
   unsigned long tid ;
   struct page *page ;
   struct page *partial ;
   int node ;
   unsigned int stat[26] ;
};
struct kmem_cache_node {
   spinlock_t list_lock ;
   unsigned long nr_partial ;
   struct list_head partial ;
   atomic_long_t nr_slabs ;
   atomic_long_t total_objects ;
   struct list_head full ;
};
struct kmem_cache_order_objects {
   unsigned long x ;
};
struct kmem_cache {
   struct kmem_cache_cpu *cpu_slab ;
   unsigned long flags ;
   unsigned long min_partial ;
   int size ;
   int objsize ;
   int offset ;
   int cpu_partial ;
   struct kmem_cache_order_objects oo ;
   struct kmem_cache_order_objects max ;
   struct kmem_cache_order_objects min ;
   gfp_t allocflags ;
   int refcount ;
   void (*ctor)(void * ) ;
   int inuse ;
   int align ;
   int reserved ;
   char const *name ;
   struct list_head list ;
   struct kobject kobj ;
   int remote_node_defrag_ratio ;
   struct kmem_cache_node *node[1 << 10] ;
};
enum irqreturn {
    IRQ_NONE = 0,
    IRQ_HANDLED = 1,
    IRQ_WAKE_THREAD = 2
} ;
typedef enum irqreturn irqreturn_t;
struct module;
struct proc_dir_entry;
struct proc_dir_entry;
struct module;
struct proc_dir_entry;
struct task_struct;
struct exception_table_entry {
   unsigned long insn ;
   unsigned long fixup ;
};
struct task_struct;
struct device;
struct klist_node;
struct klist_node;
struct klist_node {
   void *n_klist ;
   struct list_head n_node ;
   struct kref n_ref ;
};
struct dma_map_ops;
struct dev_archdata {
   void *acpi_handle ;
   struct dma_map_ops *dma_ops ;
   void *iommu ;
};
struct pdev_archdata {
};
struct device;
struct device_private;
struct device_private;
struct device_driver;
struct device_driver;
struct driver_private;
struct driver_private;
struct module;
struct class;
struct class;
struct subsys_private;
struct subsys_private;
struct bus_type;
struct bus_type;
struct device_node;
struct device_node;
struct iommu_ops;
struct iommu_ops;
struct bus_attribute {
   struct attribute attr ;
   ssize_t (*show)(struct bus_type *bus , char *buf ) ;
   ssize_t (*store)(struct bus_type *bus , char const *buf , size_t count ) ;
};
struct device_attribute;
struct driver_attribute;
struct bus_type {
   char const *name ;
   char const *dev_name ;
   struct device *dev_root ;
   struct bus_attribute *bus_attrs ;
   struct device_attribute *dev_attrs ;
   struct driver_attribute *drv_attrs ;
   int (*match)(struct device *dev , struct device_driver *drv ) ;
   int (*uevent)(struct device *dev , struct kobj_uevent_env *env ) ;
   int (*probe)(struct device *dev ) ;
   int (*remove)(struct device *dev ) ;
   void (*shutdown)(struct device *dev ) ;
   int (*suspend)(struct device *dev , pm_message_t state ) ;
   int (*resume)(struct device *dev ) ;
   struct dev_pm_ops const *pm ;
   struct iommu_ops *iommu_ops ;
   struct subsys_private *p ;
};
struct device_type;
struct of_device_id;
struct device_driver {
   char const *name ;
   struct bus_type *bus ;
   struct module *owner ;
   char const *mod_name ;
   bool suppress_bind_attrs ;
   struct of_device_id const *of_match_table ;
   int (*probe)(struct device *dev ) ;
   int (*remove)(struct device *dev ) ;
   void (*shutdown)(struct device *dev ) ;
   int (*suspend)(struct device *dev , pm_message_t state ) ;
   int (*resume)(struct device *dev ) ;
   struct attribute_group const **groups ;
   struct dev_pm_ops const *pm ;
   struct driver_private *p ;
};
struct driver_attribute {
   struct attribute attr ;
   ssize_t (*show)(struct device_driver *driver , char *buf ) ;
   ssize_t (*store)(struct device_driver *driver , char const *buf , size_t count ) ;
};
struct class_attribute;
struct class {
   char const *name ;
   struct module *owner ;
   struct class_attribute *class_attrs ;
   struct device_attribute *dev_attrs ;
   struct bin_attribute *dev_bin_attrs ;
   struct kobject *dev_kobj ;
   int (*dev_uevent)(struct device *dev , struct kobj_uevent_env *env ) ;
   char *(*devnode)(struct device *dev , umode_t *mode ) ;
   void (*class_release)(struct class *class ) ;
   void (*dev_release)(struct device *dev ) ;
   int (*suspend)(struct device *dev , pm_message_t state ) ;
   int (*resume)(struct device *dev ) ;
   struct kobj_ns_type_operations const *ns_type ;
   void const *(*namespace)(struct device *dev ) ;
   struct dev_pm_ops const *pm ;
   struct subsys_private *p ;
};
struct class_attribute {
   struct attribute attr ;
   ssize_t (*show)(struct class *class , struct class_attribute *attr , char *buf ) ;
   ssize_t (*store)(struct class *class , struct class_attribute *attr , char const *buf ,
                    size_t count ) ;
   void const *(*namespace)(struct class *class , struct class_attribute const *attr ) ;
};
struct device_type {
   char const *name ;
   struct attribute_group const **groups ;
   int (*uevent)(struct device *dev , struct kobj_uevent_env *env ) ;
   char *(*devnode)(struct device *dev , umode_t *mode ) ;
   void (*release)(struct device *dev ) ;
   struct dev_pm_ops const *pm ;
};
struct device_attribute {
   struct attribute attr ;
   ssize_t (*show)(struct device *dev , struct device_attribute *attr , char *buf ) ;
   ssize_t (*store)(struct device *dev , struct device_attribute *attr , char const *buf ,
                    size_t count ) ;
};
struct device_dma_parameters {
   unsigned int max_segment_size ;
   unsigned long segment_boundary_mask ;
};
struct dma_coherent_mem;
struct device {
   struct device *parent ;
   struct device_private *p ;
   struct kobject kobj ;
   char const *init_name ;
   struct device_type const *type ;
   struct mutex mutex ;
   struct bus_type *bus ;
   struct device_driver *driver ;
   void *platform_data ;
   struct dev_pm_info power ;
   struct dev_pm_domain *pm_domain ;
   int numa_node ;
   u64 *dma_mask ;
   u64 coherent_dma_mask ;
   struct device_dma_parameters *dma_parms ;
   struct list_head dma_pools ;
   struct dma_coherent_mem *dma_mem ;
   struct dev_archdata archdata ;
   struct device_node *of_node ;
   dev_t devt ;
   u32 id ;
   spinlock_t devres_lock ;
   struct list_head devres_head ;
   struct klist_node knode_class ;
   struct class *class ;
   struct attribute_group const **groups ;
   void (*release)(struct device *dev ) ;
};
struct wakeup_source {
   char const *name ;
   struct list_head entry ;
   spinlock_t lock ;
   struct timer_list timer ;
   unsigned long timer_expires ;
   ktime_t total_time ;
   ktime_t max_time ;
   ktime_t last_time ;
   unsigned long event_count ;
   unsigned long active_count ;
   unsigned long relax_count ;
   unsigned long hit_count ;
   unsigned int active : 1 ;
};
typedef unsigned long kernel_ulong_t;
struct of_device_id {
   char name[32] ;
   char type[32] ;
   char compatible[128] ;
   void *data ;
};
struct platform_device_id {
   char name[20] ;
   kernel_ulong_t driver_data __attribute__((__aligned__(sizeof(kernel_ulong_t )))) ;
};
struct mfd_cell;
struct mfd_cell;
struct platform_device {
   char const *name ;
   int id ;
   struct device dev ;
   u32 num_resources ;
   struct resource *resource ;
   struct platform_device_id const *id_entry ;
   struct mfd_cell *mfd_cell ;
   struct pdev_archdata archdata ;
};
struct platform_driver {
   int (*probe)(struct platform_device * ) ;
   int (*remove)(struct platform_device * ) ;
   void (*shutdown)(struct platform_device * ) ;
   int (*suspend)(struct platform_device * , pm_message_t state ) ;
   int (*resume)(struct platform_device * ) ;
   struct device_driver driver ;
   struct platform_device_id const *id_table ;
};
struct device;
typedef u32 phandle;
struct property {
   char *name ;
   int length ;
   void *value ;
   struct property *next ;
   unsigned long _flags ;
   unsigned int unique_id ;
};
struct device_node {
   char const *name ;
   char const *type ;
   phandle phandle ;
   char *full_name ;
   struct property *properties ;
   struct property *deadprops ;
   struct device_node *parent ;
   struct device_node *child ;
   struct device_node *sibling ;
   struct device_node *next ;
   struct device_node *allnext ;
   struct proc_dir_entry *pde ;
   struct kref kref ;
   unsigned long _flags ;
   void *data ;
};
struct device;
struct module;
struct device_node;
struct gpio_fan_alarm {
   unsigned int gpio ;
   unsigned int active_low ;
};
struct gpio_fan_speed {
   int rpm ;
   int ctrl_val ;
};
struct gpio_fan_platform_data {
   int num_ctrl ;
   unsigned int *ctrl ;
   struct gpio_fan_alarm *alarm ;
   int num_speed ;
   struct gpio_fan_speed *speed ;
};
struct gpio_fan_data {
   struct platform_device *pdev ;
   struct device *hwmon_dev ;
   struct mutex lock ;
   int num_ctrl ;
   unsigned int *ctrl ;
   int num_speed ;
   struct gpio_fan_speed *speed ;
   int speed_index ;
   int resume_speed ;
   bool pwm_enable ;
   struct gpio_fan_alarm *alarm ;
   struct work_struct alarm_work ;
};
long ldv__builtin_expect(long val , long res ) ;
 static void INIT_LIST_HEAD(struct list_head *list ) __attribute__((__no_instrument_function__)) ;
 static void INIT_LIST_HEAD(struct list_head *list )
{ unsigned long __cil_tmp2 ;
  unsigned long __cil_tmp3 ;
  {
  *((struct list_head **)list) = list;
  __cil_tmp2 = (unsigned long )list;
  __cil_tmp3 = __cil_tmp2 + 8;
  *((struct list_head **)__cil_tmp3) = list;
  return;
}
}
extern int __attribute__((__warn_unused_result__)) _kstrtoul(char const *s , unsigned int base ,
                                                              unsigned long *res ) ;
extern int __attribute__((__warn_unused_result__)) kstrtoull(char const *s , unsigned int base ,
                                                              unsigned long long *res ) ;
 static int __attribute__((__warn_unused_result__)) kstrtoul(char const *s ,
                                                                      unsigned int base ,
                                                                      unsigned long *res ) __attribute__((__no_instrument_function__)) ;
 static int __attribute__((__warn_unused_result__)) kstrtoul(char const *s ,
                                                                      unsigned int base ,
                                                                      unsigned long *res )
{ int tmp ;
  int tmp___0 ;
  unsigned long long *__cil_tmp6 ;
  {
  if (8UL == 8UL) {
    if (8UL == 8UL) {
      {
      __cil_tmp6 = (unsigned long long *)res;
      tmp = (int )kstrtoull(s, base, __cil_tmp6);
      }
      return (tmp);
    } else {
      {
      tmp___0 = (int )_kstrtoul(s, base, res);
      }
      return (tmp___0);
    }
  } else {
    {
    tmp___0 = (int )_kstrtoul(s, base, res);
    }
    return (tmp___0);
  }
}
}
extern int ( sprintf)(char *buf , char const *fmt , ...) ;
 static long __attribute__((__warn_unused_result__)) PTR_ERR(void const *ptr ) __attribute__((__no_instrument_function__)) ;
 static long __attribute__((__warn_unused_result__)) PTR_ERR(void const *ptr )
{
  {
  return ((long )ptr);
}
}
 static long __attribute__((__warn_unused_result__)) IS_ERR(void const *ptr ) __attribute__((__no_instrument_function__)) ;
 static long __attribute__((__warn_unused_result__)) IS_ERR(void const *ptr )
{ long tmp ;
  unsigned long __cil_tmp3 ;
  int __cil_tmp4 ;
  int __cil_tmp5 ;
  int __cil_tmp6 ;
  long __cil_tmp7 ;
  {
  {
  __cil_tmp3 = (unsigned long )ptr;
  __cil_tmp4 = __cil_tmp3 >= 0xfffffffffffff001UL;
  __cil_tmp5 = ! __cil_tmp4;
  __cil_tmp6 = ! __cil_tmp5;
  __cil_tmp7 = (long )__cil_tmp6;
  tmp = ldv__builtin_expect(__cil_tmp7, 0L);
  }
  return (tmp);
}
}
extern void __mutex_init(struct mutex *lock , char const *name , struct lock_class_key *key ) ;
void mutex_lock(struct mutex *lock ) ;
int __attribute__((__warn_unused_result__)) mutex_lock_interruptible(struct mutex *lock ) ;
int __attribute__((__warn_unused_result__)) mutex_lock_killable(struct mutex *lock ) ;
int mutex_trylock(struct mutex *lock ) ;
void mutex_unlock(struct mutex *lock ) ;
int atomic_dec_and_mutex_lock(atomic_t *cnt , struct mutex *lock ) ;
extern void __init_work(struct work_struct *work , int onstack ) ;
extern int schedule_work(struct work_struct *work ) ;
extern int __attribute__((__warn_unused_result__)) sysfs_create_group(struct kobject *kobj ,
                                                                       struct attribute_group const *grp ) ;
extern void sysfs_remove_group(struct kobject *kobj , struct attribute_group const *grp ) ;
extern void sysfs_notify(struct kobject *kobj , char const *dir , char const *attr ) ;
extern int kobject_uevent(struct kobject *kobj , enum kobject_action action ) ;
int init_module(void) ;
void cleanup_module(void) ;
extern void kfree(void const * ) ;
extern int __VERIFIER_nondet_int(void);
extern void abort(void);
void assume_abort_if_not(int cond) {
  if(!cond) {abort();}
}
extern void *malloc(size_t size);
long ldv_is_err(const void *ptr)
{
  return ((unsigned long)ptr > ((unsigned long)-4095));
}
void *ldv_malloc(size_t size)
{
 if (__VERIFIER_nondet_int()) {
  void *res = malloc(size);
  assume_abort_if_not(!ldv_is_err(res));
  return res;
 } else {
  return ((void *)0);
 }
}
void *__kmalloc(size_t size, gfp_t t)
{
 return ldv_malloc(size);
}
 static void *( __attribute__((__always_inline__)) kmalloc)(size_t size ,
                                                                    gfp_t flags ) __attribute__((__no_instrument_function__)) ;
 static void *( __attribute__((__always_inline__)) kmalloc)(size_t size ,
                                                                    gfp_t flags )
{ void *tmp___2 ;
  {
  {
  tmp___2 = __kmalloc(size, flags);
  }
  return (tmp___2);
}
}
 static void *kzalloc(size_t size , gfp_t flags ) __attribute__((__no_instrument_function__)) ;
void *ldv_zalloc(size_t size ) ;
 static void *kzalloc(size_t size , gfp_t flags )
{ void *tmp ;
  unsigned int __cil_tmp4 ;
  {
  {
  __cil_tmp4 = flags | 32768U;
  tmp = kmalloc(size, __cil_tmp4);
  }
  return (tmp);
}
}
extern int irq_set_irq_type(unsigned int irq , unsigned int type ) ;
extern int __attribute__((__warn_unused_result__)) request_threaded_irq(unsigned int irq ,
                                                                         irqreturn_t (*handler)(int ,
                                                                                                void * ) ,
                                                                         irqreturn_t (*thread_fn)(int ,
                                                                                                  void * ) ,
                                                                         unsigned long flags ,
                                                                         char const *name ,
                                                                         void *dev ) ;
 static int __attribute__((__warn_unused_result__)) request_irq(unsigned int irq ,
                                                                         irqreturn_t (*handler)(int ,
                                                                                                void * ) ,
                                                                         unsigned long flags ,
                                                                         char const *name ,
                                                                         void *dev ) __attribute__((__no_instrument_function__)) ;
 static int __attribute__((__warn_unused_result__)) request_irq(unsigned int irq ,
                                                                         irqreturn_t (*handler)(int ,
                                                                                                void * ) ,
                                                                         unsigned long flags ,
                                                                         char const *name ,
                                                                         void *dev )
{ int tmp ;
  void *__cil_tmp7 ;
  irqreturn_t (*__cil_tmp8)(int , void * ) ;
  {
  {
  __cil_tmp7 = (void *)0;
  __cil_tmp8 = (irqreturn_t (*)(int , void * ))__cil_tmp7;
  tmp = (int )request_threaded_irq(irq, handler, __cil_tmp8, flags, name, dev);
  }
  return (tmp);
}
}
extern void free_irq(unsigned int , void * ) ;
extern int device_create_file(struct device *device , struct device_attribute const *entry ) ;
extern void device_remove_file(struct device *dev , struct device_attribute const *attr ) ;
extern void *dev_get_drvdata(struct device const *dev ) ;
extern int dev_set_drvdata(struct device *dev , void *data ) ;
extern int ( dev_warn)(struct device const *dev , char const *fmt
                                               , ...) ;
extern int ( _dev_info)(struct device const *dev , char const *fmt
                                                , ...) ;
extern int platform_driver_register(struct platform_driver * ) ;
extern void platform_driver_unregister(struct platform_driver * ) ;
 static void *platform_get_drvdata(struct platform_device const *pdev ) __attribute__((__no_instrument_function__)) ;
 static void *platform_get_drvdata(struct platform_device const *pdev )
{ void *tmp ;
  unsigned long __cil_tmp3 ;
  unsigned long __cil_tmp4 ;
  struct device const *__cil_tmp5 ;
  {
  {
  __cil_tmp3 = (unsigned long )pdev;
  __cil_tmp4 = __cil_tmp3 + 16;
  __cil_tmp5 = (struct device const *)__cil_tmp4;
  tmp = dev_get_drvdata(__cil_tmp5);
  }
  return (tmp);
}
}
 static void platform_set_drvdata(struct platform_device *pdev , void *data ) __attribute__((__no_instrument_function__)) ;
 static void platform_set_drvdata(struct platform_device *pdev , void *data )
{ unsigned long __cil_tmp3 ;
  unsigned long __cil_tmp4 ;
  struct device *__cil_tmp5 ;
  {
  {
  __cil_tmp3 = (unsigned long )pdev;
  __cil_tmp4 = __cil_tmp3 + 16;
  __cil_tmp5 = (struct device *)__cil_tmp4;
  dev_set_drvdata(__cil_tmp5, data);
  }
  return;
}
}
extern struct device *hwmon_device_register(struct device *dev ) ;
extern void hwmon_device_unregister(struct device *dev ) ;
extern int gpio_request(unsigned int gpio , char const *label ) ;
extern void gpio_free(unsigned int gpio ) ;
extern int gpio_direction_input(unsigned int gpio ) ;
extern int gpio_direction_output(unsigned int gpio , int value ) ;
extern int __gpio_get_value(unsigned int gpio ) ;
extern void __gpio_set_value(unsigned int gpio , int value ) ;
extern int __gpio_to_irq(unsigned int gpio ) ;
 static int gpio_get_value(unsigned int gpio ) __attribute__((__no_instrument_function__)) ;
 static int gpio_get_value(unsigned int gpio )
{ int tmp ;
  {
  {
  tmp = __gpio_get_value(gpio);
  }
  return (tmp);
}
}
 static void gpio_set_value(unsigned int gpio , int value ) __attribute__((__no_instrument_function__)) ;
 static void gpio_set_value(unsigned int gpio , int value )
{
  {
  {
  __gpio_set_value(gpio, value);
  }
  return;
}
}
 static int gpio_to_irq(unsigned int gpio ) __attribute__((__no_instrument_function__)) ;
 static int gpio_to_irq(unsigned int gpio )
{ int tmp ;
  {
  {
  tmp = __gpio_to_irq(gpio);
  }
  return (tmp);
}
}
static void fan_alarm_notify(struct work_struct *ws )
{ struct gpio_fan_data *fan_data ;
  struct work_struct const *__mptr ;
  struct gpio_fan_data *__cil_tmp4 ;
  unsigned long __cil_tmp5 ;
  unsigned long __cil_tmp6 ;
  struct work_struct *__cil_tmp7 ;
  unsigned int __cil_tmp8 ;
  char *__cil_tmp9 ;
  char *__cil_tmp10 ;
  unsigned long __cil_tmp11 ;
  struct platform_device *__cil_tmp12 ;
  unsigned long __cil_tmp13 ;
  unsigned long __cil_tmp14 ;
  struct kobject *__cil_tmp15 ;
  void *__cil_tmp16 ;
  char const *__cil_tmp17 ;
  unsigned long __cil_tmp18 ;
  struct platform_device *__cil_tmp19 ;
  unsigned long __cil_tmp20 ;
  unsigned long __cil_tmp21 ;
  struct kobject *__cil_tmp22 ;
  enum kobject_action __cil_tmp23 ;
  {
  {
  __mptr = (struct work_struct const *)ws;
  __cil_tmp4 = (struct gpio_fan_data *)0;
  __cil_tmp5 = (unsigned long )__cil_tmp4;
  __cil_tmp6 = __cil_tmp5 + 144;
  __cil_tmp7 = (struct work_struct *)__cil_tmp6;
  __cil_tmp8 = (unsigned int )__cil_tmp7;
  __cil_tmp9 = (char *)__mptr;
  __cil_tmp10 = __cil_tmp9 - __cil_tmp8;
  fan_data = (struct gpio_fan_data *)__cil_tmp10;
  __cil_tmp11 = 16 + 16;
  __cil_tmp12 = *((struct platform_device **)fan_data);
  __cil_tmp13 = (unsigned long )__cil_tmp12;
  __cil_tmp14 = __cil_tmp13 + __cil_tmp11;
  __cil_tmp15 = (struct kobject *)__cil_tmp14;
  __cil_tmp16 = (void *)0;
  __cil_tmp17 = (char const *)__cil_tmp16;
  sysfs_notify(__cil_tmp15, __cil_tmp17, "fan1_alarm");
  __cil_tmp18 = 16 + 16;
  __cil_tmp19 = *((struct platform_device **)fan_data);
  __cil_tmp20 = (unsigned long )__cil_tmp19;
  __cil_tmp21 = __cil_tmp20 + __cil_tmp18;
  __cil_tmp22 = (struct kobject *)__cil_tmp21;
  __cil_tmp23 = (enum kobject_action )2;
  kobject_uevent(__cil_tmp22, __cil_tmp23);
  }
  return;
}
}
static irqreturn_t fan_alarm_irq_handler(int irq , void *dev_id )
{ struct gpio_fan_data *fan_data ;
  unsigned long __cil_tmp4 ;
  unsigned long __cil_tmp5 ;
  struct work_struct *__cil_tmp6 ;
  {
  {
  fan_data = (struct gpio_fan_data *)dev_id;
  __cil_tmp4 = (unsigned long )fan_data;
  __cil_tmp5 = __cil_tmp4 + 144;
  __cil_tmp6 = (struct work_struct *)__cil_tmp5;
  schedule_work(__cil_tmp6);
  }
  return ((irqreturn_t )0);
}
}
static ssize_t show_fan_alarm(struct device *dev , struct device_attribute *attr ,
                              char *buf )
{ struct gpio_fan_data *fan_data ;
  void *tmp ;
  struct gpio_fan_alarm *alarm ;
  int value ;
  int tmp___0 ;
  int tmp___1 ;
  struct device const *__cil_tmp10 ;
  unsigned long __cil_tmp11 ;
  unsigned long __cil_tmp12 ;
  unsigned int __cil_tmp13 ;
  unsigned long __cil_tmp14 ;
  unsigned long __cil_tmp15 ;
  {
  {
  __cil_tmp10 = (struct device const *)dev;
  tmp = dev_get_drvdata(__cil_tmp10);
  fan_data = (struct gpio_fan_data *)tmp;
  __cil_tmp11 = (unsigned long )fan_data;
  __cil_tmp12 = __cil_tmp11 + 136;
  alarm = *((struct gpio_fan_alarm **)__cil_tmp12);
  __cil_tmp13 = *((unsigned int *)alarm);
  tmp___0 = gpio_get_value(__cil_tmp13);
  value = tmp___0;
  }
  {
  __cil_tmp14 = (unsigned long )alarm;
  __cil_tmp15 = __cil_tmp14 + 4;
  if (*((unsigned int *)__cil_tmp15)) {
    value = ! value;
  } else {
  }
  }
  {
  tmp___1 = sprintf(buf, "%d\n", value);
  }
  return ((ssize_t )tmp___1);
}
}
static struct device_attribute dev_attr_fan1_alarm = {{"fan1_alarm", (umode_t )292}, & show_fan_alarm, (ssize_t (*)(struct device *dev ,
                                                                  struct device_attribute *attr ,
                                                                  char const *buf ,
                                                                  size_t count ))((void *)0)};
static int fan_alarm_init(struct gpio_fan_data *fan_data , struct gpio_fan_alarm *alarm )
{ int err ;
  int alarm_irq ;
  struct platform_device *pdev ;
  atomic_long_t __constr_expr_0 ;
  unsigned long __cil_tmp7 ;
  unsigned long __cil_tmp8 ;
  unsigned int __cil_tmp9 ;
  unsigned int __cil_tmp10 ;
  unsigned long __cil_tmp11 ;
  unsigned long __cil_tmp12 ;
  struct device *__cil_tmp13 ;
  struct device_attribute const *__cil_tmp14 ;
  unsigned int __cil_tmp15 ;
  unsigned long __cil_tmp16 ;
  unsigned long __cil_tmp17 ;
  struct work_struct *__cil_tmp18 ;
  unsigned long __cil_tmp19 ;
  unsigned long __cil_tmp20 ;
  unsigned long __cil_tmp21 ;
  unsigned long __cil_tmp22 ;
  unsigned long __cil_tmp23 ;
  struct list_head *__cil_tmp24 ;
  unsigned long __cil_tmp25 ;
  unsigned long __cil_tmp26 ;
  unsigned long __cil_tmp27 ;
  unsigned int __cil_tmp28 ;
  unsigned int __cil_tmp29 ;
  void *__cil_tmp30 ;
  unsigned long __cil_tmp31 ;
  unsigned long __cil_tmp32 ;
  struct device *__cil_tmp33 ;
  struct device_attribute const *__cil_tmp34 ;
  unsigned int __cil_tmp35 ;
  long __constr_expr_0_counter36 ;
  {
  {
  pdev = *((struct platform_device **)fan_data);
  __cil_tmp7 = (unsigned long )fan_data;
  __cil_tmp8 = __cil_tmp7 + 136;
  *((struct gpio_fan_alarm **)__cil_tmp8) = alarm;
  __cil_tmp9 = *((unsigned int *)alarm);
  err = gpio_request(__cil_tmp9, "GPIO fan alarm");
  }
  if (err) {
    return (err);
  } else {
  }
  {
  __cil_tmp10 = *((unsigned int *)alarm);
  err = gpio_direction_input(__cil_tmp10);
  }
  if (err) {
    goto err_free_gpio;
  } else {
  }
  {
  __cil_tmp11 = (unsigned long )pdev;
  __cil_tmp12 = __cil_tmp11 + 16;
  __cil_tmp13 = (struct device *)__cil_tmp12;
  __cil_tmp14 = (struct device_attribute const *)(& dev_attr_fan1_alarm);
  err = device_create_file(__cil_tmp13, __cil_tmp14);
  }
  if (err) {
    goto err_free_gpio;
  } else {
  }
  {
  __cil_tmp15 = *((unsigned int *)alarm);
  alarm_irq = gpio_to_irq(__cil_tmp15);
  }
  if (alarm_irq < 0) {
    return (0);
  } else {
  }
  {
  while (1) {
    while_continue: ;
    {
    while (1) {
      while_continue___0: ;
      {
      __cil_tmp16 = (unsigned long )fan_data;
      __cil_tmp17 = __cil_tmp16 + 144;
      __cil_tmp18 = (struct work_struct *)__cil_tmp17;
      __init_work(__cil_tmp18, 0);
      __constr_expr_0_counter36 = 2097664L;
      __cil_tmp19 = (unsigned long )fan_data;
      __cil_tmp20 = __cil_tmp19 + 144;
      ((atomic_long_t *)__cil_tmp20)->counter = __constr_expr_0_counter36;
      __cil_tmp21 = 144 + 8;
      __cil_tmp22 = (unsigned long )fan_data;
      __cil_tmp23 = __cil_tmp22 + __cil_tmp21;
      __cil_tmp24 = (struct list_head *)__cil_tmp23;
      INIT_LIST_HEAD(__cil_tmp24);
      }
      {
      while (1) {
        while_continue___1: ;
        __cil_tmp25 = 144 + 24;
        __cil_tmp26 = (unsigned long )fan_data;
        __cil_tmp27 = __cil_tmp26 + __cil_tmp25;
        *((void (**)(struct work_struct *work ))__cil_tmp27) = & fan_alarm_notify;
        goto while_break___1;
      }
      while_break___1: ;
      }
      goto while_break___0;
    }
    while_break___0: ;
    }
    goto while_break;
  }
  while_break: ;
  }
  {
  __cil_tmp28 = (unsigned int )alarm_irq;
  irq_set_irq_type(__cil_tmp28, 3U);
  __cil_tmp29 = (unsigned int )alarm_irq;
  __cil_tmp30 = (void *)fan_data;
  err = (int )request_irq(__cil_tmp29, & fan_alarm_irq_handler, 128UL, "GPIO fan alarm",
                          __cil_tmp30);
  }
  if (err) {
    goto err_free_sysfs;
  } else {
  }
  return (0);
  err_free_sysfs:
  {
  __cil_tmp31 = (unsigned long )pdev;
  __cil_tmp32 = __cil_tmp31 + 16;
  __cil_tmp33 = (struct device *)__cil_tmp32;
  __cil_tmp34 = (struct device_attribute const *)(& dev_attr_fan1_alarm);
  device_remove_file(__cil_tmp33, __cil_tmp34);
  }
  err_free_gpio:
  {
  __cil_tmp35 = *((unsigned int *)alarm);
  gpio_free(__cil_tmp35);
  }
  return (err);
}
}
static void fan_alarm_free(struct gpio_fan_data *fan_data )
{ struct platform_device *pdev ;
  int alarm_irq ;
  int tmp ;
  unsigned long __cil_tmp5 ;
  unsigned long __cil_tmp6 ;
  struct gpio_fan_alarm *__cil_tmp7 ;
  unsigned int __cil_tmp8 ;
  unsigned int __cil_tmp9 ;
  void *__cil_tmp10 ;
  unsigned long __cil_tmp11 ;
  unsigned long __cil_tmp12 ;
  struct device *__cil_tmp13 ;
  struct device_attribute const *__cil_tmp14 ;
  unsigned long __cil_tmp15 ;
  unsigned long __cil_tmp16 ;
  struct gpio_fan_alarm *__cil_tmp17 ;
  unsigned int __cil_tmp18 ;
  {
  {
  pdev = *((struct platform_device **)fan_data);
  __cil_tmp5 = (unsigned long )fan_data;
  __cil_tmp6 = __cil_tmp5 + 136;
  __cil_tmp7 = *((struct gpio_fan_alarm **)__cil_tmp6);
  __cil_tmp8 = *((unsigned int *)__cil_tmp7);
  tmp = gpio_to_irq(__cil_tmp8);
  alarm_irq = tmp;
  }
  if (alarm_irq >= 0) {
    {
    __cil_tmp9 = (unsigned int )alarm_irq;
    __cil_tmp10 = (void *)fan_data;
    free_irq(__cil_tmp9, __cil_tmp10);
    }
  } else {
  }
  {
  __cil_tmp11 = (unsigned long )pdev;
  __cil_tmp12 = __cil_tmp11 + 16;
  __cil_tmp13 = (struct device *)__cil_tmp12;
  __cil_tmp14 = (struct device_attribute const *)(& dev_attr_fan1_alarm);
  device_remove_file(__cil_tmp13, __cil_tmp14);
  __cil_tmp15 = (unsigned long )fan_data;
  __cil_tmp16 = __cil_tmp15 + 136;
  __cil_tmp17 = *((struct gpio_fan_alarm **)__cil_tmp16);
  __cil_tmp18 = *((unsigned int *)__cil_tmp17);
  gpio_free(__cil_tmp18);
  }
  return;
}
}
static void __set_fan_ctrl(struct gpio_fan_data *fan_data , int ctrl_val )
{ int i ;
  unsigned long __cil_tmp4 ;
  unsigned long __cil_tmp5 ;
  int __cil_tmp6 ;
  unsigned long __cil_tmp7 ;
  unsigned long __cil_tmp8 ;
  unsigned int *__cil_tmp9 ;
  unsigned int *__cil_tmp10 ;
  unsigned int __cil_tmp11 ;
  int __cil_tmp12 ;
  int __cil_tmp13 ;
  {
  i = 0;
  {
  while (1) {
    while_continue: ;
    {
    __cil_tmp4 = (unsigned long )fan_data;
    __cil_tmp5 = __cil_tmp4 + 88;
    __cil_tmp6 = *((int *)__cil_tmp5);
    if (i < __cil_tmp6) {
    } else {
      goto while_break;
    }
    }
    {
    __cil_tmp7 = (unsigned long )fan_data;
    __cil_tmp8 = __cil_tmp7 + 96;
    __cil_tmp9 = *((unsigned int **)__cil_tmp8);
    __cil_tmp10 = __cil_tmp9 + i;
    __cil_tmp11 = *__cil_tmp10;
    __cil_tmp12 = ctrl_val >> i;
    __cil_tmp13 = __cil_tmp12 & 1;
    gpio_set_value(__cil_tmp11, __cil_tmp13);
    i = i + 1;
    }
  }
  while_break: ;
  }
  return;
}
}
static int __get_fan_ctrl(struct gpio_fan_data *fan_data )
{ int i ;
  int ctrl_val ;
  int value ;
  unsigned long __cil_tmp5 ;
  unsigned long __cil_tmp6 ;
  int __cil_tmp7 ;
  unsigned long __cil_tmp8 ;
  unsigned long __cil_tmp9 ;
  unsigned int *__cil_tmp10 ;
  unsigned int *__cil_tmp11 ;
  unsigned int __cil_tmp12 ;
  int __cil_tmp13 ;
  {
  ctrl_val = 0;
  i = 0;
  {
  while (1) {
    while_continue: ;
    {
    __cil_tmp5 = (unsigned long )fan_data;
    __cil_tmp6 = __cil_tmp5 + 88;
    __cil_tmp7 = *((int *)__cil_tmp6);
    if (i < __cil_tmp7) {
    } else {
      goto while_break;
    }
    }
    {
    __cil_tmp8 = (unsigned long )fan_data;
    __cil_tmp9 = __cil_tmp8 + 96;
    __cil_tmp10 = *((unsigned int **)__cil_tmp9);
    __cil_tmp11 = __cil_tmp10 + i;
    __cil_tmp12 = *__cil_tmp11;
    value = gpio_get_value(__cil_tmp12);
    __cil_tmp13 = value << i;
    ctrl_val = ctrl_val | __cil_tmp13;
    i = i + 1;
    }
  }
  while_break: ;
  }
  return (ctrl_val);
}
}
static void set_fan_speed(struct gpio_fan_data *fan_data , int speed_index )
{ unsigned long __cil_tmp3 ;
  unsigned long __cil_tmp4 ;
  int __cil_tmp5 ;
  unsigned long __cil_tmp6 ;
  unsigned long __cil_tmp7 ;
  struct gpio_fan_speed *__cil_tmp8 ;
  struct gpio_fan_speed *__cil_tmp9 ;
  unsigned long __cil_tmp10 ;
  unsigned long __cil_tmp11 ;
  int __cil_tmp12 ;
  unsigned long __cil_tmp13 ;
  unsigned long __cil_tmp14 ;
  {
  {
  __cil_tmp3 = (unsigned long )fan_data;
  __cil_tmp4 = __cil_tmp3 + 120;
  __cil_tmp5 = *((int *)__cil_tmp4);
  if (__cil_tmp5 == speed_index) {
    return;
  } else {
  }
  }
  {
  __cil_tmp6 = (unsigned long )fan_data;
  __cil_tmp7 = __cil_tmp6 + 112;
  __cil_tmp8 = *((struct gpio_fan_speed **)__cil_tmp7);
  __cil_tmp9 = __cil_tmp8 + speed_index;
  __cil_tmp10 = (unsigned long )__cil_tmp9;
  __cil_tmp11 = __cil_tmp10 + 4;
  __cil_tmp12 = *((int *)__cil_tmp11);
  __set_fan_ctrl(fan_data, __cil_tmp12);
  __cil_tmp13 = (unsigned long )fan_data;
  __cil_tmp14 = __cil_tmp13 + 120;
  *((int *)__cil_tmp14) = speed_index;
  }
  return;
}
}
static int get_fan_speed_index(struct gpio_fan_data *fan_data )
{ int ctrl_val ;
  int tmp ;
  int i ;
  unsigned long __cil_tmp5 ;
  unsigned long __cil_tmp6 ;
  int __cil_tmp7 ;
  unsigned long __cil_tmp8 ;
  unsigned long __cil_tmp9 ;
  struct gpio_fan_speed *__cil_tmp10 ;
  struct gpio_fan_speed *__cil_tmp11 ;
  unsigned long __cil_tmp12 ;
  unsigned long __cil_tmp13 ;
  int __cil_tmp14 ;
  struct platform_device *__cil_tmp15 ;
  unsigned long __cil_tmp16 ;
  unsigned long __cil_tmp17 ;
  struct device *__cil_tmp18 ;
  struct device const *__cil_tmp19 ;
  {
  {
  tmp = __get_fan_ctrl(fan_data);
  ctrl_val = tmp;
  i = 0;
  }
  {
  while (1) {
    while_continue: ;
    {
    __cil_tmp5 = (unsigned long )fan_data;
    __cil_tmp6 = __cil_tmp5 + 104;
    __cil_tmp7 = *((int *)__cil_tmp6);
    if (i < __cil_tmp7) {
    } else {
      goto while_break;
    }
    }
    {
    __cil_tmp8 = (unsigned long )fan_data;
    __cil_tmp9 = __cil_tmp8 + 112;
    __cil_tmp10 = *((struct gpio_fan_speed **)__cil_tmp9);
    __cil_tmp11 = __cil_tmp10 + i;
    __cil_tmp12 = (unsigned long )__cil_tmp11;
    __cil_tmp13 = __cil_tmp12 + 4;
    __cil_tmp14 = *((int *)__cil_tmp13);
    if (__cil_tmp14 == ctrl_val) {
      return (i);
    } else {
    }
    }
    i = i + 1;
  }
  while_break: ;
  }
  {
  __cil_tmp15 = *((struct platform_device **)fan_data);
  __cil_tmp16 = (unsigned long )__cil_tmp15;
  __cil_tmp17 = __cil_tmp16 + 16;
  __cil_tmp18 = (struct device *)__cil_tmp17;
  __cil_tmp19 = (struct device const *)__cil_tmp18;
  dev_warn(__cil_tmp19, "missing speed array entry for GPIO value 0x%x\n", ctrl_val);
  }
  return (-22);
}
}
static int rpm_to_speed_index(struct gpio_fan_data *fan_data , int rpm )
{ struct gpio_fan_speed *speed ;
  int i ;
  unsigned long __cil_tmp5 ;
  unsigned long __cil_tmp6 ;
  unsigned long __cil_tmp7 ;
  unsigned long __cil_tmp8 ;
  int __cil_tmp9 ;
  struct gpio_fan_speed *__cil_tmp10 ;
  int __cil_tmp11 ;
  unsigned long __cil_tmp12 ;
  unsigned long __cil_tmp13 ;
  int __cil_tmp14 ;
  {
  __cil_tmp5 = (unsigned long )fan_data;
  __cil_tmp6 = __cil_tmp5 + 112;
  speed = *((struct gpio_fan_speed **)__cil_tmp6);
  i = 0;
  {
  while (1) {
    while_continue: ;
    {
    __cil_tmp7 = (unsigned long )fan_data;
    __cil_tmp8 = __cil_tmp7 + 104;
    __cil_tmp9 = *((int *)__cil_tmp8);
    if (i < __cil_tmp9) {
    } else {
      goto while_break;
    }
    }
    {
    __cil_tmp10 = speed + i;
    __cil_tmp11 = *((int *)__cil_tmp10);
    if (__cil_tmp11 >= rpm) {
      return (i);
    } else {
    }
    }
    i = i + 1;
  }
  while_break: ;
  }
  {
  __cil_tmp12 = (unsigned long )fan_data;
  __cil_tmp13 = __cil_tmp12 + 104;
  __cil_tmp14 = *((int *)__cil_tmp13);
  return (__cil_tmp14 - 1);
  }
}
}
static ssize_t show_pwm(struct device *dev , struct device_attribute *attr , char *buf )
{ struct gpio_fan_data *fan_data ;
  void *tmp ;
  u8 pwm ;
  int tmp___0 ;
  struct device const *__cil_tmp8 ;
  unsigned long __cil_tmp9 ;
  unsigned long __cil_tmp10 ;
  int __cil_tmp11 ;
  int __cil_tmp12 ;
  unsigned long __cil_tmp13 ;
  unsigned long __cil_tmp14 ;
  int __cil_tmp15 ;
  int __cil_tmp16 ;
  int __cil_tmp17 ;
  int __cil_tmp18 ;
  {
  {
  __cil_tmp8 = (struct device const *)dev;
  tmp = dev_get_drvdata(__cil_tmp8);
  fan_data = (struct gpio_fan_data *)tmp;
  __cil_tmp9 = (unsigned long )fan_data;
  __cil_tmp10 = __cil_tmp9 + 104;
  __cil_tmp11 = *((int *)__cil_tmp10);
  __cil_tmp12 = __cil_tmp11 - 1;
  __cil_tmp13 = (unsigned long )fan_data;
  __cil_tmp14 = __cil_tmp13 + 120;
  __cil_tmp15 = *((int *)__cil_tmp14);
  __cil_tmp16 = __cil_tmp15 * 255;
  __cil_tmp17 = __cil_tmp16 / __cil_tmp12;
  pwm = (u8 )__cil_tmp17;
  __cil_tmp18 = (int )pwm;
  tmp___0 = sprintf(buf, "%d\n", __cil_tmp18);
  }
  return ((ssize_t )tmp___0);
}
}
static ssize_t set_pwm(struct device *dev , struct device_attribute *attr , char const *buf ,
                       size_t count )
{ struct gpio_fan_data *fan_data ;
  void *tmp ;
  unsigned long pwm ;
  int speed_index ;
  int ret ;
  int tmp___0 ;
  struct device const *__cil_tmp11 ;
  unsigned long *__cil_tmp12 ;
  unsigned long __cil_tmp13 ;
  unsigned long __cil_tmp14 ;
  unsigned long __cil_tmp15 ;
  struct mutex *__cil_tmp16 ;
  unsigned long __cil_tmp17 ;
  unsigned long __cil_tmp18 ;
  bool __cil_tmp19 ;
  unsigned long __cil_tmp20 ;
  unsigned long __cil_tmp21 ;
  int __cil_tmp22 ;
  int __cil_tmp23 ;
  unsigned long __cil_tmp24 ;
  unsigned long *__cil_tmp25 ;
  unsigned long __cil_tmp26 ;
  unsigned long __cil_tmp27 ;
  unsigned long __cil_tmp28 ;
  unsigned long __cil_tmp29 ;
  unsigned long __cil_tmp30 ;
  unsigned long __cil_tmp31 ;
  unsigned long __cil_tmp32 ;
  struct mutex *__cil_tmp33 ;
  {
  {
  __cil_tmp11 = (struct device const *)dev;
  tmp = dev_get_drvdata(__cil_tmp11);
  fan_data = (struct gpio_fan_data *)tmp;
  ret = (int )count;
  tmp___0 = (int )kstrtoul(buf, 10U, & pwm);
  }
  if (tmp___0) {
    return ((ssize_t )-22);
  } else {
    {
    __cil_tmp12 = & pwm;
    __cil_tmp13 = *__cil_tmp12;
    if (__cil_tmp13 > 255UL) {
      return ((ssize_t )-22);
    } else {
    }
    }
  }
  {
  __cil_tmp14 = (unsigned long )fan_data;
  __cil_tmp15 = __cil_tmp14 + 16;
  __cil_tmp16 = (struct mutex *)__cil_tmp15;
  mutex_lock(__cil_tmp16);
  }
  {
  __cil_tmp17 = (unsigned long )fan_data;
  __cil_tmp18 = __cil_tmp17 + 128;
  __cil_tmp19 = *((bool *)__cil_tmp18);
  if (! __cil_tmp19) {
    ret = -1;
    goto exit_unlock;
  } else {
  }
  }
  {
  __cil_tmp20 = (unsigned long )fan_data;
  __cil_tmp21 = __cil_tmp20 + 104;
  __cil_tmp22 = *((int *)__cil_tmp21);
  __cil_tmp23 = __cil_tmp22 - 1;
  __cil_tmp24 = (unsigned long )__cil_tmp23;
  __cil_tmp25 = & pwm;
  __cil_tmp26 = *__cil_tmp25;
  __cil_tmp27 = __cil_tmp26 * __cil_tmp24;
  __cil_tmp28 = __cil_tmp27 + 255UL;
  __cil_tmp29 = __cil_tmp28 - 1UL;
  __cil_tmp30 = __cil_tmp29 / 255UL;
  speed_index = (int )__cil_tmp30;
  set_fan_speed(fan_data, speed_index);
  }
  exit_unlock:
  {
  __cil_tmp31 = (unsigned long )fan_data;
  __cil_tmp32 = __cil_tmp31 + 16;
  __cil_tmp33 = (struct mutex *)__cil_tmp32;
  mutex_unlock(__cil_tmp33);
  }
  return ((ssize_t )ret);
}
}
static ssize_t show_pwm_enable(struct device *dev , struct device_attribute *attr ,
                               char *buf )
{ struct gpio_fan_data *fan_data ;
  void *tmp ;
  int tmp___0 ;
  struct device const *__cil_tmp7 ;
  unsigned long __cil_tmp8 ;
  unsigned long __cil_tmp9 ;
  bool __cil_tmp10 ;
  int __cil_tmp11 ;
  {
  {
  __cil_tmp7 = (struct device const *)dev;
  tmp = dev_get_drvdata(__cil_tmp7);
  fan_data = (struct gpio_fan_data *)tmp;
  __cil_tmp8 = (unsigned long )fan_data;
  __cil_tmp9 = __cil_tmp8 + 128;
  __cil_tmp10 = *((bool *)__cil_tmp9);
  __cil_tmp11 = (int )__cil_tmp10;
  tmp___0 = sprintf(buf, "%d\n", __cil_tmp11);
  }
  return ((ssize_t )tmp___0);
}
}
static ssize_t set_pwm_enable(struct device *dev , struct device_attribute *attr ,
                              char const *buf , size_t count )
{ struct gpio_fan_data *fan_data ;
  void *tmp ;
  unsigned long val ;
  int tmp___0 ;
  struct device const *__cil_tmp9 ;
  unsigned long *__cil_tmp10 ;
  unsigned long __cil_tmp11 ;
  unsigned long *__cil_tmp12 ;
  unsigned long __cil_tmp13 ;
  unsigned long __cil_tmp14 ;
  unsigned long __cil_tmp15 ;
  bool __cil_tmp16 ;
  unsigned long __cil_tmp17 ;
  unsigned long __cil_tmp18 ;
  unsigned long __cil_tmp19 ;
  struct mutex *__cil_tmp20 ;
  unsigned long __cil_tmp21 ;
  unsigned long __cil_tmp22 ;
  unsigned long *__cil_tmp23 ;
  unsigned long __cil_tmp24 ;
  unsigned long *__cil_tmp25 ;
  unsigned long __cil_tmp26 ;
  unsigned long __cil_tmp27 ;
  unsigned long __cil_tmp28 ;
  int __cil_tmp29 ;
  int __cil_tmp30 ;
  unsigned long __cil_tmp31 ;
  unsigned long __cil_tmp32 ;
  struct mutex *__cil_tmp33 ;
  {
  {
  __cil_tmp9 = (struct device const *)dev;
  tmp = dev_get_drvdata(__cil_tmp9);
  fan_data = (struct gpio_fan_data *)tmp;
  tmp___0 = (int )kstrtoul(buf, 10U, & val);
  }
  if (tmp___0) {
    return ((ssize_t )-22);
  } else {
    {
    __cil_tmp10 = & val;
    __cil_tmp11 = *__cil_tmp10;
    if (__cil_tmp11 > 1UL) {
      return ((ssize_t )-22);
    } else {
    }
    }
  }
  {
  __cil_tmp12 = & val;
  __cil_tmp13 = *__cil_tmp12;
  __cil_tmp14 = (unsigned long )fan_data;
  __cil_tmp15 = __cil_tmp14 + 128;
  __cil_tmp16 = *((bool *)__cil_tmp15);
  __cil_tmp17 = (unsigned long )__cil_tmp16;
  if (__cil_tmp17 == __cil_tmp13) {
    return ((ssize_t )count);
  } else {
  }
  }
  {
  __cil_tmp18 = (unsigned long )fan_data;
  __cil_tmp19 = __cil_tmp18 + 16;
  __cil_tmp20 = (struct mutex *)__cil_tmp19;
  mutex_lock(__cil_tmp20);
  __cil_tmp21 = (unsigned long )fan_data;
  __cil_tmp22 = __cil_tmp21 + 128;
  __cil_tmp23 = & val;
  __cil_tmp24 = *__cil_tmp23;
  *((bool *)__cil_tmp22) = (bool )__cil_tmp24;
  }
  {
  __cil_tmp25 = & val;
  __cil_tmp26 = *__cil_tmp25;
  if (__cil_tmp26 == 0UL) {
    {
    __cil_tmp27 = (unsigned long )fan_data;
    __cil_tmp28 = __cil_tmp27 + 104;
    __cil_tmp29 = *((int *)__cil_tmp28);
    __cil_tmp30 = __cil_tmp29 - 1;
    set_fan_speed(fan_data, __cil_tmp30);
    }
  } else {
  }
  }
  {
  __cil_tmp31 = (unsigned long )fan_data;
  __cil_tmp32 = __cil_tmp31 + 16;
  __cil_tmp33 = (struct mutex *)__cil_tmp32;
  mutex_unlock(__cil_tmp33);
  }
  return ((ssize_t )count);
}
}
static ssize_t show_pwm_mode(struct device *dev , struct device_attribute *attr ,
                             char *buf )
{ int tmp ;
  {
  {
  tmp = sprintf(buf, "0\n");
  }
  return ((ssize_t )tmp);
}
}
static ssize_t show_rpm_min(struct device *dev , struct device_attribute *attr , char *buf )
{ struct gpio_fan_data *fan_data ;
  void *tmp ;
  int tmp___0 ;
  struct device const *__cil_tmp7 ;
  unsigned long __cil_tmp8 ;
  unsigned long __cil_tmp9 ;
  struct gpio_fan_speed *__cil_tmp10 ;
  struct gpio_fan_speed *__cil_tmp11 ;
  int __cil_tmp12 ;
  {
  {
  __cil_tmp7 = (struct device const *)dev;
  tmp = dev_get_drvdata(__cil_tmp7);
  fan_data = (struct gpio_fan_data *)tmp;
  __cil_tmp8 = (unsigned long )fan_data;
  __cil_tmp9 = __cil_tmp8 + 112;
  __cil_tmp10 = *((struct gpio_fan_speed **)__cil_tmp9);
  __cil_tmp11 = __cil_tmp10 + 0;
  __cil_tmp12 = *((int *)__cil_tmp11);
  tmp___0 = sprintf(buf, "%d\n", __cil_tmp12);
  }
  return ((ssize_t )tmp___0);
}
}
static ssize_t show_rpm_max(struct device *dev , struct device_attribute *attr , char *buf )
{ struct gpio_fan_data *fan_data ;
  void *tmp ;
  int tmp___0 ;
  struct device const *__cil_tmp7 ;
  unsigned long __cil_tmp8 ;
  unsigned long __cil_tmp9 ;
  int __cil_tmp10 ;
  int __cil_tmp11 ;
  unsigned long __cil_tmp12 ;
  unsigned long __cil_tmp13 ;
  struct gpio_fan_speed *__cil_tmp14 ;
  struct gpio_fan_speed *__cil_tmp15 ;
  int __cil_tmp16 ;
  {
  {
  __cil_tmp7 = (struct device const *)dev;
  tmp = dev_get_drvdata(__cil_tmp7);
  fan_data = (struct gpio_fan_data *)tmp;
  __cil_tmp8 = (unsigned long )fan_data;
  __cil_tmp9 = __cil_tmp8 + 104;
  __cil_tmp10 = *((int *)__cil_tmp9);
  __cil_tmp11 = __cil_tmp10 - 1;
  __cil_tmp12 = (unsigned long )fan_data;
  __cil_tmp13 = __cil_tmp12 + 112;
  __cil_tmp14 = *((struct gpio_fan_speed **)__cil_tmp13);
  __cil_tmp15 = __cil_tmp14 + __cil_tmp11;
  __cil_tmp16 = *((int *)__cil_tmp15);
  tmp___0 = sprintf(buf, "%d\n", __cil_tmp16);
  }
  return ((ssize_t )tmp___0);
}
}
static ssize_t show_rpm(struct device *dev , struct device_attribute *attr , char *buf )
{ struct gpio_fan_data *fan_data ;
  void *tmp ;
  int tmp___0 ;
  struct device const *__cil_tmp7 ;
  unsigned long __cil_tmp8 ;
  unsigned long __cil_tmp9 ;
  int __cil_tmp10 ;
  unsigned long __cil_tmp11 ;
  unsigned long __cil_tmp12 ;
  struct gpio_fan_speed *__cil_tmp13 ;
  struct gpio_fan_speed *__cil_tmp14 ;
  int __cil_tmp15 ;
  {
  {
  __cil_tmp7 = (struct device const *)dev;
  tmp = dev_get_drvdata(__cil_tmp7);
  fan_data = (struct gpio_fan_data *)tmp;
  __cil_tmp8 = (unsigned long )fan_data;
  __cil_tmp9 = __cil_tmp8 + 120;
  __cil_tmp10 = *((int *)__cil_tmp9);
  __cil_tmp11 = (unsigned long )fan_data;
  __cil_tmp12 = __cil_tmp11 + 112;
  __cil_tmp13 = *((struct gpio_fan_speed **)__cil_tmp12);
  __cil_tmp14 = __cil_tmp13 + __cil_tmp10;
  __cil_tmp15 = *((int *)__cil_tmp14);
  tmp___0 = sprintf(buf, "%d\n", __cil_tmp15);
  }
  return ((ssize_t )tmp___0);
}
}
static ssize_t set_rpm(struct device *dev , struct device_attribute *attr , char const *buf ,
                       size_t count )
{ struct gpio_fan_data *fan_data ;
  void *tmp ;
  unsigned long rpm ;
  int ret ;
  int tmp___0 ;
  int tmp___1 ;
  struct device const *__cil_tmp11 ;
  unsigned long __cil_tmp12 ;
  unsigned long __cil_tmp13 ;
  struct mutex *__cil_tmp14 ;
  unsigned long __cil_tmp15 ;
  unsigned long __cil_tmp16 ;
  bool __cil_tmp17 ;
  unsigned long *__cil_tmp18 ;
  unsigned long __cil_tmp19 ;
  int __cil_tmp20 ;
  unsigned long __cil_tmp21 ;
  unsigned long __cil_tmp22 ;
  struct mutex *__cil_tmp23 ;
  {
  {
  __cil_tmp11 = (struct device const *)dev;
  tmp = dev_get_drvdata(__cil_tmp11);
  fan_data = (struct gpio_fan_data *)tmp;
  ret = (int )count;
  tmp___0 = (int )kstrtoul(buf, 10U, & rpm);
  }
  if (tmp___0) {
    return ((ssize_t )-22);
  } else {
  }
  {
  __cil_tmp12 = (unsigned long )fan_data;
  __cil_tmp13 = __cil_tmp12 + 16;
  __cil_tmp14 = (struct mutex *)__cil_tmp13;
  mutex_lock(__cil_tmp14);
  }
  {
  __cil_tmp15 = (unsigned long )fan_data;
  __cil_tmp16 = __cil_tmp15 + 128;
  __cil_tmp17 = *((bool *)__cil_tmp16);
  if (! __cil_tmp17) {
    ret = -1;
    goto exit_unlock;
  } else {
  }
  }
  {
  __cil_tmp18 = & rpm;
  __cil_tmp19 = *__cil_tmp18;
  __cil_tmp20 = (int )__cil_tmp19;
  tmp___1 = rpm_to_speed_index(fan_data, __cil_tmp20);
  set_fan_speed(fan_data, tmp___1);
  }
  exit_unlock:
  {
  __cil_tmp21 = (unsigned long )fan_data;
  __cil_tmp22 = __cil_tmp21 + 16;
  __cil_tmp23 = (struct mutex *)__cil_tmp22;
  mutex_unlock(__cil_tmp23);
  }
  return ((ssize_t )ret);
}
}
static struct device_attribute dev_attr_pwm1 = {{"pwm1", (umode_t )420}, & show_pwm, & set_pwm};
static struct device_attribute dev_attr_pwm1_enable = {{"pwm1_enable", (umode_t )420}, & show_pwm_enable, & set_pwm_enable};
static struct device_attribute dev_attr_pwm1_mode = {{"pwm1_mode", (umode_t )292}, & show_pwm_mode, (ssize_t (*)(struct device *dev ,
                                                                struct device_attribute *attr ,
                                                                char const *buf ,
                                                                size_t count ))((void *)0)};
static struct device_attribute dev_attr_fan1_min = {{"fan1_min", (umode_t )292}, & show_rpm_min, (ssize_t (*)(struct device *dev ,
                                                              struct device_attribute *attr ,
                                                              char const *buf ,
                                                              size_t count ))((void *)0)};
static struct device_attribute dev_attr_fan1_max = {{"fan1_max", (umode_t )292}, & show_rpm_max, (ssize_t (*)(struct device *dev ,
                                                              struct device_attribute *attr ,
                                                              char const *buf ,
                                                              size_t count ))((void *)0)};
static struct device_attribute dev_attr_fan1_input = {{"fan1_input", (umode_t )292}, & show_rpm, (ssize_t (*)(struct device *dev , struct device_attribute *attr ,
                                                            char const *buf , size_t count ))((void *)0)};
static struct device_attribute dev_attr_fan1_target = {{"fan1_target", (umode_t )420}, & show_rpm, & set_rpm};
static struct attribute *gpio_fan_ctrl_attributes[8] =
  { & dev_attr_pwm1.attr, & dev_attr_pwm1_enable.attr, & dev_attr_pwm1_mode.attr, & dev_attr_fan1_input.attr,
        & dev_attr_fan1_target.attr, & dev_attr_fan1_min.attr, & dev_attr_fan1_max.attr, (struct attribute *)((void *)0)};
static struct attribute_group const gpio_fan_ctrl_group = {(char const *)0, (umode_t (*)(struct kobject * , struct attribute * , int ))0,
    gpio_fan_ctrl_attributes};
static int fan_ctrl_init(struct gpio_fan_data *fan_data , struct gpio_fan_platform_data *pdata )
{ struct platform_device *pdev ;
  int num_ctrl ;
  unsigned int *ctrl ;
  int i ;
  int err ;
  int tmp ;
  unsigned long __cil_tmp9 ;
  unsigned long __cil_tmp10 ;
  unsigned int *__cil_tmp11 ;
  unsigned int __cil_tmp12 ;
  unsigned int *__cil_tmp13 ;
  unsigned int __cil_tmp14 ;
  unsigned int *__cil_tmp15 ;
  unsigned int __cil_tmp16 ;
  unsigned int *__cil_tmp17 ;
  unsigned int __cil_tmp18 ;
  unsigned long __cil_tmp19 ;
  unsigned long __cil_tmp20 ;
  unsigned long __cil_tmp21 ;
  unsigned long __cil_tmp22 ;
  unsigned long __cil_tmp23 ;
  unsigned long __cil_tmp24 ;
  unsigned long __cil_tmp25 ;
  unsigned long __cil_tmp26 ;
  unsigned long __cil_tmp27 ;
  unsigned long __cil_tmp28 ;
  unsigned long __cil_tmp29 ;
  unsigned long __cil_tmp30 ;
  unsigned long __cil_tmp31 ;
  unsigned long __cil_tmp32 ;
  unsigned long __cil_tmp33 ;
  unsigned long __cil_tmp34 ;
  unsigned long __cil_tmp35 ;
  unsigned long __cil_tmp36 ;
  int __cil_tmp37 ;
  unsigned long __cil_tmp38 ;
  unsigned long __cil_tmp39 ;
  unsigned long __cil_tmp40 ;
  struct kobject *__cil_tmp41 ;
  unsigned int *__cil_tmp42 ;
  unsigned int __cil_tmp43 ;
  {
  pdev = *((struct platform_device **)fan_data);
  num_ctrl = *((int *)pdata);
  __cil_tmp9 = (unsigned long )pdata;
  __cil_tmp10 = __cil_tmp9 + 8;
  ctrl = *((unsigned int **)__cil_tmp10);
  i = 0;
  {
  while (1) {
    while_continue: ;
    if (i < num_ctrl) {
    } else {
      goto while_break;
    }
    {
    __cil_tmp11 = ctrl + i;
    __cil_tmp12 = *__cil_tmp11;
    err = gpio_request(__cil_tmp12, "GPIO fan control");
    }
    if (err) {
      goto err_free_gpio;
    } else {
    }
    {
    __cil_tmp13 = ctrl + i;
    __cil_tmp14 = *__cil_tmp13;
    tmp = gpio_get_value(__cil_tmp14);
    __cil_tmp15 = ctrl + i;
    __cil_tmp16 = *__cil_tmp15;
    err = gpio_direction_output(__cil_tmp16, tmp);
    }
    if (err) {
      {
      __cil_tmp17 = ctrl + i;
      __cil_tmp18 = *__cil_tmp17;
      gpio_free(__cil_tmp18);
      }
      goto err_free_gpio;
    } else {
    }
    i = i + 1;
  }
  while_break: ;
  }
  {
  __cil_tmp19 = (unsigned long )fan_data;
  __cil_tmp20 = __cil_tmp19 + 88;
  *((int *)__cil_tmp20) = num_ctrl;
  __cil_tmp21 = (unsigned long )fan_data;
  __cil_tmp22 = __cil_tmp21 + 96;
  *((unsigned int **)__cil_tmp22) = ctrl;
  __cil_tmp23 = (unsigned long )fan_data;
  __cil_tmp24 = __cil_tmp23 + 104;
  __cil_tmp25 = (unsigned long )pdata;
  __cil_tmp26 = __cil_tmp25 + 24;
  *((int *)__cil_tmp24) = *((int *)__cil_tmp26);
  __cil_tmp27 = (unsigned long )fan_data;
  __cil_tmp28 = __cil_tmp27 + 112;
  __cil_tmp29 = (unsigned long )pdata;
  __cil_tmp30 = __cil_tmp29 + 32;
  *((struct gpio_fan_speed **)__cil_tmp28) = *((struct gpio_fan_speed **)__cil_tmp30);
  __cil_tmp31 = (unsigned long )fan_data;
  __cil_tmp32 = __cil_tmp31 + 128;
  *((bool *)__cil_tmp32) = (bool )1;
  __cil_tmp33 = (unsigned long )fan_data;
  __cil_tmp34 = __cil_tmp33 + 120;
  *((int *)__cil_tmp34) = get_fan_speed_index(fan_data);
  }
  {
  __cil_tmp35 = (unsigned long )fan_data;
  __cil_tmp36 = __cil_tmp35 + 120;
  __cil_tmp37 = *((int *)__cil_tmp36);
  if (__cil_tmp37 < 0) {
    err = -19;
    goto err_free_gpio;
  } else {
  }
  }
  {
  __cil_tmp38 = 16 + 16;
  __cil_tmp39 = (unsigned long )pdev;
  __cil_tmp40 = __cil_tmp39 + __cil_tmp38;
  __cil_tmp41 = (struct kobject *)__cil_tmp40;
  err = (int )sysfs_create_group(__cil_tmp41, & gpio_fan_ctrl_group);
  }
  if (err) {
    goto err_free_gpio;
  } else {
  }
  return (0);
  err_free_gpio:
  i = i - 1;
  {
  while (1) {
    while_continue___0: ;
    if (i >= 0) {
    } else {
      goto while_break___0;
    }
    {
    __cil_tmp42 = ctrl + i;
    __cil_tmp43 = *__cil_tmp42;
    gpio_free(__cil_tmp43);
    i = i - 1;
    }
  }
  while_break___0: ;
  }
  return (err);
}
}
static void fan_ctrl_free(struct gpio_fan_data *fan_data )
{ struct platform_device *pdev ;
  int i ;
  unsigned long __cil_tmp4 ;
  unsigned long __cil_tmp5 ;
  unsigned long __cil_tmp6 ;
  struct kobject *__cil_tmp7 ;
  unsigned long __cil_tmp8 ;
  unsigned long __cil_tmp9 ;
  int __cil_tmp10 ;
  unsigned long __cil_tmp11 ;
  unsigned long __cil_tmp12 ;
  unsigned int *__cil_tmp13 ;
  unsigned int *__cil_tmp14 ;
  unsigned int __cil_tmp15 ;
  {
  {
  pdev = *((struct platform_device **)fan_data);
  __cil_tmp4 = 16 + 16;
  __cil_tmp5 = (unsigned long )pdev;
  __cil_tmp6 = __cil_tmp5 + __cil_tmp4;
  __cil_tmp7 = (struct kobject *)__cil_tmp6;
  sysfs_remove_group(__cil_tmp7, & gpio_fan_ctrl_group);
  i = 0;
  }
  {
  while (1) {
    while_continue: ;
    {
    __cil_tmp8 = (unsigned long )fan_data;
    __cil_tmp9 = __cil_tmp8 + 88;
    __cil_tmp10 = *((int *)__cil_tmp9);
    if (i < __cil_tmp10) {
    } else {
      goto while_break;
    }
    }
    {
    __cil_tmp11 = (unsigned long )fan_data;
    __cil_tmp12 = __cil_tmp11 + 96;
    __cil_tmp13 = *((unsigned int **)__cil_tmp12);
    __cil_tmp14 = __cil_tmp13 + i;
    __cil_tmp15 = *__cil_tmp14;
    gpio_free(__cil_tmp15);
    i = i + 1;
    }
  }
  while_break: ;
  }
  return;
}
}
static ssize_t show_name(struct device *dev , struct device_attribute *attr , char *buf )
{ int tmp ;
  {
  {
  tmp = sprintf(buf, "gpio-fan\n");
  }
  return ((ssize_t )tmp);
}
}
static struct device_attribute dev_attr_name = {{"name", (umode_t )292}, & show_name, (ssize_t (*)(struct device *dev , struct device_attribute *attr ,
                                                       char const *buf , size_t count ))((void *)0)};
static struct lock_class_key __key___2 ;
static int gpio_fan_probe(struct platform_device *pdev ) __attribute__((__section__(".devinit.text"),
__no_instrument_function__)) ;
static int gpio_fan_probe(struct platform_device *pdev )
{ int err ;
  struct gpio_fan_data *fan_data ;
  struct gpio_fan_platform_data *pdata ;
  void *tmp ;
  long tmp___0 ;
  long tmp___1 ;
  unsigned long __cil_tmp8 ;
  unsigned long __cil_tmp9 ;
  unsigned long __cil_tmp10 ;
  void *__cil_tmp11 ;
  void *__cil_tmp12 ;
  unsigned long __cil_tmp13 ;
  unsigned long __cil_tmp14 ;
  struct mutex *__cil_tmp15 ;
  unsigned long __cil_tmp16 ;
  unsigned long __cil_tmp17 ;
  unsigned long __cil_tmp18 ;
  unsigned long __cil_tmp19 ;
  struct gpio_fan_alarm *__cil_tmp20 ;
  unsigned long __cil_tmp21 ;
  unsigned long __cil_tmp22 ;
  int __cil_tmp23 ;
  unsigned long __cil_tmp24 ;
  unsigned long __cil_tmp25 ;
  struct gpio_fan_speed *__cil_tmp26 ;
  unsigned long __cil_tmp27 ;
  unsigned long __cil_tmp28 ;
  int __cil_tmp29 ;
  unsigned long __cil_tmp30 ;
  unsigned long __cil_tmp31 ;
  struct device *__cil_tmp32 ;
  struct device_attribute const *__cil_tmp33 ;
  unsigned long __cil_tmp34 ;
  unsigned long __cil_tmp35 ;
  unsigned long __cil_tmp36 ;
  unsigned long __cil_tmp37 ;
  struct device *__cil_tmp38 ;
  unsigned long __cil_tmp39 ;
  unsigned long __cil_tmp40 ;
  struct device *__cil_tmp41 ;
  void const *__cil_tmp42 ;
  unsigned long __cil_tmp43 ;
  unsigned long __cil_tmp44 ;
  struct device *__cil_tmp45 ;
  void const *__cil_tmp46 ;
  unsigned long __cil_tmp47 ;
  unsigned long __cil_tmp48 ;
  struct device *__cil_tmp49 ;
  struct device const *__cil_tmp50 ;
  unsigned long __cil_tmp51 ;
  unsigned long __cil_tmp52 ;
  struct device *__cil_tmp53 ;
  struct device_attribute const *__cil_tmp54 ;
  unsigned long __cil_tmp55 ;
  unsigned long __cil_tmp56 ;
  unsigned long __cil_tmp57 ;
  unsigned long __cil_tmp58 ;
  void *__cil_tmp59 ;
  void const *__cil_tmp60 ;
  {
  __cil_tmp8 = 16 + 184;
  __cil_tmp9 = (unsigned long )pdev;
  __cil_tmp10 = __cil_tmp9 + __cil_tmp8;
  __cil_tmp11 = *((void **)__cil_tmp10);
  pdata = (struct gpio_fan_platform_data *)__cil_tmp11;
  if (! pdata) {
    return (-22);
  } else {
  }
  {
  tmp = kzalloc(176UL, 208U);
  fan_data = (struct gpio_fan_data *)tmp;
  }
  if (! fan_data) {
    return (-12);
  } else {
  }
  {
  *((struct platform_device **)fan_data) = pdev;
  __cil_tmp12 = (void *)fan_data;
  platform_set_drvdata(pdev, __cil_tmp12);
  }
  {
  while (1) {
    while_continue: ;
    {
    __cil_tmp13 = (unsigned long )fan_data;
    __cil_tmp14 = __cil_tmp13 + 16;
    __cil_tmp15 = (struct mutex *)__cil_tmp14;
    __mutex_init(__cil_tmp15, "&fan_data->lock", & __key___2);
    }
    goto while_break;
  }
  while_break: ;
  }
  {
  __cil_tmp16 = (unsigned long )pdata;
  __cil_tmp17 = __cil_tmp16 + 16;
  if (*((struct gpio_fan_alarm **)__cil_tmp17)) {
    {
    __cil_tmp18 = (unsigned long )pdata;
    __cil_tmp19 = __cil_tmp18 + 16;
    __cil_tmp20 = *((struct gpio_fan_alarm **)__cil_tmp19);
    err = fan_alarm_init(fan_data, __cil_tmp20);
    }
    if (err) {
      goto err_free_data;
    } else {
    }
  } else {
  }
  }
  {
  __cil_tmp21 = (unsigned long )pdata;
  __cil_tmp22 = __cil_tmp21 + 8;
  if (*((unsigned int **)__cil_tmp22)) {
    {
    __cil_tmp23 = *((int *)pdata);
    if (__cil_tmp23 > 0) {
      {
      __cil_tmp24 = (unsigned long )pdata;
      __cil_tmp25 = __cil_tmp24 + 32;
      __cil_tmp26 = *((struct gpio_fan_speed **)__cil_tmp25);
      if (! __cil_tmp26) {
        err = -22;
        goto err_free_alarm;
      } else {
        {
        __cil_tmp27 = (unsigned long )pdata;
        __cil_tmp28 = __cil_tmp27 + 24;
        __cil_tmp29 = *((int *)__cil_tmp28);
        if (__cil_tmp29 <= 1) {
          err = -22;
          goto err_free_alarm;
        } else {
        }
        }
      }
      }
      {
      err = fan_ctrl_init(fan_data, pdata);
      }
      if (err) {
        goto err_free_alarm;
      } else {
      }
    } else {
    }
    }
  } else {
  }
  }
  {
  __cil_tmp30 = (unsigned long )pdev;
  __cil_tmp31 = __cil_tmp30 + 16;
  __cil_tmp32 = (struct device *)__cil_tmp31;
  __cil_tmp33 = (struct device_attribute const *)(& dev_attr_name);
  err = device_create_file(__cil_tmp32, __cil_tmp33);
  }
  if (err) {
    goto err_free_ctrl;
  } else {
  }
  {
  __cil_tmp34 = (unsigned long )fan_data;
  __cil_tmp35 = __cil_tmp34 + 8;
  __cil_tmp36 = (unsigned long )pdev;
  __cil_tmp37 = __cil_tmp36 + 16;
  __cil_tmp38 = (struct device *)__cil_tmp37;
  *((struct device **)__cil_tmp35) = hwmon_device_register(__cil_tmp38);
  __cil_tmp39 = (unsigned long )fan_data;
  __cil_tmp40 = __cil_tmp39 + 8;
  __cil_tmp41 = *((struct device **)__cil_tmp40);
  __cil_tmp42 = (void const *)__cil_tmp41;
  tmp___1 = (long )IS_ERR(__cil_tmp42);
  }
  if (tmp___1) {
    {
    __cil_tmp43 = (unsigned long )fan_data;
    __cil_tmp44 = __cil_tmp43 + 8;
    __cil_tmp45 = *((struct device **)__cil_tmp44);
    __cil_tmp46 = (void const *)__cil_tmp45;
    tmp___0 = (long )PTR_ERR(__cil_tmp46);
    err = (int )tmp___0;
    }
    goto err_remove_name;
  } else {
  }
  {
  __cil_tmp47 = (unsigned long )pdev;
  __cil_tmp48 = __cil_tmp47 + 16;
  __cil_tmp49 = (struct device *)__cil_tmp48;
  __cil_tmp50 = (struct device const *)__cil_tmp49;
  _dev_info(__cil_tmp50, "GPIO fan initialized\n");
  }
  return (0);
  err_remove_name:
  {
  __cil_tmp51 = (unsigned long )pdev;
  __cil_tmp52 = __cil_tmp51 + 16;
  __cil_tmp53 = (struct device *)__cil_tmp52;
  __cil_tmp54 = (struct device_attribute const *)(& dev_attr_name);
  device_remove_file(__cil_tmp53, __cil_tmp54);
  }
  err_free_ctrl:
  {
  __cil_tmp55 = (unsigned long )fan_data;
  __cil_tmp56 = __cil_tmp55 + 96;
  if (*((unsigned int **)__cil_tmp56)) {
    {
    fan_ctrl_free(fan_data);
    }
  } else {
  }
  }
  err_free_alarm:
  {
  __cil_tmp57 = (unsigned long )fan_data;
  __cil_tmp58 = __cil_tmp57 + 136;
  if (*((struct gpio_fan_alarm **)__cil_tmp58)) {
    {
    fan_alarm_free(fan_data);
    }
  } else {
  }
  }
  err_free_data:
  {
  __cil_tmp59 = (void *)0;
  platform_set_drvdata(pdev, __cil_tmp59);
  __cil_tmp60 = (void const *)fan_data;
  kfree(__cil_tmp60);
  }
  return (err);
}
}
static int gpio_fan_remove(struct platform_device *pdev ) __attribute__((__section__(".devexit.text"),
__no_instrument_function__)) ;
static int gpio_fan_remove(struct platform_device *pdev )
{ struct gpio_fan_data *fan_data ;
  void *tmp ;
  struct platform_device const *__cil_tmp4 ;
  unsigned long __cil_tmp5 ;
  unsigned long __cil_tmp6 ;
  struct device *__cil_tmp7 ;
  unsigned long __cil_tmp8 ;
  unsigned long __cil_tmp9 ;
  struct device *__cil_tmp10 ;
  struct device_attribute const *__cil_tmp11 ;
  unsigned long __cil_tmp12 ;
  unsigned long __cil_tmp13 ;
  unsigned long __cil_tmp14 ;
  unsigned long __cil_tmp15 ;
  void const *__cil_tmp16 ;
  {
  {
  __cil_tmp4 = (struct platform_device const *)pdev;
  tmp = platform_get_drvdata(__cil_tmp4);
  fan_data = (struct gpio_fan_data *)tmp;
  __cil_tmp5 = (unsigned long )fan_data;
  __cil_tmp6 = __cil_tmp5 + 8;
  __cil_tmp7 = *((struct device **)__cil_tmp6);
  hwmon_device_unregister(__cil_tmp7);
  __cil_tmp8 = (unsigned long )pdev;
  __cil_tmp9 = __cil_tmp8 + 16;
  __cil_tmp10 = (struct device *)__cil_tmp9;
  __cil_tmp11 = (struct device_attribute const *)(& dev_attr_name);
  device_remove_file(__cil_tmp10, __cil_tmp11);
  }
  {
  __cil_tmp12 = (unsigned long )fan_data;
  __cil_tmp13 = __cil_tmp12 + 136;
  if (*((struct gpio_fan_alarm **)__cil_tmp13)) {
    {
    fan_alarm_free(fan_data);
    }
  } else {
  }
  }
  {
  __cil_tmp14 = (unsigned long )fan_data;
  __cil_tmp15 = __cil_tmp14 + 96;
  if (*((unsigned int **)__cil_tmp15)) {
    {
    fan_ctrl_free(fan_data);
    }
  } else {
  }
  }
  {
  __cil_tmp16 = (void const *)fan_data;
  kfree(__cil_tmp16);
  }
  return (0);
}
}
static int gpio_fan_suspend(struct platform_device *pdev , int state_event12 )
{ struct gpio_fan_data *fan_data ;
  void *tmp ;
  struct platform_device const *__cil_tmp5 ;
  unsigned long __cil_tmp6 ;
  unsigned long __cil_tmp7 ;
  unsigned long __cil_tmp8 ;
  unsigned long __cil_tmp9 ;
  unsigned long __cil_tmp10 ;
  unsigned long __cil_tmp11 ;
  {
  {
  __cil_tmp5 = (struct platform_device const *)pdev;
  tmp = platform_get_drvdata(__cil_tmp5);
  fan_data = (struct gpio_fan_data *)tmp;
  }
  {
  __cil_tmp6 = (unsigned long )fan_data;
  __cil_tmp7 = __cil_tmp6 + 96;
  if (*((unsigned int **)__cil_tmp7)) {
    {
    __cil_tmp8 = (unsigned long )fan_data;
    __cil_tmp9 = __cil_tmp8 + 124;
    __cil_tmp10 = (unsigned long )fan_data;
    __cil_tmp11 = __cil_tmp10 + 120;
    *((int *)__cil_tmp9) = *((int *)__cil_tmp11);
    set_fan_speed(fan_data, 0);
    }
  } else {
  }
  }
  return (0);
}
}
static int gpio_fan_resume(struct platform_device *pdev )
{ struct gpio_fan_data *fan_data ;
  void *tmp ;
  struct platform_device const *__cil_tmp4 ;
  unsigned long __cil_tmp5 ;
  unsigned long __cil_tmp6 ;
  unsigned long __cil_tmp7 ;
  unsigned long __cil_tmp8 ;
  int __cil_tmp9 ;
  {
  {
  __cil_tmp4 = (struct platform_device const *)pdev;
  tmp = platform_get_drvdata(__cil_tmp4);
  fan_data = (struct gpio_fan_data *)tmp;
  }
  {
  __cil_tmp5 = (unsigned long )fan_data;
  __cil_tmp6 = __cil_tmp5 + 96;
  if (*((unsigned int **)__cil_tmp6)) {
    {
    __cil_tmp7 = (unsigned long )fan_data;
    __cil_tmp8 = __cil_tmp7 + 124;
    __cil_tmp9 = *((int *)__cil_tmp8);
    set_fan_speed(fan_data, __cil_tmp9);
    }
  } else {
  }
  }
  return (0);
}
}
static struct platform_driver gpio_fan_driver = {& gpio_fan_probe, & gpio_fan_remove, (void (*)(struct platform_device * ))0, & gpio_fan_suspend,
    & gpio_fan_resume, {"gpio-fan", (struct bus_type *)0, (struct module *)0, (char const *)0,
                        (_Bool)0, (struct of_device_id const *)0, (int (*)(struct device *dev ))0,
                        (int (*)(struct device *dev ))0, (void (*)(struct device *dev ))0,
                        (int (*)(struct device *dev , pm_message_t state ))0, (int (*)(struct device *dev ))0,
                        (struct attribute_group const **)0, (struct dev_pm_ops const *)0,
                        (struct driver_private *)0}, (struct platform_device_id const *)0};
static int gpio_fan_driver_init(void) __attribute__((__section__(".init.text"), __no_instrument_function__)) ;
static int gpio_fan_driver_init(void)
{ int tmp ;
  {
  {
  tmp = platform_driver_register(& gpio_fan_driver);
  }
  return (tmp);
}
}
int init_module(void)
{ int tmp ;
  {
  {
  tmp = gpio_fan_driver_init();
  }
  return (tmp);
}
}
static void gpio_fan_driver_exit(void) __attribute__((__section__(".exit.text"),
__no_instrument_function__)) ;
static void gpio_fan_driver_exit(void)
{
  {
  {
  platform_driver_unregister(& gpio_fan_driver);
  }
  return;
}
}
void cleanup_module(void)
{
  {
  {
  gpio_fan_driver_exit();
  }
  return;
}
}
static char const __mod_author545[40] __attribute__((__used__, __unused__, __section__(".modinfo"),
__aligned__(1))) =
  { (char const )'a', (char const )'u', (char const )'t', (char const )'h',
        (char const )'o', (char const )'r', (char const )'=', (char const )'S',
        (char const )'i', (char const )'m', (char const )'o', (char const )'n',
        (char const )' ', (char const )'G', (char const )'u', (char const )'i',
        (char const )'n', (char const )'o', (char const )'t', (char const )' ',
        (char const )'<', (char const )'s', (char const )'g', (char const )'u',
        (char const )'i', (char const )'n', (char const )'o', (char const )'t',
        (char const )'@', (char const )'l', (char const )'a', (char const )'c',
        (char const )'i', (char const )'e', (char const )'.', (char const )'c',
        (char const )'o', (char const )'m', (char const )'>', (char const )'\000'};
static char const __mod_description546[28] __attribute__((__used__, __unused__,
__section__(".modinfo"), __aligned__(1))) =
  { (char const )'d', (char const )'e', (char const )'s', (char const )'c',
        (char const )'r', (char const )'i', (char const )'p', (char const )'t',
        (char const )'i', (char const )'o', (char const )'n', (char const )'=',
        (char const )'G', (char const )'P', (char const )'I', (char const )'O',
        (char const )' ', (char const )'F', (char const )'A', (char const )'N',
        (char const )' ', (char const )'d', (char const )'r', (char const )'i',
        (char const )'v', (char const )'e', (char const )'r', (char const )'\000'};
static char const __mod_license547[12] __attribute__((__used__, __unused__, __section__(".modinfo"),
__aligned__(1))) =
  { (char const )'l', (char const )'i', (char const )'c', (char const )'e',
        (char const )'n', (char const )'s', (char const )'e', (char const )'=',
        (char const )'G', (char const )'P', (char const )'L', (char const )'\000'};
static char const __mod_alias548[24] __attribute__((__used__, __unused__, __section__(".modinfo"),
__aligned__(1))) =
  { (char const )'a', (char const )'l', (char const )'i', (char const )'a',
        (char const )'s', (char const )'=', (char const )'p', (char const )'l',
        (char const )'a', (char const )'t', (char const )'f', (char const )'o',
        (char const )'r', (char const )'m', (char const )':', (char const )'g',
        (char const )'p', (char const )'i', (char const )'o', (char const )'-',
        (char const )'f', (char const )'a', (char const )'n', (char const )'\000'};
void ldv_check_final_state(void) ;
extern void ldv_check_return_value(int res ) ;
extern void ldv_initialize(void) ;
extern int __VERIFIER_nondet_int(void) ;
int LDV_IN_INTERRUPT ;
static int res_gpio_fan_probe_22 ;
void main(void)
{ struct platform_device *var_group1 ;
  pm_message_t var_gpio_fan_suspend_24_p1 ;
  int var_fan_alarm_irq_handler_1_p0 ;
  void *var_fan_alarm_irq_handler_1_p1 ;
  int ldv_s_gpio_fan_driver_platform_driver ;
  int tmp ;
  int tmp___0 ;
  int __cil_tmp8 ;
  int var_gpio_fan_suspend_24_p1_event9 ;
  {
  {
  LDV_IN_INTERRUPT = 1;
  ldv_initialize();
  ldv_s_gpio_fan_driver_platform_driver = 0;
  }
  {
  while (1) {
    while_continue: ;
    {
    tmp___0 = __VERIFIER_nondet_int();
    }
    if (tmp___0) {
    } else {
      {
      __cil_tmp8 = ldv_s_gpio_fan_driver_platform_driver == 0;
      if (! __cil_tmp8) {
      } else {
        goto while_break;
      }
      }
    }
    {
    tmp = __VERIFIER_nondet_int();
    }
    if (tmp == 0) {
      goto case_0;
    } else
    if (tmp == 1) {
      goto case_1;
    } else
    if (tmp == 2) {
      goto case_2;
    } else
    if (tmp == 3) {
      goto case_3;
    } else {
      {
      goto switch_default;
      if (0) {
        case_0:
        if (ldv_s_gpio_fan_driver_platform_driver == 0) {
          {
          res_gpio_fan_probe_22 = gpio_fan_probe(var_group1);
          ldv_check_return_value(res_gpio_fan_probe_22);
          }
          if (res_gpio_fan_probe_22) {
            goto ldv_module_exit;
          } else {
          }
          ldv_s_gpio_fan_driver_platform_driver = ldv_s_gpio_fan_driver_platform_driver + 1;
        } else {
        }
        goto switch_break;
        case_1:
        if (ldv_s_gpio_fan_driver_platform_driver == 1) {
          {
          gpio_fan_suspend(var_group1, var_gpio_fan_suspend_24_p1_event9);
          ldv_s_gpio_fan_driver_platform_driver = ldv_s_gpio_fan_driver_platform_driver + 1;
          }
        } else {
        }
        goto switch_break;
        case_2:
        if (ldv_s_gpio_fan_driver_platform_driver == 2) {
          {
          gpio_fan_resume(var_group1);
          ldv_s_gpio_fan_driver_platform_driver = 0;
          }
        } else {
        }
        goto switch_break;
        case_3:
        {
        LDV_IN_INTERRUPT = 2;
        fan_alarm_irq_handler(var_fan_alarm_irq_handler_1_p0, var_fan_alarm_irq_handler_1_p1);
        LDV_IN_INTERRUPT = 1;
        }
        goto switch_break;
        switch_default:
        goto switch_break;
      } else {
        switch_break: ;
      }
      }
    }
  }
  while_break: ;
  }
  ldv_module_exit:
  {
  ldv_check_final_state();
  }
  return;
}
}
void ldv_blast_assert(void)
{
  {
  ERROR: {reach_error();abort();}
}
}
extern int __VERIFIER_nondet_int(void) ;
int ldv_mutex = 1;
int __attribute__((__warn_unused_result__)) mutex_lock_interruptible(struct mutex *lock )
{ int nondetermined ;
  {
  if (ldv_mutex == 1) {
  } else {
    {
    ldv_blast_assert();
    }
  }
  {
  nondetermined = __VERIFIER_nondet_int();
  }
  if (nondetermined) {
    ldv_mutex = 2;
    return (0);
  } else {
    return (-4);
  }
}
}
int __attribute__((__warn_unused_result__)) mutex_lock_killable(struct mutex *lock )
{ int nondetermined ;
  {
  if (ldv_mutex == 1) {
  } else {
    {
    ldv_blast_assert();
    }
  }
  {
  nondetermined = __VERIFIER_nondet_int();
  }
  if (nondetermined) {
    ldv_mutex = 2;
    return (0);
  } else {
    return (-4);
  }
}
}
int atomic_dec_and_mutex_lock(atomic_t *cnt , struct mutex *lock )
{ int atomic_value_after_dec ;
  {
  if (ldv_mutex == 1) {
  } else {
    {
    ldv_blast_assert();
    }
  }
  {
  atomic_value_after_dec = __VERIFIER_nondet_int();
  }
  if (atomic_value_after_dec == 0) {
    ldv_mutex = 2;
    return (1);
  } else {
  }
  return (0);
}
}
void mutex_lock(struct mutex *lock )
{
  {
  if (ldv_mutex == 1) {
  } else {
    {
    ldv_blast_assert();
    }
  }
  ldv_mutex = 2;
  return;
}
}
int mutex_trylock(struct mutex *lock )
{ int nondetermined ;
  {
  if (ldv_mutex == 1) {
  } else {
    {
    ldv_blast_assert();
    }
  }
  {
  nondetermined = __VERIFIER_nondet_int();
  }
  if (nondetermined) {
    ldv_mutex = 2;
    return (1);
  } else {
    return (0);
  }
}
}
void mutex_unlock(struct mutex *lock )
{
  {
  if (ldv_mutex == 2) {
  } else {
    {
    ldv_blast_assert();
    }
  }
  ldv_mutex = 1;
  return;
}
}
void ldv_check_final_state(void)
{
  {
  if (ldv_mutex == 1) {
  } else {
    {
    ldv_blast_assert();
    }
  }
  return;
}
}
long ldv__builtin_expect(long val , long res )
{
  {
  return (val);
}
}
int __VERIFIER_nondet_int(void);
int __gpio_get_value(unsigned int arg0) {
  return __VERIFIER_nondet_int();
}
void __gpio_set_value(unsigned int arg0, int arg1) {
  return;
}
int __VERIFIER_nondet_int(void);
int __gpio_to_irq(unsigned int arg0) {
  return __VERIFIER_nondet_int();
}
void __init_work(struct work_struct *arg0, int arg1) {
  return;
}
void __mutex_init(struct mutex *arg0, const char *arg1, struct lock_class_key *arg2) {
  return;
}
int __VERIFIER_nondet_int(void);
int _dev_info(const struct device *arg0, const char *arg1, ...) {
  return __VERIFIER_nondet_int();
}
void *dev_get_drvdata(const struct device *arg0) {
  return ldv_malloc(0UL);
}
int __VERIFIER_nondet_int(void);
int dev_set_drvdata(struct device *arg0, void *arg1) {
  return __VERIFIER_nondet_int();
}
int __VERIFIER_nondet_int(void);
int dev_warn(const struct device *arg0, const char *arg1, ...) {
  return __VERIFIER_nondet_int();
}
int __VERIFIER_nondet_int(void);
int device_create_file(struct device *arg0, const struct device_attribute *arg1) {
  return __VERIFIER_nondet_int();
}
void device_remove_file(struct device *arg0, const struct device_attribute *arg1) {
  return;
}
void free_irq(unsigned int arg0, void *arg1) {
  return;
}
int __VERIFIER_nondet_int(void);
int gpio_direction_input(unsigned int arg0) {
  return __VERIFIER_nondet_int();
}
int __VERIFIER_nondet_int(void);
int gpio_direction_output(unsigned int arg0, int arg1) {
  return __VERIFIER_nondet_int();
}
void gpio_free(unsigned int arg0) {
  return;
}
int __VERIFIER_nondet_int(void);
int gpio_request(unsigned int arg0, const char *arg1) {
  return __VERIFIER_nondet_int();
}
struct device *hwmon_device_register(struct device *arg0) {
  return ldv_malloc(sizeof(struct device));
}
void hwmon_device_unregister(struct device *arg0) {
  return;
}
int __VERIFIER_nondet_int(void);
int irq_set_irq_type(unsigned int arg0, unsigned int arg1) {
  return __VERIFIER_nondet_int();
}
int __VERIFIER_nondet_int(void);
int kobject_uevent(struct kobject *arg0, enum kobject_action arg1) {
  return __VERIFIER_nondet_int();
}
int __VERIFIER_nondet_int(void);
int kstrtoull(const char *arg0, unsigned int arg1, unsigned long long *arg2) {
  return __VERIFIER_nondet_int();
}
void ldv_check_return_value(int arg0) {
  return;
}
void ldv_initialize() {
  return;
}
int __VERIFIER_nondet_int(void);
int platform_driver_register(struct platform_driver *arg0) {
  return __VERIFIER_nondet_int();
}
void platform_driver_unregister(struct platform_driver *arg0) {
  return;
}
int __VERIFIER_nondet_int(void);
int request_threaded_irq(unsigned int arg0, irqreturn_t (*arg1)(int, void *), irqreturn_t (*arg2)(int, void *), unsigned long arg3, const char *arg4, void *arg5) {
  return __VERIFIER_nondet_int();
}
int __VERIFIER_nondet_int(void);
int schedule_work(struct work_struct *arg0) {
  return __VERIFIER_nondet_int();
}
int __VERIFIER_nondet_int(void);
int sysfs_create_group(struct kobject *arg0, const struct attribute_group *arg1) {
  return __VERIFIER_nondet_int();
}
void sysfs_notify(struct kobject *arg0, const char *arg1, const char *arg2) {
  return;
}
void sysfs_remove_group(struct kobject *arg0, const struct attribute_group *arg1) {
  return;
}
void free(void *);
void kfree(void const *p) {
  free((void *)p);
}
