extern void abort(void);

extern void __assert_fail (const char *__assertion, const char *__file,
      unsigned int __line, const char *__function)
     __attribute__ ((__nothrow__ , __leaf__)) __attribute__ ((__noreturn__));
extern void __assert_perror_fail (int __errnum, const char *__file,
      unsigned int __line, const char *__function)
     __attribute__ ((__nothrow__ , __leaf__)) __attribute__ ((__noreturn__));
extern void __assert (const char *__assertion, const char *__file, int __line)
     __attribute__ ((__nothrow__ , __leaf__)) __attribute__ ((__noreturn__));

void reach_error() { ((void) sizeof ((0) ? 1 : 0), __extension__ ({ if (0) ; else __assert_fail ("0", "32_1_cilled_ok_nondet_linux-3.4-32_1-drivers--gpio--gpio-tps65912.ko-ldv_main0_sequence_infinite_withcheck_stateful.cil.out.c", 3, __extension__ __PRETTY_FUNCTION__); })); }
typedef unsigned short __u16;
typedef unsigned int __u32;
typedef unsigned long long __u64;
typedef unsigned char u8;
typedef short s16;
typedef unsigned short u16;
typedef unsigned int u32;
typedef long long s64;
typedef unsigned long long u64;
typedef long __kernel_long_t;
typedef unsigned long __kernel_ulong_t;
typedef __kernel_ulong_t __kernel_size_t;
typedef __kernel_long_t __kernel_ssize_t;
typedef long long __kernel_loff_t;
typedef __u32 __kernel_dev_t;
typedef __kernel_dev_t dev_t;
typedef unsigned short umode_t;
typedef _Bool bool;
typedef __kernel_loff_t loff_t;
typedef __kernel_size_t size_t;
typedef __kernel_ssize_t ssize_t;
typedef unsigned int gfp_t;
typedef u64 phys_addr_t;
typedef phys_addr_t resource_size_t;
struct __anonstruct_atomic_t_7 {
   int counter ;
};
typedef struct __anonstruct_atomic_t_7 atomic_t;
struct __anonstruct_atomic64_t_8 {
   long counter ;
};
typedef struct __anonstruct_atomic64_t_8 atomic64_t;
struct list_head {
   struct list_head *next ;
   struct list_head *prev ;
};
struct module;
struct module;
typedef void (*ctor_fn_t)(void);
struct device;
struct device;
struct completion;
struct completion;
struct page;
struct page;
struct task_struct;
struct task_struct;
struct task_struct;
struct file;
struct file;
struct seq_file;
struct seq_file;
struct page;
struct task_struct;
struct arch_spinlock;
struct arch_spinlock;
struct task_struct;
struct task_struct;
struct bug_entry {
   int bug_addr_disp ;
   int file_disp ;
   unsigned short line ;
   unsigned short flags ;
};
struct static_key;
struct static_key;
struct seq_operations;
struct kmem_cache;
typedef atomic64_t atomic_long_t;
typedef u16 __ticket_t;
typedef u32 __ticketpair_t;
struct __raw_tickets {
   __ticket_t head ;
   __ticket_t tail ;
};
union __anonunion____missing_field_name_36 {
   __ticketpair_t head_tail ;
   struct __raw_tickets tickets ;
};
struct arch_spinlock {
   union __anonunion____missing_field_name_36 __annonCompField17 ;
};
typedef struct arch_spinlock arch_spinlock_t;
struct task_struct;
struct raw_spinlock {
   arch_spinlock_t raw_lock ;
   unsigned int magic ;
   unsigned int owner_cpu ;
   void *owner ;
};
union __anonunion____missing_field_name_39 {
   struct raw_spinlock rlock ;
};
struct spinlock {
   union __anonunion____missing_field_name_39 __annonCompField19 ;
};
typedef struct spinlock spinlock_t;
struct __wait_queue_head {
   spinlock_t lock ;
   struct list_head task_list ;
};
typedef struct __wait_queue_head wait_queue_head_t;
struct task_struct;
struct page;
struct mutex {
   atomic_t count ;
   spinlock_t wait_lock ;
   struct list_head wait_list ;
   struct task_struct *owner ;
   char const *name ;
   void *magic ;
};
struct completion {
   unsigned int done ;
   wait_queue_head_t wait ;
};
struct page;
struct resource {
   resource_size_t start ;
   resource_size_t end ;
   char const *name ;
   unsigned long flags ;
   struct resource *parent ;
   struct resource *sibling ;
   struct resource *child ;
};
struct device;
struct device;
union ktime {
   s64 tv64 ;
};
typedef union ktime ktime_t;
struct tvec_base;
struct tvec_base;
struct timer_list {
   struct list_head entry ;
   unsigned long expires ;
   struct tvec_base *base ;
   void (*function)(unsigned long ) ;
   unsigned long data ;
   int slack ;
   int start_pid ;
   void *start_site ;
   char start_comm[16] ;
};
struct work_struct;
struct work_struct;
struct work_struct {
   atomic_long_t data ;
   struct list_head entry ;
   void (*func)(struct work_struct *work ) ;
};
struct device;
struct pm_message {
   int event ;
};
typedef struct pm_message pm_message_t;
struct dev_pm_ops {
   int (*prepare)(struct device *dev ) ;
   void (*complete)(struct device *dev ) ;
   int (*suspend)(struct device *dev ) ;
   int (*resume)(struct device *dev ) ;
   int (*freeze)(struct device *dev ) ;
   int (*thaw)(struct device *dev ) ;
   int (*poweroff)(struct device *dev ) ;
   int (*restore)(struct device *dev ) ;
   int (*suspend_late)(struct device *dev ) ;
   int (*resume_early)(struct device *dev ) ;
   int (*freeze_late)(struct device *dev ) ;
   int (*thaw_early)(struct device *dev ) ;
   int (*poweroff_late)(struct device *dev ) ;
   int (*restore_early)(struct device *dev ) ;
   int (*suspend_noirq)(struct device *dev ) ;
   int (*resume_noirq)(struct device *dev ) ;
   int (*freeze_noirq)(struct device *dev ) ;
   int (*thaw_noirq)(struct device *dev ) ;
   int (*poweroff_noirq)(struct device *dev ) ;
   int (*restore_noirq)(struct device *dev ) ;
   int (*runtime_suspend)(struct device *dev ) ;
   int (*runtime_resume)(struct device *dev ) ;
   int (*runtime_idle)(struct device *dev ) ;
};
enum rpm_status {
    RPM_ACTIVE = 0,
    RPM_RESUMING = 1,
    RPM_SUSPENDED = 2,
    RPM_SUSPENDING = 3
} ;
enum rpm_request {
    RPM_REQ_NONE = 0,
    RPM_REQ_IDLE = 1,
    RPM_REQ_SUSPEND = 2,
    RPM_REQ_AUTOSUSPEND = 3,
    RPM_REQ_RESUME = 4
} ;
struct wakeup_source;
struct wakeup_source;
struct pm_subsys_data {
   spinlock_t lock ;
   unsigned int refcount ;
};
struct dev_pm_qos_request;
struct pm_qos_constraints;
struct dev_pm_info {
   pm_message_t power_state ;
   unsigned int can_wakeup : 1 ;
   unsigned int async_suspend : 1 ;
   bool is_prepared : 1 ;
   bool is_suspended : 1 ;
   bool ignore_children : 1 ;
   spinlock_t lock ;
   struct list_head entry ;
   struct completion completion ;
   struct wakeup_source *wakeup ;
   bool wakeup_path : 1 ;
   struct timer_list suspend_timer ;
   unsigned long timer_expires ;
   struct work_struct work ;
   wait_queue_head_t wait_queue ;
   atomic_t usage_count ;
   atomic_t child_count ;
   unsigned int disable_depth : 3 ;
   unsigned int idle_notification : 1 ;
   unsigned int request_pending : 1 ;
   unsigned int deferred_resume : 1 ;
   unsigned int run_wake : 1 ;
   unsigned int runtime_auto : 1 ;
   unsigned int no_callbacks : 1 ;
   unsigned int irq_safe : 1 ;
   unsigned int use_autosuspend : 1 ;
   unsigned int timer_autosuspends : 1 ;
   enum rpm_request request ;
   enum rpm_status runtime_status ;
   int runtime_error ;
   int autosuspend_delay ;
   unsigned long last_busy ;
   unsigned long active_jiffies ;
   unsigned long suspended_jiffies ;
   unsigned long accounting_timestamp ;
   ktime_t suspend_time ;
   s64 max_time_suspended_ns ;
   struct dev_pm_qos_request *pq_req ;
   struct pm_subsys_data *subsys_data ;
   struct pm_qos_constraints *constraints ;
};
struct dev_pm_domain {
   struct dev_pm_ops ops ;
};
struct vm_area_struct;
struct vm_area_struct;
struct page;
struct vm_area_struct;
struct completion;
struct file;
struct task_struct;
typedef __u64 Elf64_Addr;
typedef __u16 Elf64_Half;
typedef __u32 Elf64_Word;
typedef __u64 Elf64_Xword;
struct elf64_sym {
   Elf64_Word st_name ;
   unsigned char st_info ;
   unsigned char st_other ;
   Elf64_Half st_shndx ;
   Elf64_Addr st_value ;
   Elf64_Xword st_size ;
};
typedef struct elf64_sym Elf64_Sym;
struct file;
struct sock;
struct sock;
struct kobject;
struct kobject;
enum kobj_ns_type {
    KOBJ_NS_TYPE_NONE = 0,
    KOBJ_NS_TYPE_NET = 1,
    KOBJ_NS_TYPES = 2
} ;
struct kobj_ns_type_operations {
   enum kobj_ns_type type ;
   void *(*grab_current_ns)(void) ;
   void const *(*netlink_ns)(struct sock *sk ) ;
   void const *(*initial_ns)(void) ;
   void (*drop_ns)(void * ) ;
};
struct kobject;
struct module;
enum kobj_ns_type;
struct attribute {
   char const *name ;
   umode_t mode ;
};
struct attribute_group {
   char const *name ;
   umode_t (*is_visible)(struct kobject * , struct attribute * , int ) ;
   struct attribute **attrs ;
};
struct file;
struct vm_area_struct;
struct bin_attribute {
   struct attribute attr ;
   size_t size ;
   void *private ;
   ssize_t (*read)(struct file * , struct kobject * , struct bin_attribute * , char * ,
                   loff_t , size_t ) ;
   ssize_t (*write)(struct file * , struct kobject * , struct bin_attribute * , char * ,
                    loff_t , size_t ) ;
   int (*mmap)(struct file * , struct kobject * , struct bin_attribute *attr , struct vm_area_struct *vma ) ;
};
struct sysfs_ops {
   ssize_t (*show)(struct kobject * , struct attribute * , char * ) ;
   ssize_t (*store)(struct kobject * , struct attribute * , char const * , size_t ) ;
   void const *(*namespace)(struct kobject * , struct attribute const * ) ;
};
struct sysfs_dirent;
struct sysfs_dirent;
struct kref {
   atomic_t refcount ;
};
struct kset;
struct kobj_type;
struct kobject {
   char const *name ;
   struct list_head entry ;
   struct kobject *parent ;
   struct kset *kset ;
   struct kobj_type *ktype ;
   struct sysfs_dirent *sd ;
   struct kref kref ;
   unsigned int state_initialized : 1 ;
   unsigned int state_in_sysfs : 1 ;
   unsigned int state_add_uevent_sent : 1 ;
   unsigned int state_remove_uevent_sent : 1 ;
   unsigned int uevent_suppress : 1 ;
};
struct kobj_type {
   void (*release)(struct kobject *kobj ) ;
   struct sysfs_ops const *sysfs_ops ;
   struct attribute **default_attrs ;
   struct kobj_ns_type_operations const *(*child_ns_type)(struct kobject *kobj ) ;
   void const *(*namespace)(struct kobject *kobj ) ;
};
struct kobj_uevent_env {
   char *envp[32] ;
   int envp_idx ;
   char buf[2048] ;
   int buflen ;
};
struct kset_uevent_ops {
   int (* const filter)(struct kset *kset , struct kobject *kobj ) ;
   char const *(* const name)(struct kset *kset , struct kobject *kobj ) ;
   int (* const uevent)(struct kset *kset , struct kobject *kobj , struct kobj_uevent_env *env ) ;
};
struct sock;
struct kset {
   struct list_head list ;
   spinlock_t list_lock ;
   struct kobject kobj ;
   struct kset_uevent_ops const *uevent_ops ;
};
struct kernel_param;
struct kernel_param;
struct kernel_param_ops {
   int (*set)(char const *val , struct kernel_param const *kp ) ;
   int (*get)(char *buffer , struct kernel_param const *kp ) ;
   void (*free)(void *arg ) ;
};
struct kparam_string;
struct kparam_array;
union __anonunion____missing_field_name_199 {
   void *arg ;
   struct kparam_string const *str ;
   struct kparam_array const *arr ;
};
struct kernel_param {
   char const *name ;
   struct kernel_param_ops const *ops ;
   u16 perm ;
   s16 level ;
   union __anonunion____missing_field_name_199 __annonCompField32 ;
};
struct kparam_string {
   unsigned int maxlen ;
   char *string ;
};
struct kparam_array {
   unsigned int max ;
   unsigned int elemsize ;
   unsigned int *num ;
   struct kernel_param_ops const *ops ;
   void *elem ;
};
struct module;
struct module;
struct static_key {
   atomic_t enabled ;
};
struct module;
struct tracepoint;
struct tracepoint;
struct tracepoint_func {
   void *func ;
   void *data ;
};
struct tracepoint {
   char const *name ;
   struct static_key key ;
   void (*regfunc)(void) ;
   void (*unregfunc)(void) ;
   struct tracepoint_func *funcs ;
};
struct kernel_symbol {
   unsigned long value ;
   char const *name ;
};
struct mod_arch_specific {
};
struct module;
struct module_param_attrs;
struct module_kobject {
   struct kobject kobj ;
   struct module *mod ;
   struct kobject *drivers_dir ;
   struct module_param_attrs *mp ;
};
struct module_attribute {
   struct attribute attr ;
   ssize_t (*show)(struct module_attribute * , struct module_kobject * , char * ) ;
   ssize_t (*store)(struct module_attribute * , struct module_kobject * , char const * ,
                    size_t count ) ;
   void (*setup)(struct module * , char const * ) ;
   int (*test)(struct module * ) ;
   void (*free)(struct module * ) ;
};
struct exception_table_entry;
struct exception_table_entry;
enum module_state {
    MODULE_STATE_LIVE = 0,
    MODULE_STATE_COMING = 1,
    MODULE_STATE_GOING = 2
} ;
struct module_ref {
   unsigned long incs ;
   unsigned long decs ;
} __attribute__((__aligned__((2) * (sizeof(unsigned long )) ))) ;
struct module_sect_attrs;
struct module_notes_attrs;
struct ftrace_event_call;
struct module {
   enum module_state state ;
   struct list_head list ;
   char name[64UL - sizeof(unsigned long )] ;
   struct module_kobject mkobj ;
   struct module_attribute *modinfo_attrs ;
   char const *version ;
   char const *srcversion ;
   struct kobject *holders_dir ;
   struct kernel_symbol const *syms ;
   unsigned long const *crcs ;
   unsigned int num_syms ;
   struct kernel_param *kp ;
   unsigned int num_kp ;
   unsigned int num_gpl_syms ;
   struct kernel_symbol const *gpl_syms ;
   unsigned long const *gpl_crcs ;
   struct kernel_symbol const *unused_syms ;
   unsigned long const *unused_crcs ;
   unsigned int num_unused_syms ;
   unsigned int num_unused_gpl_syms ;
   struct kernel_symbol const *unused_gpl_syms ;
   unsigned long const *unused_gpl_crcs ;
   struct kernel_symbol const *gpl_future_syms ;
   unsigned long const *gpl_future_crcs ;
   unsigned int num_gpl_future_syms ;
   unsigned int num_exentries ;
   struct exception_table_entry *extable ;
   int (*init)(void) ;
   void *module_init ;
   void *module_core ;
   unsigned int init_size ;
   unsigned int core_size ;
   unsigned int init_text_size ;
   unsigned int core_text_size ;
   unsigned int init_ro_size ;
   unsigned int core_ro_size ;
   struct mod_arch_specific arch ;
   unsigned int taints ;
   unsigned int num_bugs ;
   struct list_head bug_list ;
   struct bug_entry *bug_table ;
   Elf64_Sym *symtab ;
   Elf64_Sym *core_symtab ;
   unsigned int num_symtab ;
   unsigned int core_num_syms ;
   char *strtab ;
   char *core_strtab ;
   struct module_sect_attrs *sect_attrs ;
   struct module_notes_attrs *notes_attrs ;
   char *args ;
   void *percpu ;
   unsigned int percpu_size ;
   unsigned int num_tracepoints ;
   struct tracepoint * const *tracepoints_ptrs ;
   unsigned int num_trace_bprintk_fmt ;
   char const **trace_bprintk_fmt_start ;
   struct ftrace_event_call **trace_events ;
   unsigned int num_trace_events ;
   struct list_head source_list ;
   struct list_head target_list ;
   struct task_struct *waiter ;
   void (*exit)(void) ;
   struct module_ref *refptr ;
   ctor_fn_t *ctors ;
   unsigned int num_ctors ;
};
typedef unsigned long kernel_ulong_t;
struct of_device_id {
   char name[32] ;
   char type[32] ;
   char compatible[128] ;
   void *data ;
};
struct platform_device_id {
   char name[20] ;
   kernel_ulong_t driver_data __attribute__((__aligned__(sizeof(kernel_ulong_t )))) ;
};
typedef u32 phandle;
struct property {
   char *name ;
   int length ;
   void *value ;
   struct property *next ;
   unsigned long _flags ;
   unsigned int unique_id ;
};
struct proc_dir_entry;
struct device_node {
   char const *name ;
   char const *type ;
   phandle phandle ;
   char *full_name ;
   struct property *properties ;
   struct property *deadprops ;
   struct device_node *parent ;
   struct device_node *child ;
   struct device_node *sibling ;
   struct device_node *next ;
   struct device_node *allnext ;
   struct proc_dir_entry *pde ;
   struct kref kref ;
   unsigned long _flags ;
   void *data ;
};
struct device;
struct seq_file;
struct module;
struct device_node;
struct gpio_chip {
   char const *label ;
   struct device *dev ;
   struct module *owner ;
   int (*request)(struct gpio_chip *chip , unsigned int offset ) ;
   void (*free)(struct gpio_chip *chip , unsigned int offset ) ;
   int (*direction_input)(struct gpio_chip *chip , unsigned int offset ) ;
   int (*get)(struct gpio_chip *chip , unsigned int offset ) ;
   int (*direction_output)(struct gpio_chip *chip , unsigned int offset , int value ) ;
   int (*set_debounce)(struct gpio_chip *chip , unsigned int offset , unsigned int debounce ) ;
   void (*set)(struct gpio_chip *chip , unsigned int offset , int value ) ;
   int (*to_irq)(struct gpio_chip *chip , unsigned int offset ) ;
   void (*dbg_show)(struct seq_file *s , struct gpio_chip *chip ) ;
   int base ;
   u16 ngpio ;
   char const * const *names ;
   unsigned int can_sleep : 1 ;
   unsigned int exported : 1 ;
};
struct klist_node;
struct klist_node;
struct klist_node {
   void *n_klist ;
   struct list_head n_node ;
   struct kref n_ref ;
};
struct dma_map_ops;
struct dev_archdata {
   void *acpi_handle ;
   struct dma_map_ops *dma_ops ;
   void *iommu ;
};
struct pdev_archdata {
};
struct device;
struct device_private;
struct device_private;
struct device_driver;
struct device_driver;
struct driver_private;
struct driver_private;
struct module;
struct class;
struct class;
struct subsys_private;
struct subsys_private;
struct bus_type;
struct bus_type;
struct device_node;
struct iommu_ops;
struct iommu_ops;
struct bus_attribute {
   struct attribute attr ;
   ssize_t (*show)(struct bus_type *bus , char *buf ) ;
   ssize_t (*store)(struct bus_type *bus , char const *buf , size_t count ) ;
};
struct device_attribute;
struct driver_attribute;
struct bus_type {
   char const *name ;
   char const *dev_name ;
   struct device *dev_root ;
   struct bus_attribute *bus_attrs ;
   struct device_attribute *dev_attrs ;
   struct driver_attribute *drv_attrs ;
   int (*match)(struct device *dev , struct device_driver *drv ) ;
   int (*uevent)(struct device *dev , struct kobj_uevent_env *env ) ;
   int (*probe)(struct device *dev ) ;
   int (*remove)(struct device *dev ) ;
   void (*shutdown)(struct device *dev ) ;
   int (*suspend)(struct device *dev , pm_message_t state ) ;
   int (*resume)(struct device *dev ) ;
   struct dev_pm_ops const *pm ;
   struct iommu_ops *iommu_ops ;
   struct subsys_private *p ;
};
struct device_type;
struct device_driver {
   char const *name ;
   struct bus_type *bus ;
   struct module *owner ;
   char const *mod_name ;
   bool suppress_bind_attrs ;
   struct of_device_id const *of_match_table ;
   int (*probe)(struct device *dev ) ;
   int (*remove)(struct device *dev ) ;
   void (*shutdown)(struct device *dev ) ;
   int (*suspend)(struct device *dev , pm_message_t state ) ;
   int (*resume)(struct device *dev ) ;
   struct attribute_group const **groups ;
   struct dev_pm_ops const *pm ;
   struct driver_private *p ;
};
struct driver_attribute {
   struct attribute attr ;
   ssize_t (*show)(struct device_driver *driver , char *buf ) ;
   ssize_t (*store)(struct device_driver *driver , char const *buf , size_t count ) ;
};
struct class_attribute;
struct class {
   char const *name ;
   struct module *owner ;
   struct class_attribute *class_attrs ;
   struct device_attribute *dev_attrs ;
   struct bin_attribute *dev_bin_attrs ;
   struct kobject *dev_kobj ;
   int (*dev_uevent)(struct device *dev , struct kobj_uevent_env *env ) ;
   char *(*devnode)(struct device *dev , umode_t *mode ) ;
   void (*class_release)(struct class *class ) ;
   void (*dev_release)(struct device *dev ) ;
   int (*suspend)(struct device *dev , pm_message_t state ) ;
   int (*resume)(struct device *dev ) ;
   struct kobj_ns_type_operations const *ns_type ;
   void const *(*namespace)(struct device *dev ) ;
   struct dev_pm_ops const *pm ;
   struct subsys_private *p ;
};
struct class_attribute {
   struct attribute attr ;
   ssize_t (*show)(struct class *class , struct class_attribute *attr , char *buf ) ;
   ssize_t (*store)(struct class *class , struct class_attribute *attr , char const *buf ,
                    size_t count ) ;
   void const *(*namespace)(struct class *class , struct class_attribute const *attr ) ;
};
struct device_type {
   char const *name ;
   struct attribute_group const **groups ;
   int (*uevent)(struct device *dev , struct kobj_uevent_env *env ) ;
   char *(*devnode)(struct device *dev , umode_t *mode ) ;
   void (*release)(struct device *dev ) ;
   struct dev_pm_ops const *pm ;
};
struct device_attribute {
   struct attribute attr ;
   ssize_t (*show)(struct device *dev , struct device_attribute *attr , char *buf ) ;
   ssize_t (*store)(struct device *dev , struct device_attribute *attr , char const *buf ,
                    size_t count ) ;
};
struct device_dma_parameters {
   unsigned int max_segment_size ;
   unsigned long segment_boundary_mask ;
};
struct dma_coherent_mem;
struct device {
   struct device *parent ;
   struct device_private *p ;
   struct kobject kobj ;
   char const *init_name ;
   struct device_type const *type ;
   struct mutex mutex ;
   struct bus_type *bus ;
   struct device_driver *driver ;
   void *platform_data ;
   struct dev_pm_info power ;
   struct dev_pm_domain *pm_domain ;
   int numa_node ;
   u64 *dma_mask ;
   u64 coherent_dma_mask ;
   struct device_dma_parameters *dma_parms ;
   struct list_head dma_pools ;
   struct dma_coherent_mem *dma_mem ;
   struct dev_archdata archdata ;
   struct device_node *of_node ;
   dev_t devt ;
   u32 id ;
   spinlock_t devres_lock ;
   struct list_head devres_head ;
   struct klist_node knode_class ;
   struct class *class ;
   struct attribute_group const **groups ;
   void (*release)(struct device *dev ) ;
};
struct wakeup_source {
   char const *name ;
   struct list_head entry ;
   spinlock_t lock ;
   struct timer_list timer ;
   unsigned long timer_expires ;
   ktime_t total_time ;
   ktime_t max_time ;
   ktime_t last_time ;
   unsigned long event_count ;
   unsigned long active_count ;
   unsigned long relax_count ;
   unsigned long hit_count ;
   unsigned int active : 1 ;
};
struct mfd_cell;
struct mfd_cell;
struct platform_device {
   char const *name ;
   int id ;
   struct device dev ;
   u32 num_resources ;
   struct resource *resource ;
   struct platform_device_id const *id_entry ;
   struct mfd_cell *mfd_cell ;
   struct pdev_archdata archdata ;
};
struct platform_driver {
   int (*probe)(struct platform_device * ) ;
   int (*remove)(struct platform_device * ) ;
   void (*shutdown)(struct platform_device * ) ;
   int (*suspend)(struct platform_device * , pm_message_t state ) ;
   int (*resume)(struct platform_device * ) ;
   struct device_driver driver ;
   struct platform_device_id const *id_table ;
};
struct mfd_cell {
   char const *name ;
   int id ;
   atomic_t *usage_count ;
   int (*enable)(struct platform_device *dev ) ;
   int (*disable)(struct platform_device *dev ) ;
   int (*suspend)(struct platform_device *dev ) ;
   int (*resume)(struct platform_device *dev ) ;
   void *platform_data ;
   size_t pdata_size ;
   int num_resources ;
   struct resource const *resources ;
   bool ignore_resource_conflicts ;
   bool pm_runtime_no_callbacks ;
};
struct seq_operations;
struct file;
struct seq_file {
   char *buf ;
   size_t size ;
   size_t from ;
   size_t count ;
   loff_t index ;
   loff_t read_pos ;
   u64 version ;
   struct mutex lock ;
   struct seq_operations const *op ;
   int poll_event ;
   void *private ;
};
struct seq_operations {
   void *(*start)(struct seq_file *m , loff_t *pos ) ;
   void (*stop)(struct seq_file *m , void *v ) ;
   void *(*next)(struct seq_file *m , void *v , loff_t *pos ) ;
   int (*show)(struct seq_file *m , void *v ) ;
};
struct kmem_cache_cpu {
   void **freelist ;
   unsigned long tid ;
   struct page *page ;
   struct page *partial ;
   int node ;
   unsigned int stat[26] ;
};
struct kmem_cache_node {
   spinlock_t list_lock ;
   unsigned long nr_partial ;
   struct list_head partial ;
   atomic_long_t nr_slabs ;
   atomic_long_t total_objects ;
   struct list_head full ;
};
struct kmem_cache_order_objects {
   unsigned long x ;
};
struct kmem_cache {
   struct kmem_cache_cpu *cpu_slab ;
   unsigned long flags ;
   unsigned long min_partial ;
   int size ;
   int objsize ;
   int offset ;
   int cpu_partial ;
   struct kmem_cache_order_objects oo ;
   struct kmem_cache_order_objects max ;
   struct kmem_cache_order_objects min ;
   gfp_t allocflags ;
   int refcount ;
   void (*ctor)(void * ) ;
   int inuse ;
   int align ;
   int reserved ;
   char const *name ;
   struct list_head list ;
   struct kobject kobj ;
   int remote_node_defrag_ratio ;
   struct kmem_cache_node *node[1 << 10] ;
};
struct regulator_init_data;
struct tps65912_board {
   int is_dcdc1_avs ;
   int is_dcdc2_avs ;
   int is_dcdc3_avs ;
   int is_dcdc4_avs ;
   int irq ;
   int irq_base ;
   int gpio_base ;
   struct regulator_init_data *tps65912_pmic_init_data ;
};
struct tps65912_pmic;
struct tps65912 {
   struct device *dev ;
   struct mutex io_mutex ;
   void *control_data ;
   int (*read)(struct tps65912 *tps65912 , u8 reg , int size , void *dest ) ;
   int (*write)(struct tps65912 *tps65912 , u8 reg , int size , void *src ) ;
   struct tps65912_pmic *pmic ;
   struct gpio_chip gpio ;
   struct mutex irq_lock ;
   int chip_irq ;
   int irq_base ;
   int irq_num ;
   u32 irq_mask ;
};
struct tps65912_gpio_data {
   struct tps65912 *tps65912 ;
   struct gpio_chip gpio_chip ;
};
long ldv__builtin_expect(long val , long res ) ;
void mutex_lock(struct mutex *lock ) ;
int __attribute__((__warn_unused_result__)) mutex_lock_interruptible(struct mutex *lock ) ;
int __attribute__((__warn_unused_result__)) mutex_lock_killable(struct mutex *lock ) ;
int mutex_trylock(struct mutex *lock ) ;
void mutex_unlock(struct mutex *lock ) ;
int atomic_dec_and_mutex_lock(atomic_t *cnt , struct mutex *lock ) ;
extern struct module __this_module ;
int init_module(void) ;
void cleanup_module(void) ;
extern int gpiochip_add(struct gpio_chip *chip ) ;
extern int __attribute__((__warn_unused_result__)) gpiochip_remove(struct gpio_chip *chip ) ;
extern void *dev_get_drvdata(struct device const *dev ) ;
extern int dev_set_drvdata(struct device *dev , void *data ) ;
extern int ( dev_err)(struct device const *dev , char const *fmt
                                              , ...) ;
extern int platform_driver_register(struct platform_driver * ) ;
extern void platform_driver_unregister(struct platform_driver * ) ;
 static void *platform_get_drvdata(struct platform_device const *pdev ) __attribute__((__no_instrument_function__)) ;
 static void *platform_get_drvdata(struct platform_device const *pdev )
{ void *tmp ;
  unsigned long __cil_tmp3 ;
  unsigned long __cil_tmp4 ;
  struct device const *__cil_tmp5 ;
  {
  {
  __cil_tmp3 = (unsigned long )pdev;
  __cil_tmp4 = __cil_tmp3 + 16;
  __cil_tmp5 = (struct device const *)__cil_tmp4;
  tmp = dev_get_drvdata(__cil_tmp5);
  }
  return (tmp);
}
}
 static void platform_set_drvdata(struct platform_device *pdev , void *data ) __attribute__((__no_instrument_function__)) ;
 static void platform_set_drvdata(struct platform_device *pdev , void *data )
{ unsigned long __cil_tmp3 ;
  unsigned long __cil_tmp4 ;
  struct device *__cil_tmp5 ;
  {
  {
  __cil_tmp3 = (unsigned long )pdev;
  __cil_tmp4 = __cil_tmp3 + 16;
  __cil_tmp5 = (struct device *)__cil_tmp4;
  dev_set_drvdata(__cil_tmp5, data);
  }
  return;
}
}
extern void kfree(void const * ) ;
extern int __VERIFIER_nondet_int(void);
extern void abort(void);
void assume_abort_if_not(int cond) {
  if(!cond) {abort();}
}
extern void *malloc(size_t size);
long ldv_is_err(const void *ptr)
{
  return ((unsigned long)ptr > ((unsigned long)-4095));
}
void *ldv_malloc(size_t size)
{
 if (__VERIFIER_nondet_int()) {
  void *res = malloc(size);
  assume_abort_if_not(!ldv_is_err(res));
  return res;
 } else {
  return ((void *)0);
 }
}
void *__kmalloc(size_t size, gfp_t t)
{
 return ldv_malloc(size);
}
 static void *( __attribute__((__always_inline__)) kmalloc)(size_t size ,
                                                                    gfp_t flags ) __attribute__((__no_instrument_function__)) ;
 static void *( __attribute__((__always_inline__)) kmalloc)(size_t size ,
                                                                    gfp_t flags )
{ void *tmp___2 ;
  {
  {
  tmp___2 = __kmalloc(size, flags);
  }
  return (tmp___2);
}
}
 static void *kzalloc(size_t size , gfp_t flags ) __attribute__((__no_instrument_function__)) ;
void *ldv_zalloc(size_t size ) ;
 static void *kzalloc(size_t size , gfp_t flags )
{ void *tmp ;
  unsigned int __cil_tmp4 ;
  {
  {
  __cil_tmp4 = flags | 32768U;
  tmp = kmalloc(size, __cil_tmp4);
  }
  return (tmp);
}
}
extern int tps65912_set_bits(struct tps65912 *tps65912 , u8 reg , u8 mask ) ;
extern int tps65912_clear_bits(struct tps65912 *tps65912 , u8 reg , u8 mask ) ;
extern int tps65912_reg_read(struct tps65912 *tps65912 , u8 reg ) ;
static int tps65912_gpio_get(struct gpio_chip *gc , unsigned int offset )
{ struct tps65912 *tps65912 ;
  struct gpio_chip const *__mptr ;
  int val ;
  struct tps65912 *__cil_tmp6 ;
  unsigned long __cil_tmp7 ;
  unsigned long __cil_tmp8 ;
  struct gpio_chip *__cil_tmp9 ;
  unsigned int __cil_tmp10 ;
  char *__cil_tmp11 ;
  char *__cil_tmp12 ;
  unsigned int __cil_tmp13 ;
  u8 __cil_tmp14 ;
  {
  {
  __mptr = (struct gpio_chip const *)gc;
  __cil_tmp6 = (struct tps65912 *)0;
  __cil_tmp7 = (unsigned long )__cil_tmp6;
  __cil_tmp8 = __cil_tmp7 + 112;
  __cil_tmp9 = (struct gpio_chip *)__cil_tmp8;
  __cil_tmp10 = (unsigned int )__cil_tmp9;
  __cil_tmp11 = (char *)__mptr;
  __cil_tmp12 = __cil_tmp11 - __cil_tmp10;
  tps65912 = (struct tps65912 *)__cil_tmp12;
  __cil_tmp13 = 65U + offset;
  __cil_tmp14 = (u8 )__cil_tmp13;
  val = tps65912_reg_read(tps65912, __cil_tmp14);
  }
  if (val & 2) {
    return (1);
  } else {
  }
  return (0);
}
}
static void tps65912_gpio_set(struct gpio_chip *gc , unsigned int offset , int value )
{ struct tps65912 *tps65912 ;
  struct gpio_chip const *__mptr ;
  struct tps65912 *__cil_tmp6 ;
  unsigned long __cil_tmp7 ;
  unsigned long __cil_tmp8 ;
  struct gpio_chip *__cil_tmp9 ;
  unsigned int __cil_tmp10 ;
  char *__cil_tmp11 ;
  char *__cil_tmp12 ;
  unsigned int __cil_tmp13 ;
  u8 __cil_tmp14 ;
  u8 __cil_tmp15 ;
  unsigned int __cil_tmp16 ;
  u8 __cil_tmp17 ;
  u8 __cil_tmp18 ;
  {
  __mptr = (struct gpio_chip const *)gc;
  __cil_tmp6 = (struct tps65912 *)0;
  __cil_tmp7 = (unsigned long )__cil_tmp6;
  __cil_tmp8 = __cil_tmp7 + 112;
  __cil_tmp9 = (struct gpio_chip *)__cil_tmp8;
  __cil_tmp10 = (unsigned int )__cil_tmp9;
  __cil_tmp11 = (char *)__mptr;
  __cil_tmp12 = __cil_tmp11 - __cil_tmp10;
  tps65912 = (struct tps65912 *)__cil_tmp12;
  if (value) {
    {
    __cil_tmp13 = 65U + offset;
    __cil_tmp14 = (u8 )__cil_tmp13;
    __cil_tmp15 = (u8 )1;
    tps65912_set_bits(tps65912, __cil_tmp14, __cil_tmp15);
    }
  } else {
    {
    __cil_tmp16 = 65U + offset;
    __cil_tmp17 = (u8 )__cil_tmp16;
    __cil_tmp18 = (u8 )1;
    tps65912_clear_bits(tps65912, __cil_tmp17, __cil_tmp18);
    }
  }
  return;
}
}
static int tps65912_gpio_output(struct gpio_chip *gc , unsigned int offset , int value )
{ struct tps65912 *tps65912 ;
  struct gpio_chip const *__mptr ;
  int tmp ;
  struct tps65912 *__cil_tmp7 ;
  unsigned long __cil_tmp8 ;
  unsigned long __cil_tmp9 ;
  struct gpio_chip *__cil_tmp10 ;
  unsigned int __cil_tmp11 ;
  char *__cil_tmp12 ;
  char *__cil_tmp13 ;
  unsigned int __cil_tmp14 ;
  u8 __cil_tmp15 ;
  u8 __cil_tmp16 ;
  {
  {
  __mptr = (struct gpio_chip const *)gc;
  __cil_tmp7 = (struct tps65912 *)0;
  __cil_tmp8 = (unsigned long )__cil_tmp7;
  __cil_tmp9 = __cil_tmp8 + 112;
  __cil_tmp10 = (struct gpio_chip *)__cil_tmp9;
  __cil_tmp11 = (unsigned int )__cil_tmp10;
  __cil_tmp12 = (char *)__mptr;
  __cil_tmp13 = __cil_tmp12 - __cil_tmp11;
  tps65912 = (struct tps65912 *)__cil_tmp13;
  tps65912_gpio_set(gc, offset, value);
  __cil_tmp14 = 65U + offset;
  __cil_tmp15 = (u8 )__cil_tmp14;
  __cil_tmp16 = (u8 )4;
  tmp = tps65912_set_bits(tps65912, __cil_tmp15, __cil_tmp16);
  }
  return (tmp);
}
}
static int tps65912_gpio_input(struct gpio_chip *gc , unsigned int offset )
{ struct tps65912 *tps65912 ;
  struct gpio_chip const *__mptr ;
  int tmp ;
  struct tps65912 *__cil_tmp6 ;
  unsigned long __cil_tmp7 ;
  unsigned long __cil_tmp8 ;
  struct gpio_chip *__cil_tmp9 ;
  unsigned int __cil_tmp10 ;
  char *__cil_tmp11 ;
  char *__cil_tmp12 ;
  unsigned int __cil_tmp13 ;
  u8 __cil_tmp14 ;
  u8 __cil_tmp15 ;
  {
  {
  __mptr = (struct gpio_chip const *)gc;
  __cil_tmp6 = (struct tps65912 *)0;
  __cil_tmp7 = (unsigned long )__cil_tmp6;
  __cil_tmp8 = __cil_tmp7 + 112;
  __cil_tmp9 = (struct gpio_chip *)__cil_tmp8;
  __cil_tmp10 = (unsigned int )__cil_tmp9;
  __cil_tmp11 = (char *)__mptr;
  __cil_tmp12 = __cil_tmp11 - __cil_tmp10;
  tps65912 = (struct tps65912 *)__cil_tmp12;
  __cil_tmp13 = 65U + offset;
  __cil_tmp14 = (u8 )__cil_tmp13;
  __cil_tmp15 = (u8 )4;
  tmp = tps65912_clear_bits(tps65912, __cil_tmp14, __cil_tmp15);
  }
  return (tmp);
}
}
static struct gpio_chip template_chip =
     {"tps65912", (struct device *)0, & __this_module, (int (*)(struct gpio_chip *chip ,
                                                              unsigned int offset ))0,
    (void (*)(struct gpio_chip *chip , unsigned int offset ))0, & tps65912_gpio_input,
    & tps65912_gpio_get, & tps65912_gpio_output, (int (*)(struct gpio_chip *chip ,
                                                          unsigned int offset , unsigned int debounce ))0,
    & tps65912_gpio_set, (int (*)(struct gpio_chip *chip , unsigned int offset ))0,
    (void (*)(struct seq_file *s , struct gpio_chip *chip ))0, -1, (u16 )5, (char const * const *)0,
    1U, 0U};
static int tps65912_gpio_probe(struct platform_device *pdev ) __attribute__((__section__(".devinit.text"),
__no_instrument_function__)) ;
static int tps65912_gpio_probe(struct platform_device *pdev )
{ struct tps65912 *tps65912 ;
  void *tmp ;
  struct tps65912_board *pdata ;
  struct tps65912_gpio_data *tps65912_gpio ;
  int ret ;
  void *tmp___0 ;
  unsigned long __cil_tmp8 ;
  unsigned long __cil_tmp9 ;
  struct device *__cil_tmp10 ;
  struct device const *__cil_tmp11 ;
  struct device *__cil_tmp12 ;
  unsigned long __cil_tmp13 ;
  unsigned long __cil_tmp14 ;
  void *__cil_tmp15 ;
  void *__cil_tmp16 ;
  unsigned long __cil_tmp17 ;
  unsigned long __cil_tmp18 ;
  unsigned long __cil_tmp19 ;
  unsigned long __cil_tmp20 ;
  unsigned long __cil_tmp21 ;
  unsigned long __cil_tmp22 ;
  unsigned long __cil_tmp23 ;
  unsigned long __cil_tmp24 ;
  unsigned long __cil_tmp25 ;
  unsigned long __cil_tmp26 ;
  unsigned long __cil_tmp27 ;
  unsigned long __cil_tmp28 ;
  unsigned long __cil_tmp29 ;
  unsigned long __cil_tmp30 ;
  unsigned long __cil_tmp31 ;
  unsigned long __cil_tmp32 ;
  unsigned long __cil_tmp33 ;
  unsigned long __cil_tmp34 ;
  struct gpio_chip *__cil_tmp35 ;
  unsigned long __cil_tmp36 ;
  unsigned long __cil_tmp37 ;
  struct device *__cil_tmp38 ;
  struct device const *__cil_tmp39 ;
  void *__cil_tmp40 ;
  void const *__cil_tmp41 ;
  {
  {
  __cil_tmp8 = (unsigned long )pdev;
  __cil_tmp9 = __cil_tmp8 + 16;
  __cil_tmp10 = *((struct device **)__cil_tmp9);
  __cil_tmp11 = (struct device const *)__cil_tmp10;
  tmp = dev_get_drvdata(__cil_tmp11);
  tps65912 = (struct tps65912 *)tmp;
  __cil_tmp12 = *((struct device **)tps65912);
  __cil_tmp13 = (unsigned long )__cil_tmp12;
  __cil_tmp14 = __cil_tmp13 + 184;
  __cil_tmp15 = *((void **)__cil_tmp14);
  pdata = (struct tps65912_board *)__cil_tmp15;
  tmp___0 = kzalloc(128UL, 208U);
  tps65912_gpio = (struct tps65912_gpio_data *)tmp___0;
  }
  {
  __cil_tmp16 = (void *)0;
  __cil_tmp17 = (unsigned long )__cil_tmp16;
  __cil_tmp18 = (unsigned long )tps65912_gpio;
  if (__cil_tmp18 == __cil_tmp17) {
    return (-12);
  } else {
  }
  }
  *((struct tps65912 **)tps65912_gpio) = tps65912;
  __cil_tmp19 = (unsigned long )tps65912_gpio;
  __cil_tmp20 = __cil_tmp19 + 8;
  *((struct gpio_chip *)__cil_tmp20) = template_chip;
  __cil_tmp21 = 8 + 8;
  __cil_tmp22 = (unsigned long )tps65912_gpio;
  __cil_tmp23 = __cil_tmp22 + __cil_tmp21;
  __cil_tmp24 = (unsigned long )pdev;
  __cil_tmp25 = __cil_tmp24 + 16;
  *((struct device **)__cil_tmp23) = (struct device *)__cil_tmp25;
  if (pdata) {
    {
    __cil_tmp26 = (unsigned long )pdata;
    __cil_tmp27 = __cil_tmp26 + 24;
    if (*((int *)__cil_tmp27)) {
      __cil_tmp28 = 8 + 96;
      __cil_tmp29 = (unsigned long )tps65912_gpio;
      __cil_tmp30 = __cil_tmp29 + __cil_tmp28;
      __cil_tmp31 = (unsigned long )pdata;
      __cil_tmp32 = __cil_tmp31 + 24;
      *((int *)__cil_tmp30) = *((int *)__cil_tmp32);
    } else {
    }
    }
  } else {
  }
  {
  __cil_tmp33 = (unsigned long )tps65912_gpio;
  __cil_tmp34 = __cil_tmp33 + 8;
  __cil_tmp35 = (struct gpio_chip *)__cil_tmp34;
  ret = gpiochip_add(__cil_tmp35);
  }
  if (ret < 0) {
    {
    __cil_tmp36 = (unsigned long )pdev;
    __cil_tmp37 = __cil_tmp36 + 16;
    __cil_tmp38 = (struct device *)__cil_tmp37;
    __cil_tmp39 = (struct device const *)__cil_tmp38;
    dev_err(__cil_tmp39, "Failed to register gpiochip, %d\n", ret);
    }
    goto err;
  } else {
  }
  {
  __cil_tmp40 = (void *)tps65912_gpio;
  platform_set_drvdata(pdev, __cil_tmp40);
  }
  return (ret);
  err:
  {
  __cil_tmp41 = (void const *)tps65912_gpio;
  kfree(__cil_tmp41);
  }
  return (ret);
}
}
static int tps65912_gpio_remove(struct platform_device *pdev ) __attribute__((__section__(".devexit.text"),
__no_instrument_function__)) ;
static int tps65912_gpio_remove(struct platform_device *pdev )
{ struct tps65912_gpio_data *tps65912_gpio ;
  void *tmp ;
  int ret ;
  struct platform_device const *__cil_tmp5 ;
  unsigned long __cil_tmp6 ;
  unsigned long __cil_tmp7 ;
  struct gpio_chip *__cil_tmp8 ;
  void const *__cil_tmp9 ;
  {
  {
  __cil_tmp5 = (struct platform_device const *)pdev;
  tmp = platform_get_drvdata(__cil_tmp5);
  tps65912_gpio = (struct tps65912_gpio_data *)tmp;
  __cil_tmp6 = (unsigned long )tps65912_gpio;
  __cil_tmp7 = __cil_tmp6 + 8;
  __cil_tmp8 = (struct gpio_chip *)__cil_tmp7;
  ret = (int )gpiochip_remove(__cil_tmp8);
  }
  if (ret == 0) {
    {
    __cil_tmp9 = (void const *)tps65912_gpio;
    kfree(__cil_tmp9);
    }
  } else {
  }
  return (ret);
}
}
static struct platform_driver tps65912_gpio_driver = {& tps65912_gpio_probe, & tps65912_gpio_remove, (void (*)(struct platform_device * ))0,
    (int (*)(struct platform_device * , pm_message_t state ))0, (int (*)(struct platform_device * ))0,
    {"tps65912-gpio", (struct bus_type *)0, & __this_module, (char const *)0, (_Bool)0,
     (struct of_device_id const *)0, (int (*)(struct device *dev ))0, (int (*)(struct device *dev ))0,
     (void (*)(struct device *dev ))0, (int (*)(struct device *dev , pm_message_t state ))0,
     (int (*)(struct device *dev ))0, (struct attribute_group const **)0, (struct dev_pm_ops const *)0,
     (struct driver_private *)0}, (struct platform_device_id const *)0};
static int tps65912_gpio_init(void) __attribute__((__section__(".init.text"), __no_instrument_function__)) ;
static int tps65912_gpio_init(void)
{ int tmp ;
  {
  {
  tmp = platform_driver_register(& tps65912_gpio_driver);
  }
  return (tmp);
}
}
int init_module(void)
{ int tmp ;
  {
  {
  tmp = tps65912_gpio_init();
  }
  return (tmp);
}
}
static void tps65912_gpio_exit(void) __attribute__((__section__(".exit.text"), __no_instrument_function__)) ;
static void tps65912_gpio_exit(void)
{
  {
  {
  platform_driver_unregister(& tps65912_gpio_driver);
  }
  return;
}
}
void cleanup_module(void)
{
  {
  {
  tps65912_gpio_exit();
  }
  return;
}
}
static char const __mod_author154[54] __attribute__((__used__, __unused__, __section__(".modinfo"),
__aligned__(1))) =
  { (char const )'a', (char const )'u', (char const )'t', (char const )'h',
        (char const )'o', (char const )'r', (char const )'=', (char const )'M',
        (char const )'a', (char const )'r', (char const )'g', (char const )'a',
        (char const )'r', (char const )'i', (char const )'t', (char const )'a',
        (char const )' ', (char const )'O', (char const )'l', (char const )'a',
        (char const )'y', (char const )'a', (char const )' ', (char const )'C',
        (char const )'a', (char const )'b', (char const )'r', (char const )'e',
        (char const )'r', (char const )'a', (char const )' ', (char const )'<',
        (char const )'m', (char const )'a', (char const )'g', (char const )'i',
        (char const )'@', (char const )'s', (char const )'l', (char const )'i',
        (char const )'m', (char const )'l', (char const )'o', (char const )'g',
        (char const )'i', (char const )'c', (char const )'.', (char const )'c',
        (char const )'o', (char const )'.', (char const )'u', (char const )'k',
        (char const )'>', (char const )'\000'};
static char const __mod_description155[46] __attribute__((__used__, __unused__,
__section__(".modinfo"), __aligned__(1))) =
  { (char const )'d', (char const )'e', (char const )'s', (char const )'c',
        (char const )'r', (char const )'i', (char const )'p', (char const )'t',
        (char const )'i', (char const )'o', (char const )'n', (char const )'=',
        (char const )'G', (char const )'P', (char const )'I', (char const )'O',
        (char const )' ', (char const )'i', (char const )'n', (char const )'t',
        (char const )'e', (char const )'r', (char const )'f', (char const )'a',
        (char const )'c', (char const )'e', (char const )' ', (char const )'f',
        (char const )'o', (char const )'r', (char const )' ', (char const )'T',
        (char const )'P', (char const )'S', (char const )'6', (char const )'5',
        (char const )'9', (char const )'1', (char const )'2', (char const )' ',
        (char const )'P', (char const )'M', (char const )'I', (char const )'C',
        (char const )'s', (char const )'\000'};
static char const __mod_license156[15] __attribute__((__used__, __unused__, __section__(".modinfo"),
__aligned__(1))) =
  { (char const )'l', (char const )'i', (char const )'c', (char const )'e',
        (char const )'n', (char const )'s', (char const )'e', (char const )'=',
        (char const )'G', (char const )'P', (char const )'L', (char const )' ',
        (char const )'v', (char const )'2', (char const )'\000'};
static char const __mod_alias157[29] __attribute__((__used__, __unused__, __section__(".modinfo"),
__aligned__(1))) =
  { (char const )'a', (char const )'l', (char const )'i', (char const )'a',
        (char const )'s', (char const )'=', (char const )'p', (char const )'l',
        (char const )'a', (char const )'t', (char const )'f', (char const )'o',
        (char const )'r', (char const )'m', (char const )':', (char const )'t',
        (char const )'p', (char const )'s', (char const )'6', (char const )'5',
        (char const )'9', (char const )'1', (char const )'2', (char const )'-',
        (char const )'g', (char const )'p', (char const )'i', (char const )'o',
        (char const )'\000'};
void ldv_check_final_state(void) ;
extern void ldv_check_return_value(int res ) ;
extern void ldv_initialize(void) ;
extern int __VERIFIER_nondet_int(void) ;
int LDV_IN_INTERRUPT ;
static int res_tps65912_gpio_probe_4 ;
void main(void)
{ struct gpio_chip *var_group1 ;
  unsigned int var_tps65912_gpio_input_3_p1 ;
  unsigned int var_tps65912_gpio_output_2_p1 ;
  int var_tps65912_gpio_output_2_p2 ;
  unsigned int var_tps65912_gpio_get_0_p1 ;
  unsigned int var_tps65912_gpio_set_1_p1 ;
  int var_tps65912_gpio_set_1_p2 ;
  struct platform_device *var_group2 ;
  int tmp ;
  int ldv_s_tps65912_gpio_driver_platform_driver ;
  int tmp___0 ;
  int tmp___1 ;
  int __cil_tmp13 ;
  {
  {
  LDV_IN_INTERRUPT = 1;
  ldv_initialize();
  tmp = tps65912_gpio_init();
  }
  if (tmp) {
    goto ldv_final;
  } else {
  }
  ldv_s_tps65912_gpio_driver_platform_driver = 0;
  {
  while (1) {
    while_continue: ;
    {
    tmp___1 = __VERIFIER_nondet_int();
    }
    if (tmp___1) {
    } else {
      {
      __cil_tmp13 = ldv_s_tps65912_gpio_driver_platform_driver == 0;
      if (! __cil_tmp13) {
      } else {
        goto while_break;
      }
      }
    }
    {
    tmp___0 = __VERIFIER_nondet_int();
    }
    if (tmp___0 == 0) {
      goto case_0;
    } else
    if (tmp___0 == 1) {
      goto case_1;
    } else
    if (tmp___0 == 2) {
      goto case_2;
    } else
    if (tmp___0 == 3) {
      goto case_3;
    } else
    if (tmp___0 == 4) {
      goto case_4;
    } else {
      {
      goto switch_default;
      if (0) {
        case_0:
        {
        tps65912_gpio_input(var_group1, var_tps65912_gpio_input_3_p1);
        }
        goto switch_break;
        case_1:
        {
        tps65912_gpio_output(var_group1, var_tps65912_gpio_output_2_p1, var_tps65912_gpio_output_2_p2);
        }
        goto switch_break;
        case_2:
        {
        tps65912_gpio_get(var_group1, var_tps65912_gpio_get_0_p1);
        }
        goto switch_break;
        case_3:
        {
        tps65912_gpio_set(var_group1, var_tps65912_gpio_set_1_p1, var_tps65912_gpio_set_1_p2);
        }
        goto switch_break;
        case_4:
        if (ldv_s_tps65912_gpio_driver_platform_driver == 0) {
          {
          res_tps65912_gpio_probe_4 = tps65912_gpio_probe(var_group2);
          ldv_check_return_value(res_tps65912_gpio_probe_4);
          }
          if (res_tps65912_gpio_probe_4) {
            goto ldv_module_exit;
          } else {
          }
          ldv_s_tps65912_gpio_driver_platform_driver = 0;
        } else {
        }
        goto switch_break;
        switch_default:
        goto switch_break;
      } else {
        switch_break: ;
      }
      }
    }
  }
  while_break: ;
  }
  ldv_module_exit:
  {
  tps65912_gpio_exit();
  }
  ldv_final:
  {
  ldv_check_final_state();
  }
  return;
}
}
void ldv_blast_assert(void)
{
  {
  ERROR: {reach_error();abort();}
}
}
extern int __VERIFIER_nondet_int(void) ;
int ldv_mutex = 1;
int __attribute__((__warn_unused_result__)) mutex_lock_interruptible(struct mutex *lock )
{ int nondetermined ;
  {
  if (ldv_mutex == 1) {
  } else {
    {
    ldv_blast_assert();
    }
  }
  {
  nondetermined = __VERIFIER_nondet_int();
  }
  if (nondetermined) {
    ldv_mutex = 2;
    return (0);
  } else {
    return (-4);
  }
}
}
int __attribute__((__warn_unused_result__)) mutex_lock_killable(struct mutex *lock )
{ int nondetermined ;
  {
  if (ldv_mutex == 1) {
  } else {
    {
    ldv_blast_assert();
    }
  }
  {
  nondetermined = __VERIFIER_nondet_int();
  }
  if (nondetermined) {
    ldv_mutex = 2;
    return (0);
  } else {
    return (-4);
  }
}
}
int atomic_dec_and_mutex_lock(atomic_t *cnt , struct mutex *lock )
{ int atomic_value_after_dec ;
  {
  if (ldv_mutex == 1) {
  } else {
    {
    ldv_blast_assert();
    }
  }
  {
  atomic_value_after_dec = __VERIFIER_nondet_int();
  }
  if (atomic_value_after_dec == 0) {
    ldv_mutex = 2;
    return (1);
  } else {
  }
  return (0);
}
}
void mutex_lock(struct mutex *lock )
{
  {
  if (ldv_mutex == 1) {
  } else {
    {
    ldv_blast_assert();
    }
  }
  ldv_mutex = 2;
  return;
}
}
int mutex_trylock(struct mutex *lock )
{ int nondetermined ;
  {
  if (ldv_mutex == 1) {
  } else {
    {
    ldv_blast_assert();
    }
  }
  {
  nondetermined = __VERIFIER_nondet_int();
  }
  if (nondetermined) {
    ldv_mutex = 2;
    return (1);
  } else {
    return (0);
  }
}
}
void mutex_unlock(struct mutex *lock )
{
  {
  if (ldv_mutex == 2) {
  } else {
    {
    ldv_blast_assert();
    }
  }
  ldv_mutex = 1;
  return;
}
}
void ldv_check_final_state(void)
{
  {
  if (ldv_mutex == 1) {
  } else {
    {
    ldv_blast_assert();
    }
  }
  return;
}
}
long ldv__builtin_expect(long val , long res )
{
  {
  return (val);
}
}
int __VERIFIER_nondet_int(void);
int dev_err(const struct device *arg0, const char *arg1, ...) {
  return __VERIFIER_nondet_int();
}
void *dev_get_drvdata(const struct device *arg0) {
  return ldv_malloc(0UL);
}
int __VERIFIER_nondet_int(void);
int dev_set_drvdata(struct device *arg0, void *arg1) {
  return __VERIFIER_nondet_int();
}
int __VERIFIER_nondet_int(void);
int gpiochip_add(struct gpio_chip *arg0) {
  return __VERIFIER_nondet_int();
}
int __VERIFIER_nondet_int(void);
int gpiochip_remove(struct gpio_chip *arg0) {
  return __VERIFIER_nondet_int();
}
void ldv_check_return_value(int arg0) {
  return;
}
void ldv_initialize() {
  return;
}
int __VERIFIER_nondet_int(void);
int platform_driver_register(struct platform_driver *arg0) {
  return __VERIFIER_nondet_int();
}
void platform_driver_unregister(struct platform_driver *arg0) {
  return;
}
int __VERIFIER_nondet_int(void);
int tps65912_clear_bits(struct tps65912 *arg0, u8 arg1, u8 arg2) {
  return __VERIFIER_nondet_int();
}
int __VERIFIER_nondet_int(void);
int tps65912_reg_read(struct tps65912 *arg0, u8 arg1) {
  return __VERIFIER_nondet_int();
}
int __VERIFIER_nondet_int(void);
int tps65912_set_bits(struct tps65912 *arg0, u8 arg1, u8 arg2) {
  return __VERIFIER_nondet_int();
}
void free(void *);
void kfree(void const *p) {
  free((void *)p);
}
