extern void abort(void);

extern void __assert_fail (const char *__assertion, const char *__file,
      unsigned int __line, const char *__function)
     __attribute__ ((__nothrow__ , __leaf__)) __attribute__ ((__noreturn__));
extern void __assert_perror_fail (int __errnum, const char *__file,
      unsigned int __line, const char *__function)
     __attribute__ ((__nothrow__ , __leaf__)) __attribute__ ((__noreturn__));
extern void __assert (const char *__assertion, const char *__file, int __line)
     __attribute__ ((__nothrow__ , __leaf__)) __attribute__ ((__noreturn__));

void reach_error() { ((void) sizeof ((0) ? 1 : 0), __extension__ ({ if (0) ; else __assert_fail ("0", "32_1_cilled_ok_nondet_linux-3.4-32_1-drivers--power--wm831x_backup.ko-ldv_main0_sequence_infinite_withcheck_stateful.cil.out.c", 3, __extension__ __PRETTY_FUNCTION__); })); }
typedef unsigned short __u16;
typedef unsigned int __u32;
typedef unsigned long long __u64;
typedef short s16;
typedef unsigned short u16;
typedef int s32;
typedef unsigned int u32;
typedef long long s64;
typedef unsigned long long u64;
typedef long __kernel_long_t;
typedef unsigned long __kernel_ulong_t;
typedef __kernel_ulong_t __kernel_size_t;
typedef __kernel_long_t __kernel_ssize_t;
typedef long long __kernel_loff_t;
typedef __u32 __kernel_dev_t;
typedef __kernel_dev_t dev_t;
typedef unsigned short umode_t;
typedef _Bool bool;
typedef __kernel_loff_t loff_t;
typedef __kernel_size_t size_t;
typedef __kernel_ssize_t ssize_t;
typedef unsigned int gfp_t;
typedef u64 phys_addr_t;
typedef phys_addr_t resource_size_t;
struct __anonstruct_atomic_t_7 {
   int counter ;
};
typedef struct __anonstruct_atomic_t_7 atomic_t;
struct __anonstruct_atomic64_t_8 {
   long counter ;
};
typedef struct __anonstruct_atomic64_t_8 atomic64_t;
struct list_head {
   struct list_head *next ;
   struct list_head *prev ;
};
struct module;
struct module;
typedef void (*ctor_fn_t)(void);
struct device;
struct device;
struct completion;
struct completion;
struct page;
struct page;
struct task_struct;
struct task_struct;
struct task_struct;
struct file;
struct file;
struct page;
struct task_struct;
struct arch_spinlock;
struct arch_spinlock;
struct task_struct;
struct task_struct;
struct bug_entry {
   int bug_addr_disp ;
   int file_disp ;
   unsigned short line ;
   unsigned short flags ;
};
struct static_key;
struct static_key;
struct kmem_cache;
typedef atomic64_t atomic_long_t;
typedef u16 __ticket_t;
typedef u32 __ticketpair_t;
struct __raw_tickets {
   __ticket_t head ;
   __ticket_t tail ;
};
union __anonunion____missing_field_name_36 {
   __ticketpair_t head_tail ;
   struct __raw_tickets tickets ;
};
struct arch_spinlock {
   union __anonunion____missing_field_name_36 __annonCompField17 ;
};
typedef struct arch_spinlock arch_spinlock_t;
struct __anonstruct____missing_field_name_38 {
   u32 read ;
   s32 write ;
};
union __anonunion_arch_rwlock_t_37 {
   s64 lock ;
   struct __anonstruct____missing_field_name_38 __annonCompField18 ;
};
typedef union __anonunion_arch_rwlock_t_37 arch_rwlock_t;
struct task_struct;
struct raw_spinlock {
   arch_spinlock_t raw_lock ;
   unsigned int magic ;
   unsigned int owner_cpu ;
   void *owner ;
};
typedef struct raw_spinlock raw_spinlock_t;
union __anonunion____missing_field_name_39 {
   struct raw_spinlock rlock ;
};
struct spinlock {
   union __anonunion____missing_field_name_39 __annonCompField19 ;
};
typedef struct spinlock spinlock_t;
struct __anonstruct_rwlock_t_40 {
   arch_rwlock_t raw_lock ;
   unsigned int magic ;
   unsigned int owner_cpu ;
   void *owner ;
};
typedef struct __anonstruct_rwlock_t_40 rwlock_t;
struct __wait_queue_head {
   spinlock_t lock ;
   struct list_head task_list ;
};
typedef struct __wait_queue_head wait_queue_head_t;
struct task_struct;
struct page;
struct mutex {
   atomic_t count ;
   spinlock_t wait_lock ;
   struct list_head wait_list ;
   struct task_struct *owner ;
   char const *name ;
   void *magic ;
};
struct rw_semaphore;
struct rw_semaphore;
struct rw_semaphore {
   long count ;
   raw_spinlock_t wait_lock ;
   struct list_head wait_list ;
};
struct completion {
   unsigned int done ;
   wait_queue_head_t wait ;
};
struct page;
struct resource {
   resource_size_t start ;
   resource_size_t end ;
   char const *name ;
   unsigned long flags ;
   struct resource *parent ;
   struct resource *sibling ;
   struct resource *child ;
};
struct device;
struct device;
union ktime {
   s64 tv64 ;
};
typedef union ktime ktime_t;
struct tvec_base;
struct tvec_base;
struct timer_list {
   struct list_head entry ;
   unsigned long expires ;
   struct tvec_base *base ;
   void (*function)(unsigned long ) ;
   unsigned long data ;
   int slack ;
   int start_pid ;
   void *start_site ;
   char start_comm[16] ;
};
struct work_struct;
struct work_struct;
struct work_struct {
   atomic_long_t data ;
   struct list_head entry ;
   void (*func)(struct work_struct *work ) ;
};
struct device;
struct pm_message {
   int event ;
};
typedef struct pm_message pm_message_t;
struct dev_pm_ops {
   int (*prepare)(struct device *dev ) ;
   void (*complete)(struct device *dev ) ;
   int (*suspend)(struct device *dev ) ;
   int (*resume)(struct device *dev ) ;
   int (*freeze)(struct device *dev ) ;
   int (*thaw)(struct device *dev ) ;
   int (*poweroff)(struct device *dev ) ;
   int (*restore)(struct device *dev ) ;
   int (*suspend_late)(struct device *dev ) ;
   int (*resume_early)(struct device *dev ) ;
   int (*freeze_late)(struct device *dev ) ;
   int (*thaw_early)(struct device *dev ) ;
   int (*poweroff_late)(struct device *dev ) ;
   int (*restore_early)(struct device *dev ) ;
   int (*suspend_noirq)(struct device *dev ) ;
   int (*resume_noirq)(struct device *dev ) ;
   int (*freeze_noirq)(struct device *dev ) ;
   int (*thaw_noirq)(struct device *dev ) ;
   int (*poweroff_noirq)(struct device *dev ) ;
   int (*restore_noirq)(struct device *dev ) ;
   int (*runtime_suspend)(struct device *dev ) ;
   int (*runtime_resume)(struct device *dev ) ;
   int (*runtime_idle)(struct device *dev ) ;
};
enum rpm_status {
    RPM_ACTIVE = 0,
    RPM_RESUMING = 1,
    RPM_SUSPENDED = 2,
    RPM_SUSPENDING = 3
} ;
enum rpm_request {
    RPM_REQ_NONE = 0,
    RPM_REQ_IDLE = 1,
    RPM_REQ_SUSPEND = 2,
    RPM_REQ_AUTOSUSPEND = 3,
    RPM_REQ_RESUME = 4
} ;
struct wakeup_source;
struct wakeup_source;
struct pm_subsys_data {
   spinlock_t lock ;
   unsigned int refcount ;
};
struct dev_pm_qos_request;
struct pm_qos_constraints;
struct dev_pm_info {
   pm_message_t power_state ;
   unsigned int can_wakeup : 1 ;
   unsigned int async_suspend : 1 ;
   bool is_prepared : 1 ;
   bool is_suspended : 1 ;
   bool ignore_children : 1 ;
   spinlock_t lock ;
   struct list_head entry ;
   struct completion completion ;
   struct wakeup_source *wakeup ;
   bool wakeup_path : 1 ;
   struct timer_list suspend_timer ;
   unsigned long timer_expires ;
   struct work_struct work ;
   wait_queue_head_t wait_queue ;
   atomic_t usage_count ;
   atomic_t child_count ;
   unsigned int disable_depth : 3 ;
   unsigned int idle_notification : 1 ;
   unsigned int request_pending : 1 ;
   unsigned int deferred_resume : 1 ;
   unsigned int run_wake : 1 ;
   unsigned int runtime_auto : 1 ;
   unsigned int no_callbacks : 1 ;
   unsigned int irq_safe : 1 ;
   unsigned int use_autosuspend : 1 ;
   unsigned int timer_autosuspends : 1 ;
   enum rpm_request request ;
   enum rpm_status runtime_status ;
   int runtime_error ;
   int autosuspend_delay ;
   unsigned long last_busy ;
   unsigned long active_jiffies ;
   unsigned long suspended_jiffies ;
   unsigned long accounting_timestamp ;
   ktime_t suspend_time ;
   s64 max_time_suspended_ns ;
   struct dev_pm_qos_request *pq_req ;
   struct pm_subsys_data *subsys_data ;
   struct pm_qos_constraints *constraints ;
};
struct dev_pm_domain {
   struct dev_pm_ops ops ;
};
struct vm_area_struct;
struct vm_area_struct;
struct page;
struct vm_area_struct;
struct completion;
struct file;
struct task_struct;
typedef __u64 Elf64_Addr;
typedef __u16 Elf64_Half;
typedef __u32 Elf64_Word;
typedef __u64 Elf64_Xword;
struct elf64_sym {
   Elf64_Word st_name ;
   unsigned char st_info ;
   unsigned char st_other ;
   Elf64_Half st_shndx ;
   Elf64_Addr st_value ;
   Elf64_Xword st_size ;
};
typedef struct elf64_sym Elf64_Sym;
struct file;
struct sock;
struct sock;
struct kobject;
struct kobject;
enum kobj_ns_type {
    KOBJ_NS_TYPE_NONE = 0,
    KOBJ_NS_TYPE_NET = 1,
    KOBJ_NS_TYPES = 2
} ;
struct kobj_ns_type_operations {
   enum kobj_ns_type type ;
   void *(*grab_current_ns)(void) ;
   void const *(*netlink_ns)(struct sock *sk ) ;
   void const *(*initial_ns)(void) ;
   void (*drop_ns)(void * ) ;
};
struct kobject;
struct module;
enum kobj_ns_type;
struct attribute {
   char const *name ;
   umode_t mode ;
};
struct attribute_group {
   char const *name ;
   umode_t (*is_visible)(struct kobject * , struct attribute * , int ) ;
   struct attribute **attrs ;
};
struct file;
struct vm_area_struct;
struct bin_attribute {
   struct attribute attr ;
   size_t size ;
   void *private ;
   ssize_t (*read)(struct file * , struct kobject * , struct bin_attribute * , char * ,
                   loff_t , size_t ) ;
   ssize_t (*write)(struct file * , struct kobject * , struct bin_attribute * , char * ,
                    loff_t , size_t ) ;
   int (*mmap)(struct file * , struct kobject * , struct bin_attribute *attr , struct vm_area_struct *vma ) ;
};
struct sysfs_ops {
   ssize_t (*show)(struct kobject * , struct attribute * , char * ) ;
   ssize_t (*store)(struct kobject * , struct attribute * , char const * , size_t ) ;
   void const *(*namespace)(struct kobject * , struct attribute const * ) ;
};
struct sysfs_dirent;
struct sysfs_dirent;
struct kref {
   atomic_t refcount ;
};
struct kset;
struct kobj_type;
struct kobject {
   char const *name ;
   struct list_head entry ;
   struct kobject *parent ;
   struct kset *kset ;
   struct kobj_type *ktype ;
   struct sysfs_dirent *sd ;
   struct kref kref ;
   unsigned int state_initialized : 1 ;
   unsigned int state_in_sysfs : 1 ;
   unsigned int state_add_uevent_sent : 1 ;
   unsigned int state_remove_uevent_sent : 1 ;
   unsigned int uevent_suppress : 1 ;
};
struct kobj_type {
   void (*release)(struct kobject *kobj ) ;
   struct sysfs_ops const *sysfs_ops ;
   struct attribute **default_attrs ;
   struct kobj_ns_type_operations const *(*child_ns_type)(struct kobject *kobj ) ;
   void const *(*namespace)(struct kobject *kobj ) ;
};
struct kobj_uevent_env {
   char *envp[32] ;
   int envp_idx ;
   char buf[2048] ;
   int buflen ;
};
struct kset_uevent_ops {
   int (* const filter)(struct kset *kset , struct kobject *kobj ) ;
   char const *(* const name)(struct kset *kset , struct kobject *kobj ) ;
   int (* const uevent)(struct kset *kset , struct kobject *kobj , struct kobj_uevent_env *env ) ;
};
struct sock;
struct kset {
   struct list_head list ;
   spinlock_t list_lock ;
   struct kobject kobj ;
   struct kset_uevent_ops const *uevent_ops ;
};
struct kernel_param;
struct kernel_param;
struct kernel_param_ops {
   int (*set)(char const *val , struct kernel_param const *kp ) ;
   int (*get)(char *buffer , struct kernel_param const *kp ) ;
   void (*free)(void *arg ) ;
};
struct kparam_string;
struct kparam_array;
union __anonunion____missing_field_name_199 {
   void *arg ;
   struct kparam_string const *str ;
   struct kparam_array const *arr ;
};
struct kernel_param {
   char const *name ;
   struct kernel_param_ops const *ops ;
   u16 perm ;
   s16 level ;
   union __anonunion____missing_field_name_199 __annonCompField32 ;
};
struct kparam_string {
   unsigned int maxlen ;
   char *string ;
};
struct kparam_array {
   unsigned int max ;
   unsigned int elemsize ;
   unsigned int *num ;
   struct kernel_param_ops const *ops ;
   void *elem ;
};
struct module;
struct module;
struct static_key {
   atomic_t enabled ;
};
struct module;
struct tracepoint;
struct tracepoint;
struct tracepoint_func {
   void *func ;
   void *data ;
};
struct tracepoint {
   char const *name ;
   struct static_key key ;
   void (*regfunc)(void) ;
   void (*unregfunc)(void) ;
   struct tracepoint_func *funcs ;
};
struct kernel_symbol {
   unsigned long value ;
   char const *name ;
};
struct mod_arch_specific {
};
struct module;
struct module_param_attrs;
struct module_kobject {
   struct kobject kobj ;
   struct module *mod ;
   struct kobject *drivers_dir ;
   struct module_param_attrs *mp ;
};
struct module_attribute {
   struct attribute attr ;
   ssize_t (*show)(struct module_attribute * , struct module_kobject * , char * ) ;
   ssize_t (*store)(struct module_attribute * , struct module_kobject * , char const * ,
                    size_t count ) ;
   void (*setup)(struct module * , char const * ) ;
   int (*test)(struct module * ) ;
   void (*free)(struct module * ) ;
};
struct exception_table_entry;
struct exception_table_entry;
enum module_state {
    MODULE_STATE_LIVE = 0,
    MODULE_STATE_COMING = 1,
    MODULE_STATE_GOING = 2
} ;
struct module_ref {
   unsigned long incs ;
   unsigned long decs ;
} __attribute__((__aligned__((2) * (sizeof(unsigned long )) ))) ;
struct module_sect_attrs;
struct module_notes_attrs;
struct ftrace_event_call;
struct module {
   enum module_state state ;
   struct list_head list ;
   char name[64UL - sizeof(unsigned long )] ;
   struct module_kobject mkobj ;
   struct module_attribute *modinfo_attrs ;
   char const *version ;
   char const *srcversion ;
   struct kobject *holders_dir ;
   struct kernel_symbol const *syms ;
   unsigned long const *crcs ;
   unsigned int num_syms ;
   struct kernel_param *kp ;
   unsigned int num_kp ;
   unsigned int num_gpl_syms ;
   struct kernel_symbol const *gpl_syms ;
   unsigned long const *gpl_crcs ;
   struct kernel_symbol const *unused_syms ;
   unsigned long const *unused_crcs ;
   unsigned int num_unused_syms ;
   unsigned int num_unused_gpl_syms ;
   struct kernel_symbol const *unused_gpl_syms ;
   unsigned long const *unused_gpl_crcs ;
   struct kernel_symbol const *gpl_future_syms ;
   unsigned long const *gpl_future_crcs ;
   unsigned int num_gpl_future_syms ;
   unsigned int num_exentries ;
   struct exception_table_entry *extable ;
   int (*init)(void) ;
   void *module_init ;
   void *module_core ;
   unsigned int init_size ;
   unsigned int core_size ;
   unsigned int init_text_size ;
   unsigned int core_text_size ;
   unsigned int init_ro_size ;
   unsigned int core_ro_size ;
   struct mod_arch_specific arch ;
   unsigned int taints ;
   unsigned int num_bugs ;
   struct list_head bug_list ;
   struct bug_entry *bug_table ;
   Elf64_Sym *symtab ;
   Elf64_Sym *core_symtab ;
   unsigned int num_symtab ;
   unsigned int core_num_syms ;
   char *strtab ;
   char *core_strtab ;
   struct module_sect_attrs *sect_attrs ;
   struct module_notes_attrs *notes_attrs ;
   char *args ;
   void *percpu ;
   unsigned int percpu_size ;
   unsigned int num_tracepoints ;
   struct tracepoint * const *tracepoints_ptrs ;
   unsigned int num_trace_bprintk_fmt ;
   char const **trace_bprintk_fmt_start ;
   struct ftrace_event_call **trace_events ;
   unsigned int num_trace_events ;
   struct list_head source_list ;
   struct list_head target_list ;
   struct task_struct *waiter ;
   void (*exit)(void) ;
   struct module_ref *refptr ;
   ctor_fn_t *ctors ;
   unsigned int num_ctors ;
};
struct klist_node;
struct klist_node;
struct klist_node {
   void *n_klist ;
   struct list_head n_node ;
   struct kref n_ref ;
};
struct dma_map_ops;
struct dev_archdata {
   void *acpi_handle ;
   struct dma_map_ops *dma_ops ;
   void *iommu ;
};
struct pdev_archdata {
};
struct device;
struct device_private;
struct device_private;
struct device_driver;
struct device_driver;
struct driver_private;
struct driver_private;
struct module;
struct class;
struct class;
struct subsys_private;
struct subsys_private;
struct bus_type;
struct bus_type;
struct device_node;
struct device_node;
struct iommu_ops;
struct iommu_ops;
struct bus_attribute {
   struct attribute attr ;
   ssize_t (*show)(struct bus_type *bus , char *buf ) ;
   ssize_t (*store)(struct bus_type *bus , char const *buf , size_t count ) ;
};
struct device_attribute;
struct driver_attribute;
struct bus_type {
   char const *name ;
   char const *dev_name ;
   struct device *dev_root ;
   struct bus_attribute *bus_attrs ;
   struct device_attribute *dev_attrs ;
   struct driver_attribute *drv_attrs ;
   int (*match)(struct device *dev , struct device_driver *drv ) ;
   int (*uevent)(struct device *dev , struct kobj_uevent_env *env ) ;
   int (*probe)(struct device *dev ) ;
   int (*remove)(struct device *dev ) ;
   void (*shutdown)(struct device *dev ) ;
   int (*suspend)(struct device *dev , pm_message_t state ) ;
   int (*resume)(struct device *dev ) ;
   struct dev_pm_ops const *pm ;
   struct iommu_ops *iommu_ops ;
   struct subsys_private *p ;
};
struct device_type;
struct of_device_id;
struct device_driver {
   char const *name ;
   struct bus_type *bus ;
   struct module *owner ;
   char const *mod_name ;
   bool suppress_bind_attrs ;
   struct of_device_id const *of_match_table ;
   int (*probe)(struct device *dev ) ;
   int (*remove)(struct device *dev ) ;
   void (*shutdown)(struct device *dev ) ;
   int (*suspend)(struct device *dev , pm_message_t state ) ;
   int (*resume)(struct device *dev ) ;
   struct attribute_group const **groups ;
   struct dev_pm_ops const *pm ;
   struct driver_private *p ;
};
struct driver_attribute {
   struct attribute attr ;
   ssize_t (*show)(struct device_driver *driver , char *buf ) ;
   ssize_t (*store)(struct device_driver *driver , char const *buf , size_t count ) ;
};
struct class_attribute;
struct class {
   char const *name ;
   struct module *owner ;
   struct class_attribute *class_attrs ;
   struct device_attribute *dev_attrs ;
   struct bin_attribute *dev_bin_attrs ;
   struct kobject *dev_kobj ;
   int (*dev_uevent)(struct device *dev , struct kobj_uevent_env *env ) ;
   char *(*devnode)(struct device *dev , umode_t *mode ) ;
   void (*class_release)(struct class *class ) ;
   void (*dev_release)(struct device *dev ) ;
   int (*suspend)(struct device *dev , pm_message_t state ) ;
   int (*resume)(struct device *dev ) ;
   struct kobj_ns_type_operations const *ns_type ;
   void const *(*namespace)(struct device *dev ) ;
   struct dev_pm_ops const *pm ;
   struct subsys_private *p ;
};
struct class_attribute {
   struct attribute attr ;
   ssize_t (*show)(struct class *class , struct class_attribute *attr , char *buf ) ;
   ssize_t (*store)(struct class *class , struct class_attribute *attr , char const *buf ,
                    size_t count ) ;
   void const *(*namespace)(struct class *class , struct class_attribute const *attr ) ;
};
struct device_type {
   char const *name ;
   struct attribute_group const **groups ;
   int (*uevent)(struct device *dev , struct kobj_uevent_env *env ) ;
   char *(*devnode)(struct device *dev , umode_t *mode ) ;
   void (*release)(struct device *dev ) ;
   struct dev_pm_ops const *pm ;
};
struct device_attribute {
   struct attribute attr ;
   ssize_t (*show)(struct device *dev , struct device_attribute *attr , char *buf ) ;
   ssize_t (*store)(struct device *dev , struct device_attribute *attr , char const *buf ,
                    size_t count ) ;
};
struct device_dma_parameters {
   unsigned int max_segment_size ;
   unsigned long segment_boundary_mask ;
};
struct dma_coherent_mem;
struct device {
   struct device *parent ;
   struct device_private *p ;
   struct kobject kobj ;
   char const *init_name ;
   struct device_type const *type ;
   struct mutex mutex ;
   struct bus_type *bus ;
   struct device_driver *driver ;
   void *platform_data ;
   struct dev_pm_info power ;
   struct dev_pm_domain *pm_domain ;
   int numa_node ;
   u64 *dma_mask ;
   u64 coherent_dma_mask ;
   struct device_dma_parameters *dma_parms ;
   struct list_head dma_pools ;
   struct dma_coherent_mem *dma_mem ;
   struct dev_archdata archdata ;
   struct device_node *of_node ;
   dev_t devt ;
   u32 id ;
   spinlock_t devres_lock ;
   struct list_head devres_head ;
   struct klist_node knode_class ;
   struct class *class ;
   struct attribute_group const **groups ;
   void (*release)(struct device *dev ) ;
};
struct wakeup_source {
   char const *name ;
   struct list_head entry ;
   spinlock_t lock ;
   struct timer_list timer ;
   unsigned long timer_expires ;
   ktime_t total_time ;
   ktime_t max_time ;
   ktime_t last_time ;
   unsigned long event_count ;
   unsigned long active_count ;
   unsigned long relax_count ;
   unsigned long hit_count ;
   unsigned int active : 1 ;
};
typedef unsigned long kernel_ulong_t;
struct of_device_id {
   char name[32] ;
   char type[32] ;
   char compatible[128] ;
   void *data ;
};
struct platform_device_id {
   char name[20] ;
   kernel_ulong_t driver_data __attribute__((__aligned__(sizeof(kernel_ulong_t )))) ;
};
struct mfd_cell;
struct mfd_cell;
struct platform_device {
   char const *name ;
   int id ;
   struct device dev ;
   u32 num_resources ;
   struct resource *resource ;
   struct platform_device_id const *id_entry ;
   struct mfd_cell *mfd_cell ;
   struct pdev_archdata archdata ;
};
struct platform_driver {
   int (*probe)(struct platform_device * ) ;
   int (*remove)(struct platform_device * ) ;
   void (*shutdown)(struct platform_device * ) ;
   int (*suspend)(struct platform_device * , pm_message_t state ) ;
   int (*resume)(struct platform_device * ) ;
   struct device_driver driver ;
   struct platform_device_id const *id_table ;
};
struct device;
enum led_brightness {
    LED_OFF = 0,
    LED_HALF = 127,
    LED_FULL = 255
} ;
struct led_trigger;
struct led_classdev {
   char const *name ;
   int brightness ;
   int max_brightness ;
   int flags ;
   void (*brightness_set)(struct led_classdev *led_cdev , enum led_brightness brightness ) ;
   enum led_brightness (*brightness_get)(struct led_classdev *led_cdev ) ;
   int (*blink_set)(struct led_classdev *led_cdev , unsigned long *delay_on , unsigned long *delay_off ) ;
   struct device *dev ;
   struct list_head node ;
   char const *default_trigger ;
   unsigned long blink_delay_on ;
   unsigned long blink_delay_off ;
   struct timer_list blink_timer ;
   int blink_brightness ;
   struct rw_semaphore trigger_lock ;
   struct led_trigger *trigger ;
   struct list_head trig_list ;
   void *trigger_data ;
};
struct led_trigger {
   char const *name ;
   void (*activate)(struct led_classdev *led_cdev ) ;
   void (*deactivate)(struct led_classdev *led_cdev ) ;
   rwlock_t leddev_list_lock ;
   struct list_head led_cdevs ;
   struct list_head next_trig ;
};
struct device;
enum power_supply_property {
    POWER_SUPPLY_PROP_STATUS = 0,
    POWER_SUPPLY_PROP_CHARGE_TYPE = 1,
    POWER_SUPPLY_PROP_HEALTH = 2,
    POWER_SUPPLY_PROP_PRESENT = 3,
    POWER_SUPPLY_PROP_ONLINE = 4,
    POWER_SUPPLY_PROP_TECHNOLOGY = 5,
    POWER_SUPPLY_PROP_CYCLE_COUNT = 6,
    POWER_SUPPLY_PROP_VOLTAGE_MAX = 7,
    POWER_SUPPLY_PROP_VOLTAGE_MIN = 8,
    POWER_SUPPLY_PROP_VOLTAGE_MAX_DESIGN = 9,
    POWER_SUPPLY_PROP_VOLTAGE_MIN_DESIGN = 10,
    POWER_SUPPLY_PROP_VOLTAGE_NOW = 11,
    POWER_SUPPLY_PROP_VOLTAGE_AVG = 12,
    POWER_SUPPLY_PROP_CURRENT_MAX = 13,
    POWER_SUPPLY_PROP_CURRENT_NOW = 14,
    POWER_SUPPLY_PROP_CURRENT_AVG = 15,
    POWER_SUPPLY_PROP_POWER_NOW = 16,
    POWER_SUPPLY_PROP_POWER_AVG = 17,
    POWER_SUPPLY_PROP_CHARGE_FULL_DESIGN = 18,
    POWER_SUPPLY_PROP_CHARGE_EMPTY_DESIGN = 19,
    POWER_SUPPLY_PROP_CHARGE_FULL = 20,
    POWER_SUPPLY_PROP_CHARGE_EMPTY = 21,
    POWER_SUPPLY_PROP_CHARGE_NOW = 22,
    POWER_SUPPLY_PROP_CHARGE_AVG = 23,
    POWER_SUPPLY_PROP_CHARGE_COUNTER = 24,
    POWER_SUPPLY_PROP_ENERGY_FULL_DESIGN = 25,
    POWER_SUPPLY_PROP_ENERGY_EMPTY_DESIGN = 26,
    POWER_SUPPLY_PROP_ENERGY_FULL = 27,
    POWER_SUPPLY_PROP_ENERGY_EMPTY = 28,
    POWER_SUPPLY_PROP_ENERGY_NOW = 29,
    POWER_SUPPLY_PROP_ENERGY_AVG = 30,
    POWER_SUPPLY_PROP_CAPACITY = 31,
    POWER_SUPPLY_PROP_CAPACITY_LEVEL = 32,
    POWER_SUPPLY_PROP_TEMP = 33,
    POWER_SUPPLY_PROP_TEMP_AMBIENT = 34,
    POWER_SUPPLY_PROP_TIME_TO_EMPTY_NOW = 35,
    POWER_SUPPLY_PROP_TIME_TO_EMPTY_AVG = 36,
    POWER_SUPPLY_PROP_TIME_TO_FULL_NOW = 37,
    POWER_SUPPLY_PROP_TIME_TO_FULL_AVG = 38,
    POWER_SUPPLY_PROP_TYPE = 39,
    POWER_SUPPLY_PROP_SCOPE = 40,
    POWER_SUPPLY_PROP_MODEL_NAME = 41,
    POWER_SUPPLY_PROP_MANUFACTURER = 42,
    POWER_SUPPLY_PROP_SERIAL_NUMBER = 43
} ;
enum power_supply_type {
    POWER_SUPPLY_TYPE_UNKNOWN = 0,
    POWER_SUPPLY_TYPE_BATTERY = 1,
    POWER_SUPPLY_TYPE_UPS = 2,
    POWER_SUPPLY_TYPE_MAINS = 3,
    POWER_SUPPLY_TYPE_USB = 4,
    POWER_SUPPLY_TYPE_USB_DCP = 5,
    POWER_SUPPLY_TYPE_USB_CDP = 6,
    POWER_SUPPLY_TYPE_USB_ACA = 7
} ;
union power_supply_propval {
   int intval ;
   char const *strval ;
};
struct power_supply {
   char const *name ;
   enum power_supply_type type ;
   enum power_supply_property *properties ;
   size_t num_properties ;
   char **supplied_to ;
   size_t num_supplicants ;
   int (*get_property)(struct power_supply *psy , enum power_supply_property psp ,
                       union power_supply_propval *val ) ;
   int (*set_property)(struct power_supply *psy , enum power_supply_property psp ,
                       union power_supply_propval const *val ) ;
   int (*property_is_writeable)(struct power_supply *psy , enum power_supply_property psp ) ;
   void (*external_power_changed)(struct power_supply *psy ) ;
   void (*set_charged)(struct power_supply *psy ) ;
   int use_for_apm ;
   struct device *dev ;
   struct work_struct changed_work ;
   struct led_trigger *charging_full_trig ;
   char *charging_full_trig_name ;
   struct led_trigger *charging_trig ;
   char *charging_trig_name ;
   struct led_trigger *full_trig ;
   char *full_trig_name ;
   struct led_trigger *online_trig ;
   char *online_trig_name ;
   struct led_trigger *charging_blink_full_solid_trig ;
   char *charging_blink_full_solid_trig_name ;
};
struct kmem_cache_cpu {
   void **freelist ;
   unsigned long tid ;
   struct page *page ;
   struct page *partial ;
   int node ;
   unsigned int stat[26] ;
};
struct kmem_cache_node {
   spinlock_t list_lock ;
   unsigned long nr_partial ;
   struct list_head partial ;
   atomic_long_t nr_slabs ;
   atomic_long_t total_objects ;
   struct list_head full ;
};
struct kmem_cache_order_objects {
   unsigned long x ;
};
struct kmem_cache {
   struct kmem_cache_cpu *cpu_slab ;
   unsigned long flags ;
   unsigned long min_partial ;
   int size ;
   int objsize ;
   int offset ;
   int cpu_partial ;
   struct kmem_cache_order_objects oo ;
   struct kmem_cache_order_objects max ;
   struct kmem_cache_order_objects min ;
   gfp_t allocflags ;
   int refcount ;
   void (*ctor)(void * ) ;
   int inuse ;
   int align ;
   int reserved ;
   char const *name ;
   struct list_head list ;
   struct kobject kobj ;
   int remote_node_defrag_ratio ;
   struct kmem_cache_node *node[1 << 10] ;
};
struct module;
struct module;
struct task_struct;
struct exception_table_entry {
   unsigned long insn ;
   unsigned long fixup ;
};
struct task_struct;
struct device;
struct module;
struct device;
struct regmap;
struct regmap;
struct wm831x;
struct wm831x;
enum wm831x_auxadc;
enum wm831x_auxadc;
struct wm831x {
   struct mutex io_lock ;
   struct device *dev ;
   struct regmap *regmap ;
   int irq ;
   struct mutex irq_lock ;
   int irq_base ;
   int irq_masks_cur[5] ;
   int irq_masks_cache[5] ;
   bool soft_shutdown ;
   unsigned int has_gpio_ena : 1 ;
   unsigned int has_cs_sts : 1 ;
   unsigned int charger_irq_wake : 1 ;
   int num_gpio ;
   int gpio_update[16] ;
   bool gpio_level[16] ;
   struct mutex auxadc_lock ;
   struct list_head auxadc_pending ;
   u16 auxadc_active ;
   int (*auxadc_read)(struct wm831x *wm831x , enum wm831x_auxadc input ) ;
   struct mutex key_lock ;
   unsigned int locked : 1 ;
};
enum wm831x_auxadc {
    WM831X_AUX_CAL = 15,
    WM831X_AUX_BKUP_BATT = 10,
    WM831X_AUX_WALL = 9,
    WM831X_AUX_BATT = 8,
    WM831X_AUX_USB = 7,
    WM831X_AUX_SYSVDD = 6,
    WM831X_AUX_BATT_TEMP = 5,
    WM831X_AUX_CHIP_TEMP = 4,
    WM831X_AUX_AUX4 = 3,
    WM831X_AUX_AUX3 = 2,
    WM831X_AUX_AUX2 = 1,
    WM831X_AUX_AUX1 = 0
} ;
struct wm831x;
struct regulator_init_data;
struct regulator_init_data;
struct wm831x_backlight_pdata {
   int isink ;
   int max_uA ;
};
struct wm831x_backup_pdata {
   int charger_enable ;
   int no_constant_voltage ;
   int vlim ;
   int ilim ;
};
struct wm831x_battery_pdata {
   int enable ;
   int fast_enable ;
   int off_mask ;
   int trickle_ilim ;
   int vsel ;
   int eoc_iterm ;
   int fast_ilim ;
   int timeout ;
};
enum wm831x_status_src {
    WM831X_STATUS_PRESERVE = 0,
    WM831X_STATUS_OTP = 1,
    WM831X_STATUS_POWER = 2,
    WM831X_STATUS_CHARGER = 3,
    WM831X_STATUS_MANUAL = 4
} ;
struct wm831x_status_pdata {
   enum wm831x_status_src default_src ;
   char const *name ;
   char const *default_trigger ;
};
struct wm831x_touch_pdata {
   int fivewire ;
   int isel ;
   int rpu ;
   int pressure ;
   unsigned int data_irq ;
   int data_irqf ;
   unsigned int pd_irq ;
   int pd_irqf ;
};
enum wm831x_watchdog_action {
    WM831X_WDOG_NONE = 0,
    WM831X_WDOG_INTERRUPT = 1,
    WM831X_WDOG_RESET = 2,
    WM831X_WDOG_WAKE = 3
} ;
struct wm831x_watchdog_pdata {
   enum wm831x_watchdog_action primary ;
   enum wm831x_watchdog_action secondary ;
   int update_gpio ;
   unsigned int software : 1 ;
};
struct wm831x_pdata {
   int wm831x_num ;
   int (*pre_init)(struct wm831x *wm831x ) ;
   int (*post_init)(struct wm831x *wm831x ) ;
   bool irq_cmos ;
   bool disable_touch ;
   bool soft_shutdown ;
   int irq_base ;
   int gpio_base ;
   int gpio_defaults[16] ;
   struct wm831x_backlight_pdata *backlight ;
   struct wm831x_backup_pdata *backup ;
   struct wm831x_battery_pdata *battery ;
   struct wm831x_touch_pdata *touch ;
   struct wm831x_watchdog_pdata *watchdog ;
   struct wm831x_status_pdata *status[2] ;
   struct regulator_init_data *dcdc[4] ;
   struct regulator_init_data *epe[2] ;
   struct regulator_init_data *ldo[11] ;
   struct regulator_init_data *isink[2] ;
};
struct wm831x_backup {
   struct wm831x *wm831x ;
   struct power_supply backup ;
   char name[20] ;
};
struct __anonstruct_216 {
   int : 0 ;
};
long ldv__builtin_expect(long val , long res ) ;
extern int ( snprintf)(char *buf , size_t size , char const *fmt
                                               , ...) ;
void mutex_lock(struct mutex *lock ) ;
int __attribute__((__warn_unused_result__)) mutex_lock_interruptible(struct mutex *lock ) ;
int __attribute__((__warn_unused_result__)) mutex_lock_killable(struct mutex *lock ) ;
int mutex_trylock(struct mutex *lock ) ;
void mutex_unlock(struct mutex *lock ) ;
int atomic_dec_and_mutex_lock(atomic_t *cnt , struct mutex *lock ) ;
int init_module(void) ;
void cleanup_module(void) ;
extern void *dev_get_drvdata(struct device const *dev ) ;
extern int dev_set_drvdata(struct device *dev , void *data ) ;
extern int ( dev_err)(struct device const *dev , char const *fmt
                                              , ...) ;
extern int ( dev_warn)(struct device const *dev , char const *fmt
                                               , ...) ;
extern int platform_driver_register(struct platform_driver * ) ;
extern void platform_driver_unregister(struct platform_driver * ) ;
 static void *platform_get_drvdata(struct platform_device const *pdev ) __attribute__((__no_instrument_function__)) ;
 static void *platform_get_drvdata(struct platform_device const *pdev )
{ void *tmp ;
  unsigned long __cil_tmp3 ;
  unsigned long __cil_tmp4 ;
  struct device const *__cil_tmp5 ;
  {
  {
  __cil_tmp3 = (unsigned long )pdev;
  __cil_tmp4 = __cil_tmp3 + 16;
  __cil_tmp5 = (struct device const *)__cil_tmp4;
  tmp = dev_get_drvdata(__cil_tmp5);
  }
  return (tmp);
}
}
 static void platform_set_drvdata(struct platform_device *pdev , void *data ) __attribute__((__no_instrument_function__)) ;
 static void platform_set_drvdata(struct platform_device *pdev , void *data )
{ unsigned long __cil_tmp3 ;
  unsigned long __cil_tmp4 ;
  struct device *__cil_tmp5 ;
  {
  {
  __cil_tmp3 = (unsigned long )pdev;
  __cil_tmp4 = __cil_tmp3 + 16;
  __cil_tmp5 = (struct device *)__cil_tmp4;
  dev_set_drvdata(__cil_tmp5, data);
  }
  return;
}
}
extern int power_supply_register(struct device *parent , struct power_supply *psy ) ;
extern void power_supply_unregister(struct power_supply *psy ) ;
extern void kfree(void const * ) ;
extern int __VERIFIER_nondet_int(void);
extern void abort(void);
void assume_abort_if_not(int cond) {
  if(!cond) {abort();}
}
extern void *malloc(size_t size);
long ldv_is_err(const void *ptr)
{
  return ((unsigned long)ptr > ((unsigned long)-4095));
}
void *ldv_malloc(size_t size)
{
 if (__VERIFIER_nondet_int()) {
  void *res = malloc(size);
  assume_abort_if_not(!ldv_is_err(res));
  return res;
 } else {
  return ((void *)0);
 }
}
void *__kmalloc(size_t size, gfp_t t)
{
 return ldv_malloc(size);
}
 static void *( __attribute__((__always_inline__)) kmalloc)(size_t size ,
                                                                    gfp_t flags ) __attribute__((__no_instrument_function__)) ;
 static void *( __attribute__((__always_inline__)) kmalloc)(size_t size ,
                                                                    gfp_t flags )
{ void *tmp___2 ;
  {
  {
  tmp___2 = __kmalloc(size, flags);
  }
  return (tmp___2);
}
}
 static void *kzalloc(size_t size , gfp_t flags ) __attribute__((__no_instrument_function__)) ;
void *ldv_zalloc(size_t size ) ;
 static void *kzalloc(size_t size , gfp_t flags )
{ void *tmp ;
  unsigned int __cil_tmp4 ;
  {
  {
  __cil_tmp4 = flags | 32768U;
  tmp = kmalloc(size, __cil_tmp4);
  }
  return (tmp);
}
}
extern int wm831x_reg_read(struct wm831x *wm831x , unsigned short reg ) ;
extern void wm831x_reg_lock(struct wm831x *wm831x ) ;
extern int wm831x_reg_unlock(struct wm831x *wm831x ) ;
extern int wm831x_set_bits(struct wm831x *wm831x , unsigned short reg , unsigned short mask ,
                           unsigned short val ) ;
extern int wm831x_auxadc_read_uv(struct wm831x *wm831x , enum wm831x_auxadc input ) ;
static int wm831x_backup_read_voltage(struct wm831x *wm831x , enum wm831x_auxadc src ,
                                      union power_supply_propval *val )
{ int ret ;
  {
  {
  ret = wm831x_auxadc_read_uv(wm831x, src);
  }
  if (ret >= 0) {
    *((int *)val) = ret;
  } else {
  }
  return (ret);
}
}
static void wm831x_config_backup(struct wm831x *wm831x )
{ struct wm831x_pdata *wm831x_pdata ;
  struct wm831x_backup_pdata *pdata ;
  int ret ;
  int reg ;
  unsigned long __cil_tmp6 ;
  unsigned long __cil_tmp7 ;
  struct device *__cil_tmp8 ;
  unsigned long __cil_tmp9 ;
  unsigned long __cil_tmp10 ;
  void *__cil_tmp11 ;
  unsigned long __cil_tmp12 ;
  unsigned long __cil_tmp13 ;
  struct device *__cil_tmp14 ;
  struct device const *__cil_tmp15 ;
  unsigned long __cil_tmp16 ;
  unsigned long __cil_tmp17 ;
  struct wm831x_backup_pdata *__cil_tmp18 ;
  unsigned long __cil_tmp19 ;
  unsigned long __cil_tmp20 ;
  struct device *__cil_tmp21 ;
  struct device const *__cil_tmp22 ;
  unsigned long __cil_tmp23 ;
  unsigned long __cil_tmp24 ;
  unsigned long __cil_tmp25 ;
  unsigned long __cil_tmp26 ;
  unsigned long __cil_tmp27 ;
  unsigned long __cil_tmp28 ;
  unsigned long __cil_tmp29 ;
  unsigned long __cil_tmp30 ;
  struct device *__cil_tmp31 ;
  struct device const *__cil_tmp32 ;
  unsigned long __cil_tmp33 ;
  unsigned long __cil_tmp34 ;
  int __cil_tmp35 ;
  unsigned long __cil_tmp36 ;
  unsigned long __cil_tmp37 ;
  unsigned long __cil_tmp38 ;
  unsigned long __cil_tmp39 ;
  struct device *__cil_tmp40 ;
  struct device const *__cil_tmp41 ;
  unsigned long __cil_tmp42 ;
  unsigned long __cil_tmp43 ;
  int __cil_tmp44 ;
  unsigned long __cil_tmp45 ;
  unsigned long __cil_tmp46 ;
  struct device *__cil_tmp47 ;
  struct device const *__cil_tmp48 ;
  unsigned short __cil_tmp49 ;
  unsigned long __cil_tmp50 ;
  unsigned long __cil_tmp51 ;
  struct device *__cil_tmp52 ;
  struct device const *__cil_tmp53 ;
  {
  __cil_tmp6 = (unsigned long )wm831x;
  __cil_tmp7 = __cil_tmp6 + 72;
  __cil_tmp8 = *((struct device **)__cil_tmp7);
  __cil_tmp9 = (unsigned long )__cil_tmp8;
  __cil_tmp10 = __cil_tmp9 + 184;
  __cil_tmp11 = *((void **)__cil_tmp10);
  wm831x_pdata = (struct wm831x_pdata *)__cil_tmp11;
  if (! wm831x_pdata) {
    {
    __cil_tmp12 = (unsigned long )wm831x;
    __cil_tmp13 = __cil_tmp12 + 72;
    __cil_tmp14 = *((struct device **)__cil_tmp13);
    __cil_tmp15 = (struct device const *)__cil_tmp14;
    dev_warn(__cil_tmp15, "No backup battery charger configuration\n");
    }
    return;
  } else {
    {
    __cil_tmp16 = (unsigned long )wm831x_pdata;
    __cil_tmp17 = __cil_tmp16 + 112;
    __cil_tmp18 = *((struct wm831x_backup_pdata **)__cil_tmp17);
    if (! __cil_tmp18) {
      {
      __cil_tmp19 = (unsigned long )wm831x;
      __cil_tmp20 = __cil_tmp19 + 72;
      __cil_tmp21 = *((struct device **)__cil_tmp20);
      __cil_tmp22 = (struct device const *)__cil_tmp21;
      dev_warn(__cil_tmp22, "No backup battery charger configuration\n");
      }
      return;
    } else {
    }
    }
  }
  __cil_tmp23 = (unsigned long )wm831x_pdata;
  __cil_tmp24 = __cil_tmp23 + 112;
  pdata = *((struct wm831x_backup_pdata **)__cil_tmp24);
  reg = 0;
  if (*((int *)pdata)) {
    reg = reg | 34816;
  } else {
  }
  {
  __cil_tmp25 = (unsigned long )pdata;
  __cil_tmp26 = __cil_tmp25 + 4;
  if (*((int *)__cil_tmp26)) {
    reg = reg | 4096;
  } else {
  }
  }
  {
  __cil_tmp27 = (unsigned long )pdata;
  __cil_tmp28 = __cil_tmp27 + 8;
  if (*((int *)__cil_tmp28) == 2500) {
    goto case_2500;
  } else
  if (*((int *)__cil_tmp28) == 3100) {
    goto case_3100;
  } else {
    {
    goto switch_default;
    if (0) {
      case_2500:
      goto switch_break;
      case_3100:
      reg = reg | 16;
      goto switch_break;
      switch_default:
      {
      __cil_tmp29 = (unsigned long )wm831x;
      __cil_tmp30 = __cil_tmp29 + 72;
      __cil_tmp31 = *((struct device **)__cil_tmp30);
      __cil_tmp32 = (struct device const *)__cil_tmp31;
      __cil_tmp33 = (unsigned long )pdata;
      __cil_tmp34 = __cil_tmp33 + 8;
      __cil_tmp35 = *((int *)__cil_tmp34);
      dev_err(__cil_tmp32, "Invalid backup voltage limit %dmV\n", __cil_tmp35);
      }
    } else {
      switch_break: ;
    }
    }
  }
  }
  {
  __cil_tmp36 = (unsigned long )pdata;
  __cil_tmp37 = __cil_tmp36 + 12;
  if (*((int *)__cil_tmp37) == 100) {
    goto case_100;
  } else
  if (*((int *)__cil_tmp37) == 200) {
    goto case_200;
  } else
  if (*((int *)__cil_tmp37) == 300) {
    goto case_300;
  } else
  if (*((int *)__cil_tmp37) == 400) {
    goto case_400;
  } else {
    {
    goto switch_default___0;
    if (0) {
      case_100:
      goto switch_break___0;
      case_200:
      reg = reg | 1;
      goto switch_break___0;
      case_300:
      reg = reg | 2;
      goto switch_break___0;
      case_400:
      reg = reg | 3;
      goto switch_break___0;
      switch_default___0:
      {
      __cil_tmp38 = (unsigned long )wm831x;
      __cil_tmp39 = __cil_tmp38 + 72;
      __cil_tmp40 = *((struct device **)__cil_tmp39);
      __cil_tmp41 = (struct device const *)__cil_tmp40;
      __cil_tmp42 = (unsigned long )pdata;
      __cil_tmp43 = __cil_tmp42 + 12;
      __cil_tmp44 = *((int *)__cil_tmp43);
      dev_err(__cil_tmp41, "Invalid backup current limit %duA\n", __cil_tmp44);
      }
    } else {
      switch_break___0: ;
    }
    }
  }
  }
  {
  ret = wm831x_reg_unlock(wm831x);
  }
  if (ret != 0) {
    {
    __cil_tmp45 = (unsigned long )wm831x;
    __cil_tmp46 = __cil_tmp45 + 72;
    __cil_tmp47 = *((struct device **)__cil_tmp46);
    __cil_tmp48 = (struct device const *)__cil_tmp47;
    dev_err(__cil_tmp48, "Failed to unlock registers: %d\n", ret);
    }
    return;
  } else {
  }
  {
  __cil_tmp49 = (unsigned short )reg;
  ret = wm831x_set_bits(wm831x, (unsigned short)16459, (unsigned short)38931, __cil_tmp49);
  }
  if (ret != 0) {
    {
    __cil_tmp50 = (unsigned long )wm831x;
    __cil_tmp51 = __cil_tmp50 + 72;
    __cil_tmp52 = *((struct device **)__cil_tmp51);
    __cil_tmp53 = (struct device const *)__cil_tmp52;
    dev_err(__cil_tmp53, "Failed to set backup charger config: %d\n", ret);
    }
  } else {
  }
  {
  wm831x_reg_lock(wm831x);
  }
  return;
}
}
static int wm831x_backup_get_prop(struct power_supply *psy , enum power_supply_property psp ,
                                  union power_supply_propval *val )
{ struct wm831x_backup *devdata ;
  void *tmp ;
  struct wm831x *wm831x ;
  int ret ;
  unsigned long __cil_tmp8 ;
  unsigned long __cil_tmp9 ;
  struct device *__cil_tmp10 ;
  struct device *__cil_tmp11 ;
  struct device const *__cil_tmp12 ;
  enum wm831x_auxadc __cil_tmp13 ;
  {
  {
  __cil_tmp8 = (unsigned long )psy;
  __cil_tmp9 = __cil_tmp8 + 96;
  __cil_tmp10 = *((struct device **)__cil_tmp9);
  __cil_tmp11 = *((struct device **)__cil_tmp10);
  __cil_tmp12 = (struct device const *)__cil_tmp11;
  tmp = dev_get_drvdata(__cil_tmp12);
  devdata = (struct wm831x_backup *)tmp;
  wm831x = *((struct wm831x **)devdata);
  ret = 0;
  ret = wm831x_reg_read(wm831x, (unsigned short)16459);
  }
  if (ret < 0) {
    return (ret);
  } else {
  }
  if ((int )psp == 0) {
    goto case_0;
  } else
  if ((int )psp == 11) {
    goto case_11;
  } else
  if ((int )psp == 3) {
    goto case_3;
  } else {
    {
    goto switch_default;
    if (0) {
      case_0:
      if (ret & 16384) {
        *((int *)val) = 1;
      } else {
        *((int *)val) = 3;
      }
      goto switch_break;
      case_11:
      {
      __cil_tmp13 = (enum wm831x_auxadc )10;
      ret = wm831x_backup_read_voltage(wm831x, __cil_tmp13, val);
      }
      goto switch_break;
      case_3:
      if (ret & 16384) {
        *((int *)val) = 1;
      } else {
        *((int *)val) = 0;
      }
      goto switch_break;
      switch_default:
      ret = -22;
      goto switch_break;
    } else {
      switch_break: ;
    }
    }
  }
  return (ret);
}
}
static enum power_supply_property wm831x_backup_props[3] = { (enum power_supply_property )0, (enum power_supply_property )11, (enum power_supply_property )3};
static int wm831x_backup_probe(struct platform_device *pdev ) __attribute__((__section__(".devinit.text"),
__no_instrument_function__)) ;
static int wm831x_backup_probe(struct platform_device *pdev )
{ struct wm831x *wm831x ;
  void *tmp ;
  struct wm831x_pdata *wm831x_pdata ;
  struct wm831x_backup *devdata ;
  struct power_supply *backup ;
  int ret ;
  void *tmp___0 ;
  unsigned long __cil_tmp9 ;
  unsigned long __cil_tmp10 ;
  struct device *__cil_tmp11 ;
  struct device const *__cil_tmp12 ;
  unsigned long __cil_tmp13 ;
  unsigned long __cil_tmp14 ;
  struct device *__cil_tmp15 ;
  unsigned long __cil_tmp16 ;
  unsigned long __cil_tmp17 ;
  void *__cil_tmp18 ;
  void *__cil_tmp19 ;
  unsigned long __cil_tmp20 ;
  unsigned long __cil_tmp21 ;
  void *__cil_tmp22 ;
  unsigned long __cil_tmp23 ;
  unsigned long __cil_tmp24 ;
  unsigned long __cil_tmp25 ;
  unsigned long __cil_tmp26 ;
  unsigned long __cil_tmp27 ;
  unsigned long __cil_tmp28 ;
  char *__cil_tmp29 ;
  int __cil_tmp30 ;
  unsigned long __cil_tmp31 ;
  unsigned long __cil_tmp32 ;
  unsigned long __cil_tmp33 ;
  unsigned long __cil_tmp34 ;
  char *__cil_tmp35 ;
  unsigned long __cil_tmp36 ;
  unsigned long __cil_tmp37 ;
  unsigned long __cil_tmp38 ;
  unsigned long __cil_tmp39 ;
  char *__cil_tmp40 ;
  unsigned long __cil_tmp41 ;
  unsigned long __cil_tmp42 ;
  unsigned long __cil_tmp43 ;
  unsigned long __cil_tmp44 ;
  char *__cil_tmp45 ;
  unsigned long __cil_tmp46 ;
  unsigned long __cil_tmp47 ;
  unsigned long __cil_tmp48 ;
  unsigned long __cil_tmp49 ;
  unsigned long __cil_tmp50 ;
  unsigned long __cil_tmp51 ;
  unsigned long __cil_tmp52 ;
  unsigned long __cil_tmp53 ;
  unsigned long __cil_tmp54 ;
  unsigned long __cil_tmp55 ;
  unsigned long __cil_tmp56 ;
  unsigned long __cil_tmp57 ;
  unsigned long __cil_tmp58 ;
  struct device *__cil_tmp59 ;
  void const *__cil_tmp60 ;
  {
  {
  __cil_tmp9 = (unsigned long )pdev;
  __cil_tmp10 = __cil_tmp9 + 16;
  __cil_tmp11 = *((struct device **)__cil_tmp10);
  __cil_tmp12 = (struct device const *)__cil_tmp11;
  tmp = dev_get_drvdata(__cil_tmp12);
  wm831x = (struct wm831x *)tmp;
  __cil_tmp13 = (unsigned long )wm831x;
  __cil_tmp14 = __cil_tmp13 + 72;
  __cil_tmp15 = *((struct device **)__cil_tmp14);
  __cil_tmp16 = (unsigned long )__cil_tmp15;
  __cil_tmp17 = __cil_tmp16 + 184;
  __cil_tmp18 = *((void **)__cil_tmp17);
  wm831x_pdata = (struct wm831x_pdata *)__cil_tmp18;
  tmp___0 = kzalloc(248UL, 208U);
  devdata = (struct wm831x_backup *)tmp___0;
  }
  {
  __cil_tmp19 = (void *)0;
  __cil_tmp20 = (unsigned long )__cil_tmp19;
  __cil_tmp21 = (unsigned long )devdata;
  if (__cil_tmp21 == __cil_tmp20) {
    return (-12);
  } else {
  }
  }
  {
  *((struct wm831x **)devdata) = wm831x;
  __cil_tmp22 = (void *)devdata;
  platform_set_drvdata(pdev, __cil_tmp22);
  __cil_tmp23 = (unsigned long )devdata;
  __cil_tmp24 = __cil_tmp23 + 8;
  backup = (struct power_supply *)__cil_tmp24;
  wm831x_config_backup(wm831x);
  }
  if (wm831x_pdata) {
    if (*((int *)wm831x_pdata)) {
      {
      __cil_tmp25 = 0 * 1UL;
      __cil_tmp26 = 224 + __cil_tmp25;
      __cil_tmp27 = (unsigned long )devdata;
      __cil_tmp28 = __cil_tmp27 + __cil_tmp26;
      __cil_tmp29 = (char *)__cil_tmp28;
      __cil_tmp30 = *((int *)wm831x_pdata);
      snprintf(__cil_tmp29, 20UL, "wm831x-backup.%d", __cil_tmp30);
      }
    } else {
      {
      __cil_tmp31 = 0 * 1UL;
      __cil_tmp32 = 224 + __cil_tmp31;
      __cil_tmp33 = (unsigned long )devdata;
      __cil_tmp34 = __cil_tmp33 + __cil_tmp32;
      __cil_tmp35 = (char *)__cil_tmp34;
      snprintf(__cil_tmp35, 20UL, "wm831x-backup");
      }
    }
  } else {
    {
    __cil_tmp36 = 0 * 1UL;
    __cil_tmp37 = 224 + __cil_tmp36;
    __cil_tmp38 = (unsigned long )devdata;
    __cil_tmp39 = __cil_tmp38 + __cil_tmp37;
    __cil_tmp40 = (char *)__cil_tmp39;
    snprintf(__cil_tmp40, 20UL, "wm831x-backup");
    }
  }
  {
  __cil_tmp41 = 0 * 1UL;
  __cil_tmp42 = 224 + __cil_tmp41;
  __cil_tmp43 = (unsigned long )devdata;
  __cil_tmp44 = __cil_tmp43 + __cil_tmp42;
  __cil_tmp45 = (char *)__cil_tmp44;
  *((char const **)backup) = (char const *)__cil_tmp45;
  __cil_tmp46 = (unsigned long )backup;
  __cil_tmp47 = __cil_tmp46 + 8;
  *((enum power_supply_type *)__cil_tmp47) = (enum power_supply_type )1;
  __cil_tmp48 = (unsigned long )backup;
  __cil_tmp49 = __cil_tmp48 + 16;
  __cil_tmp50 = 0 * 4UL;
  __cil_tmp51 = (unsigned long )(wm831x_backup_props) + __cil_tmp50;
  *((enum power_supply_property **)__cil_tmp49) = (enum power_supply_property *)__cil_tmp51;
  __cil_tmp52 = (unsigned long )backup;
  __cil_tmp53 = __cil_tmp52 + 24;
  __cil_tmp54 = 12UL / 4UL;
  *((size_t *)__cil_tmp53) = __cil_tmp54 + 0UL;
  __cil_tmp55 = (unsigned long )backup;
  __cil_tmp56 = __cil_tmp55 + 48;
  *((int (**)(struct power_supply *psy , enum power_supply_property psp , union power_supply_propval *val ))__cil_tmp56) = & wm831x_backup_get_prop;
  __cil_tmp57 = (unsigned long )pdev;
  __cil_tmp58 = __cil_tmp57 + 16;
  __cil_tmp59 = (struct device *)__cil_tmp58;
  ret = power_supply_register(__cil_tmp59, backup);
  }
  if (ret) {
    goto err_kmalloc;
  } else {
  }
  return (ret);
  err_kmalloc:
  {
  __cil_tmp60 = (void const *)devdata;
  kfree(__cil_tmp60);
  }
  return (ret);
}
}
static int wm831x_backup_remove(struct platform_device *pdev ) __attribute__((__section__(".devexit.text"),
__no_instrument_function__)) ;
static int wm831x_backup_remove(struct platform_device *pdev )
{ struct wm831x_backup *devdata ;
  void *tmp ;
  struct platform_device const *__cil_tmp4 ;
  unsigned long __cil_tmp5 ;
  unsigned long __cil_tmp6 ;
  struct power_supply *__cil_tmp7 ;
  unsigned long __cil_tmp8 ;
  unsigned long __cil_tmp9 ;
  char const *__cil_tmp10 ;
  void const *__cil_tmp11 ;
  void const *__cil_tmp12 ;
  {
  {
  __cil_tmp4 = (struct platform_device const *)pdev;
  tmp = platform_get_drvdata(__cil_tmp4);
  devdata = (struct wm831x_backup *)tmp;
  __cil_tmp5 = (unsigned long )devdata;
  __cil_tmp6 = __cil_tmp5 + 8;
  __cil_tmp7 = (struct power_supply *)__cil_tmp6;
  power_supply_unregister(__cil_tmp7);
  __cil_tmp8 = (unsigned long )devdata;
  __cil_tmp9 = __cil_tmp8 + 8;
  __cil_tmp10 = *((char const **)__cil_tmp9);
  __cil_tmp11 = (void const *)__cil_tmp10;
  kfree(__cil_tmp11);
  __cil_tmp12 = (void const *)devdata;
  kfree(__cil_tmp12);
  }
  return (0);
}
}
static struct platform_driver wm831x_backup_driver = {& wm831x_backup_probe, & wm831x_backup_remove, (void (*)(struct platform_device * ))0,
    (int (*)(struct platform_device * , pm_message_t state ))0, (int (*)(struct platform_device * ))0,
    {"wm831x-backup", (struct bus_type *)0, (struct module *)0, (char const *)0,
     (_Bool)0, (struct of_device_id const *)0, (int (*)(struct device *dev ))0,
     (int (*)(struct device *dev ))0, (void (*)(struct device *dev ))0, (int (*)(struct device *dev ,
                                                                                 pm_message_t state ))0,
     (int (*)(struct device *dev ))0, (struct attribute_group const **)0, (struct dev_pm_ops const *)0,
     (struct driver_private *)0}, (struct platform_device_id const *)0};
static int wm831x_backup_driver_init(void) __attribute__((__section__(".init.text"),
__no_instrument_function__)) ;
static int wm831x_backup_driver_init(void)
{ int tmp ;
  {
  {
  tmp = platform_driver_register(& wm831x_backup_driver);
  }
  return (tmp);
}
}
int init_module(void)
{ int tmp ;
  {
  {
  tmp = wm831x_backup_driver_init();
  }
  return (tmp);
}
}
static void wm831x_backup_driver_exit(void) __attribute__((__section__(".exit.text"),
__no_instrument_function__)) ;
static void wm831x_backup_driver_exit(void)
{
  {
  {
  platform_driver_unregister(& wm831x_backup_driver);
  }
  return;
}
}
void cleanup_module(void)
{
  {
  {
  wm831x_backup_driver_exit();
  }
  return;
}
}
static char const __mod_description232[59] __attribute__((__used__, __unused__,
__section__(".modinfo"), __aligned__(1))) =
  { (char const )'d', (char const )'e', (char const )'s', (char const )'c',
        (char const )'r', (char const )'i', (char const )'p', (char const )'t',
        (char const )'i', (char const )'o', (char const )'n', (char const )'=',
        (char const )'B', (char const )'a', (char const )'c', (char const )'k',
        (char const )'u', (char const )'p', (char const )' ', (char const )'b',
        (char const )'a', (char const )'t', (char const )'t', (char const )'e',
        (char const )'r', (char const )'y', (char const )' ', (char const )'c',
        (char const )'h', (char const )'a', (char const )'r', (char const )'g',
        (char const )'e', (char const )'r', (char const )' ', (char const )'d',
        (char const )'r', (char const )'i', (char const )'v', (char const )'e',
        (char const )'r', (char const )' ', (char const )'f', (char const )'o',
        (char const )'r', (char const )' ', (char const )'W', (char const )'M',
        (char const )'8', (char const )'3', (char const )'1', (char const )'x',
        (char const )' ', (char const )'P', (char const )'M', (char const )'I',
        (char const )'C', (char const )'s', (char const )'\000'};
static char const __mod_author233[56] __attribute__((__used__, __unused__, __section__(".modinfo"),
__aligned__(1))) =
  { (char const )'a', (char const )'u', (char const )'t', (char const )'h',
        (char const )'o', (char const )'r', (char const )'=', (char const )'M',
        (char const )'a', (char const )'r', (char const )'k', (char const )' ',
        (char const )'B', (char const )'r', (char const )'o', (char const )'w',
        (char const )'n', (char const )' ', (char const )'<', (char const )'b',
        (char const )'r', (char const )'o', (char const )'o', (char const )'n',
        (char const )'i', (char const )'e', (char const )'@', (char const )'o',
        (char const )'p', (char const )'e', (char const )'n', (char const )'s',
        (char const )'o', (char const )'u', (char const )'r', (char const )'c',
        (char const )'e', (char const )'.', (char const )'w', (char const )'o',
        (char const )'l', (char const )'f', (char const )'s', (char const )'o',
        (char const )'n', (char const )'m', (char const )'i', (char const )'c',
        (char const )'r', (char const )'o', (char const )'.', (char const )'c',
        (char const )'o', (char const )'m', (char const )'>', (char const )'\000'};
static char const __mod_license234[12] __attribute__((__used__, __unused__, __section__(".modinfo"),
__aligned__(1))) =
  { (char const )'l', (char const )'i', (char const )'c', (char const )'e',
        (char const )'n', (char const )'s', (char const )'e', (char const )'=',
        (char const )'G', (char const )'P', (char const )'L', (char const )'\000'};
static char const __mod_alias235[29] __attribute__((__used__, __unused__, __section__(".modinfo"),
__aligned__(1))) =
  { (char const )'a', (char const )'l', (char const )'i', (char const )'a',
        (char const )'s', (char const )'=', (char const )'p', (char const )'l',
        (char const )'a', (char const )'t', (char const )'f', (char const )'o',
        (char const )'r', (char const )'m', (char const )':', (char const )'w',
        (char const )'m', (char const )'8', (char const )'3', (char const )'1',
        (char const )'x', (char const )'-', (char const )'b', (char const )'a',
        (char const )'c', (char const )'k', (char const )'u', (char const )'p',
        (char const )'\000'};
void ldv_check_final_state(void) ;
extern void ldv_check_return_value(int res ) ;
extern void ldv_initialize(void) ;
extern int __VERIFIER_nondet_int(void) ;
int LDV_IN_INTERRUPT ;
static int res_wm831x_backup_probe_3 ;
void main(void)
{ struct platform_device *var_group1 ;
  int ldv_s_wm831x_backup_driver_platform_driver ;
  int tmp ;
  int tmp___0 ;
  int __cil_tmp5 ;
  {
  {
  LDV_IN_INTERRUPT = 1;
  ldv_initialize();
  ldv_s_wm831x_backup_driver_platform_driver = 0;
  }
  {
  while (1) {
    while_continue: ;
    {
    tmp___0 = __VERIFIER_nondet_int();
    }
    if (tmp___0) {
    } else {
      {
      __cil_tmp5 = ldv_s_wm831x_backup_driver_platform_driver == 0;
      if (! __cil_tmp5) {
      } else {
        goto while_break;
      }
      }
    }
    {
    tmp = __VERIFIER_nondet_int();
    }
    if (tmp == 0) {
      goto case_0;
    } else {
      {
      goto switch_default;
      if (0) {
        case_0:
        if (ldv_s_wm831x_backup_driver_platform_driver == 0) {
          {
          res_wm831x_backup_probe_3 = wm831x_backup_probe(var_group1);
          ldv_check_return_value(res_wm831x_backup_probe_3);
          }
          if (res_wm831x_backup_probe_3) {
            goto ldv_module_exit;
          } else {
          }
          ldv_s_wm831x_backup_driver_platform_driver = 0;
        } else {
        }
        goto switch_break;
        switch_default:
        goto switch_break;
      } else {
        switch_break: ;
      }
      }
    }
  }
  while_break: ;
  }
  ldv_module_exit:
  {
  ldv_check_final_state();
  }
  return;
}
}
void ldv_blast_assert(void)
{
  {
  ERROR: {reach_error();abort();}
}
}
extern int __VERIFIER_nondet_int(void) ;
int ldv_mutex = 1;
int __attribute__((__warn_unused_result__)) mutex_lock_interruptible(struct mutex *lock )
{ int nondetermined ;
  {
  if (ldv_mutex == 1) {
  } else {
    {
    ldv_blast_assert();
    }
  }
  {
  nondetermined = __VERIFIER_nondet_int();
  }
  if (nondetermined) {
    ldv_mutex = 2;
    return (0);
  } else {
    return (-4);
  }
}
}
int __attribute__((__warn_unused_result__)) mutex_lock_killable(struct mutex *lock )
{ int nondetermined ;
  {
  if (ldv_mutex == 1) {
  } else {
    {
    ldv_blast_assert();
    }
  }
  {
  nondetermined = __VERIFIER_nondet_int();
  }
  if (nondetermined) {
    ldv_mutex = 2;
    return (0);
  } else {
    return (-4);
  }
}
}
int atomic_dec_and_mutex_lock(atomic_t *cnt , struct mutex *lock )
{ int atomic_value_after_dec ;
  {
  if (ldv_mutex == 1) {
  } else {
    {
    ldv_blast_assert();
    }
  }
  {
  atomic_value_after_dec = __VERIFIER_nondet_int();
  }
  if (atomic_value_after_dec == 0) {
    ldv_mutex = 2;
    return (1);
  } else {
  }
  return (0);
}
}
void mutex_lock(struct mutex *lock )
{
  {
  if (ldv_mutex == 1) {
  } else {
    {
    ldv_blast_assert();
    }
  }
  ldv_mutex = 2;
  return;
}
}
int mutex_trylock(struct mutex *lock )
{ int nondetermined ;
  {
  if (ldv_mutex == 1) {
  } else {
    {
    ldv_blast_assert();
    }
  }
  {
  nondetermined = __VERIFIER_nondet_int();
  }
  if (nondetermined) {
    ldv_mutex = 2;
    return (1);
  } else {
    return (0);
  }
}
}
void mutex_unlock(struct mutex *lock )
{
  {
  if (ldv_mutex == 2) {
  } else {
    {
    ldv_blast_assert();
    }
  }
  ldv_mutex = 1;
  return;
}
}
void ldv_check_final_state(void)
{
  {
  if (ldv_mutex == 1) {
  } else {
    {
    ldv_blast_assert();
    }
  }
  return;
}
}
long ldv__builtin_expect(long val , long res )
{
  {
  return (val);
}
}
int __VERIFIER_nondet_int(void);
int dev_err(const struct device *arg0, const char *arg1, ...) {
  return __VERIFIER_nondet_int();
}
void *dev_get_drvdata(const struct device *arg0) {
  return ldv_malloc(0UL);
}
int __VERIFIER_nondet_int(void);
int dev_set_drvdata(struct device *arg0, void *arg1) {
  return __VERIFIER_nondet_int();
}
int __VERIFIER_nondet_int(void);
int dev_warn(const struct device *arg0, const char *arg1, ...) {
  return __VERIFIER_nondet_int();
}
void ldv_check_return_value(int arg0) {
  return;
}
void ldv_initialize() {
  return;
}
int __VERIFIER_nondet_int(void);
int platform_driver_register(struct platform_driver *arg0) {
  return __VERIFIER_nondet_int();
}
void platform_driver_unregister(struct platform_driver *arg0) {
  return;
}
int __VERIFIER_nondet_int(void);
int power_supply_register(struct device *arg0, struct power_supply *arg1) {
  return __VERIFIER_nondet_int();
}
void power_supply_unregister(struct power_supply *arg0) {
  return;
}
int __VERIFIER_nondet_int(void);
int wm831x_auxadc_read_uv(struct wm831x *arg0, enum wm831x_auxadc arg1) {
  return __VERIFIER_nondet_int();
}
void wm831x_reg_lock(struct wm831x *arg0) {
  return;
}
int __VERIFIER_nondet_int(void);
int wm831x_reg_read(struct wm831x *arg0, unsigned short arg1) {
  return __VERIFIER_nondet_int();
}
int __VERIFIER_nondet_int(void);
int wm831x_reg_unlock(struct wm831x *arg0) {
  return __VERIFIER_nondet_int();
}
int __VERIFIER_nondet_int(void);
int wm831x_set_bits(struct wm831x *arg0, unsigned short arg1, unsigned short arg2, unsigned short arg3) {
  return __VERIFIER_nondet_int();
}
void free(void *);
void kfree(void const *p) {
  free((void *)p);
}
