extern void abort(void);

extern void __assert_fail (const char *__assertion, const char *__file,
      unsigned int __line, const char *__function)
     __attribute__ ((__nothrow__ , __leaf__)) __attribute__ ((__noreturn__));
extern void __assert_perror_fail (int __errnum, const char *__file,
      unsigned int __line, const char *__function)
     __attribute__ ((__nothrow__ , __leaf__)) __attribute__ ((__noreturn__));
extern void __assert (const char *__assertion, const char *__file, int __line)
     __attribute__ ((__nothrow__ , __leaf__)) __attribute__ ((__noreturn__));

void reach_error() { ((void) sizeof ((0) ? 1 : 0), __extension__ ({ if (0) ; else __assert_fail ("0", "32_1_cilled_ok_nondet_linux-3.4-32_1-drivers--uio--uio_aec.ko-ldv_main0_sequence_infinite_withcheck_stateful.cil.out.c", 3, __extension__ __PRETTY_FUNCTION__); })); }
typedef signed char __s8;
typedef short __s16;
typedef unsigned short __u16;
typedef int __s32;
typedef unsigned int __u32;
typedef unsigned long long __u64;
typedef unsigned char u8;
typedef short s16;
typedef unsigned short u16;
typedef int s32;
typedef unsigned int u32;
typedef long long s64;
typedef unsigned long long u64;
typedef long __kernel_long_t;
typedef unsigned long __kernel_ulong_t;
typedef unsigned int __kernel_uid32_t;
typedef unsigned int __kernel_gid32_t;
typedef __kernel_ulong_t __kernel_size_t;
typedef __kernel_long_t __kernel_ssize_t;
typedef long long __kernel_loff_t;
typedef __kernel_long_t __kernel_time_t;
typedef __u32 __kernel_dev_t;
typedef __kernel_dev_t dev_t;
typedef unsigned short umode_t;
typedef _Bool bool;
typedef __kernel_uid32_t uid_t;
typedef __kernel_gid32_t gid_t;
typedef __kernel_loff_t loff_t;
typedef __kernel_size_t size_t;
typedef __kernel_ssize_t ssize_t;
typedef __kernel_time_t time_t;
typedef unsigned long sector_t;
typedef unsigned long blkcnt_t;
typedef u64 dma_addr_t;
typedef unsigned int gfp_t;
typedef unsigned int fmode_t;
typedef u64 phys_addr_t;
typedef phys_addr_t resource_size_t;
struct __anonstruct_atomic_t_7 {
   int counter ;
};
typedef struct __anonstruct_atomic_t_7 atomic_t;
struct __anonstruct_atomic64_t_8 {
   long counter ;
};
typedef struct __anonstruct_atomic64_t_8 atomic64_t;
struct list_head {
   struct list_head *next ;
   struct list_head *prev ;
};
struct hlist_node;
struct hlist_head {
   struct hlist_node *first ;
};
struct hlist_node {
   struct hlist_node *next ;
   struct hlist_node **pprev ;
};
struct rcu_head {
   struct rcu_head *next ;
   void (*func)(struct rcu_head *head ) ;
};
struct module;
struct module;
typedef void (*ctor_fn_t)(void);
struct device;
struct device;
struct completion;
struct completion;
struct pid;
struct pid;
struct timespec;
struct timespec;
struct page;
struct page;
struct task_struct;
struct task_struct;
struct task_struct;
struct mm_struct;
struct mm_struct;
typedef unsigned long pgdval_t;
typedef unsigned long pgprotval_t;
struct pgprot {
   pgprotval_t pgprot ;
};
typedef struct pgprot pgprot_t;
struct __anonstruct_pgd_t_20 {
   pgdval_t pgd ;
};
typedef struct __anonstruct_pgd_t_20 pgd_t;
typedef struct page *pgtable_t;
struct file;
struct file;
struct seq_file;
struct seq_file;
struct page;
struct mm_struct;
struct task_struct;
struct cpumask;
struct cpumask;
struct arch_spinlock;
struct arch_spinlock;
struct task_struct;
struct task_struct;
struct bug_entry {
   int bug_addr_disp ;
   int file_disp ;
   unsigned short line ;
   unsigned short flags ;
};
struct cpumask {
   unsigned long bits[((4096UL + 8UL * sizeof(long )) - 1UL) / (8UL * sizeof(long ))] ;
};
typedef struct cpumask *cpumask_var_t;
struct static_key;
struct static_key;
struct kmem_cache;
typedef atomic64_t atomic_long_t;
typedef u16 __ticket_t;
typedef u32 __ticketpair_t;
struct __raw_tickets {
   __ticket_t head ;
   __ticket_t tail ;
};
union __anonunion____missing_field_name_36 {
   __ticketpair_t head_tail ;
   struct __raw_tickets tickets ;
};
struct arch_spinlock {
   union __anonunion____missing_field_name_36 __annonCompField17 ;
};
typedef struct arch_spinlock arch_spinlock_t;
struct __anonstruct____missing_field_name_38 {
   u32 read ;
   s32 write ;
};
union __anonunion_arch_rwlock_t_37 {
   s64 lock ;
   struct __anonstruct____missing_field_name_38 __annonCompField18 ;
};
typedef union __anonunion_arch_rwlock_t_37 arch_rwlock_t;
struct task_struct;
struct lock_class_key {
};
struct raw_spinlock {
   arch_spinlock_t raw_lock ;
   unsigned int magic ;
   unsigned int owner_cpu ;
   void *owner ;
};
typedef struct raw_spinlock raw_spinlock_t;
union __anonunion____missing_field_name_39 {
   struct raw_spinlock rlock ;
};
struct spinlock {
   union __anonunion____missing_field_name_39 __annonCompField19 ;
};
typedef struct spinlock spinlock_t;
struct __anonstruct_rwlock_t_40 {
   arch_rwlock_t raw_lock ;
   unsigned int magic ;
   unsigned int owner_cpu ;
   void *owner ;
};
typedef struct __anonstruct_rwlock_t_40 rwlock_t;
struct seqcount {
   unsigned int sequence ;
};
typedef struct seqcount seqcount_t;
struct timespec {
   __kernel_time_t tv_sec ;
   long tv_nsec ;
};
struct kstat {
   u64 ino ;
   dev_t dev ;
   umode_t mode ;
   unsigned int nlink ;
   uid_t uid ;
   gid_t gid ;
   dev_t rdev ;
   loff_t size ;
   struct timespec atime ;
   struct timespec mtime ;
   struct timespec ctime ;
   unsigned long blksize ;
   unsigned long long blocks ;
};
struct __wait_queue_head {
   spinlock_t lock ;
   struct list_head task_list ;
};
typedef struct __wait_queue_head wait_queue_head_t;
struct task_struct;
struct __anonstruct_nodemask_t_42 {
   unsigned long bits[(((unsigned long )(1 << 10) + 8UL * sizeof(long )) - 1UL) / (8UL * sizeof(long ))] ;
};
typedef struct __anonstruct_nodemask_t_42 nodemask_t;
struct page;
struct mutex {
   atomic_t count ;
   spinlock_t wait_lock ;
   struct list_head wait_list ;
   struct task_struct *owner ;
   char const *name ;
   void *magic ;
};
struct rw_semaphore;
struct rw_semaphore;
struct rw_semaphore {
   long count ;
   raw_spinlock_t wait_lock ;
   struct list_head wait_list ;
};
struct completion {
   unsigned int done ;
   wait_queue_head_t wait ;
};
struct page;
struct resource {
   resource_size_t start ;
   resource_size_t end ;
   char const *name ;
   unsigned long flags ;
   struct resource *parent ;
   struct resource *sibling ;
   struct resource *child ;
};
struct device;
struct pci_dev;
struct pci_dev;
struct device;
union ktime {
   s64 tv64 ;
};
typedef union ktime ktime_t;
struct tvec_base;
struct tvec_base;
struct timer_list {
   struct list_head entry ;
   unsigned long expires ;
   struct tvec_base *base ;
   void (*function)(unsigned long ) ;
   unsigned long data ;
   int slack ;
   int start_pid ;
   void *start_site ;
   char start_comm[16] ;
};
struct work_struct;
struct work_struct;
struct work_struct {
   atomic_long_t data ;
   struct list_head entry ;
   void (*func)(struct work_struct *work ) ;
};
struct device;
struct pm_message {
   int event ;
};
typedef struct pm_message pm_message_t;
struct dev_pm_ops {
   int (*prepare)(struct device *dev ) ;
   void (*complete)(struct device *dev ) ;
   int (*suspend)(struct device *dev ) ;
   int (*resume)(struct device *dev ) ;
   int (*freeze)(struct device *dev ) ;
   int (*thaw)(struct device *dev ) ;
   int (*poweroff)(struct device *dev ) ;
   int (*restore)(struct device *dev ) ;
   int (*suspend_late)(struct device *dev ) ;
   int (*resume_early)(struct device *dev ) ;
   int (*freeze_late)(struct device *dev ) ;
   int (*thaw_early)(struct device *dev ) ;
   int (*poweroff_late)(struct device *dev ) ;
   int (*restore_early)(struct device *dev ) ;
   int (*suspend_noirq)(struct device *dev ) ;
   int (*resume_noirq)(struct device *dev ) ;
   int (*freeze_noirq)(struct device *dev ) ;
   int (*thaw_noirq)(struct device *dev ) ;
   int (*poweroff_noirq)(struct device *dev ) ;
   int (*restore_noirq)(struct device *dev ) ;
   int (*runtime_suspend)(struct device *dev ) ;
   int (*runtime_resume)(struct device *dev ) ;
   int (*runtime_idle)(struct device *dev ) ;
};
enum rpm_status {
    RPM_ACTIVE = 0,
    RPM_RESUMING = 1,
    RPM_SUSPENDED = 2,
    RPM_SUSPENDING = 3
} ;
enum rpm_request {
    RPM_REQ_NONE = 0,
    RPM_REQ_IDLE = 1,
    RPM_REQ_SUSPEND = 2,
    RPM_REQ_AUTOSUSPEND = 3,
    RPM_REQ_RESUME = 4
} ;
struct wakeup_source;
struct wakeup_source;
struct pm_subsys_data {
   spinlock_t lock ;
   unsigned int refcount ;
};
struct dev_pm_qos_request;
struct pm_qos_constraints;
struct dev_pm_info {
   pm_message_t power_state ;
   unsigned int can_wakeup : 1 ;
   unsigned int async_suspend : 1 ;
   bool is_prepared : 1 ;
   bool is_suspended : 1 ;
   bool ignore_children : 1 ;
   spinlock_t lock ;
   struct list_head entry ;
   struct completion completion ;
   struct wakeup_source *wakeup ;
   bool wakeup_path : 1 ;
   struct timer_list suspend_timer ;
   unsigned long timer_expires ;
   struct work_struct work ;
   wait_queue_head_t wait_queue ;
   atomic_t usage_count ;
   atomic_t child_count ;
   unsigned int disable_depth : 3 ;
   unsigned int idle_notification : 1 ;
   unsigned int request_pending : 1 ;
   unsigned int deferred_resume : 1 ;
   unsigned int run_wake : 1 ;
   unsigned int runtime_auto : 1 ;
   unsigned int no_callbacks : 1 ;
   unsigned int irq_safe : 1 ;
   unsigned int use_autosuspend : 1 ;
   unsigned int timer_autosuspends : 1 ;
   enum rpm_request request ;
   enum rpm_status runtime_status ;
   int runtime_error ;
   int autosuspend_delay ;
   unsigned long last_busy ;
   unsigned long active_jiffies ;
   unsigned long suspended_jiffies ;
   unsigned long accounting_timestamp ;
   ktime_t suspend_time ;
   s64 max_time_suspended_ns ;
   struct dev_pm_qos_request *pq_req ;
   struct pm_subsys_data *subsys_data ;
   struct pm_qos_constraints *constraints ;
};
struct dev_pm_domain {
   struct dev_pm_ops ops ;
};
struct pci_bus;
struct pci_bus;
struct __anonstruct_mm_context_t_112 {
   void *ldt ;
   int size ;
   unsigned short ia32_compat ;
   struct mutex lock ;
   void *vdso ;
};
typedef struct __anonstruct_mm_context_t_112 mm_context_t;
struct pci_dev;
struct pci_dev;
struct vm_area_struct;
struct vm_area_struct;
struct page;
struct vm_area_struct;
struct completion;
struct rb_node {
   unsigned long rb_parent_color ;
   struct rb_node *rb_right ;
   struct rb_node *rb_left ;
} __attribute__((__aligned__(sizeof(long )))) ;
struct rb_root {
   struct rb_node *rb_node ;
};
struct cred;
struct cred;
struct file;
struct task_struct;
typedef __u64 Elf64_Addr;
typedef __u16 Elf64_Half;
typedef __u32 Elf64_Word;
typedef __u64 Elf64_Xword;
struct elf64_sym {
   Elf64_Word st_name ;
   unsigned char st_info ;
   unsigned char st_other ;
   Elf64_Half st_shndx ;
   Elf64_Addr st_value ;
   Elf64_Xword st_size ;
};
typedef struct elf64_sym Elf64_Sym;
struct file;
struct sock;
struct sock;
struct kobject;
struct kobject;
enum kobj_ns_type {
    KOBJ_NS_TYPE_NONE = 0,
    KOBJ_NS_TYPE_NET = 1,
    KOBJ_NS_TYPES = 2
} ;
struct kobj_ns_type_operations {
   enum kobj_ns_type type ;
   void *(*grab_current_ns)(void) ;
   void const *(*netlink_ns)(struct sock *sk ) ;
   void const *(*initial_ns)(void) ;
   void (*drop_ns)(void * ) ;
};
struct kobject;
struct module;
enum kobj_ns_type;
struct attribute {
   char const *name ;
   umode_t mode ;
};
struct attribute_group {
   char const *name ;
   umode_t (*is_visible)(struct kobject * , struct attribute * , int ) ;
   struct attribute **attrs ;
};
struct file;
struct vm_area_struct;
struct bin_attribute {
   struct attribute attr ;
   size_t size ;
   void *private ;
   ssize_t (*read)(struct file * , struct kobject * , struct bin_attribute * , char * ,
                   loff_t , size_t ) ;
   ssize_t (*write)(struct file * , struct kobject * , struct bin_attribute * , char * ,
                    loff_t , size_t ) ;
   int (*mmap)(struct file * , struct kobject * , struct bin_attribute *attr , struct vm_area_struct *vma ) ;
};
struct sysfs_ops {
   ssize_t (*show)(struct kobject * , struct attribute * , char * ) ;
   ssize_t (*store)(struct kobject * , struct attribute * , char const * , size_t ) ;
   void const *(*namespace)(struct kobject * , struct attribute const * ) ;
};
struct sysfs_dirent;
struct sysfs_dirent;
struct kref {
   atomic_t refcount ;
};
struct kset;
struct kobj_type;
struct kobject {
   char const *name ;
   struct list_head entry ;
   struct kobject *parent ;
   struct kset *kset ;
   struct kobj_type *ktype ;
   struct sysfs_dirent *sd ;
   struct kref kref ;
   unsigned int state_initialized : 1 ;
   unsigned int state_in_sysfs : 1 ;
   unsigned int state_add_uevent_sent : 1 ;
   unsigned int state_remove_uevent_sent : 1 ;
   unsigned int uevent_suppress : 1 ;
};
struct kobj_type {
   void (*release)(struct kobject *kobj ) ;
   struct sysfs_ops const *sysfs_ops ;
   struct attribute **default_attrs ;
   struct kobj_ns_type_operations const *(*child_ns_type)(struct kobject *kobj ) ;
   void const *(*namespace)(struct kobject *kobj ) ;
};
struct kobj_uevent_env {
   char *envp[32] ;
   int envp_idx ;
   char buf[2048] ;
   int buflen ;
};
struct kset_uevent_ops {
   int (* const filter)(struct kset *kset , struct kobject *kobj ) ;
   char const *(* const name)(struct kset *kset , struct kobject *kobj ) ;
   int (* const uevent)(struct kset *kset , struct kobject *kobj , struct kobj_uevent_env *env ) ;
};
struct sock;
struct kset {
   struct list_head list ;
   spinlock_t list_lock ;
   struct kobject kobj ;
   struct kset_uevent_ops const *uevent_ops ;
};
struct kernel_param;
struct kernel_param;
struct kernel_param_ops {
   int (*set)(char const *val , struct kernel_param const *kp ) ;
   int (*get)(char *buffer , struct kernel_param const *kp ) ;
   void (*free)(void *arg ) ;
};
struct kparam_string;
struct kparam_array;
union __anonunion____missing_field_name_199 {
   void *arg ;
   struct kparam_string const *str ;
   struct kparam_array const *arr ;
};
struct kernel_param {
   char const *name ;
   struct kernel_param_ops const *ops ;
   u16 perm ;
   s16 level ;
   union __anonunion____missing_field_name_199 __annonCompField32 ;
};
struct kparam_string {
   unsigned int maxlen ;
   char *string ;
};
struct kparam_array {
   unsigned int max ;
   unsigned int elemsize ;
   unsigned int *num ;
   struct kernel_param_ops const *ops ;
   void *elem ;
};
struct module;
struct module;
struct static_key {
   atomic_t enabled ;
};
struct module;
struct tracepoint;
struct tracepoint;
struct tracepoint_func {
   void *func ;
   void *data ;
};
struct tracepoint {
   char const *name ;
   struct static_key key ;
   void (*regfunc)(void) ;
   void (*unregfunc)(void) ;
   struct tracepoint_func *funcs ;
};
struct kernel_symbol {
   unsigned long value ;
   char const *name ;
};
struct mod_arch_specific {
};
struct module;
struct module_param_attrs;
struct module_kobject {
   struct kobject kobj ;
   struct module *mod ;
   struct kobject *drivers_dir ;
   struct module_param_attrs *mp ;
};
struct module_attribute {
   struct attribute attr ;
   ssize_t (*show)(struct module_attribute * , struct module_kobject * , char * ) ;
   ssize_t (*store)(struct module_attribute * , struct module_kobject * , char const * ,
                    size_t count ) ;
   void (*setup)(struct module * , char const * ) ;
   int (*test)(struct module * ) ;
   void (*free)(struct module * ) ;
};
struct exception_table_entry;
struct exception_table_entry;
enum module_state {
    MODULE_STATE_LIVE = 0,
    MODULE_STATE_COMING = 1,
    MODULE_STATE_GOING = 2
} ;
struct module_ref {
   unsigned long incs ;
   unsigned long decs ;
} __attribute__((__aligned__((2) * (sizeof(unsigned long )) ))) ;
struct module_sect_attrs;
struct module_notes_attrs;
struct ftrace_event_call;
struct module {
   enum module_state state ;
   struct list_head list ;
   char name[64UL - sizeof(unsigned long )] ;
   struct module_kobject mkobj ;
   struct module_attribute *modinfo_attrs ;
   char const *version ;
   char const *srcversion ;
   struct kobject *holders_dir ;
   struct kernel_symbol const *syms ;
   unsigned long const *crcs ;
   unsigned int num_syms ;
   struct kernel_param *kp ;
   unsigned int num_kp ;
   unsigned int num_gpl_syms ;
   struct kernel_symbol const *gpl_syms ;
   unsigned long const *gpl_crcs ;
   struct kernel_symbol const *unused_syms ;
   unsigned long const *unused_crcs ;
   unsigned int num_unused_syms ;
   unsigned int num_unused_gpl_syms ;
   struct kernel_symbol const *unused_gpl_syms ;
   unsigned long const *unused_gpl_crcs ;
   struct kernel_symbol const *gpl_future_syms ;
   unsigned long const *gpl_future_crcs ;
   unsigned int num_gpl_future_syms ;
   unsigned int num_exentries ;
   struct exception_table_entry *extable ;
   int (*init)(void) ;
   void *module_init ;
   void *module_core ;
   unsigned int init_size ;
   unsigned int core_size ;
   unsigned int init_text_size ;
   unsigned int core_text_size ;
   unsigned int init_ro_size ;
   unsigned int core_ro_size ;
   struct mod_arch_specific arch ;
   unsigned int taints ;
   unsigned int num_bugs ;
   struct list_head bug_list ;
   struct bug_entry *bug_table ;
   Elf64_Sym *symtab ;
   Elf64_Sym *core_symtab ;
   unsigned int num_symtab ;
   unsigned int core_num_syms ;
   char *strtab ;
   char *core_strtab ;
   struct module_sect_attrs *sect_attrs ;
   struct module_notes_attrs *notes_attrs ;
   char *args ;
   void *percpu ;
   unsigned int percpu_size ;
   unsigned int num_tracepoints ;
   struct tracepoint * const *tracepoints_ptrs ;
   unsigned int num_trace_bprintk_fmt ;
   char const **trace_bprintk_fmt_start ;
   struct ftrace_event_call **trace_events ;
   unsigned int num_trace_events ;
   struct list_head source_list ;
   struct list_head target_list ;
   struct task_struct *waiter ;
   void (*exit)(void) ;
   struct module_ref *refptr ;
   ctor_fn_t *ctors ;
   unsigned int num_ctors ;
};
typedef unsigned long kernel_ulong_t;
struct pci_device_id {
   __u32 vendor ;
   __u32 device ;
   __u32 subvendor ;
   __u32 subdevice ;
   __u32 class ;
   __u32 class_mask ;
   kernel_ulong_t driver_data ;
};
struct of_device_id {
   char name[32] ;
   char type[32] ;
   char compatible[128] ;
   void *data ;
};
struct klist_node;
struct klist_node;
struct klist_node {
   void *n_klist ;
   struct list_head n_node ;
   struct kref n_ref ;
};
struct dma_map_ops;
struct dev_archdata {
   void *acpi_handle ;
   struct dma_map_ops *dma_ops ;
   void *iommu ;
};
struct device;
struct device_private;
struct device_private;
struct device_driver;
struct device_driver;
struct driver_private;
struct driver_private;
struct module;
struct class;
struct class;
struct subsys_private;
struct subsys_private;
struct bus_type;
struct bus_type;
struct device_node;
struct device_node;
struct iommu_ops;
struct iommu_ops;
struct bus_attribute {
   struct attribute attr ;
   ssize_t (*show)(struct bus_type *bus , char *buf ) ;
   ssize_t (*store)(struct bus_type *bus , char const *buf , size_t count ) ;
};
struct device_attribute;
struct driver_attribute;
struct bus_type {
   char const *name ;
   char const *dev_name ;
   struct device *dev_root ;
   struct bus_attribute *bus_attrs ;
   struct device_attribute *dev_attrs ;
   struct driver_attribute *drv_attrs ;
   int (*match)(struct device *dev , struct device_driver *drv ) ;
   int (*uevent)(struct device *dev , struct kobj_uevent_env *env ) ;
   int (*probe)(struct device *dev ) ;
   int (*remove)(struct device *dev ) ;
   void (*shutdown)(struct device *dev ) ;
   int (*suspend)(struct device *dev , pm_message_t state ) ;
   int (*resume)(struct device *dev ) ;
   struct dev_pm_ops const *pm ;
   struct iommu_ops *iommu_ops ;
   struct subsys_private *p ;
};
struct device_type;
struct device_driver {
   char const *name ;
   struct bus_type *bus ;
   struct module *owner ;
   char const *mod_name ;
   bool suppress_bind_attrs ;
   struct of_device_id const *of_match_table ;
   int (*probe)(struct device *dev ) ;
   int (*remove)(struct device *dev ) ;
   void (*shutdown)(struct device *dev ) ;
   int (*suspend)(struct device *dev , pm_message_t state ) ;
   int (*resume)(struct device *dev ) ;
   struct attribute_group const **groups ;
   struct dev_pm_ops const *pm ;
   struct driver_private *p ;
};
struct driver_attribute {
   struct attribute attr ;
   ssize_t (*show)(struct device_driver *driver , char *buf ) ;
   ssize_t (*store)(struct device_driver *driver , char const *buf , size_t count ) ;
};
struct class_attribute;
struct class {
   char const *name ;
   struct module *owner ;
   struct class_attribute *class_attrs ;
   struct device_attribute *dev_attrs ;
   struct bin_attribute *dev_bin_attrs ;
   struct kobject *dev_kobj ;
   int (*dev_uevent)(struct device *dev , struct kobj_uevent_env *env ) ;
   char *(*devnode)(struct device *dev , umode_t *mode ) ;
   void (*class_release)(struct class *class ) ;
   void (*dev_release)(struct device *dev ) ;
   int (*suspend)(struct device *dev , pm_message_t state ) ;
   int (*resume)(struct device *dev ) ;
   struct kobj_ns_type_operations const *ns_type ;
   void const *(*namespace)(struct device *dev ) ;
   struct dev_pm_ops const *pm ;
   struct subsys_private *p ;
};
struct class_attribute {
   struct attribute attr ;
   ssize_t (*show)(struct class *class , struct class_attribute *attr , char *buf ) ;
   ssize_t (*store)(struct class *class , struct class_attribute *attr , char const *buf ,
                    size_t count ) ;
   void const *(*namespace)(struct class *class , struct class_attribute const *attr ) ;
};
struct device_type {
   char const *name ;
   struct attribute_group const **groups ;
   int (*uevent)(struct device *dev , struct kobj_uevent_env *env ) ;
   char *(*devnode)(struct device *dev , umode_t *mode ) ;
   void (*release)(struct device *dev ) ;
   struct dev_pm_ops const *pm ;
};
struct device_attribute {
   struct attribute attr ;
   ssize_t (*show)(struct device *dev , struct device_attribute *attr , char *buf ) ;
   ssize_t (*store)(struct device *dev , struct device_attribute *attr , char const *buf ,
                    size_t count ) ;
};
struct device_dma_parameters {
   unsigned int max_segment_size ;
   unsigned long segment_boundary_mask ;
};
struct dma_coherent_mem;
struct device {
   struct device *parent ;
   struct device_private *p ;
   struct kobject kobj ;
   char const *init_name ;
   struct device_type const *type ;
   struct mutex mutex ;
   struct bus_type *bus ;
   struct device_driver *driver ;
   void *platform_data ;
   struct dev_pm_info power ;
   struct dev_pm_domain *pm_domain ;
   int numa_node ;
   u64 *dma_mask ;
   u64 coherent_dma_mask ;
   struct device_dma_parameters *dma_parms ;
   struct list_head dma_pools ;
   struct dma_coherent_mem *dma_mem ;
   struct dev_archdata archdata ;
   struct device_node *of_node ;
   dev_t devt ;
   u32 id ;
   spinlock_t devres_lock ;
   struct list_head devres_head ;
   struct klist_node knode_class ;
   struct class *class ;
   struct attribute_group const **groups ;
   void (*release)(struct device *dev ) ;
};
struct wakeup_source {
   char const *name ;
   struct list_head entry ;
   spinlock_t lock ;
   struct timer_list timer ;
   unsigned long timer_expires ;
   ktime_t total_time ;
   ktime_t max_time ;
   ktime_t last_time ;
   unsigned long event_count ;
   unsigned long active_count ;
   unsigned long relax_count ;
   unsigned long hit_count ;
   unsigned int active : 1 ;
};
struct device;
enum irqreturn {
    IRQ_NONE = 0,
    IRQ_HANDLED = 1,
    IRQ_WAKE_THREAD = 2
} ;
typedef enum irqreturn irqreturn_t;
struct hotplug_slot;
struct pci_slot {
   struct pci_bus *bus ;
   struct list_head list ;
   struct hotplug_slot *hotplug ;
   unsigned char number ;
   struct kobject kobj ;
};
typedef int pci_power_t;
typedef unsigned int pci_channel_state_t;
enum pci_channel_state {
    pci_channel_io_normal = 1,
    pci_channel_io_frozen = 2,
    pci_channel_io_perm_failure = 3
} ;
typedef unsigned short pci_dev_flags_t;
typedef unsigned short pci_bus_flags_t;
struct pcie_link_state;
struct pcie_link_state;
struct pci_vpd;
struct pci_vpd;
struct pci_sriov;
struct pci_sriov;
struct pci_ats;
struct pci_ats;
struct proc_dir_entry;
struct pci_driver;
union __anonunion____missing_field_name_203 {
   struct pci_sriov *sriov ;
   struct pci_dev *physfn ;
};
struct pci_dev {
   struct list_head bus_list ;
   struct pci_bus *bus ;
   struct pci_bus *subordinate ;
   void *sysdata ;
   struct proc_dir_entry *procent ;
   struct pci_slot *slot ;
   unsigned int devfn ;
   unsigned short vendor ;
   unsigned short device ;
   unsigned short subsystem_vendor ;
   unsigned short subsystem_device ;
   unsigned int class ;
   u8 revision ;
   u8 hdr_type ;
   u8 pcie_cap ;
   u8 pcie_type : 4 ;
   u8 pcie_mpss : 3 ;
   u8 rom_base_reg ;
   u8 pin ;
   struct pci_driver *driver ;
   u64 dma_mask ;
   struct device_dma_parameters dma_parms ;
   pci_power_t current_state ;
   int pm_cap ;
   unsigned int pme_support : 5 ;
   unsigned int pme_interrupt : 1 ;
   unsigned int pme_poll : 1 ;
   unsigned int d1_support : 1 ;
   unsigned int d2_support : 1 ;
   unsigned int no_d1d2 : 1 ;
   unsigned int mmio_always_on : 1 ;
   unsigned int wakeup_prepared : 1 ;
   unsigned int d3_delay ;
   struct pcie_link_state *link_state ;
   pci_channel_state_t error_state ;
   struct device dev ;
   int cfg_size ;
   unsigned int irq ;
   struct resource resource[17] ;
   unsigned int transparent : 1 ;
   unsigned int multifunction : 1 ;
   unsigned int is_added : 1 ;
   unsigned int is_busmaster : 1 ;
   unsigned int no_msi : 1 ;
   unsigned int block_cfg_access : 1 ;
   unsigned int broken_parity_status : 1 ;
   unsigned int irq_reroute_variant : 2 ;
   unsigned int msi_enabled : 1 ;
   unsigned int msix_enabled : 1 ;
   unsigned int ari_enabled : 1 ;
   unsigned int is_managed : 1 ;
   unsigned int is_pcie : 1 ;
   unsigned int needs_freset : 1 ;
   unsigned int state_saved : 1 ;
   unsigned int is_physfn : 1 ;
   unsigned int is_virtfn : 1 ;
   unsigned int reset_fn : 1 ;
   unsigned int is_hotplug_bridge : 1 ;
   unsigned int __aer_firmware_first_valid : 1 ;
   unsigned int __aer_firmware_first : 1 ;
   pci_dev_flags_t dev_flags ;
   atomic_t enable_cnt ;
   u32 saved_config_space[16] ;
   struct hlist_head saved_cap_space ;
   struct bin_attribute *rom_attr ;
   int rom_attr_enabled ;
   struct bin_attribute *res_attr[17] ;
   struct bin_attribute *res_attr_wc[17] ;
   struct list_head msi_list ;
   struct kset *msi_kset ;
   struct pci_vpd *vpd ;
   union __anonunion____missing_field_name_203 __annonCompField33 ;
   struct pci_ats *ats ;
};
struct pci_ops;
struct pci_bus {
   struct list_head node ;
   struct pci_bus *parent ;
   struct list_head children ;
   struct list_head devices ;
   struct pci_dev *self ;
   struct list_head slots ;
   struct resource *resource[4] ;
   struct list_head resources ;
   struct pci_ops *ops ;
   void *sysdata ;
   struct proc_dir_entry *procdir ;
   unsigned char number ;
   unsigned char primary ;
   unsigned char secondary ;
   unsigned char subordinate ;
   unsigned char max_bus_speed ;
   unsigned char cur_bus_speed ;
   char name[48] ;
   unsigned short bridge_ctl ;
   pci_bus_flags_t bus_flags ;
   struct device *bridge ;
   struct device dev ;
   struct bin_attribute *legacy_io ;
   struct bin_attribute *legacy_mem ;
   unsigned int is_added : 1 ;
};
struct pci_ops {
   int (*read)(struct pci_bus *bus , unsigned int devfn , int where , int size , u32 *val ) ;
   int (*write)(struct pci_bus *bus , unsigned int devfn , int where , int size ,
                u32 val ) ;
};
struct pci_dynids {
   spinlock_t lock ;
   struct list_head list ;
};
typedef unsigned int pci_ers_result_t;
struct pci_error_handlers {
   pci_ers_result_t (*error_detected)(struct pci_dev *dev , enum pci_channel_state error ) ;
   pci_ers_result_t (*mmio_enabled)(struct pci_dev *dev ) ;
   pci_ers_result_t (*link_reset)(struct pci_dev *dev ) ;
   pci_ers_result_t (*slot_reset)(struct pci_dev *dev ) ;
   void (*resume)(struct pci_dev *dev ) ;
};
struct module;
struct pci_driver {
   struct list_head node ;
   char const *name ;
   struct pci_device_id const *id_table ;
   int (*probe)(struct pci_dev *dev , struct pci_device_id const *id ) ;
   void (*remove)(struct pci_dev *dev ) ;
   int (*suspend)(struct pci_dev *dev , pm_message_t state ) ;
   int (*suspend_late)(struct pci_dev *dev , pm_message_t state ) ;
   int (*resume_early)(struct pci_dev *dev ) ;
   int (*resume)(struct pci_dev *dev ) ;
   void (*shutdown)(struct pci_dev *dev ) ;
   struct pci_error_handlers *err_handler ;
   struct device_driver driver ;
   struct pci_dynids dynids ;
};
struct scatterlist {
   unsigned long sg_magic ;
   unsigned long page_link ;
   unsigned int offset ;
   unsigned int length ;
   dma_addr_t dma_address ;
   unsigned int dma_length ;
};
struct prio_tree_node;
struct raw_prio_tree_node {
   struct prio_tree_node *left ;
   struct prio_tree_node *right ;
   struct prio_tree_node *parent ;
};
struct prio_tree_node {
   struct prio_tree_node *left ;
   struct prio_tree_node *right ;
   struct prio_tree_node *parent ;
   unsigned long start ;
   unsigned long last ;
};
struct prio_tree_root {
   struct prio_tree_node *prio_tree_node ;
   unsigned short index_bits ;
   unsigned short raw ;
};
struct task_struct;
struct task_struct;
struct address_space;
struct address_space;
union __anonunion____missing_field_name_205 {
   unsigned long index ;
   void *freelist ;
};
struct __anonstruct____missing_field_name_209 {
   unsigned int inuse : 16 ;
   unsigned int objects : 15 ;
   unsigned int frozen : 1 ;
};
union __anonunion____missing_field_name_208 {
   atomic_t _mapcount ;
   struct __anonstruct____missing_field_name_209 __annonCompField35 ;
};
struct __anonstruct____missing_field_name_207 {
   union __anonunion____missing_field_name_208 __annonCompField36 ;
   atomic_t _count ;
};
union __anonunion____missing_field_name_206 {
   unsigned long counters ;
   struct __anonstruct____missing_field_name_207 __annonCompField37 ;
};
struct __anonstruct____missing_field_name_204 {
   union __anonunion____missing_field_name_205 __annonCompField34 ;
   union __anonunion____missing_field_name_206 __annonCompField38 ;
};
struct __anonstruct____missing_field_name_211 {
   struct page *next ;
   int pages ;
   int pobjects ;
};
union __anonunion____missing_field_name_210 {
   struct list_head lru ;
   struct __anonstruct____missing_field_name_211 __annonCompField40 ;
};
union __anonunion____missing_field_name_212 {
   unsigned long private ;
   struct kmem_cache *slab ;
   struct page *first_page ;
};
struct page {
   unsigned long flags ;
   struct address_space *mapping ;
   struct __anonstruct____missing_field_name_204 __annonCompField39 ;
   union __anonunion____missing_field_name_210 __annonCompField41 ;
   union __anonunion____missing_field_name_212 __annonCompField42 ;
   unsigned long debug_flags ;
} __attribute__((__aligned__((2) * (sizeof(unsigned long )) ))) ;
struct __anonstruct_vm_set_214 {
   struct list_head list ;
   void *parent ;
   struct vm_area_struct *head ;
};
union __anonunion_shared_213 {
   struct __anonstruct_vm_set_214 vm_set ;
   struct raw_prio_tree_node prio_tree_node ;
};
struct anon_vma;
struct vm_operations_struct;
struct mempolicy;
struct vm_area_struct {
   struct mm_struct *vm_mm ;
   unsigned long vm_start ;
   unsigned long vm_end ;
   struct vm_area_struct *vm_next ;
   struct vm_area_struct *vm_prev ;
   pgprot_t vm_page_prot ;
   unsigned long vm_flags ;
   struct rb_node vm_rb ;
   union __anonunion_shared_213 shared ;
   struct list_head anon_vma_chain ;
   struct anon_vma *anon_vma ;
   struct vm_operations_struct const *vm_ops ;
   unsigned long vm_pgoff ;
   struct file *vm_file ;
   void *vm_private_data ;
   struct mempolicy *vm_policy ;
};
struct core_thread {
   struct task_struct *task ;
   struct core_thread *next ;
};
struct core_state {
   atomic_t nr_threads ;
   struct core_thread dumper ;
   struct completion startup ;
};
struct mm_rss_stat {
   atomic_long_t count[3] ;
};
struct linux_binfmt;
struct mmu_notifier_mm;
struct mm_struct {
   struct vm_area_struct *mmap ;
   struct rb_root mm_rb ;
   struct vm_area_struct *mmap_cache ;
   unsigned long (*get_unmapped_area)(struct file *filp , unsigned long addr , unsigned long len ,
                                      unsigned long pgoff , unsigned long flags ) ;
   void (*unmap_area)(struct mm_struct *mm , unsigned long addr ) ;
   unsigned long mmap_base ;
   unsigned long task_size ;
   unsigned long cached_hole_size ;
   unsigned long free_area_cache ;
   pgd_t *pgd ;
   atomic_t mm_users ;
   atomic_t mm_count ;
   int map_count ;
   spinlock_t page_table_lock ;
   struct rw_semaphore mmap_sem ;
   struct list_head mmlist ;
   unsigned long hiwater_rss ;
   unsigned long hiwater_vm ;
   unsigned long total_vm ;
   unsigned long locked_vm ;
   unsigned long pinned_vm ;
   unsigned long shared_vm ;
   unsigned long exec_vm ;
   unsigned long stack_vm ;
   unsigned long reserved_vm ;
   unsigned long def_flags ;
   unsigned long nr_ptes ;
   unsigned long start_code ;
   unsigned long end_code ;
   unsigned long start_data ;
   unsigned long end_data ;
   unsigned long start_brk ;
   unsigned long brk ;
   unsigned long start_stack ;
   unsigned long arg_start ;
   unsigned long arg_end ;
   unsigned long env_start ;
   unsigned long env_end ;
   unsigned long saved_auxv[44] ;
   struct mm_rss_stat rss_stat ;
   struct linux_binfmt *binfmt ;
   cpumask_var_t cpu_vm_mask_var ;
   mm_context_t context ;
   unsigned int faultstamp ;
   unsigned int token_priority ;
   unsigned int last_interval ;
   unsigned long flags ;
   struct core_state *core_state ;
   spinlock_t ioctx_lock ;
   struct hlist_head ioctx_list ;
   struct task_struct *owner ;
   struct file *exe_file ;
   unsigned long num_exe_file_vmas ;
   struct mmu_notifier_mm *mmu_notifier_mm ;
   pgtable_t pmd_huge_pte ;
   struct cpumask cpumask_allocation ;
};
struct shrink_control {
   gfp_t gfp_mask ;
   unsigned long nr_to_scan ;
};
struct shrinker {
   int (*shrink)(struct shrinker * , struct shrink_control *sc ) ;
   int seeks ;
   long batch ;
   struct list_head list ;
   atomic_long_t nr_in_batch ;
};
struct mempolicy;
struct anon_vma;
struct file_ra_state;
struct file_ra_state;
struct writeback_control;
struct writeback_control;
struct mm_struct;
struct vm_area_struct;
struct vm_fault {
   unsigned int flags ;
   unsigned long pgoff ;
   void *virtual_address ;
   struct page *page ;
};
struct vm_operations_struct {
   void (*open)(struct vm_area_struct *area ) ;
   void (*close)(struct vm_area_struct *area ) ;
   int (*fault)(struct vm_area_struct *vma , struct vm_fault *vmf ) ;
   int (*page_mkwrite)(struct vm_area_struct *vma , struct vm_fault *vmf ) ;
   int (*access)(struct vm_area_struct *vma , unsigned long addr , void *buf , int len ,
                 int write ) ;
   int (*set_policy)(struct vm_area_struct *vma , struct mempolicy *new ) ;
   struct mempolicy *(*get_policy)(struct vm_area_struct *vma , unsigned long addr ) ;
   int (*migrate)(struct vm_area_struct *vma , nodemask_t const *from , nodemask_t const *to ,
                  unsigned long flags ) ;
};
struct inode;
struct inode;
struct page;
struct kmem_cache_cpu {
   void **freelist ;
   unsigned long tid ;
   struct page *page ;
   struct page *partial ;
   int node ;
   unsigned int stat[26] ;
};
struct kmem_cache_node {
   spinlock_t list_lock ;
   unsigned long nr_partial ;
   struct list_head partial ;
   atomic_long_t nr_slabs ;
   atomic_long_t total_objects ;
   struct list_head full ;
};
struct kmem_cache_order_objects {
   unsigned long x ;
};
struct kmem_cache {
   struct kmem_cache_cpu *cpu_slab ;
   unsigned long flags ;
   unsigned long min_partial ;
   int size ;
   int objsize ;
   int offset ;
   int cpu_partial ;
   struct kmem_cache_order_objects oo ;
   struct kmem_cache_order_objects max ;
   struct kmem_cache_order_objects min ;
   gfp_t allocflags ;
   int refcount ;
   void (*ctor)(void * ) ;
   int inuse ;
   int align ;
   int reserved ;
   char const *name ;
   struct list_head list ;
   struct kobject kobj ;
   int remote_node_defrag_ratio ;
   struct kmem_cache_node *node[1 << 10] ;
};
struct dma_attrs {
   unsigned long flags[((4UL + 8UL * sizeof(long )) - 1UL) / (8UL * sizeof(long ))] ;
};
enum dma_data_direction {
    DMA_BIDIRECTIONAL = 0,
    DMA_TO_DEVICE = 1,
    DMA_FROM_DEVICE = 2,
    DMA_NONE = 3
} ;
struct dma_map_ops {
   void *(*alloc)(struct device *dev , size_t size , dma_addr_t *dma_handle , gfp_t gfp ,
                  struct dma_attrs *attrs ) ;
   void (*free)(struct device *dev , size_t size , void *vaddr , dma_addr_t dma_handle ,
                struct dma_attrs *attrs ) ;
   int (*mmap)(struct device * , struct vm_area_struct * , void * , dma_addr_t ,
               size_t , struct dma_attrs *attrs ) ;
   dma_addr_t (*map_page)(struct device *dev , struct page *page , unsigned long offset ,
                          size_t size , enum dma_data_direction dir , struct dma_attrs *attrs ) ;
   void (*unmap_page)(struct device *dev , dma_addr_t dma_handle , size_t size , enum dma_data_direction dir ,
                      struct dma_attrs *attrs ) ;
   int (*map_sg)(struct device *dev , struct scatterlist *sg , int nents , enum dma_data_direction dir ,
                 struct dma_attrs *attrs ) ;
   void (*unmap_sg)(struct device *dev , struct scatterlist *sg , int nents , enum dma_data_direction dir ,
                    struct dma_attrs *attrs ) ;
   void (*sync_single_for_cpu)(struct device *dev , dma_addr_t dma_handle , size_t size ,
                               enum dma_data_direction dir ) ;
   void (*sync_single_for_device)(struct device *dev , dma_addr_t dma_handle , size_t size ,
                                  enum dma_data_direction dir ) ;
   void (*sync_sg_for_cpu)(struct device *dev , struct scatterlist *sg , int nents ,
                           enum dma_data_direction dir ) ;
   void (*sync_sg_for_device)(struct device *dev , struct scatterlist *sg , int nents ,
                              enum dma_data_direction dir ) ;
   int (*mapping_error)(struct device *dev , dma_addr_t dma_addr ) ;
   int (*dma_supported)(struct device *dev , u64 mask ) ;
   int (*set_dma_mask)(struct device *dev , u64 mask ) ;
   int is_phys ;
};
struct device;
struct scatterlist;
struct bus_type;
struct device;
struct dma_attrs;
struct scatterlist;
struct seq_file;
struct module;
struct proc_dir_entry;
struct module;
struct proc_dir_entry;
struct task_struct;
struct mm_struct;
struct exception_table_entry {
   unsigned long insn ;
   unsigned long fixup ;
};
struct task_struct;
struct device;
struct seq_file;
struct file_operations;
struct file_operations;
struct inode;
struct module;
struct cdev {
   struct kobject kobj ;
   struct module *owner ;
   struct file_operations const *ops ;
   struct list_head list ;
   dev_t dev ;
   unsigned int count ;
};
struct backing_dev_info;
struct page;
struct block_device;
struct block_device;
struct hlist_bl_node;
struct hlist_bl_head {
   struct hlist_bl_node *first ;
};
struct hlist_bl_node {
   struct hlist_bl_node *next ;
   struct hlist_bl_node **pprev ;
};
struct nameidata;
struct nameidata;
struct path;
struct path;
struct vfsmount;
struct vfsmount;
struct qstr {
   unsigned int hash ;
   unsigned int len ;
   unsigned char const *name ;
};
struct dentry_operations;
struct super_block;
union __anonunion_d_u_224 {
   struct list_head d_child ;
   struct rcu_head d_rcu ;
};
struct dentry {
   unsigned int d_flags ;
   seqcount_t d_seq ;
   struct hlist_bl_node d_hash ;
   struct dentry *d_parent ;
   struct qstr d_name ;
   struct inode *d_inode ;
   unsigned char d_iname[32] ;
   unsigned int d_count ;
   spinlock_t d_lock ;
   struct dentry_operations const *d_op ;
   struct super_block *d_sb ;
   unsigned long d_time ;
   void *d_fsdata ;
   struct list_head d_lru ;
   union __anonunion_d_u_224 d_u ;
   struct list_head d_subdirs ;
   struct list_head d_alias ;
};
struct dentry_operations {
   int (*d_revalidate)(struct dentry * , struct nameidata * ) ;
   int (*d_hash)(struct dentry const * , struct inode const * , struct qstr * ) ;
   int (*d_compare)(struct dentry const * , struct inode const * , struct dentry const * ,
                    struct inode const * , unsigned int , char const * , struct qstr const * ) ;
   int (*d_delete)(struct dentry const * ) ;
   void (*d_release)(struct dentry * ) ;
   void (*d_prune)(struct dentry * ) ;
   void (*d_iput)(struct dentry * , struct inode * ) ;
   char *(*d_dname)(struct dentry * , char * , int ) ;
   struct vfsmount *(*d_automount)(struct path * ) ;
   int (*d_manage)(struct dentry * , bool ) ;
} __attribute__((__aligned__((1) << (6) ))) ;
struct dentry;
struct vfsmount;
struct path {
   struct vfsmount *mnt ;
   struct dentry *dentry ;
};
struct radix_tree_node;
struct radix_tree_root {
   unsigned int height ;
   gfp_t gfp_mask ;
   struct radix_tree_node *rnode ;
};
enum pid_type {
    PIDTYPE_PID = 0,
    PIDTYPE_PGID = 1,
    PIDTYPE_SID = 2,
    PIDTYPE_MAX = 3
} ;
struct pid_namespace;
struct upid {
   int nr ;
   struct pid_namespace *ns ;
   struct hlist_node pid_chain ;
};
struct pid {
   atomic_t count ;
   unsigned int level ;
   struct hlist_head tasks[3] ;
   struct rcu_head rcu ;
   struct upid numbers[1] ;
};
struct pid_namespace;
struct task_struct;
struct dentry;
struct fiemap_extent {
   __u64 fe_logical ;
   __u64 fe_physical ;
   __u64 fe_length ;
   __u64 fe_reserved64[2] ;
   __u32 fe_flags ;
   __u32 fe_reserved[3] ;
};
enum migrate_mode {
    MIGRATE_ASYNC = 0,
    MIGRATE_SYNC_LIGHT = 1,
    MIGRATE_SYNC = 2
} ;
struct export_operations;
struct export_operations;
struct iovec;
struct iovec;
struct nameidata;
struct kiocb;
struct kiocb;
struct kobject;
struct pipe_inode_info;
struct pipe_inode_info;
struct poll_table_struct;
struct poll_table_struct;
struct kstatfs;
struct kstatfs;
struct vm_area_struct;
struct vfsmount;
struct cred;
struct iattr {
   unsigned int ia_valid ;
   umode_t ia_mode ;
   uid_t ia_uid ;
   gid_t ia_gid ;
   loff_t ia_size ;
   struct timespec ia_atime ;
   struct timespec ia_mtime ;
   struct timespec ia_ctime ;
   struct file *ia_file ;
};
struct if_dqinfo {
   __u64 dqi_bgrace ;
   __u64 dqi_igrace ;
   __u32 dqi_flags ;
   __u32 dqi_valid ;
};
struct fs_disk_quota {
   __s8 d_version ;
   __s8 d_flags ;
   __u16 d_fieldmask ;
   __u32 d_id ;
   __u64 d_blk_hardlimit ;
   __u64 d_blk_softlimit ;
   __u64 d_ino_hardlimit ;
   __u64 d_ino_softlimit ;
   __u64 d_bcount ;
   __u64 d_icount ;
   __s32 d_itimer ;
   __s32 d_btimer ;
   __u16 d_iwarns ;
   __u16 d_bwarns ;
   __s32 d_padding2 ;
   __u64 d_rtb_hardlimit ;
   __u64 d_rtb_softlimit ;
   __u64 d_rtbcount ;
   __s32 d_rtbtimer ;
   __u16 d_rtbwarns ;
   __s16 d_padding3 ;
   char d_padding4[8] ;
};
struct fs_qfilestat {
   __u64 qfs_ino ;
   __u64 qfs_nblks ;
   __u32 qfs_nextents ;
};
typedef struct fs_qfilestat fs_qfilestat_t;
struct fs_quota_stat {
   __s8 qs_version ;
   __u16 qs_flags ;
   __s8 qs_pad ;
   fs_qfilestat_t qs_uquota ;
   fs_qfilestat_t qs_gquota ;
   __u32 qs_incoredqs ;
   __s32 qs_btimelimit ;
   __s32 qs_itimelimit ;
   __s32 qs_rtbtimelimit ;
   __u16 qs_bwarnlimit ;
   __u16 qs_iwarnlimit ;
};
struct dquot;
struct dquot;
typedef __kernel_uid32_t qid_t;
typedef long long qsize_t;
struct mem_dqblk {
   qsize_t dqb_bhardlimit ;
   qsize_t dqb_bsoftlimit ;
   qsize_t dqb_curspace ;
   qsize_t dqb_rsvspace ;
   qsize_t dqb_ihardlimit ;
   qsize_t dqb_isoftlimit ;
   qsize_t dqb_curinodes ;
   time_t dqb_btime ;
   time_t dqb_itime ;
};
struct quota_format_type;
struct quota_format_type;
struct mem_dqinfo {
   struct quota_format_type *dqi_format ;
   int dqi_fmt_id ;
   struct list_head dqi_dirty_list ;
   unsigned long dqi_flags ;
   unsigned int dqi_bgrace ;
   unsigned int dqi_igrace ;
   qsize_t dqi_maxblimit ;
   qsize_t dqi_maxilimit ;
   void *dqi_priv ;
};
struct super_block;
struct dquot {
   struct hlist_node dq_hash ;
   struct list_head dq_inuse ;
   struct list_head dq_free ;
   struct list_head dq_dirty ;
   struct mutex dq_lock ;
   atomic_t dq_count ;
   wait_queue_head_t dq_wait_unused ;
   struct super_block *dq_sb ;
   unsigned int dq_id ;
   loff_t dq_off ;
   unsigned long dq_flags ;
   short dq_type ;
   struct mem_dqblk dq_dqb ;
};
struct quota_format_ops {
   int (*check_quota_file)(struct super_block *sb , int type ) ;
   int (*read_file_info)(struct super_block *sb , int type ) ;
   int (*write_file_info)(struct super_block *sb , int type ) ;
   int (*free_file_info)(struct super_block *sb , int type ) ;
   int (*read_dqblk)(struct dquot *dquot ) ;
   int (*commit_dqblk)(struct dquot *dquot ) ;
   int (*release_dqblk)(struct dquot *dquot ) ;
};
struct dquot_operations {
   int (*write_dquot)(struct dquot * ) ;
   struct dquot *(*alloc_dquot)(struct super_block * , int ) ;
   void (*destroy_dquot)(struct dquot * ) ;
   int (*acquire_dquot)(struct dquot * ) ;
   int (*release_dquot)(struct dquot * ) ;
   int (*mark_dirty)(struct dquot * ) ;
   int (*write_info)(struct super_block * , int ) ;
   qsize_t *(*get_reserved_space)(struct inode * ) ;
};
struct path;
struct quotactl_ops {
   int (*quota_on)(struct super_block * , int , int , struct path * ) ;
   int (*quota_on_meta)(struct super_block * , int , int ) ;
   int (*quota_off)(struct super_block * , int ) ;
   int (*quota_sync)(struct super_block * , int , int ) ;
   int (*get_info)(struct super_block * , int , struct if_dqinfo * ) ;
   int (*set_info)(struct super_block * , int , struct if_dqinfo * ) ;
   int (*get_dqblk)(struct super_block * , int , qid_t , struct fs_disk_quota * ) ;
   int (*set_dqblk)(struct super_block * , int , qid_t , struct fs_disk_quota * ) ;
   int (*get_xstate)(struct super_block * , struct fs_quota_stat * ) ;
   int (*set_xstate)(struct super_block * , unsigned int , int ) ;
};
struct quota_format_type {
   int qf_fmt_id ;
   struct quota_format_ops const *qf_ops ;
   struct module *qf_owner ;
   struct quota_format_type *qf_next ;
};
struct quota_info {
   unsigned int flags ;
   struct mutex dqio_mutex ;
   struct mutex dqonoff_mutex ;
   struct rw_semaphore dqptr_sem ;
   struct inode *files[2] ;
   struct mem_dqinfo info[2] ;
   struct quota_format_ops const *ops[2] ;
};
struct page;
struct address_space;
struct writeback_control;
union __anonunion_arg_232 {
   char *buf ;
   void *data ;
};
struct __anonstruct_read_descriptor_t_231 {
   size_t written ;
   size_t count ;
   union __anonunion_arg_232 arg ;
   int error ;
};
typedef struct __anonstruct_read_descriptor_t_231 read_descriptor_t;
struct address_space_operations {
   int (*writepage)(struct page *page , struct writeback_control *wbc ) ;
   int (*readpage)(struct file * , struct page * ) ;
   int (*writepages)(struct address_space * , struct writeback_control * ) ;
   int (*set_page_dirty)(struct page *page ) ;
   int (*readpages)(struct file *filp , struct address_space *mapping , struct list_head *pages ,
                    unsigned int nr_pages ) ;
   int (*write_begin)(struct file * , struct address_space *mapping , loff_t pos ,
                      unsigned int len , unsigned int flags , struct page **pagep ,
                      void **fsdata ) ;
   int (*write_end)(struct file * , struct address_space *mapping , loff_t pos , unsigned int len ,
                    unsigned int copied , struct page *page , void *fsdata ) ;
   sector_t (*bmap)(struct address_space * , sector_t ) ;
   void (*invalidatepage)(struct page * , unsigned long ) ;
   int (*releasepage)(struct page * , gfp_t ) ;
   void (*freepage)(struct page * ) ;
   ssize_t (*direct_IO)(int , struct kiocb * , struct iovec const *iov , loff_t offset ,
                        unsigned long nr_segs ) ;
   int (*get_xip_mem)(struct address_space * , unsigned long , int , void ** , unsigned long * ) ;
   int (*migratepage)(struct address_space * , struct page * , struct page * , enum migrate_mode ) ;
   int (*launder_page)(struct page * ) ;
   int (*is_partially_uptodate)(struct page * , read_descriptor_t * , unsigned long ) ;
   int (*error_remove_page)(struct address_space * , struct page * ) ;
};
struct backing_dev_info;
struct address_space {
   struct inode *host ;
   struct radix_tree_root page_tree ;
   spinlock_t tree_lock ;
   unsigned int i_mmap_writable ;
   struct prio_tree_root i_mmap ;
   struct list_head i_mmap_nonlinear ;
   struct mutex i_mmap_mutex ;
   unsigned long nrpages ;
   unsigned long writeback_index ;
   struct address_space_operations const *a_ops ;
   unsigned long flags ;
   struct backing_dev_info *backing_dev_info ;
   spinlock_t private_lock ;
   struct list_head private_list ;
   struct address_space *assoc_mapping ;
} __attribute__((__aligned__(sizeof(long )))) ;
struct request_queue;
struct request_queue;
struct hd_struct;
struct gendisk;
struct block_device {
   dev_t bd_dev ;
   int bd_openers ;
   struct inode *bd_inode ;
   struct super_block *bd_super ;
   struct mutex bd_mutex ;
   struct list_head bd_inodes ;
   void *bd_claiming ;
   void *bd_holder ;
   int bd_holders ;
   bool bd_write_holder ;
   struct list_head bd_holder_disks ;
   struct block_device *bd_contains ;
   unsigned int bd_block_size ;
   struct hd_struct *bd_part ;
   unsigned int bd_part_count ;
   int bd_invalidated ;
   struct gendisk *bd_disk ;
   struct request_queue *bd_queue ;
   struct list_head bd_list ;
   unsigned long bd_private ;
   int bd_fsfreeze_count ;
   struct mutex bd_fsfreeze_mutex ;
};
struct posix_acl;
struct posix_acl;
struct inode_operations;
union __anonunion____missing_field_name_233 {
   unsigned int const i_nlink ;
   unsigned int __i_nlink ;
};
union __anonunion____missing_field_name_234 {
   struct list_head i_dentry ;
   struct rcu_head i_rcu ;
};
struct file_lock;
union __anonunion____missing_field_name_235 {
   struct pipe_inode_info *i_pipe ;
   struct block_device *i_bdev ;
   struct cdev *i_cdev ;
};
struct inode {
   umode_t i_mode ;
   unsigned short i_opflags ;
   uid_t i_uid ;
   gid_t i_gid ;
   unsigned int i_flags ;
   struct posix_acl *i_acl ;
   struct posix_acl *i_default_acl ;
   struct inode_operations const *i_op ;
   struct super_block *i_sb ;
   struct address_space *i_mapping ;
   void *i_security ;
   unsigned long i_ino ;
   union __anonunion____missing_field_name_233 __annonCompField43 ;
   dev_t i_rdev ;
   struct timespec i_atime ;
   struct timespec i_mtime ;
   struct timespec i_ctime ;
   spinlock_t i_lock ;
   unsigned short i_bytes ;
   blkcnt_t i_blocks ;
   loff_t i_size ;
   unsigned long i_state ;
   struct mutex i_mutex ;
   unsigned long dirtied_when ;
   struct hlist_node i_hash ;
   struct list_head i_wb_list ;
   struct list_head i_lru ;
   struct list_head i_sb_list ;
   union __anonunion____missing_field_name_234 __annonCompField44 ;
   atomic_t i_count ;
   unsigned int i_blkbits ;
   u64 i_version ;
   atomic_t i_dio_count ;
   atomic_t i_writecount ;
   struct file_operations const *i_fop ;
   struct file_lock *i_flock ;
   struct address_space i_data ;
   struct dquot *i_dquot[2] ;
   struct list_head i_devices ;
   union __anonunion____missing_field_name_235 __annonCompField45 ;
   __u32 i_generation ;
   __u32 i_fsnotify_mask ;
   struct hlist_head i_fsnotify_marks ;
   atomic_t i_readcount ;
   void *i_private ;
};
struct fown_struct {
   rwlock_t lock ;
   struct pid *pid ;
   enum pid_type pid_type ;
   uid_t uid ;
   uid_t euid ;
   int signum ;
};
struct file_ra_state {
   unsigned long start ;
   unsigned int size ;
   unsigned int async_size ;
   unsigned int ra_pages ;
   unsigned int mmap_miss ;
   loff_t prev_pos ;
};
union __anonunion_f_u_236 {
   struct list_head fu_list ;
   struct rcu_head fu_rcuhead ;
};
struct file {
   union __anonunion_f_u_236 f_u ;
   struct path f_path ;
   struct file_operations const *f_op ;
   spinlock_t f_lock ;
   int f_sb_list_cpu ;
   atomic_long_t f_count ;
   unsigned int f_flags ;
   fmode_t f_mode ;
   loff_t f_pos ;
   struct fown_struct f_owner ;
   struct cred const *f_cred ;
   struct file_ra_state f_ra ;
   u64 f_version ;
   void *f_security ;
   void *private_data ;
   struct list_head f_ep_links ;
   struct list_head f_tfile_llink ;
   struct address_space *f_mapping ;
   unsigned long f_mnt_write_state ;
};
struct files_struct;
typedef struct files_struct *fl_owner_t;
struct file_lock_operations {
   void (*fl_copy_lock)(struct file_lock * , struct file_lock * ) ;
   void (*fl_release_private)(struct file_lock * ) ;
};
struct lock_manager_operations {
   int (*lm_compare_owner)(struct file_lock * , struct file_lock * ) ;
   void (*lm_notify)(struct file_lock * ) ;
   int (*lm_grant)(struct file_lock * , struct file_lock * , int ) ;
   void (*lm_release_private)(struct file_lock * ) ;
   void (*lm_break)(struct file_lock * ) ;
   int (*lm_change)(struct file_lock ** , int ) ;
};
struct nlm_lockowner;
struct nlm_lockowner;
struct nfs_lock_info {
   u32 state ;
   struct nlm_lockowner *owner ;
   struct list_head list ;
};
struct nfs4_lock_state;
struct nfs4_lock_state;
struct nfs4_lock_info {
   struct nfs4_lock_state *owner ;
};
struct fasync_struct;
struct __anonstruct_afs_238 {
   struct list_head link ;
   int state ;
};
union __anonunion_fl_u_237 {
   struct nfs_lock_info nfs_fl ;
   struct nfs4_lock_info nfs4_fl ;
   struct __anonstruct_afs_238 afs ;
};
struct file_lock {
   struct file_lock *fl_next ;
   struct list_head fl_link ;
   struct list_head fl_block ;
   fl_owner_t fl_owner ;
   unsigned int fl_flags ;
   unsigned char fl_type ;
   unsigned int fl_pid ;
   struct pid *fl_nspid ;
   wait_queue_head_t fl_wait ;
   struct file *fl_file ;
   loff_t fl_start ;
   loff_t fl_end ;
   struct fasync_struct *fl_fasync ;
   unsigned long fl_break_time ;
   unsigned long fl_downgrade_time ;
   struct file_lock_operations const *fl_ops ;
   struct lock_manager_operations const *fl_lmops ;
   union __anonunion_fl_u_237 fl_u ;
};
struct fasync_struct {
   spinlock_t fa_lock ;
   int magic ;
   int fa_fd ;
   struct fasync_struct *fa_next ;
   struct file *fa_file ;
   struct rcu_head fa_rcu ;
};
struct file_system_type;
struct super_operations;
struct xattr_handler;
struct mtd_info;
struct super_block {
   struct list_head s_list ;
   dev_t s_dev ;
   unsigned char s_dirt ;
   unsigned char s_blocksize_bits ;
   unsigned long s_blocksize ;
   loff_t s_maxbytes ;
   struct file_system_type *s_type ;
   struct super_operations const *s_op ;
   struct dquot_operations const *dq_op ;
   struct quotactl_ops const *s_qcop ;
   struct export_operations const *s_export_op ;
   unsigned long s_flags ;
   unsigned long s_magic ;
   struct dentry *s_root ;
   struct rw_semaphore s_umount ;
   struct mutex s_lock ;
   int s_count ;
   atomic_t s_active ;
   void *s_security ;
   struct xattr_handler const **s_xattr ;
   struct list_head s_inodes ;
   struct hlist_bl_head s_anon ;
   struct list_head *s_files ;
   struct list_head s_mounts ;
   struct list_head s_dentry_lru ;
   int s_nr_dentry_unused ;
   spinlock_t s_inode_lru_lock __attribute__((__aligned__((1) << (6) ))) ;
   struct list_head s_inode_lru ;
   int s_nr_inodes_unused ;
   struct block_device *s_bdev ;
   struct backing_dev_info *s_bdi ;
   struct mtd_info *s_mtd ;
   struct hlist_node s_instances ;
   struct quota_info s_dquot ;
   int s_frozen ;
   wait_queue_head_t s_wait_unfrozen ;
   char s_id[32] ;
   u8 s_uuid[16] ;
   void *s_fs_info ;
   unsigned int s_max_links ;
   fmode_t s_mode ;
   u32 s_time_gran ;
   struct mutex s_vfs_rename_mutex ;
   char *s_subtype ;
   char *s_options ;
   struct dentry_operations const *s_d_op ;
   int cleancache_poolid ;
   struct shrinker s_shrink ;
   atomic_long_t s_remove_count ;
   int s_readonly_remount ;
};
struct fiemap_extent_info {
   unsigned int fi_flags ;
   unsigned int fi_extents_mapped ;
   unsigned int fi_extents_max ;
   struct fiemap_extent *fi_extents_start ;
};
struct file_operations {
   struct module *owner ;
   loff_t (*llseek)(struct file * , loff_t , int ) ;
   ssize_t (*read)(struct file * , char * , size_t , loff_t * ) ;
   ssize_t (*write)(struct file * , char const * , size_t , loff_t * ) ;
   ssize_t (*aio_read)(struct kiocb * , struct iovec const * , unsigned long ,
                       loff_t ) ;
   ssize_t (*aio_write)(struct kiocb * , struct iovec const * , unsigned long ,
                        loff_t ) ;
   int (*readdir)(struct file * , void * , int (*)(void * , char const * , int ,
                                                   loff_t , u64 , unsigned int ) ) ;
   unsigned int (*poll)(struct file * , struct poll_table_struct * ) ;
   long (*unlocked_ioctl)(struct file * , unsigned int , unsigned long ) ;
   long (*compat_ioctl)(struct file * , unsigned int , unsigned long ) ;
   int (*mmap)(struct file * , struct vm_area_struct * ) ;
   int (*open)(struct inode * , struct file * ) ;
   int (*flush)(struct file * , fl_owner_t id ) ;
   int (*release)(struct inode * , struct file * ) ;
   int (*fsync)(struct file * , loff_t , loff_t , int datasync ) ;
   int (*aio_fsync)(struct kiocb * , int datasync ) ;
   int (*fasync)(int , struct file * , int ) ;
   int (*lock)(struct file * , int , struct file_lock * ) ;
   ssize_t (*sendpage)(struct file * , struct page * , int , size_t , loff_t * ,
                       int ) ;
   unsigned long (*get_unmapped_area)(struct file * , unsigned long , unsigned long ,
                                      unsigned long , unsigned long ) ;
   int (*check_flags)(int ) ;
   int (*flock)(struct file * , int , struct file_lock * ) ;
   ssize_t (*splice_write)(struct pipe_inode_info * , struct file * , loff_t * , size_t ,
                           unsigned int ) ;
   ssize_t (*splice_read)(struct file * , loff_t * , struct pipe_inode_info * , size_t ,
                          unsigned int ) ;
   int (*setlease)(struct file * , long , struct file_lock ** ) ;
   long (*fallocate)(struct file *file , int mode , loff_t offset , loff_t len ) ;
};
struct inode_operations {
   struct dentry *(*lookup)(struct inode * , struct dentry * , struct nameidata * ) ;
   void *(*follow_link)(struct dentry * , struct nameidata * ) ;
   int (*permission)(struct inode * , int ) ;
   struct posix_acl *(*get_acl)(struct inode * , int ) ;
   int (*readlink)(struct dentry * , char * , int ) ;
   void (*put_link)(struct dentry * , struct nameidata * , void * ) ;
   int (*create)(struct inode * , struct dentry * , umode_t , struct nameidata * ) ;
   int (*link)(struct dentry * , struct inode * , struct dentry * ) ;
   int (*unlink)(struct inode * , struct dentry * ) ;
   int (*symlink)(struct inode * , struct dentry * , char const * ) ;
   int (*mkdir)(struct inode * , struct dentry * , umode_t ) ;
   int (*rmdir)(struct inode * , struct dentry * ) ;
   int (*mknod)(struct inode * , struct dentry * , umode_t , dev_t ) ;
   int (*rename)(struct inode * , struct dentry * , struct inode * , struct dentry * ) ;
   void (*truncate)(struct inode * ) ;
   int (*setattr)(struct dentry * , struct iattr * ) ;
   int (*getattr)(struct vfsmount *mnt , struct dentry * , struct kstat * ) ;
   int (*setxattr)(struct dentry * , char const * , void const * , size_t , int ) ;
   ssize_t (*getxattr)(struct dentry * , char const * , void * , size_t ) ;
   ssize_t (*listxattr)(struct dentry * , char * , size_t ) ;
   int (*removexattr)(struct dentry * , char const * ) ;
   void (*truncate_range)(struct inode * , loff_t , loff_t ) ;
   int (*fiemap)(struct inode * , struct fiemap_extent_info * , u64 start , u64 len ) ;
} __attribute__((__aligned__((1) << (6) ))) ;
struct seq_file;
struct super_operations {
   struct inode *(*alloc_inode)(struct super_block *sb ) ;
   void (*destroy_inode)(struct inode * ) ;
   void (*dirty_inode)(struct inode * , int flags ) ;
   int (*write_inode)(struct inode * , struct writeback_control *wbc ) ;
   int (*drop_inode)(struct inode * ) ;
   void (*evict_inode)(struct inode * ) ;
   void (*put_super)(struct super_block * ) ;
   void (*write_super)(struct super_block * ) ;
   int (*sync_fs)(struct super_block *sb , int wait ) ;
   int (*freeze_fs)(struct super_block * ) ;
   int (*unfreeze_fs)(struct super_block * ) ;
   int (*statfs)(struct dentry * , struct kstatfs * ) ;
   int (*remount_fs)(struct super_block * , int * , char * ) ;
   void (*umount_begin)(struct super_block * ) ;
   int (*show_options)(struct seq_file * , struct dentry * ) ;
   int (*show_devname)(struct seq_file * , struct dentry * ) ;
   int (*show_path)(struct seq_file * , struct dentry * ) ;
   int (*show_stats)(struct seq_file * , struct dentry * ) ;
   ssize_t (*quota_read)(struct super_block * , int , char * , size_t , loff_t ) ;
   ssize_t (*quota_write)(struct super_block * , int , char const * , size_t ,
                          loff_t ) ;
   int (*bdev_try_to_free_page)(struct super_block * , struct page * , gfp_t ) ;
   int (*nr_cached_objects)(struct super_block * ) ;
   void (*free_cached_objects)(struct super_block * , int ) ;
};
struct file_system_type {
   char const *name ;
   int fs_flags ;
   struct dentry *(*mount)(struct file_system_type * , int , char const * , void * ) ;
   void (*kill_sb)(struct super_block * ) ;
   struct module *owner ;
   struct file_system_type *next ;
   struct hlist_head fs_supers ;
   struct lock_class_key s_lock_key ;
   struct lock_class_key s_umount_key ;
   struct lock_class_key s_vfs_rename_key ;
   struct lock_class_key i_lock_key ;
   struct lock_class_key i_mutex_key ;
   struct lock_class_key i_mutex_dir_key ;
};
struct module;
struct uio_map;
struct uio_map;
struct uio_mem {
   char const *name ;
   phys_addr_t addr ;
   unsigned long size ;
   int memtype ;
   void *internal_addr ;
   struct uio_map *map ;
};
struct uio_portio;
struct uio_portio;
struct uio_port {
   char const *name ;
   unsigned long start ;
   unsigned long size ;
   int porttype ;
   struct uio_portio *portio ;
};
struct uio_device;
struct uio_device;
struct uio_info {
   struct uio_device *uio_dev ;
   char const *name ;
   char const *version ;
   struct uio_mem mem[5] ;
   struct uio_port port[5] ;
   long irq ;
   unsigned long irq_flags ;
   void *priv ;
   irqreturn_t (*handler)(int irq , struct uio_info *dev_info ) ;
   int (*mmap)(struct uio_info *info , struct vm_area_struct *vma ) ;
   int (*open)(struct uio_info *info , struct inode *inode ) ;
   int (*release)(struct uio_info *info , struct inode *inode ) ;
   int (*irqcontrol)(struct uio_info *info , s32 irq_on ) ;
};
long ldv__builtin_expect(long val , long res ) ;
void mutex_lock(struct mutex *lock ) ;
int __attribute__((__warn_unused_result__)) mutex_lock_interruptible(struct mutex *lock ) ;
int __attribute__((__warn_unused_result__)) mutex_lock_killable(struct mutex *lock ) ;
int mutex_trylock(struct mutex *lock ) ;
void mutex_unlock(struct mutex *lock ) ;
int atomic_dec_and_mutex_lock(atomic_t *cnt , struct mutex *lock ) ;
extern void iounmap(void volatile *addr ) ;
extern unsigned int ioread8(void * ) ;
extern void iowrite8(u8 , void * ) ;
extern void iowrite32(u32 , void * ) ;
extern void pci_iounmap(struct pci_dev *dev , void * ) ;
extern void *pci_iomap(struct pci_dev *dev , int bar , unsigned long max ) ;
extern struct module __this_module ;
int init_module(void) ;
void cleanup_module(void) ;
extern void *dev_get_drvdata(struct device const *dev ) ;
extern int dev_set_drvdata(struct device *dev , void *data ) ;
extern int ( dev_err)(struct device const *dev , char const *fmt
                                              , ...) ;
extern int ( _dev_info)(struct device const *dev , char const *fmt
                                                , ...) ;
extern int __attribute__((__warn_unused_result__)) pci_enable_device(struct pci_dev *dev ) ;
extern void pci_disable_device(struct pci_dev *dev ) ;
extern int __attribute__((__warn_unused_result__)) pci_request_regions(struct pci_dev * ,
                                                                        char const * ) ;
extern void pci_release_regions(struct pci_dev * ) ;
extern int __attribute__((__warn_unused_result__)) __pci_register_driver(struct pci_driver * ,
                                                                          struct module * ,
                                                                          char const *mod_name ) ;
extern void pci_unregister_driver(struct pci_driver *dev ) ;
extern void kfree(void const * ) ;
extern int __VERIFIER_nondet_int(void);
extern void abort(void);
void assume_abort_if_not(int cond) {
  if(!cond) {abort();}
}
extern void *malloc(size_t size);
long ldv_is_err(const void *ptr)
{
  return ((unsigned long)ptr > ((unsigned long)-4095));
}
void *ldv_malloc(size_t size)
{
 if (__VERIFIER_nondet_int()) {
  void *res = malloc(size);
  assume_abort_if_not(!ldv_is_err(res));
  return res;
 } else {
  return ((void *)0);
 }
}
void *__kmalloc(size_t size, gfp_t t)
{
 return ldv_malloc(size);
}
 static void *( __attribute__((__always_inline__)) kmalloc)(size_t size ,
                                                                    gfp_t flags ) __attribute__((__no_instrument_function__)) ;
 static void *( __attribute__((__always_inline__)) kmalloc)(size_t size ,
                                                                    gfp_t flags )
{ void *tmp___2 ;
  {
  {
  tmp___2 = __kmalloc(size, flags);
  }
  return (tmp___2);
}
}
 static void *kzalloc(size_t size , gfp_t flags ) __attribute__((__no_instrument_function__)) ;
void *ldv_zalloc(size_t size ) ;
 static void *kzalloc(size_t size , gfp_t flags )
{ void *tmp ;
  unsigned int __cil_tmp4 ;
  {
  {
  __cil_tmp4 = flags | 32768U;
  tmp = kmalloc(size, __cil_tmp4);
  }
  return (tmp);
}
}
 static void *pci_get_drvdata(struct pci_dev *pdev ) __attribute__((__no_instrument_function__)) ;
 static void *pci_get_drvdata(struct pci_dev *pdev )
{ void *tmp ;
  unsigned long __cil_tmp3 ;
  unsigned long __cil_tmp4 ;
  struct device *__cil_tmp5 ;
  struct device const *__cil_tmp6 ;
  {
  {
  __cil_tmp3 = (unsigned long )pdev;
  __cil_tmp4 = __cil_tmp3 + 144;
  __cil_tmp5 = (struct device *)__cil_tmp4;
  __cil_tmp6 = (struct device const *)__cil_tmp5;
  tmp = dev_get_drvdata(__cil_tmp6);
  }
  return (tmp);
}
}
 static void pci_set_drvdata(struct pci_dev *pdev , void *data ) __attribute__((__no_instrument_function__)) ;
 static void pci_set_drvdata(struct pci_dev *pdev , void *data )
{ unsigned long __cil_tmp3 ;
  unsigned long __cil_tmp4 ;
  struct device *__cil_tmp5 ;
  {
  {
  __cil_tmp3 = (unsigned long )pdev;
  __cil_tmp4 = __cil_tmp3 + 144;
  __cil_tmp5 = (struct device *)__cil_tmp4;
  dev_set_drvdata(__cil_tmp5, data);
  }
  return;
}
}
extern int __attribute__((__warn_unused_result__)) __uio_register_device(struct module *owner ,
                                                                          struct device *parent ,
                                                                          struct uio_info *info ) ;
extern void uio_unregister_device(struct uio_info *info ) ;
static struct pci_device_id ids[2] = { {(__u32 )44747, (__u32 )25168, (__u32 )(~ 0), (__u32 )(~ 0), 0U, 0U, 0UL},
        {(__u32 )0, 0U, 0U, 0U, 0U, 0U, 0UL}};
extern struct pci_device_id const __mod_pci_device_table __attribute__((__unused__,
__alias__("ids"))) ;
static irqreturn_t aectc_irq(int irq , struct uio_info *dev_info )
{ void *int_flag ;
  unsigned char status ;
  unsigned int tmp ;
  unsigned int tmp___0 ;
  unsigned long __cil_tmp7 ;
  unsigned long __cil_tmp8 ;
  void *__cil_tmp9 ;
  int __cil_tmp10 ;
  int __cil_tmp11 ;
  unsigned long __cil_tmp12 ;
  unsigned long __cil_tmp13 ;
  void *__cil_tmp14 ;
  void *__cil_tmp15 ;
  {
  {
  __cil_tmp7 = (unsigned long )dev_info;
  __cil_tmp8 = __cil_tmp7 + 480;
  __cil_tmp9 = *((void **)__cil_tmp8);
  int_flag = __cil_tmp9 + 254;
  tmp = ioread8(int_flag);
  status = (unsigned char )tmp;
  }
  {
  __cil_tmp10 = (int )status;
  if (__cil_tmp10 & 8) {
    {
    __cil_tmp11 = (int )status;
    if (__cil_tmp11 & 1) {
      {
      __cil_tmp12 = (unsigned long )dev_info;
      __cil_tmp13 = __cil_tmp12 + 480;
      __cil_tmp14 = *((void **)__cil_tmp13);
      __cil_tmp15 = __cil_tmp14 + 15;
      tmp___0 = ioread8(__cil_tmp15);
      status = (unsigned char )tmp___0;
      }
      return ((irqreturn_t )1);
    } else {
    }
    }
  } else {
  }
  }
  return ((irqreturn_t )0);
}
}
static void print_board_data(struct pci_dev *pdev , struct uio_info *i )
{ unsigned int tmp ;
  unsigned int tmp___0 ;
  unsigned int tmp___1 ;
  unsigned int tmp___2 ;
  unsigned int tmp___3 ;
  unsigned int tmp___4 ;
  unsigned long __cil_tmp9 ;
  unsigned long __cil_tmp10 ;
  void *__cil_tmp11 ;
  void *__cil_tmp12 ;
  unsigned long __cil_tmp13 ;
  unsigned long __cil_tmp14 ;
  void *__cil_tmp15 ;
  void *__cil_tmp16 ;
  unsigned long __cil_tmp17 ;
  unsigned long __cil_tmp18 ;
  void *__cil_tmp19 ;
  void *__cil_tmp20 ;
  unsigned long __cil_tmp21 ;
  unsigned long __cil_tmp22 ;
  void *__cil_tmp23 ;
  void *__cil_tmp24 ;
  unsigned long __cil_tmp25 ;
  unsigned long __cil_tmp26 ;
  void *__cil_tmp27 ;
  void *__cil_tmp28 ;
  unsigned long __cil_tmp29 ;
  unsigned long __cil_tmp30 ;
  void *__cil_tmp31 ;
  void *__cil_tmp32 ;
  unsigned long __cil_tmp33 ;
  unsigned long __cil_tmp34 ;
  struct device *__cil_tmp35 ;
  struct device const *__cil_tmp36 ;
  {
  {
  __cil_tmp9 = (unsigned long )i;
  __cil_tmp10 = __cil_tmp9 + 480;
  __cil_tmp11 = *((void **)__cil_tmp10);
  __cil_tmp12 = __cil_tmp11 + 7;
  tmp = ioread8(__cil_tmp12);
  __cil_tmp13 = (unsigned long )i;
  __cil_tmp14 = __cil_tmp13 + 480;
  __cil_tmp15 = *((void **)__cil_tmp14);
  __cil_tmp16 = __cil_tmp15 + 6;
  tmp___0 = ioread8(__cil_tmp16);
  __cil_tmp17 = (unsigned long )i;
  __cil_tmp18 = __cil_tmp17 + 480;
  __cil_tmp19 = *((void **)__cil_tmp18);
  __cil_tmp20 = __cil_tmp19 + 2;
  tmp___1 = ioread8(__cil_tmp20);
  __cil_tmp21 = (unsigned long )i;
  __cil_tmp22 = __cil_tmp21 + 480;
  __cil_tmp23 = *((void **)__cil_tmp22);
  __cil_tmp24 = __cil_tmp23 + 3;
  tmp___2 = ioread8(__cil_tmp24);
  __cil_tmp25 = (unsigned long )i;
  __cil_tmp26 = __cil_tmp25 + 480;
  __cil_tmp27 = *((void **)__cil_tmp26);
  __cil_tmp28 = __cil_tmp27 + 0;
  tmp___3 = ioread8(__cil_tmp28);
  __cil_tmp29 = (unsigned long )i;
  __cil_tmp30 = __cil_tmp29 + 480;
  __cil_tmp31 = *((void **)__cil_tmp30);
  __cil_tmp32 = __cil_tmp31 + 1;
  tmp___4 = ioread8(__cil_tmp32);
  __cil_tmp33 = (unsigned long )pdev;
  __cil_tmp34 = __cil_tmp33 + 144;
  __cil_tmp35 = (struct device *)__cil_tmp34;
  __cil_tmp36 = (struct device const *)__cil_tmp35;
  _dev_info(__cil_tmp36, "PCI-TC board vendor: %x%x number: %x%x revision: %c%c\n",
            tmp___4, tmp___3, tmp___2, tmp___1, tmp___0, tmp);
  }
  return;
}
}
static int probe(struct pci_dev *pdev , struct pci_device_id const *id ) __attribute__((__section__(".devinit.text"),
__no_instrument_function__)) ;
static int probe(struct pci_dev *pdev , struct pci_device_id const *id )
{ struct uio_info *info ;
  int ret ;
  void *tmp ;
  int tmp___0 ;
  int tmp___1 ;
  unsigned int tmp___2 ;
  unsigned long __cil_tmp9 ;
  unsigned long __cil_tmp10 ;
  unsigned long __cil_tmp11 ;
  unsigned long __cil_tmp12 ;
  unsigned long __cil_tmp13 ;
  unsigned long __cil_tmp14 ;
  unsigned long __cil_tmp15 ;
  unsigned long __cil_tmp16 ;
  unsigned long __cil_tmp17 ;
  unsigned long __cil_tmp18 ;
  unsigned long __cil_tmp19 ;
  resource_size_t __cil_tmp20 ;
  unsigned long __cil_tmp21 ;
  unsigned long __cil_tmp22 ;
  unsigned long __cil_tmp23 ;
  unsigned long __cil_tmp24 ;
  unsigned long __cil_tmp25 ;
  unsigned long __cil_tmp26 ;
  unsigned long __cil_tmp27 ;
  unsigned long __cil_tmp28 ;
  unsigned long __cil_tmp29 ;
  unsigned long __cil_tmp30 ;
  void *__cil_tmp31 ;
  unsigned long __cil_tmp32 ;
  unsigned long __cil_tmp33 ;
  unsigned long __cil_tmp34 ;
  unsigned long __cil_tmp35 ;
  resource_size_t __cil_tmp36 ;
  unsigned long __cil_tmp37 ;
  unsigned long __cil_tmp38 ;
  unsigned long __cil_tmp39 ;
  unsigned long __cil_tmp40 ;
  resource_size_t __cil_tmp41 ;
  unsigned long __cil_tmp42 ;
  unsigned long __cil_tmp43 ;
  unsigned long __cil_tmp44 ;
  unsigned long __cil_tmp45 ;
  unsigned long __cil_tmp46 ;
  resource_size_t __cil_tmp47 ;
  unsigned long __cil_tmp48 ;
  unsigned long __cil_tmp49 ;
  unsigned long __cil_tmp50 ;
  unsigned long __cil_tmp51 ;
  unsigned long __cil_tmp52 ;
  unsigned long __cil_tmp53 ;
  unsigned long __cil_tmp54 ;
  unsigned long __cil_tmp55 ;
  unsigned long __cil_tmp56 ;
  unsigned long __cil_tmp57 ;
  unsigned long __cil_tmp58 ;
  unsigned long __cil_tmp59 ;
  unsigned long __cil_tmp60 ;
  unsigned long __cil_tmp61 ;
  resource_size_t __cil_tmp62 ;
  unsigned long __cil_tmp63 ;
  unsigned long __cil_tmp64 ;
  unsigned long __cil_tmp65 ;
  unsigned long __cil_tmp66 ;
  unsigned long __cil_tmp67 ;
  resource_size_t __cil_tmp68 ;
  resource_size_t __cil_tmp69 ;
  resource_size_t __cil_tmp70 ;
  unsigned long __cil_tmp71 ;
  unsigned long __cil_tmp72 ;
  unsigned long __cil_tmp73 ;
  unsigned long __cil_tmp74 ;
  unsigned long __cil_tmp75 ;
  unsigned long __cil_tmp76 ;
  unsigned long __cil_tmp77 ;
  unsigned long __cil_tmp78 ;
  unsigned long __cil_tmp79 ;
  resource_size_t __cil_tmp80 ;
  unsigned long __cil_tmp81 ;
  unsigned long __cil_tmp82 ;
  unsigned long __cil_tmp83 ;
  unsigned long __cil_tmp84 ;
  unsigned long __cil_tmp85 ;
  resource_size_t __cil_tmp86 ;
  resource_size_t __cil_tmp87 ;
  resource_size_t __cil_tmp88 ;
  unsigned long __cil_tmp89 ;
  unsigned long __cil_tmp90 ;
  unsigned long __cil_tmp91 ;
  unsigned long __cil_tmp92 ;
  unsigned long __cil_tmp93 ;
  unsigned long __cil_tmp94 ;
  unsigned long __cil_tmp95 ;
  unsigned long __cil_tmp96 ;
  unsigned long __cil_tmp97 ;
  unsigned long __cil_tmp98 ;
  unsigned long __cil_tmp99 ;
  unsigned int __cil_tmp100 ;
  unsigned long __cil_tmp101 ;
  unsigned long __cil_tmp102 ;
  unsigned long __cil_tmp103 ;
  unsigned long __cil_tmp104 ;
  unsigned long __cil_tmp105 ;
  unsigned long __cil_tmp106 ;
  struct device *__cil_tmp107 ;
  u32 __cil_tmp108 ;
  unsigned long __cil_tmp109 ;
  unsigned long __cil_tmp110 ;
  void *__cil_tmp111 ;
  void *__cil_tmp112 ;
  u8 __cil_tmp113 ;
  unsigned long __cil_tmp114 ;
  unsigned long __cil_tmp115 ;
  void *__cil_tmp116 ;
  void *__cil_tmp117 ;
  unsigned long __cil_tmp118 ;
  unsigned long __cil_tmp119 ;
  void *__cil_tmp120 ;
  void *__cil_tmp121 ;
  unsigned long __cil_tmp122 ;
  unsigned long __cil_tmp123 ;
  struct device *__cil_tmp124 ;
  struct device const *__cil_tmp125 ;
  void *__cil_tmp126 ;
  unsigned long __cil_tmp127 ;
  unsigned long __cil_tmp128 ;
  void *__cil_tmp129 ;
  void const *__cil_tmp130 ;
  {
  {
  tmp = kzalloc(528UL, 208U);
  info = (struct uio_info *)tmp;
  }
  if (! info) {
    return (-12);
  } else {
  }
  {
  tmp___0 = (int )pci_enable_device(pdev);
  }
  if (tmp___0) {
    goto out_free;
  } else {
  }
  {
  tmp___1 = (int )pci_request_regions(pdev, "aectc");
  }
  if (tmp___1) {
    goto out_disable;
  } else {
  }
  __cil_tmp9 = (unsigned long )info;
  __cil_tmp10 = __cil_tmp9 + 8;
  *((char const **)__cil_tmp10) = "aectc";
  __cil_tmp11 = 0 * 40UL;
  __cil_tmp12 = __cil_tmp11 + 8;
  __cil_tmp13 = 264 + __cil_tmp12;
  __cil_tmp14 = (unsigned long )info;
  __cil_tmp15 = __cil_tmp14 + __cil_tmp13;
  __cil_tmp16 = 0 * 56UL;
  __cil_tmp17 = 920 + __cil_tmp16;
  __cil_tmp18 = (unsigned long )pdev;
  __cil_tmp19 = __cil_tmp18 + __cil_tmp17;
  __cil_tmp20 = *((resource_size_t *)__cil_tmp19);
  *((unsigned long *)__cil_tmp15) = (unsigned long )__cil_tmp20;
  {
  __cil_tmp21 = 0 * 40UL;
  __cil_tmp22 = __cil_tmp21 + 8;
  __cil_tmp23 = 264 + __cil_tmp22;
  __cil_tmp24 = (unsigned long )info;
  __cil_tmp25 = __cil_tmp24 + __cil_tmp23;
  __cil_tmp26 = *((unsigned long *)__cil_tmp25);
  if (! __cil_tmp26) {
    goto out_release;
  } else {
  }
  }
  {
  __cil_tmp27 = (unsigned long )info;
  __cil_tmp28 = __cil_tmp27 + 480;
  *((void **)__cil_tmp28) = pci_iomap(pdev, 0, 0UL);
  }
  {
  __cil_tmp29 = (unsigned long )info;
  __cil_tmp30 = __cil_tmp29 + 480;
  __cil_tmp31 = *((void **)__cil_tmp30);
  if (! __cil_tmp31) {
    goto out_release;
  } else {
  }
  }
  {
  __cil_tmp32 = 0 * 56UL;
  __cil_tmp33 = 920 + __cil_tmp32;
  __cil_tmp34 = (unsigned long )pdev;
  __cil_tmp35 = __cil_tmp34 + __cil_tmp33;
  __cil_tmp36 = *((resource_size_t *)__cil_tmp35);
  if (__cil_tmp36 == 0ULL) {
    {
    __cil_tmp37 = 0 * 56UL;
    __cil_tmp38 = 920 + __cil_tmp37;
    __cil_tmp39 = (unsigned long )pdev;
    __cil_tmp40 = __cil_tmp39 + __cil_tmp38;
    __cil_tmp41 = *((resource_size_t *)__cil_tmp40);
    __cil_tmp42 = 0 * 56UL;
    __cil_tmp43 = __cil_tmp42 + 8;
    __cil_tmp44 = 920 + __cil_tmp43;
    __cil_tmp45 = (unsigned long )pdev;
    __cil_tmp46 = __cil_tmp45 + __cil_tmp44;
    __cil_tmp47 = *((resource_size_t *)__cil_tmp46);
    if (__cil_tmp47 == __cil_tmp41) {
      __cil_tmp48 = 0 * 40UL;
      __cil_tmp49 = __cil_tmp48 + 16;
      __cil_tmp50 = 264 + __cil_tmp49;
      __cil_tmp51 = (unsigned long )info;
      __cil_tmp52 = __cil_tmp51 + __cil_tmp50;
      *((unsigned long *)__cil_tmp52) = 0UL;
    } else {
      __cil_tmp53 = 0 * 40UL;
      __cil_tmp54 = __cil_tmp53 + 16;
      __cil_tmp55 = 264 + __cil_tmp54;
      __cil_tmp56 = (unsigned long )info;
      __cil_tmp57 = __cil_tmp56 + __cil_tmp55;
      __cil_tmp58 = 0 * 56UL;
      __cil_tmp59 = 920 + __cil_tmp58;
      __cil_tmp60 = (unsigned long )pdev;
      __cil_tmp61 = __cil_tmp60 + __cil_tmp59;
      __cil_tmp62 = *((resource_size_t *)__cil_tmp61);
      __cil_tmp63 = 0 * 56UL;
      __cil_tmp64 = __cil_tmp63 + 8;
      __cil_tmp65 = 920 + __cil_tmp64;
      __cil_tmp66 = (unsigned long )pdev;
      __cil_tmp67 = __cil_tmp66 + __cil_tmp65;
      __cil_tmp68 = *((resource_size_t *)__cil_tmp67);
      __cil_tmp69 = __cil_tmp68 - __cil_tmp62;
      __cil_tmp70 = __cil_tmp69 + 1ULL;
      *((unsigned long *)__cil_tmp57) = (unsigned long )__cil_tmp70;
    }
    }
  } else {
    __cil_tmp71 = 0 * 40UL;
    __cil_tmp72 = __cil_tmp71 + 16;
    __cil_tmp73 = 264 + __cil_tmp72;
    __cil_tmp74 = (unsigned long )info;
    __cil_tmp75 = __cil_tmp74 + __cil_tmp73;
    __cil_tmp76 = 0 * 56UL;
    __cil_tmp77 = 920 + __cil_tmp76;
    __cil_tmp78 = (unsigned long )pdev;
    __cil_tmp79 = __cil_tmp78 + __cil_tmp77;
    __cil_tmp80 = *((resource_size_t *)__cil_tmp79);
    __cil_tmp81 = 0 * 56UL;
    __cil_tmp82 = __cil_tmp81 + 8;
    __cil_tmp83 = 920 + __cil_tmp82;
    __cil_tmp84 = (unsigned long )pdev;
    __cil_tmp85 = __cil_tmp84 + __cil_tmp83;
    __cil_tmp86 = *((resource_size_t *)__cil_tmp85);
    __cil_tmp87 = __cil_tmp86 - __cil_tmp80;
    __cil_tmp88 = __cil_tmp87 + 1ULL;
    *((unsigned long *)__cil_tmp75) = (unsigned long )__cil_tmp88;
  }
  }
  {
  __cil_tmp89 = 0 * 40UL;
  __cil_tmp90 = __cil_tmp89 + 24;
  __cil_tmp91 = 264 + __cil_tmp90;
  __cil_tmp92 = (unsigned long )info;
  __cil_tmp93 = __cil_tmp92 + __cil_tmp91;
  *((int *)__cil_tmp93) = 2;
  __cil_tmp94 = (unsigned long )info;
  __cil_tmp95 = __cil_tmp94 + 16;
  *((char const **)__cil_tmp95) = "0.0.1";
  __cil_tmp96 = (unsigned long )info;
  __cil_tmp97 = __cil_tmp96 + 464;
  __cil_tmp98 = (unsigned long )pdev;
  __cil_tmp99 = __cil_tmp98 + 916;
  __cil_tmp100 = *((unsigned int *)__cil_tmp99);
  *((long *)__cil_tmp97) = (long )__cil_tmp100;
  __cil_tmp101 = (unsigned long )info;
  __cil_tmp102 = __cil_tmp101 + 472;
  *((unsigned long *)__cil_tmp102) = 128UL;
  __cil_tmp103 = (unsigned long )info;
  __cil_tmp104 = __cil_tmp103 + 488;
  *((irqreturn_t (**)(int irq , struct uio_info *dev_info ))__cil_tmp104) = & aectc_irq;
  print_board_data(pdev, info);
  __cil_tmp105 = (unsigned long )pdev;
  __cil_tmp106 = __cil_tmp105 + 144;
  __cil_tmp107 = (struct device *)__cil_tmp106;
  ret = (int )__uio_register_device(& __this_module, __cil_tmp107, info);
  }
  if (ret) {
    goto out_unmap;
  } else {
  }
  {
  __cil_tmp108 = (u32 )16;
  __cil_tmp109 = (unsigned long )info;
  __cil_tmp110 = __cil_tmp109 + 480;
  __cil_tmp111 = *((void **)__cil_tmp110);
  __cil_tmp112 = __cil_tmp111 + 252;
  iowrite32(__cil_tmp108, __cil_tmp112);
  __cil_tmp113 = (u8 )63;
  __cil_tmp114 = (unsigned long )info;
  __cil_tmp115 = __cil_tmp114 + 480;
  __cil_tmp116 = *((void **)__cil_tmp115);
  __cil_tmp117 = __cil_tmp116 + 46;
  iowrite8(__cil_tmp113, __cil_tmp117);
  __cil_tmp118 = (unsigned long )info;
  __cil_tmp119 = __cil_tmp118 + 480;
  __cil_tmp120 = *((void **)__cil_tmp119);
  __cil_tmp121 = __cil_tmp120 + 254;
  tmp___2 = ioread8(__cil_tmp121);
  }
  if (tmp___2 & 8U) {
  } else {
    {
    __cil_tmp122 = (unsigned long )pdev;
    __cil_tmp123 = __cil_tmp122 + 144;
    __cil_tmp124 = (struct device *)__cil_tmp123;
    __cil_tmp125 = (struct device const *)__cil_tmp124;
    dev_err(__cil_tmp125, "aectc: interrupts not enabled\n");
    }
  }
  {
  __cil_tmp126 = (void *)info;
  pci_set_drvdata(pdev, __cil_tmp126);
  }
  return (0);
  out_unmap:
  {
  __cil_tmp127 = (unsigned long )info;
  __cil_tmp128 = __cil_tmp127 + 480;
  __cil_tmp129 = *((void **)__cil_tmp128);
  pci_iounmap(pdev, __cil_tmp129);
  }
  out_release:
  {
  pci_release_regions(pdev);
  }
  out_disable:
  {
  pci_disable_device(pdev);
  }
  out_free:
  {
  __cil_tmp130 = (void const *)info;
  kfree(__cil_tmp130);
  }
  return (-19);
}
}
static void remove(struct pci_dev *pdev )
{ struct uio_info *info ;
  void *tmp ;
  u8 __cil_tmp4 ;
  unsigned long __cil_tmp5 ;
  unsigned long __cil_tmp6 ;
  void *__cil_tmp7 ;
  void *__cil_tmp8 ;
  u32 __cil_tmp9 ;
  unsigned long __cil_tmp10 ;
  unsigned long __cil_tmp11 ;
  void *__cil_tmp12 ;
  void *__cil_tmp13 ;
  unsigned long __cil_tmp14 ;
  unsigned long __cil_tmp15 ;
  void *__cil_tmp16 ;
  void *__cil_tmp17 ;
  void *__cil_tmp18 ;
  unsigned long __cil_tmp19 ;
  unsigned long __cil_tmp20 ;
  void *__cil_tmp21 ;
  void volatile *__cil_tmp22 ;
  void const *__cil_tmp23 ;
  {
  {
  tmp = pci_get_drvdata(pdev);
  info = (struct uio_info *)tmp;
  __cil_tmp4 = (u8 )0;
  __cil_tmp5 = (unsigned long )info;
  __cil_tmp6 = __cil_tmp5 + 480;
  __cil_tmp7 = *((void **)__cil_tmp6);
  __cil_tmp8 = __cil_tmp7 + 46;
  iowrite8(__cil_tmp4, __cil_tmp8);
  __cil_tmp9 = (u32 )0;
  __cil_tmp10 = (unsigned long )info;
  __cil_tmp11 = __cil_tmp10 + 480;
  __cil_tmp12 = *((void **)__cil_tmp11);
  __cil_tmp13 = __cil_tmp12 + 252;
  iowrite32(__cil_tmp9, __cil_tmp13);
  __cil_tmp14 = (unsigned long )info;
  __cil_tmp15 = __cil_tmp14 + 480;
  __cil_tmp16 = *((void **)__cil_tmp15);
  __cil_tmp17 = __cil_tmp16 + 15;
  ioread8(__cil_tmp17);
  uio_unregister_device(info);
  pci_release_regions(pdev);
  pci_disable_device(pdev);
  __cil_tmp18 = (void *)0;
  pci_set_drvdata(pdev, __cil_tmp18);
  __cil_tmp19 = (unsigned long )info;
  __cil_tmp20 = __cil_tmp19 + 480;
  __cil_tmp21 = *((void **)__cil_tmp20);
  __cil_tmp22 = (void volatile *)__cil_tmp21;
  iounmap(__cil_tmp22);
  __cil_tmp23 = (void const *)info;
  kfree(__cil_tmp23);
  }
  return;
}
}
static struct pci_driver pci_driver =
     {{(struct list_head *)0, (struct list_head *)0}, "aectc", (struct pci_device_id const *)(ids),
    & probe, & remove, (int (*)(struct pci_dev *dev , pm_message_t state ))0, (int (*)(struct pci_dev *dev ,
                                                                                       pm_message_t state ))0,
    (int (*)(struct pci_dev *dev ))0, (int (*)(struct pci_dev *dev ))0, (void (*)(struct pci_dev *dev ))0,
    (struct pci_error_handlers *)0, {(char const *)0, (struct bus_type *)0, (struct module *)0,
                                     (char const *)0, (_Bool)0, (struct of_device_id const *)0,
                                     (int (*)(struct device *dev ))0, (int (*)(struct device *dev ))0,
                                     (void (*)(struct device *dev ))0, (int (*)(struct device *dev ,
                                                                                pm_message_t state ))0,
                                     (int (*)(struct device *dev ))0, (struct attribute_group const **)0,
                                     (struct dev_pm_ops const *)0, (struct driver_private *)0},
    {{{{{{0U}}, 0U, 0U, (void *)0}}}, {(struct list_head *)0, (struct list_head *)0}}};
static int aectc_init(void) __attribute__((__section__(".init.text"), __no_instrument_function__)) ;
static int aectc_init(void)
{ int tmp ;
  {
  {
  tmp = (int )__pci_register_driver(& pci_driver, & __this_module, "uio_aec");
  }
  return (tmp);
}
}
static void aectc_exit(void) __attribute__((__section__(".exit.text"), __no_instrument_function__)) ;
static void aectc_exit(void)
{
  {
  {
  pci_unregister_driver(& pci_driver);
  }
  return;
}
}
static char const __mod_license174[12] __attribute__((__used__, __unused__, __section__(".modinfo"),
__aligned__(1))) =
  { (char const )'l', (char const )'i', (char const )'c', (char const )'e',
        (char const )'n', (char const )'s', (char const )'e', (char const )'=',
        (char const )'G', (char const )'P', (char const )'L', (char const )'\000'};
int init_module(void)
{ int tmp ;
  {
  {
  tmp = aectc_init();
  }
  return (tmp);
}
}
void cleanup_module(void)
{
  {
  {
  aectc_exit();
  }
  return;
}
}
void ldv_check_final_state(void) ;
extern void ldv_check_return_value(int res ) ;
extern void ldv_initialize(void) ;
extern int __VERIFIER_nondet_int(void) ;
int LDV_IN_INTERRUPT ;
static int res_probe_2 ;
void main(void)
{ struct pci_dev *var_group1 ;
  struct pci_device_id const *var_probe_2_p1 ;
  int tmp ;
  int ldv_s_pci_driver_pci_driver ;
  int tmp___0 ;
  int tmp___1 ;
  int __cil_tmp7 ;
  {
  {
  LDV_IN_INTERRUPT = 1;
  ldv_initialize();
  tmp = aectc_init();
  }
  if (tmp) {
    goto ldv_final;
  } else {
  }
  ldv_s_pci_driver_pci_driver = 0;
  {
  while (1) {
    while_continue: ;
    {
    tmp___1 = __VERIFIER_nondet_int();
    }
    if (tmp___1) {
    } else {
      {
      __cil_tmp7 = ldv_s_pci_driver_pci_driver == 0;
      if (! __cil_tmp7) {
      } else {
        goto while_break;
      }
      }
    }
    {
    tmp___0 = __VERIFIER_nondet_int();
    }
    if (tmp___0 == 0) {
      goto case_0;
    } else
    if (tmp___0 == 1) {
      goto case_1;
    } else {
      {
      goto switch_default;
      if (0) {
        case_0:
        if (ldv_s_pci_driver_pci_driver == 0) {
          {
          res_probe_2 = probe(var_group1, var_probe_2_p1);
          ldv_check_return_value(res_probe_2);
          }
          if (res_probe_2) {
            goto ldv_module_exit;
          } else {
          }
          ldv_s_pci_driver_pci_driver = 0;
        } else {
        }
        goto switch_break;
        case_1:
        {
        remove(var_group1);
        }
        goto switch_break;
        switch_default:
        goto switch_break;
      } else {
        switch_break: ;
      }
      }
    }
  }
  while_break: ;
  }
  ldv_module_exit:
  {
  aectc_exit();
  }
  ldv_final:
  {
  ldv_check_final_state();
  }
  return;
}
}
void ldv_blast_assert(void)
{
  {
  ERROR: {reach_error();abort();}
}
}
extern int __VERIFIER_nondet_int(void) ;
int ldv_mutex = 1;
int __attribute__((__warn_unused_result__)) mutex_lock_interruptible(struct mutex *lock )
{ int nondetermined ;
  {
  if (ldv_mutex == 1) {
  } else {
    {
    ldv_blast_assert();
    }
  }
  {
  nondetermined = __VERIFIER_nondet_int();
  }
  if (nondetermined) {
    ldv_mutex = 2;
    return (0);
  } else {
    return (-4);
  }
}
}
int __attribute__((__warn_unused_result__)) mutex_lock_killable(struct mutex *lock )
{ int nondetermined ;
  {
  if (ldv_mutex == 1) {
  } else {
    {
    ldv_blast_assert();
    }
  }
  {
  nondetermined = __VERIFIER_nondet_int();
  }
  if (nondetermined) {
    ldv_mutex = 2;
    return (0);
  } else {
    return (-4);
  }
}
}
int atomic_dec_and_mutex_lock(atomic_t *cnt , struct mutex *lock )
{ int atomic_value_after_dec ;
  {
  if (ldv_mutex == 1) {
  } else {
    {
    ldv_blast_assert();
    }
  }
  {
  atomic_value_after_dec = __VERIFIER_nondet_int();
  }
  if (atomic_value_after_dec == 0) {
    ldv_mutex = 2;
    return (1);
  } else {
  }
  return (0);
}
}
void mutex_lock(struct mutex *lock )
{
  {
  if (ldv_mutex == 1) {
  } else {
    {
    ldv_blast_assert();
    }
  }
  ldv_mutex = 2;
  return;
}
}
int mutex_trylock(struct mutex *lock )
{ int nondetermined ;
  {
  if (ldv_mutex == 1) {
  } else {
    {
    ldv_blast_assert();
    }
  }
  {
  nondetermined = __VERIFIER_nondet_int();
  }
  if (nondetermined) {
    ldv_mutex = 2;
    return (1);
  } else {
    return (0);
  }
}
}
void mutex_unlock(struct mutex *lock )
{
  {
  if (ldv_mutex == 2) {
  } else {
    {
    ldv_blast_assert();
    }
  }
  ldv_mutex = 1;
  return;
}
}
void ldv_check_final_state(void)
{
  {
  if (ldv_mutex == 1) {
  } else {
    {
    ldv_blast_assert();
    }
  }
  return;
}
}
long ldv__builtin_expect(long val , long res )
{
  {
  return (val);
}
}
int __VERIFIER_nondet_int(void);
int __pci_register_driver(struct pci_driver *arg0, struct module *arg1, const char *arg2) {
  return __VERIFIER_nondet_int();
}
int __VERIFIER_nondet_int(void);
int __uio_register_device(struct module *arg0, struct device *arg1, struct uio_info *arg2) {
  return __VERIFIER_nondet_int();
}
int __VERIFIER_nondet_int(void);
int _dev_info(const struct device *arg0, const char *arg1, ...) {
  return __VERIFIER_nondet_int();
}
int __VERIFIER_nondet_int(void);
int dev_err(const struct device *arg0, const char *arg1, ...) {
  return __VERIFIER_nondet_int();
}
void *dev_get_drvdata(const struct device *arg0) {
  return ldv_malloc(0UL);
}
int __VERIFIER_nondet_int(void);
int dev_set_drvdata(struct device *arg0, void *arg1) {
  return __VERIFIER_nondet_int();
}
unsigned int __VERIFIER_nondet_uint(void);
unsigned int ioread8(void *arg0) {
  return __VERIFIER_nondet_uint();
}
void iounmap(volatile void *arg0) {
  return;
}
void iowrite32(u32 arg0, void *arg1) {
  return;
}
void iowrite8(u8 arg0, void *arg1) {
  return;
}
void ldv_check_return_value(int arg0) {
  return;
}
void ldv_initialize() {
  return;
}
void pci_disable_device(struct pci_dev *arg0) {
  return;
}
int __VERIFIER_nondet_int(void);
int pci_enable_device(struct pci_dev *arg0) {
  return __VERIFIER_nondet_int();
}
void *pci_iomap(struct pci_dev *arg0, int arg1, unsigned long arg2) {
  return ldv_malloc(arg2);
}
void pci_iounmap(struct pci_dev *arg0, void *arg1) {
  return;
}
void pci_release_regions(struct pci_dev *arg0) {
  return;
}
int __VERIFIER_nondet_int(void);
int pci_request_regions(struct pci_dev *arg0, const char *arg1) {
  return __VERIFIER_nondet_int();
}
void pci_unregister_driver(struct pci_driver *arg0) {
  return;
}
void uio_unregister_device(struct uio_info *arg0) {
  return;
}
void free(void *);
void kfree(void const *p) {
  free((void *)p);
}
