extern void abort(void);

extern void __assert_fail (const char *__assertion, const char *__file,
      unsigned int __line, const char *__function)
     __attribute__ ((__nothrow__ , __leaf__)) __attribute__ ((__noreturn__));
extern void __assert_perror_fail (int __errnum, const char *__file,
      unsigned int __line, const char *__function)
     __attribute__ ((__nothrow__ , __leaf__)) __attribute__ ((__noreturn__));
extern void __assert (const char *__assertion, const char *__file, int __line)
     __attribute__ ((__nothrow__ , __leaf__)) __attribute__ ((__noreturn__));

void reach_error() { ((void) sizeof ((0) ? 1 : 0), __extension__ ({ if (0) ; else __assert_fail ("0", "32_1_cilled_ok_nondet_linux-3.4-32_1-drivers--hid--hid-zydacron.ko-ldv_main0_sequence_infinite_withcheck_stateful.cil.out.c", 3, __extension__ __PRETTY_FUNCTION__); })); }
typedef signed char __s8;
typedef unsigned char __u8;
typedef short __s16;
typedef unsigned short __u16;
typedef int __s32;
typedef unsigned int __u32;
typedef unsigned long long __u64;
typedef unsigned char u8;
typedef short s16;
typedef unsigned short u16;
typedef int s32;
typedef unsigned int u32;
typedef long long s64;
typedef unsigned long long u64;
typedef long __kernel_long_t;
typedef unsigned long __kernel_ulong_t;
typedef unsigned int __kernel_uid32_t;
typedef unsigned int __kernel_gid32_t;
typedef __kernel_ulong_t __kernel_size_t;
typedef __kernel_long_t __kernel_ssize_t;
typedef long long __kernel_loff_t;
typedef __kernel_long_t __kernel_time_t;
typedef __u32 __kernel_dev_t;
typedef __kernel_dev_t dev_t;
typedef unsigned short umode_t;
typedef _Bool bool;
typedef __kernel_uid32_t uid_t;
typedef __kernel_gid32_t gid_t;
typedef __kernel_loff_t loff_t;
typedef __kernel_size_t size_t;
typedef __kernel_ssize_t ssize_t;
typedef __kernel_time_t time_t;
typedef unsigned long sector_t;
typedef unsigned long blkcnt_t;
typedef unsigned int gfp_t;
typedef unsigned int fmode_t;
struct __anonstruct_atomic_t_7 {
   int counter ;
};
typedef struct __anonstruct_atomic_t_7 atomic_t;
struct __anonstruct_atomic64_t_8 {
   long counter ;
};
typedef struct __anonstruct_atomic64_t_8 atomic64_t;
struct list_head {
   struct list_head *next ;
   struct list_head *prev ;
};
struct hlist_node;
struct hlist_head {
   struct hlist_node *first ;
};
struct hlist_node {
   struct hlist_node *next ;
   struct hlist_node **pprev ;
};
struct rcu_head {
   struct rcu_head *next ;
   void (*func)(struct rcu_head *head ) ;
};
struct device;
struct device;
struct task_struct;
struct task_struct;
struct lock_class_key {
};
struct sock;
struct sock;
struct kobject;
struct kobject;
enum kobj_ns_type {
    KOBJ_NS_TYPE_NONE = 0,
    KOBJ_NS_TYPE_NET = 1,
    KOBJ_NS_TYPES = 2
} ;
struct kobj_ns_type_operations {
   enum kobj_ns_type type ;
   void *(*grab_current_ns)(void) ;
   void const *(*netlink_ns)(struct sock *sk ) ;
   void const *(*initial_ns)(void) ;
   void (*drop_ns)(void * ) ;
};
struct task_struct;
typedef void (*ctor_fn_t)(void);
struct page;
struct file;
struct file;
struct seq_file;
struct seq_file;
struct page;
struct task_struct;
struct arch_spinlock;
struct arch_spinlock;
struct task_struct;
struct module;
struct module;
struct device;
struct completion;
struct completion;
struct pid;
struct pid;
struct task_struct;
struct page;
struct bug_entry {
   int bug_addr_disp ;
   int file_disp ;
   unsigned short line ;
   unsigned short flags ;
};
struct static_key;
struct static_key;
struct kmem_cache;
typedef atomic64_t atomic_long_t;
struct kobject;
struct module;
enum kobj_ns_type;
struct attribute {
   char const *name ;
   umode_t mode ;
};
struct attribute_group {
   char const *name ;
   umode_t (*is_visible)(struct kobject * , struct attribute * , int ) ;
   struct attribute **attrs ;
};
struct file;
struct vm_area_struct;
struct vm_area_struct;
struct bin_attribute {
   struct attribute attr ;
   size_t size ;
   void *private ;
   ssize_t (*read)(struct file * , struct kobject * , struct bin_attribute * , char * ,
                   loff_t , size_t ) ;
   ssize_t (*write)(struct file * , struct kobject * , struct bin_attribute * , char * ,
                    loff_t , size_t ) ;
   int (*mmap)(struct file * , struct kobject * , struct bin_attribute *attr , struct vm_area_struct *vma ) ;
};
struct sysfs_ops {
   ssize_t (*show)(struct kobject * , struct attribute * , char * ) ;
   ssize_t (*store)(struct kobject * , struct attribute * , char const * , size_t ) ;
   void const *(*namespace)(struct kobject * , struct attribute const * ) ;
};
struct sysfs_dirent;
struct sysfs_dirent;
struct timespec;
struct timespec;
struct task_struct;
typedef u16 __ticket_t;
typedef u32 __ticketpair_t;
struct __raw_tickets {
   __ticket_t head ;
   __ticket_t tail ;
};
union __anonunion____missing_field_name_36 {
   __ticketpair_t head_tail ;
   struct __raw_tickets tickets ;
};
struct arch_spinlock {
   union __anonunion____missing_field_name_36 __annonCompField17 ;
};
typedef struct arch_spinlock arch_spinlock_t;
struct __anonstruct____missing_field_name_38 {
   u32 read ;
   s32 write ;
};
union __anonunion_arch_rwlock_t_37 {
   s64 lock ;
   struct __anonstruct____missing_field_name_38 __annonCompField18 ;
};
typedef union __anonunion_arch_rwlock_t_37 arch_rwlock_t;
struct raw_spinlock {
   arch_spinlock_t raw_lock ;
   unsigned int magic ;
   unsigned int owner_cpu ;
   void *owner ;
};
typedef struct raw_spinlock raw_spinlock_t;
union __anonunion____missing_field_name_39 {
   struct raw_spinlock rlock ;
};
struct spinlock {
   union __anonunion____missing_field_name_39 __annonCompField19 ;
};
typedef struct spinlock spinlock_t;
struct __anonstruct_rwlock_t_40 {
   arch_rwlock_t raw_lock ;
   unsigned int magic ;
   unsigned int owner_cpu ;
   void *owner ;
};
typedef struct __anonstruct_rwlock_t_40 rwlock_t;
struct kref {
   atomic_t refcount ;
};
struct __wait_queue_head {
   spinlock_t lock ;
   struct list_head task_list ;
};
typedef struct __wait_queue_head wait_queue_head_t;
struct task_struct;
struct kset;
struct kobj_type;
struct kobject {
   char const *name ;
   struct list_head entry ;
   struct kobject *parent ;
   struct kset *kset ;
   struct kobj_type *ktype ;
   struct sysfs_dirent *sd ;
   struct kref kref ;
   unsigned int state_initialized : 1 ;
   unsigned int state_in_sysfs : 1 ;
   unsigned int state_add_uevent_sent : 1 ;
   unsigned int state_remove_uevent_sent : 1 ;
   unsigned int uevent_suppress : 1 ;
};
struct kobj_type {
   void (*release)(struct kobject *kobj ) ;
   struct sysfs_ops const *sysfs_ops ;
   struct attribute **default_attrs ;
   struct kobj_ns_type_operations const *(*child_ns_type)(struct kobject *kobj ) ;
   void const *(*namespace)(struct kobject *kobj ) ;
};
struct kobj_uevent_env {
   char *envp[32] ;
   int envp_idx ;
   char buf[2048] ;
   int buflen ;
};
struct kset_uevent_ops {
   int (* const filter)(struct kset *kset , struct kobject *kobj ) ;
   char const *(* const name)(struct kset *kset , struct kobject *kobj ) ;
   int (* const uevent)(struct kset *kset , struct kobject *kobj , struct kobj_uevent_env *env ) ;
};
struct sock;
struct kset {
   struct list_head list ;
   spinlock_t list_lock ;
   struct kobject kobj ;
   struct kset_uevent_ops const *uevent_ops ;
};
struct klist_node;
struct klist_node;
struct klist_node {
   void *n_klist ;
   struct list_head n_node ;
   struct kref n_ref ;
};
struct mutex {
   atomic_t count ;
   spinlock_t wait_lock ;
   struct list_head wait_list ;
   struct task_struct *owner ;
   char const *name ;
   void *magic ;
};
struct seqcount {
   unsigned int sequence ;
};
typedef struct seqcount seqcount_t;
struct timespec {
   __kernel_time_t tv_sec ;
   long tv_nsec ;
};
union ktime {
   s64 tv64 ;
};
typedef union ktime ktime_t;
struct tvec_base;
struct tvec_base;
struct timer_list {
   struct list_head entry ;
   unsigned long expires ;
   struct tvec_base *base ;
   void (*function)(unsigned long ) ;
   unsigned long data ;
   int slack ;
   int start_pid ;
   void *start_site ;
   char start_comm[16] ;
};
struct work_struct;
struct work_struct;
struct work_struct {
   atomic_long_t data ;
   struct list_head entry ;
   void (*func)(struct work_struct *work ) ;
};
struct completion {
   unsigned int done ;
   wait_queue_head_t wait ;
};
struct device;
struct pm_message {
   int event ;
};
typedef struct pm_message pm_message_t;
struct dev_pm_ops {
   int (*prepare)(struct device *dev ) ;
   void (*complete)(struct device *dev ) ;
   int (*suspend)(struct device *dev ) ;
   int (*resume)(struct device *dev ) ;
   int (*freeze)(struct device *dev ) ;
   int (*thaw)(struct device *dev ) ;
   int (*poweroff)(struct device *dev ) ;
   int (*restore)(struct device *dev ) ;
   int (*suspend_late)(struct device *dev ) ;
   int (*resume_early)(struct device *dev ) ;
   int (*freeze_late)(struct device *dev ) ;
   int (*thaw_early)(struct device *dev ) ;
   int (*poweroff_late)(struct device *dev ) ;
   int (*restore_early)(struct device *dev ) ;
   int (*suspend_noirq)(struct device *dev ) ;
   int (*resume_noirq)(struct device *dev ) ;
   int (*freeze_noirq)(struct device *dev ) ;
   int (*thaw_noirq)(struct device *dev ) ;
   int (*poweroff_noirq)(struct device *dev ) ;
   int (*restore_noirq)(struct device *dev ) ;
   int (*runtime_suspend)(struct device *dev ) ;
   int (*runtime_resume)(struct device *dev ) ;
   int (*runtime_idle)(struct device *dev ) ;
};
enum rpm_status {
    RPM_ACTIVE = 0,
    RPM_RESUMING = 1,
    RPM_SUSPENDED = 2,
    RPM_SUSPENDING = 3
} ;
enum rpm_request {
    RPM_REQ_NONE = 0,
    RPM_REQ_IDLE = 1,
    RPM_REQ_SUSPEND = 2,
    RPM_REQ_AUTOSUSPEND = 3,
    RPM_REQ_RESUME = 4
} ;
struct wakeup_source;
struct wakeup_source;
struct pm_subsys_data {
   spinlock_t lock ;
   unsigned int refcount ;
};
struct dev_pm_qos_request;
struct pm_qos_constraints;
struct dev_pm_info {
   pm_message_t power_state ;
   unsigned int can_wakeup : 1 ;
   unsigned int async_suspend : 1 ;
   bool is_prepared : 1 ;
   bool is_suspended : 1 ;
   bool ignore_children : 1 ;
   spinlock_t lock ;
   struct list_head entry ;
   struct completion completion ;
   struct wakeup_source *wakeup ;
   bool wakeup_path : 1 ;
   struct timer_list suspend_timer ;
   unsigned long timer_expires ;
   struct work_struct work ;
   wait_queue_head_t wait_queue ;
   atomic_t usage_count ;
   atomic_t child_count ;
   unsigned int disable_depth : 3 ;
   unsigned int idle_notification : 1 ;
   unsigned int request_pending : 1 ;
   unsigned int deferred_resume : 1 ;
   unsigned int run_wake : 1 ;
   unsigned int runtime_auto : 1 ;
   unsigned int no_callbacks : 1 ;
   unsigned int irq_safe : 1 ;
   unsigned int use_autosuspend : 1 ;
   unsigned int timer_autosuspends : 1 ;
   enum rpm_request request ;
   enum rpm_status runtime_status ;
   int runtime_error ;
   int autosuspend_delay ;
   unsigned long last_busy ;
   unsigned long active_jiffies ;
   unsigned long suspended_jiffies ;
   unsigned long accounting_timestamp ;
   ktime_t suspend_time ;
   s64 max_time_suspended_ns ;
   struct dev_pm_qos_request *pq_req ;
   struct pm_subsys_data *subsys_data ;
   struct pm_qos_constraints *constraints ;
};
struct dev_pm_domain {
   struct dev_pm_ops ops ;
};
struct dma_map_ops;
struct dev_archdata {
   void *acpi_handle ;
   struct dma_map_ops *dma_ops ;
   void *iommu ;
};
struct device;
struct device_private;
struct device_private;
struct device_driver;
struct device_driver;
struct driver_private;
struct driver_private;
struct module;
struct class;
struct class;
struct subsys_private;
struct subsys_private;
struct bus_type;
struct bus_type;
struct device_node;
struct device_node;
struct iommu_ops;
struct iommu_ops;
struct bus_attribute {
   struct attribute attr ;
   ssize_t (*show)(struct bus_type *bus , char *buf ) ;
   ssize_t (*store)(struct bus_type *bus , char const *buf , size_t count ) ;
};
struct device_attribute;
struct driver_attribute;
struct bus_type {
   char const *name ;
   char const *dev_name ;
   struct device *dev_root ;
   struct bus_attribute *bus_attrs ;
   struct device_attribute *dev_attrs ;
   struct driver_attribute *drv_attrs ;
   int (*match)(struct device *dev , struct device_driver *drv ) ;
   int (*uevent)(struct device *dev , struct kobj_uevent_env *env ) ;
   int (*probe)(struct device *dev ) ;
   int (*remove)(struct device *dev ) ;
   void (*shutdown)(struct device *dev ) ;
   int (*suspend)(struct device *dev , pm_message_t state ) ;
   int (*resume)(struct device *dev ) ;
   struct dev_pm_ops const *pm ;
   struct iommu_ops *iommu_ops ;
   struct subsys_private *p ;
};
struct device_type;
struct of_device_id;
struct device_driver {
   char const *name ;
   struct bus_type *bus ;
   struct module *owner ;
   char const *mod_name ;
   bool suppress_bind_attrs ;
   struct of_device_id const *of_match_table ;
   int (*probe)(struct device *dev ) ;
   int (*remove)(struct device *dev ) ;
   void (*shutdown)(struct device *dev ) ;
   int (*suspend)(struct device *dev , pm_message_t state ) ;
   int (*resume)(struct device *dev ) ;
   struct attribute_group const **groups ;
   struct dev_pm_ops const *pm ;
   struct driver_private *p ;
};
struct driver_attribute {
   struct attribute attr ;
   ssize_t (*show)(struct device_driver *driver , char *buf ) ;
   ssize_t (*store)(struct device_driver *driver , char const *buf , size_t count ) ;
};
struct class_attribute;
struct class {
   char const *name ;
   struct module *owner ;
   struct class_attribute *class_attrs ;
   struct device_attribute *dev_attrs ;
   struct bin_attribute *dev_bin_attrs ;
   struct kobject *dev_kobj ;
   int (*dev_uevent)(struct device *dev , struct kobj_uevent_env *env ) ;
   char *(*devnode)(struct device *dev , umode_t *mode ) ;
   void (*class_release)(struct class *class ) ;
   void (*dev_release)(struct device *dev ) ;
   int (*suspend)(struct device *dev , pm_message_t state ) ;
   int (*resume)(struct device *dev ) ;
   struct kobj_ns_type_operations const *ns_type ;
   void const *(*namespace)(struct device *dev ) ;
   struct dev_pm_ops const *pm ;
   struct subsys_private *p ;
};
struct class_attribute {
   struct attribute attr ;
   ssize_t (*show)(struct class *class , struct class_attribute *attr , char *buf ) ;
   ssize_t (*store)(struct class *class , struct class_attribute *attr , char const *buf ,
                    size_t count ) ;
   void const *(*namespace)(struct class *class , struct class_attribute const *attr ) ;
};
struct device_type {
   char const *name ;
   struct attribute_group const **groups ;
   int (*uevent)(struct device *dev , struct kobj_uevent_env *env ) ;
   char *(*devnode)(struct device *dev , umode_t *mode ) ;
   void (*release)(struct device *dev ) ;
   struct dev_pm_ops const *pm ;
};
struct device_attribute {
   struct attribute attr ;
   ssize_t (*show)(struct device *dev , struct device_attribute *attr , char *buf ) ;
   ssize_t (*store)(struct device *dev , struct device_attribute *attr , char const *buf ,
                    size_t count ) ;
};
struct device_dma_parameters {
   unsigned int max_segment_size ;
   unsigned long segment_boundary_mask ;
};
struct dma_coherent_mem;
struct device {
   struct device *parent ;
   struct device_private *p ;
   struct kobject kobj ;
   char const *init_name ;
   struct device_type const *type ;
   struct mutex mutex ;
   struct bus_type *bus ;
   struct device_driver *driver ;
   void *platform_data ;
   struct dev_pm_info power ;
   struct dev_pm_domain *pm_domain ;
   int numa_node ;
   u64 *dma_mask ;
   u64 coherent_dma_mask ;
   struct device_dma_parameters *dma_parms ;
   struct list_head dma_pools ;
   struct dma_coherent_mem *dma_mem ;
   struct dev_archdata archdata ;
   struct device_node *of_node ;
   dev_t devt ;
   u32 id ;
   spinlock_t devres_lock ;
   struct list_head devres_head ;
   struct klist_node knode_class ;
   struct class *class ;
   struct attribute_group const **groups ;
   void (*release)(struct device *dev ) ;
};
struct wakeup_source {
   char const *name ;
   struct list_head entry ;
   spinlock_t lock ;
   struct timer_list timer ;
   unsigned long timer_expires ;
   ktime_t total_time ;
   ktime_t max_time ;
   ktime_t last_time ;
   unsigned long event_count ;
   unsigned long active_count ;
   unsigned long relax_count ;
   unsigned long hit_count ;
   unsigned int active : 1 ;
};
struct page;
struct rw_semaphore;
struct rw_semaphore;
struct rw_semaphore {
   long count ;
   raw_spinlock_t wait_lock ;
   struct list_head wait_list ;
};
struct page;
struct device;
struct vm_area_struct;
struct page;
struct vm_area_struct;
struct kmem_cache_cpu {
   void **freelist ;
   unsigned long tid ;
   struct page *page ;
   struct page *partial ;
   int node ;
   unsigned int stat[26] ;
};
struct kmem_cache_node {
   spinlock_t list_lock ;
   unsigned long nr_partial ;
   struct list_head partial ;
   atomic_long_t nr_slabs ;
   atomic_long_t total_objects ;
   struct list_head full ;
};
struct kmem_cache_order_objects {
   unsigned long x ;
};
struct kmem_cache {
   struct kmem_cache_cpu *cpu_slab ;
   unsigned long flags ;
   unsigned long min_partial ;
   int size ;
   int objsize ;
   int offset ;
   int cpu_partial ;
   struct kmem_cache_order_objects oo ;
   struct kmem_cache_order_objects max ;
   struct kmem_cache_order_objects min ;
   gfp_t allocflags ;
   int refcount ;
   void (*ctor)(void * ) ;
   int inuse ;
   int align ;
   int reserved ;
   char const *name ;
   struct list_head list ;
   struct kobject kobj ;
   int remote_node_defrag_ratio ;
   struct kmem_cache_node *node[1 << 10] ;
};
typedef unsigned long kernel_ulong_t;
struct hid_device_id {
   __u16 bus ;
   __u16 pad1 ;
   __u32 vendor ;
   __u32 product ;
   kernel_ulong_t driver_data __attribute__((__aligned__(sizeof(kernel_ulong_t )))) ;
};
struct of_device_id {
   char name[32] ;
   char type[32] ;
   char compatible[128] ;
   void *data ;
};
struct input_device_id {
   kernel_ulong_t flags ;
   __u16 bustype ;
   __u16 vendor ;
   __u16 product ;
   __u16 version ;
   kernel_ulong_t evbit[1] ;
   kernel_ulong_t keybit[12] ;
   kernel_ulong_t relbit[1] ;
   kernel_ulong_t absbit[1] ;
   kernel_ulong_t mscbit[1] ;
   kernel_ulong_t ledbit[1] ;
   kernel_ulong_t sndbit[1] ;
   kernel_ulong_t ffbit[2] ;
   kernel_ulong_t swbit[1] ;
   kernel_ulong_t driver_info ;
};
struct input_id {
   __u16 bustype ;
   __u16 vendor ;
   __u16 product ;
   __u16 version ;
};
struct input_absinfo {
   __s32 value ;
   __s32 minimum ;
   __s32 maximum ;
   __s32 fuzz ;
   __s32 flat ;
   __s32 resolution ;
};
struct input_keymap_entry {
   __u8 flags ;
   __u8 len ;
   __u16 index ;
   __u32 keycode ;
   __u8 scancode[32] ;
};
struct ff_replay {
   __u16 length ;
   __u16 delay ;
};
struct ff_trigger {
   __u16 button ;
   __u16 interval ;
};
struct ff_envelope {
   __u16 attack_length ;
   __u16 attack_level ;
   __u16 fade_length ;
   __u16 fade_level ;
};
struct ff_constant_effect {
   __s16 level ;
   struct ff_envelope envelope ;
};
struct ff_ramp_effect {
   __s16 start_level ;
   __s16 end_level ;
   struct ff_envelope envelope ;
};
struct ff_condition_effect {
   __u16 right_saturation ;
   __u16 left_saturation ;
   __s16 right_coeff ;
   __s16 left_coeff ;
   __u16 deadband ;
   __s16 center ;
};
struct ff_periodic_effect {
   __u16 waveform ;
   __u16 period ;
   __s16 magnitude ;
   __s16 offset ;
   __u16 phase ;
   struct ff_envelope envelope ;
   __u32 custom_len ;
   __s16 *custom_data ;
};
struct ff_rumble_effect {
   __u16 strong_magnitude ;
   __u16 weak_magnitude ;
};
union __anonunion_u_140 {
   struct ff_constant_effect constant ;
   struct ff_ramp_effect ramp ;
   struct ff_periodic_effect periodic ;
   struct ff_condition_effect condition[2] ;
   struct ff_rumble_effect rumble ;
};
struct ff_effect {
   __u16 type ;
   __s16 id ;
   __u16 direction ;
   struct ff_trigger trigger ;
   struct ff_replay replay ;
   union __anonunion_u_140 u ;
};
struct page;
struct block_device;
struct block_device;
struct hlist_bl_node;
struct hlist_bl_head {
   struct hlist_bl_node *first ;
};
struct hlist_bl_node {
   struct hlist_bl_node *next ;
   struct hlist_bl_node **pprev ;
};
struct nameidata;
struct nameidata;
struct path;
struct path;
struct vfsmount;
struct vfsmount;
struct qstr {
   unsigned int hash ;
   unsigned int len ;
   unsigned char const *name ;
};
struct inode;
struct dentry_operations;
struct super_block;
union __anonunion_d_u_141 {
   struct list_head d_child ;
   struct rcu_head d_rcu ;
};
struct dentry {
   unsigned int d_flags ;
   seqcount_t d_seq ;
   struct hlist_bl_node d_hash ;
   struct dentry *d_parent ;
   struct qstr d_name ;
   struct inode *d_inode ;
   unsigned char d_iname[32] ;
   unsigned int d_count ;
   spinlock_t d_lock ;
   struct dentry_operations const *d_op ;
   struct super_block *d_sb ;
   unsigned long d_time ;
   void *d_fsdata ;
   struct list_head d_lru ;
   union __anonunion_d_u_141 d_u ;
   struct list_head d_subdirs ;
   struct list_head d_alias ;
};
struct dentry_operations {
   int (*d_revalidate)(struct dentry * , struct nameidata * ) ;
   int (*d_hash)(struct dentry const * , struct inode const * , struct qstr * ) ;
   int (*d_compare)(struct dentry const * , struct inode const * , struct dentry const * ,
                    struct inode const * , unsigned int , char const * , struct qstr const * ) ;
   int (*d_delete)(struct dentry const * ) ;
   void (*d_release)(struct dentry * ) ;
   void (*d_prune)(struct dentry * ) ;
   void (*d_iput)(struct dentry * , struct inode * ) ;
   char *(*d_dname)(struct dentry * , char * , int ) ;
   struct vfsmount *(*d_automount)(struct path * ) ;
   int (*d_manage)(struct dentry * , bool ) ;
} __attribute__((__aligned__((1) << (6) ))) ;
struct dentry;
struct vfsmount;
struct path {
   struct vfsmount *mnt ;
   struct dentry *dentry ;
};
struct kstat {
   u64 ino ;
   dev_t dev ;
   umode_t mode ;
   unsigned int nlink ;
   uid_t uid ;
   gid_t gid ;
   dev_t rdev ;
   loff_t size ;
   struct timespec atime ;
   struct timespec mtime ;
   struct timespec ctime ;
   unsigned long blksize ;
   unsigned long long blocks ;
};
struct radix_tree_node;
struct radix_tree_root {
   unsigned int height ;
   gfp_t gfp_mask ;
   struct radix_tree_node *rnode ;
};
struct prio_tree_node;
struct prio_tree_node {
   struct prio_tree_node *left ;
   struct prio_tree_node *right ;
   struct prio_tree_node *parent ;
   unsigned long start ;
   unsigned long last ;
};
struct prio_tree_root {
   struct prio_tree_node *prio_tree_node ;
   unsigned short index_bits ;
   unsigned short raw ;
};
enum pid_type {
    PIDTYPE_PID = 0,
    PIDTYPE_PGID = 1,
    PIDTYPE_SID = 2,
    PIDTYPE_MAX = 3
} ;
struct pid_namespace;
struct upid {
   int nr ;
   struct pid_namespace *ns ;
   struct hlist_node pid_chain ;
};
struct pid {
   atomic_t count ;
   unsigned int level ;
   struct hlist_head tasks[3] ;
   struct rcu_head rcu ;
   struct upid numbers[1] ;
};
struct pid_namespace;
struct task_struct;
struct dentry;
struct semaphore {
   raw_spinlock_t lock ;
   unsigned int count ;
   struct list_head wait_list ;
};
struct fiemap_extent {
   __u64 fe_logical ;
   __u64 fe_physical ;
   __u64 fe_length ;
   __u64 fe_reserved64[2] ;
   __u32 fe_flags ;
   __u32 fe_reserved[3] ;
};
struct shrink_control {
   gfp_t gfp_mask ;
   unsigned long nr_to_scan ;
};
struct shrinker {
   int (*shrink)(struct shrinker * , struct shrink_control *sc ) ;
   int seeks ;
   long batch ;
   struct list_head list ;
   atomic_long_t nr_in_batch ;
};
enum migrate_mode {
    MIGRATE_ASYNC = 0,
    MIGRATE_SYNC_LIGHT = 1,
    MIGRATE_SYNC = 2
} ;
struct export_operations;
struct export_operations;
struct iovec;
struct iovec;
struct nameidata;
struct kiocb;
struct kiocb;
struct kobject;
struct pipe_inode_info;
struct pipe_inode_info;
struct poll_table_struct;
struct poll_table_struct;
struct kstatfs;
struct kstatfs;
struct vm_area_struct;
struct vfsmount;
struct cred;
struct cred;
struct iattr {
   unsigned int ia_valid ;
   umode_t ia_mode ;
   uid_t ia_uid ;
   gid_t ia_gid ;
   loff_t ia_size ;
   struct timespec ia_atime ;
   struct timespec ia_mtime ;
   struct timespec ia_ctime ;
   struct file *ia_file ;
};
struct if_dqinfo {
   __u64 dqi_bgrace ;
   __u64 dqi_igrace ;
   __u32 dqi_flags ;
   __u32 dqi_valid ;
};
struct fs_disk_quota {
   __s8 d_version ;
   __s8 d_flags ;
   __u16 d_fieldmask ;
   __u32 d_id ;
   __u64 d_blk_hardlimit ;
   __u64 d_blk_softlimit ;
   __u64 d_ino_hardlimit ;
   __u64 d_ino_softlimit ;
   __u64 d_bcount ;
   __u64 d_icount ;
   __s32 d_itimer ;
   __s32 d_btimer ;
   __u16 d_iwarns ;
   __u16 d_bwarns ;
   __s32 d_padding2 ;
   __u64 d_rtb_hardlimit ;
   __u64 d_rtb_softlimit ;
   __u64 d_rtbcount ;
   __s32 d_rtbtimer ;
   __u16 d_rtbwarns ;
   __s16 d_padding3 ;
   char d_padding4[8] ;
};
struct fs_qfilestat {
   __u64 qfs_ino ;
   __u64 qfs_nblks ;
   __u32 qfs_nextents ;
};
typedef struct fs_qfilestat fs_qfilestat_t;
struct fs_quota_stat {
   __s8 qs_version ;
   __u16 qs_flags ;
   __s8 qs_pad ;
   fs_qfilestat_t qs_uquota ;
   fs_qfilestat_t qs_gquota ;
   __u32 qs_incoredqs ;
   __s32 qs_btimelimit ;
   __s32 qs_itimelimit ;
   __s32 qs_rtbtimelimit ;
   __u16 qs_bwarnlimit ;
   __u16 qs_iwarnlimit ;
};
struct dquot;
struct dquot;
typedef __kernel_uid32_t qid_t;
typedef long long qsize_t;
struct mem_dqblk {
   qsize_t dqb_bhardlimit ;
   qsize_t dqb_bsoftlimit ;
   qsize_t dqb_curspace ;
   qsize_t dqb_rsvspace ;
   qsize_t dqb_ihardlimit ;
   qsize_t dqb_isoftlimit ;
   qsize_t dqb_curinodes ;
   time_t dqb_btime ;
   time_t dqb_itime ;
};
struct quota_format_type;
struct quota_format_type;
struct mem_dqinfo {
   struct quota_format_type *dqi_format ;
   int dqi_fmt_id ;
   struct list_head dqi_dirty_list ;
   unsigned long dqi_flags ;
   unsigned int dqi_bgrace ;
   unsigned int dqi_igrace ;
   qsize_t dqi_maxblimit ;
   qsize_t dqi_maxilimit ;
   void *dqi_priv ;
};
struct super_block;
struct dquot {
   struct hlist_node dq_hash ;
   struct list_head dq_inuse ;
   struct list_head dq_free ;
   struct list_head dq_dirty ;
   struct mutex dq_lock ;
   atomic_t dq_count ;
   wait_queue_head_t dq_wait_unused ;
   struct super_block *dq_sb ;
   unsigned int dq_id ;
   loff_t dq_off ;
   unsigned long dq_flags ;
   short dq_type ;
   struct mem_dqblk dq_dqb ;
};
struct quota_format_ops {
   int (*check_quota_file)(struct super_block *sb , int type ) ;
   int (*read_file_info)(struct super_block *sb , int type ) ;
   int (*write_file_info)(struct super_block *sb , int type ) ;
   int (*free_file_info)(struct super_block *sb , int type ) ;
   int (*read_dqblk)(struct dquot *dquot ) ;
   int (*commit_dqblk)(struct dquot *dquot ) ;
   int (*release_dqblk)(struct dquot *dquot ) ;
};
struct dquot_operations {
   int (*write_dquot)(struct dquot * ) ;
   struct dquot *(*alloc_dquot)(struct super_block * , int ) ;
   void (*destroy_dquot)(struct dquot * ) ;
   int (*acquire_dquot)(struct dquot * ) ;
   int (*release_dquot)(struct dquot * ) ;
   int (*mark_dirty)(struct dquot * ) ;
   int (*write_info)(struct super_block * , int ) ;
   qsize_t *(*get_reserved_space)(struct inode * ) ;
};
struct path;
struct quotactl_ops {
   int (*quota_on)(struct super_block * , int , int , struct path * ) ;
   int (*quota_on_meta)(struct super_block * , int , int ) ;
   int (*quota_off)(struct super_block * , int ) ;
   int (*quota_sync)(struct super_block * , int , int ) ;
   int (*get_info)(struct super_block * , int , struct if_dqinfo * ) ;
   int (*set_info)(struct super_block * , int , struct if_dqinfo * ) ;
   int (*get_dqblk)(struct super_block * , int , qid_t , struct fs_disk_quota * ) ;
   int (*set_dqblk)(struct super_block * , int , qid_t , struct fs_disk_quota * ) ;
   int (*get_xstate)(struct super_block * , struct fs_quota_stat * ) ;
   int (*set_xstate)(struct super_block * , unsigned int , int ) ;
};
struct quota_format_type {
   int qf_fmt_id ;
   struct quota_format_ops const *qf_ops ;
   struct module *qf_owner ;
   struct quota_format_type *qf_next ;
};
struct quota_info {
   unsigned int flags ;
   struct mutex dqio_mutex ;
   struct mutex dqonoff_mutex ;
   struct rw_semaphore dqptr_sem ;
   struct inode *files[2] ;
   struct mem_dqinfo info[2] ;
   struct quota_format_ops const *ops[2] ;
};
struct page;
struct address_space;
struct address_space;
struct writeback_control;
struct writeback_control;
union __anonunion_arg_149 {
   char *buf ;
   void *data ;
};
struct __anonstruct_read_descriptor_t_148 {
   size_t written ;
   size_t count ;
   union __anonunion_arg_149 arg ;
   int error ;
};
typedef struct __anonstruct_read_descriptor_t_148 read_descriptor_t;
struct address_space_operations {
   int (*writepage)(struct page *page , struct writeback_control *wbc ) ;
   int (*readpage)(struct file * , struct page * ) ;
   int (*writepages)(struct address_space * , struct writeback_control * ) ;
   int (*set_page_dirty)(struct page *page ) ;
   int (*readpages)(struct file *filp , struct address_space *mapping , struct list_head *pages ,
                    unsigned int nr_pages ) ;
   int (*write_begin)(struct file * , struct address_space *mapping , loff_t pos ,
                      unsigned int len , unsigned int flags , struct page **pagep ,
                      void **fsdata ) ;
   int (*write_end)(struct file * , struct address_space *mapping , loff_t pos , unsigned int len ,
                    unsigned int copied , struct page *page , void *fsdata ) ;
   sector_t (*bmap)(struct address_space * , sector_t ) ;
   void (*invalidatepage)(struct page * , unsigned long ) ;
   int (*releasepage)(struct page * , gfp_t ) ;
   void (*freepage)(struct page * ) ;
   ssize_t (*direct_IO)(int , struct kiocb * , struct iovec const *iov , loff_t offset ,
                        unsigned long nr_segs ) ;
   int (*get_xip_mem)(struct address_space * , unsigned long , int , void ** , unsigned long * ) ;
   int (*migratepage)(struct address_space * , struct page * , struct page * , enum migrate_mode ) ;
   int (*launder_page)(struct page * ) ;
   int (*is_partially_uptodate)(struct page * , read_descriptor_t * , unsigned long ) ;
   int (*error_remove_page)(struct address_space * , struct page * ) ;
};
struct backing_dev_info;
struct backing_dev_info;
struct address_space {
   struct inode *host ;
   struct radix_tree_root page_tree ;
   spinlock_t tree_lock ;
   unsigned int i_mmap_writable ;
   struct prio_tree_root i_mmap ;
   struct list_head i_mmap_nonlinear ;
   struct mutex i_mmap_mutex ;
   unsigned long nrpages ;
   unsigned long writeback_index ;
   struct address_space_operations const *a_ops ;
   unsigned long flags ;
   struct backing_dev_info *backing_dev_info ;
   spinlock_t private_lock ;
   struct list_head private_list ;
   struct address_space *assoc_mapping ;
} __attribute__((__aligned__(sizeof(long )))) ;
struct request_queue;
struct request_queue;
struct hd_struct;
struct gendisk;
struct block_device {
   dev_t bd_dev ;
   int bd_openers ;
   struct inode *bd_inode ;
   struct super_block *bd_super ;
   struct mutex bd_mutex ;
   struct list_head bd_inodes ;
   void *bd_claiming ;
   void *bd_holder ;
   int bd_holders ;
   bool bd_write_holder ;
   struct list_head bd_holder_disks ;
   struct block_device *bd_contains ;
   unsigned int bd_block_size ;
   struct hd_struct *bd_part ;
   unsigned int bd_part_count ;
   int bd_invalidated ;
   struct gendisk *bd_disk ;
   struct request_queue *bd_queue ;
   struct list_head bd_list ;
   unsigned long bd_private ;
   int bd_fsfreeze_count ;
   struct mutex bd_fsfreeze_mutex ;
};
struct posix_acl;
struct posix_acl;
struct inode_operations;
union __anonunion____missing_field_name_150 {
   unsigned int const i_nlink ;
   unsigned int __i_nlink ;
};
union __anonunion____missing_field_name_151 {
   struct list_head i_dentry ;
   struct rcu_head i_rcu ;
};
struct file_operations;
struct file_lock;
struct cdev;
union __anonunion____missing_field_name_152 {
   struct pipe_inode_info *i_pipe ;
   struct block_device *i_bdev ;
   struct cdev *i_cdev ;
};
struct inode {
   umode_t i_mode ;
   unsigned short i_opflags ;
   uid_t i_uid ;
   gid_t i_gid ;
   unsigned int i_flags ;
   struct posix_acl *i_acl ;
   struct posix_acl *i_default_acl ;
   struct inode_operations const *i_op ;
   struct super_block *i_sb ;
   struct address_space *i_mapping ;
   void *i_security ;
   unsigned long i_ino ;
   union __anonunion____missing_field_name_150 __annonCompField30 ;
   dev_t i_rdev ;
   struct timespec i_atime ;
   struct timespec i_mtime ;
   struct timespec i_ctime ;
   spinlock_t i_lock ;
   unsigned short i_bytes ;
   blkcnt_t i_blocks ;
   loff_t i_size ;
   unsigned long i_state ;
   struct mutex i_mutex ;
   unsigned long dirtied_when ;
   struct hlist_node i_hash ;
   struct list_head i_wb_list ;
   struct list_head i_lru ;
   struct list_head i_sb_list ;
   union __anonunion____missing_field_name_151 __annonCompField31 ;
   atomic_t i_count ;
   unsigned int i_blkbits ;
   u64 i_version ;
   atomic_t i_dio_count ;
   atomic_t i_writecount ;
   struct file_operations const *i_fop ;
   struct file_lock *i_flock ;
   struct address_space i_data ;
   struct dquot *i_dquot[2] ;
   struct list_head i_devices ;
   union __anonunion____missing_field_name_152 __annonCompField32 ;
   __u32 i_generation ;
   __u32 i_fsnotify_mask ;
   struct hlist_head i_fsnotify_marks ;
   atomic_t i_readcount ;
   void *i_private ;
};
struct fown_struct {
   rwlock_t lock ;
   struct pid *pid ;
   enum pid_type pid_type ;
   uid_t uid ;
   uid_t euid ;
   int signum ;
};
struct file_ra_state {
   unsigned long start ;
   unsigned int size ;
   unsigned int async_size ;
   unsigned int ra_pages ;
   unsigned int mmap_miss ;
   loff_t prev_pos ;
};
union __anonunion_f_u_153 {
   struct list_head fu_list ;
   struct rcu_head fu_rcuhead ;
};
struct file {
   union __anonunion_f_u_153 f_u ;
   struct path f_path ;
   struct file_operations const *f_op ;
   spinlock_t f_lock ;
   int f_sb_list_cpu ;
   atomic_long_t f_count ;
   unsigned int f_flags ;
   fmode_t f_mode ;
   loff_t f_pos ;
   struct fown_struct f_owner ;
   struct cred const *f_cred ;
   struct file_ra_state f_ra ;
   u64 f_version ;
   void *f_security ;
   void *private_data ;
   struct list_head f_ep_links ;
   struct list_head f_tfile_llink ;
   struct address_space *f_mapping ;
   unsigned long f_mnt_write_state ;
};
struct files_struct;
typedef struct files_struct *fl_owner_t;
struct file_lock_operations {
   void (*fl_copy_lock)(struct file_lock * , struct file_lock * ) ;
   void (*fl_release_private)(struct file_lock * ) ;
};
struct lock_manager_operations {
   int (*lm_compare_owner)(struct file_lock * , struct file_lock * ) ;
   void (*lm_notify)(struct file_lock * ) ;
   int (*lm_grant)(struct file_lock * , struct file_lock * , int ) ;
   void (*lm_release_private)(struct file_lock * ) ;
   void (*lm_break)(struct file_lock * ) ;
   int (*lm_change)(struct file_lock ** , int ) ;
};
struct nlm_lockowner;
struct nlm_lockowner;
struct nfs_lock_info {
   u32 state ;
   struct nlm_lockowner *owner ;
   struct list_head list ;
};
struct nfs4_lock_state;
struct nfs4_lock_state;
struct nfs4_lock_info {
   struct nfs4_lock_state *owner ;
};
struct fasync_struct;
struct __anonstruct_afs_155 {
   struct list_head link ;
   int state ;
};
union __anonunion_fl_u_154 {
   struct nfs_lock_info nfs_fl ;
   struct nfs4_lock_info nfs4_fl ;
   struct __anonstruct_afs_155 afs ;
};
struct file_lock {
   struct file_lock *fl_next ;
   struct list_head fl_link ;
   struct list_head fl_block ;
   fl_owner_t fl_owner ;
   unsigned int fl_flags ;
   unsigned char fl_type ;
   unsigned int fl_pid ;
   struct pid *fl_nspid ;
   wait_queue_head_t fl_wait ;
   struct file *fl_file ;
   loff_t fl_start ;
   loff_t fl_end ;
   struct fasync_struct *fl_fasync ;
   unsigned long fl_break_time ;
   unsigned long fl_downgrade_time ;
   struct file_lock_operations const *fl_ops ;
   struct lock_manager_operations const *fl_lmops ;
   union __anonunion_fl_u_154 fl_u ;
};
struct fasync_struct {
   spinlock_t fa_lock ;
   int magic ;
   int fa_fd ;
   struct fasync_struct *fa_next ;
   struct file *fa_file ;
   struct rcu_head fa_rcu ;
};
struct file_system_type;
struct super_operations;
struct xattr_handler;
struct mtd_info;
struct super_block {
   struct list_head s_list ;
   dev_t s_dev ;
   unsigned char s_dirt ;
   unsigned char s_blocksize_bits ;
   unsigned long s_blocksize ;
   loff_t s_maxbytes ;
   struct file_system_type *s_type ;
   struct super_operations const *s_op ;
   struct dquot_operations const *dq_op ;
   struct quotactl_ops const *s_qcop ;
   struct export_operations const *s_export_op ;
   unsigned long s_flags ;
   unsigned long s_magic ;
   struct dentry *s_root ;
   struct rw_semaphore s_umount ;
   struct mutex s_lock ;
   int s_count ;
   atomic_t s_active ;
   void *s_security ;
   struct xattr_handler const **s_xattr ;
   struct list_head s_inodes ;
   struct hlist_bl_head s_anon ;
   struct list_head *s_files ;
   struct list_head s_mounts ;
   struct list_head s_dentry_lru ;
   int s_nr_dentry_unused ;
   spinlock_t s_inode_lru_lock __attribute__((__aligned__((1) << (6) ))) ;
   struct list_head s_inode_lru ;
   int s_nr_inodes_unused ;
   struct block_device *s_bdev ;
   struct backing_dev_info *s_bdi ;
   struct mtd_info *s_mtd ;
   struct hlist_node s_instances ;
   struct quota_info s_dquot ;
   int s_frozen ;
   wait_queue_head_t s_wait_unfrozen ;
   char s_id[32] ;
   u8 s_uuid[16] ;
   void *s_fs_info ;
   unsigned int s_max_links ;
   fmode_t s_mode ;
   u32 s_time_gran ;
   struct mutex s_vfs_rename_mutex ;
   char *s_subtype ;
   char *s_options ;
   struct dentry_operations const *s_d_op ;
   int cleancache_poolid ;
   struct shrinker s_shrink ;
   atomic_long_t s_remove_count ;
   int s_readonly_remount ;
};
struct fiemap_extent_info {
   unsigned int fi_flags ;
   unsigned int fi_extents_mapped ;
   unsigned int fi_extents_max ;
   struct fiemap_extent *fi_extents_start ;
};
struct file_operations {
   struct module *owner ;
   loff_t (*llseek)(struct file * , loff_t , int ) ;
   ssize_t (*read)(struct file * , char * , size_t , loff_t * ) ;
   ssize_t (*write)(struct file * , char const * , size_t , loff_t * ) ;
   ssize_t (*aio_read)(struct kiocb * , struct iovec const * , unsigned long ,
                       loff_t ) ;
   ssize_t (*aio_write)(struct kiocb * , struct iovec const * , unsigned long ,
                        loff_t ) ;
   int (*readdir)(struct file * , void * , int (*)(void * , char const * , int ,
                                                   loff_t , u64 , unsigned int ) ) ;
   unsigned int (*poll)(struct file * , struct poll_table_struct * ) ;
   long (*unlocked_ioctl)(struct file * , unsigned int , unsigned long ) ;
   long (*compat_ioctl)(struct file * , unsigned int , unsigned long ) ;
   int (*mmap)(struct file * , struct vm_area_struct * ) ;
   int (*open)(struct inode * , struct file * ) ;
   int (*flush)(struct file * , fl_owner_t id ) ;
   int (*release)(struct inode * , struct file * ) ;
   int (*fsync)(struct file * , loff_t , loff_t , int datasync ) ;
   int (*aio_fsync)(struct kiocb * , int datasync ) ;
   int (*fasync)(int , struct file * , int ) ;
   int (*lock)(struct file * , int , struct file_lock * ) ;
   ssize_t (*sendpage)(struct file * , struct page * , int , size_t , loff_t * ,
                       int ) ;
   unsigned long (*get_unmapped_area)(struct file * , unsigned long , unsigned long ,
                                      unsigned long , unsigned long ) ;
   int (*check_flags)(int ) ;
   int (*flock)(struct file * , int , struct file_lock * ) ;
   ssize_t (*splice_write)(struct pipe_inode_info * , struct file * , loff_t * , size_t ,
                           unsigned int ) ;
   ssize_t (*splice_read)(struct file * , loff_t * , struct pipe_inode_info * , size_t ,
                          unsigned int ) ;
   int (*setlease)(struct file * , long , struct file_lock ** ) ;
   long (*fallocate)(struct file *file , int mode , loff_t offset , loff_t len ) ;
};
struct inode_operations {
   struct dentry *(*lookup)(struct inode * , struct dentry * , struct nameidata * ) ;
   void *(*follow_link)(struct dentry * , struct nameidata * ) ;
   int (*permission)(struct inode * , int ) ;
   struct posix_acl *(*get_acl)(struct inode * , int ) ;
   int (*readlink)(struct dentry * , char * , int ) ;
   void (*put_link)(struct dentry * , struct nameidata * , void * ) ;
   int (*create)(struct inode * , struct dentry * , umode_t , struct nameidata * ) ;
   int (*link)(struct dentry * , struct inode * , struct dentry * ) ;
   int (*unlink)(struct inode * , struct dentry * ) ;
   int (*symlink)(struct inode * , struct dentry * , char const * ) ;
   int (*mkdir)(struct inode * , struct dentry * , umode_t ) ;
   int (*rmdir)(struct inode * , struct dentry * ) ;
   int (*mknod)(struct inode * , struct dentry * , umode_t , dev_t ) ;
   int (*rename)(struct inode * , struct dentry * , struct inode * , struct dentry * ) ;
   void (*truncate)(struct inode * ) ;
   int (*setattr)(struct dentry * , struct iattr * ) ;
   int (*getattr)(struct vfsmount *mnt , struct dentry * , struct kstat * ) ;
   int (*setxattr)(struct dentry * , char const * , void const * , size_t , int ) ;
   ssize_t (*getxattr)(struct dentry * , char const * , void * , size_t ) ;
   ssize_t (*listxattr)(struct dentry * , char * , size_t ) ;
   int (*removexattr)(struct dentry * , char const * ) ;
   void (*truncate_range)(struct inode * , loff_t , loff_t ) ;
   int (*fiemap)(struct inode * , struct fiemap_extent_info * , u64 start , u64 len ) ;
} __attribute__((__aligned__((1) << (6) ))) ;
struct seq_file;
struct super_operations {
   struct inode *(*alloc_inode)(struct super_block *sb ) ;
   void (*destroy_inode)(struct inode * ) ;
   void (*dirty_inode)(struct inode * , int flags ) ;
   int (*write_inode)(struct inode * , struct writeback_control *wbc ) ;
   int (*drop_inode)(struct inode * ) ;
   void (*evict_inode)(struct inode * ) ;
   void (*put_super)(struct super_block * ) ;
   void (*write_super)(struct super_block * ) ;
   int (*sync_fs)(struct super_block *sb , int wait ) ;
   int (*freeze_fs)(struct super_block * ) ;
   int (*unfreeze_fs)(struct super_block * ) ;
   int (*statfs)(struct dentry * , struct kstatfs * ) ;
   int (*remount_fs)(struct super_block * , int * , char * ) ;
   void (*umount_begin)(struct super_block * ) ;
   int (*show_options)(struct seq_file * , struct dentry * ) ;
   int (*show_devname)(struct seq_file * , struct dentry * ) ;
   int (*show_path)(struct seq_file * , struct dentry * ) ;
   int (*show_stats)(struct seq_file * , struct dentry * ) ;
   ssize_t (*quota_read)(struct super_block * , int , char * , size_t , loff_t ) ;
   ssize_t (*quota_write)(struct super_block * , int , char const * , size_t ,
                          loff_t ) ;
   int (*bdev_try_to_free_page)(struct super_block * , struct page * , gfp_t ) ;
   int (*nr_cached_objects)(struct super_block * ) ;
   void (*free_cached_objects)(struct super_block * , int ) ;
};
struct file_system_type {
   char const *name ;
   int fs_flags ;
   struct dentry *(*mount)(struct file_system_type * , int , char const * , void * ) ;
   void (*kill_sb)(struct super_block * ) ;
   struct module *owner ;
   struct file_system_type *next ;
   struct hlist_head fs_supers ;
   struct lock_class_key s_lock_key ;
   struct lock_class_key s_umount_key ;
   struct lock_class_key s_vfs_rename_key ;
   struct lock_class_key i_lock_key ;
   struct lock_class_key i_mutex_key ;
   struct lock_class_key i_mutex_dir_key ;
};
struct ff_device;
struct input_mt_slot;
struct input_handle;
struct input_dev {
   char const *name ;
   char const *phys ;
   char const *uniq ;
   struct input_id id ;
   unsigned long propbit[((32UL + 8UL * sizeof(long )) - 1UL) / (8UL * sizeof(long ))] ;
   unsigned long evbit[((32UL + 8UL * sizeof(long )) - 1UL) / (8UL * sizeof(long ))] ;
   unsigned long keybit[((768UL + 8UL * sizeof(long )) - 1UL) / (8UL * sizeof(long ))] ;
   unsigned long relbit[((16UL + 8UL * sizeof(long )) - 1UL) / (8UL * sizeof(long ))] ;
   unsigned long absbit[((64UL + 8UL * sizeof(long )) - 1UL) / (8UL * sizeof(long ))] ;
   unsigned long mscbit[((8UL + 8UL * sizeof(long )) - 1UL) / (8UL * sizeof(long ))] ;
   unsigned long ledbit[((16UL + 8UL * sizeof(long )) - 1UL) / (8UL * sizeof(long ))] ;
   unsigned long sndbit[((8UL + 8UL * sizeof(long )) - 1UL) / (8UL * sizeof(long ))] ;
   unsigned long ffbit[((128UL + 8UL * sizeof(long )) - 1UL) / (8UL * sizeof(long ))] ;
   unsigned long swbit[((16UL + 8UL * sizeof(long )) - 1UL) / (8UL * sizeof(long ))] ;
   unsigned int hint_events_per_packet ;
   unsigned int keycodemax ;
   unsigned int keycodesize ;
   void *keycode ;
   int (*setkeycode)(struct input_dev *dev , struct input_keymap_entry const *ke ,
                     unsigned int *old_keycode ) ;
   int (*getkeycode)(struct input_dev *dev , struct input_keymap_entry *ke ) ;
   struct ff_device *ff ;
   unsigned int repeat_key ;
   struct timer_list timer ;
   int rep[2] ;
   struct input_mt_slot *mt ;
   int mtsize ;
   int slot ;
   int trkid ;
   struct input_absinfo *absinfo ;
   unsigned long key[((768UL + 8UL * sizeof(long )) - 1UL) / (8UL * sizeof(long ))] ;
   unsigned long led[((16UL + 8UL * sizeof(long )) - 1UL) / (8UL * sizeof(long ))] ;
   unsigned long snd[((8UL + 8UL * sizeof(long )) - 1UL) / (8UL * sizeof(long ))] ;
   unsigned long sw[((16UL + 8UL * sizeof(long )) - 1UL) / (8UL * sizeof(long ))] ;
   int (*open)(struct input_dev *dev ) ;
   void (*close)(struct input_dev *dev ) ;
   int (*flush)(struct input_dev *dev , struct file *file ) ;
   int (*event)(struct input_dev *dev , unsigned int type , unsigned int code , int value ) ;
   struct input_handle *grab ;
   spinlock_t event_lock ;
   struct mutex mutex ;
   unsigned int users ;
   bool going_away ;
   bool sync ;
   struct device dev ;
   struct list_head h_list ;
   struct list_head node ;
};
struct input_handle;
struct input_handler {
   void *private ;
   void (*event)(struct input_handle *handle , unsigned int type , unsigned int code ,
                 int value ) ;
   bool (*filter)(struct input_handle *handle , unsigned int type , unsigned int code ,
                  int value ) ;
   bool (*match)(struct input_handler *handler , struct input_dev *dev ) ;
   int (*connect)(struct input_handler *handler , struct input_dev *dev , struct input_device_id const *id ) ;
   void (*disconnect)(struct input_handle *handle ) ;
   void (*start)(struct input_handle *handle ) ;
   struct file_operations const *fops ;
   int minor ;
   char const *name ;
   struct input_device_id const *id_table ;
   struct list_head h_list ;
   struct list_head node ;
};
struct input_handle {
   void *private ;
   int open ;
   char const *name ;
   struct input_dev *dev ;
   struct input_handler *handler ;
   struct list_head d_node ;
   struct list_head h_node ;
};
struct ff_device {
   int (*upload)(struct input_dev *dev , struct ff_effect *effect , struct ff_effect *old ) ;
   int (*erase)(struct input_dev *dev , int effect_id ) ;
   int (*playback)(struct input_dev *dev , int effect_id , int value ) ;
   void (*set_gain)(struct input_dev *dev , u16 gain ) ;
   void (*set_autocenter)(struct input_dev *dev , u16 magnitude ) ;
   void (*destroy)(struct ff_device * ) ;
   void *private ;
   unsigned long ffbit[((128UL + 8UL * sizeof(long )) - 1UL) / (8UL * sizeof(long ))] ;
   struct mutex mutex ;
   int max_effects ;
   struct ff_effect *effects ;
   struct file *effect_owners[] ;
};
struct device;
struct device;
struct hid_collection {
   unsigned int type ;
   unsigned int usage ;
   unsigned int level ;
};
struct hid_usage {
   unsigned int hid ;
   unsigned int collection_index ;
   __u16 code ;
   __u8 type ;
   __s8 hat_min ;
   __s8 hat_max ;
   __s8 hat_dir ;
};
struct hid_input;
struct hid_input;
struct hid_report;
struct hid_field {
   unsigned int physical ;
   unsigned int logical ;
   unsigned int application ;
   struct hid_usage *usage ;
   unsigned int maxusage ;
   unsigned int flags ;
   unsigned int report_offset ;
   unsigned int report_size ;
   unsigned int report_count ;
   unsigned int report_type ;
   __s32 *value ;
   __s32 logical_minimum ;
   __s32 logical_maximum ;
   __s32 physical_minimum ;
   __s32 physical_maximum ;
   __s32 unit_exponent ;
   unsigned int unit ;
   struct hid_report *report ;
   unsigned int index ;
   struct hid_input *hidinput ;
   __u16 dpad ;
};
struct hid_device;
struct hid_report {
   struct list_head list ;
   unsigned int id ;
   unsigned int type ;
   struct hid_field *field[128] ;
   unsigned int maxfield ;
   unsigned int size ;
   struct hid_device *device ;
};
struct hid_report_enum {
   unsigned int numbered ;
   struct list_head report_list ;
   struct hid_report *report_id_hash[256] ;
};
struct hid_input {
   struct list_head list ;
   struct hid_report *report ;
   struct input_dev *input ;
};
enum hid_type {
    HID_TYPE_OTHER = 0,
    HID_TYPE_USBMOUSE = 1,
    HID_TYPE_USBNONE = 2
} ;
struct hid_driver;
struct hid_driver;
struct hid_ll_driver;
struct hid_ll_driver;
struct hid_device {
   __u8 *rdesc ;
   unsigned int rsize ;
   struct hid_collection *collection ;
   unsigned int collection_size ;
   unsigned int maxcollection ;
   unsigned int maxapplication ;
   __u16 bus ;
   __u32 vendor ;
   __u32 product ;
   __u32 version ;
   enum hid_type type ;
   unsigned int country ;
   struct hid_report_enum report_enum[3] ;
   struct semaphore driver_lock ;
   struct device dev ;
   struct hid_driver *driver ;
   struct hid_ll_driver *ll_driver ;
   unsigned int status ;
   unsigned int claimed ;
   unsigned int quirks ;
   struct list_head inputs ;
   void *hiddev ;
   void *hidraw ;
   int minor ;
   int open ;
   char name[128] ;
   char phys[64] ;
   char uniq[64] ;
   void *driver_data ;
   int (*ff_init)(struct hid_device * ) ;
   int (*hiddev_connect)(struct hid_device * , unsigned int ) ;
   void (*hiddev_disconnect)(struct hid_device * ) ;
   void (*hiddev_hid_event)(struct hid_device * , struct hid_field *field , struct hid_usage * ,
                            __s32 ) ;
   void (*hiddev_report_event)(struct hid_device * , struct hid_report * ) ;
   int (*hid_get_raw_report)(struct hid_device * , unsigned char , __u8 * , size_t ,
                             unsigned char ) ;
   int (*hid_output_raw_report)(struct hid_device * , __u8 * , size_t , unsigned char ) ;
   unsigned short debug ;
   struct dentry *debug_dir ;
   struct dentry *debug_rdesc ;
   struct dentry *debug_events ;
   struct list_head debug_list ;
   wait_queue_head_t debug_wait ;
};
struct hid_report_id {
   __u32 report_type ;
};
struct hid_usage_id {
   __u32 usage_hid ;
   __u32 usage_type ;
   __u32 usage_code ;
};
struct hid_driver {
   char *name ;
   struct hid_device_id const *id_table ;
   struct list_head dyn_list ;
   spinlock_t dyn_lock ;
   int (*probe)(struct hid_device *dev , struct hid_device_id const *id ) ;
   void (*remove)(struct hid_device *dev ) ;
   struct hid_report_id const *report_table ;
   int (*raw_event)(struct hid_device *hdev , struct hid_report *report , u8 *data ,
                    int size ) ;
   struct hid_usage_id const *usage_table ;
   int (*event)(struct hid_device *hdev , struct hid_field *field , struct hid_usage *usage ,
                __s32 value ) ;
   __u8 *(*report_fixup)(struct hid_device *hdev , __u8 *buf , unsigned int *size ) ;
   int (*input_mapping)(struct hid_device *hdev , struct hid_input *hidinput , struct hid_field *field ,
                        struct hid_usage *usage , unsigned long **bit , int *max ) ;
   int (*input_mapped)(struct hid_device *hdev , struct hid_input *hidinput , struct hid_field *field ,
                       struct hid_usage *usage , unsigned long **bit , int *max ) ;
   void (*feature_mapping)(struct hid_device *hdev , struct hid_field *field , struct hid_usage *usage ) ;
   int (*suspend)(struct hid_device *hdev , pm_message_t message ) ;
   int (*resume)(struct hid_device *hdev ) ;
   int (*reset_resume)(struct hid_device *hdev ) ;
   struct device_driver driver ;
};
struct hid_ll_driver {
   int (*start)(struct hid_device *hdev ) ;
   void (*stop)(struct hid_device *hdev ) ;
   int (*open)(struct hid_device *hdev ) ;
   void (*close)(struct hid_device *hdev ) ;
   int (*power)(struct hid_device *hdev , int level ) ;
   int (*hidinput_input_event)(struct input_dev *idev , unsigned int type , unsigned int code ,
                               int value ) ;
   int (*parse)(struct hid_device *hdev ) ;
};
struct completion;
struct cred;
struct file;
struct task_struct;
typedef __u64 Elf64_Addr;
typedef __u16 Elf64_Half;
typedef __u32 Elf64_Word;
typedef __u64 Elf64_Xword;
struct elf64_sym {
   Elf64_Word st_name ;
   unsigned char st_info ;
   unsigned char st_other ;
   Elf64_Half st_shndx ;
   Elf64_Addr st_value ;
   Elf64_Xword st_size ;
};
typedef struct elf64_sym Elf64_Sym;
struct file;
struct kernel_param;
struct kernel_param;
struct kernel_param_ops {
   int (*set)(char const *val , struct kernel_param const *kp ) ;
   int (*get)(char *buffer , struct kernel_param const *kp ) ;
   void (*free)(void *arg ) ;
};
struct kparam_string;
struct kparam_array;
union __anonunion____missing_field_name_225 {
   void *arg ;
   struct kparam_string const *str ;
   struct kparam_array const *arr ;
};
struct kernel_param {
   char const *name ;
   struct kernel_param_ops const *ops ;
   u16 perm ;
   s16 level ;
   union __anonunion____missing_field_name_225 __annonCompField35 ;
};
struct kparam_string {
   unsigned int maxlen ;
   char *string ;
};
struct kparam_array {
   unsigned int max ;
   unsigned int elemsize ;
   unsigned int *num ;
   struct kernel_param_ops const *ops ;
   void *elem ;
};
struct module;
struct module;
struct static_key {
   atomic_t enabled ;
};
struct module;
struct tracepoint;
struct tracepoint;
struct tracepoint_func {
   void *func ;
   void *data ;
};
struct tracepoint {
   char const *name ;
   struct static_key key ;
   void (*regfunc)(void) ;
   void (*unregfunc)(void) ;
   struct tracepoint_func *funcs ;
};
struct kernel_symbol {
   unsigned long value ;
   char const *name ;
};
struct mod_arch_specific {
};
struct module;
struct module_param_attrs;
struct module_kobject {
   struct kobject kobj ;
   struct module *mod ;
   struct kobject *drivers_dir ;
   struct module_param_attrs *mp ;
};
struct module_attribute {
   struct attribute attr ;
   ssize_t (*show)(struct module_attribute * , struct module_kobject * , char * ) ;
   ssize_t (*store)(struct module_attribute * , struct module_kobject * , char const * ,
                    size_t count ) ;
   void (*setup)(struct module * , char const * ) ;
   int (*test)(struct module * ) ;
   void (*free)(struct module * ) ;
};
struct exception_table_entry;
struct exception_table_entry;
enum module_state {
    MODULE_STATE_LIVE = 0,
    MODULE_STATE_COMING = 1,
    MODULE_STATE_GOING = 2
} ;
struct module_ref {
   unsigned long incs ;
   unsigned long decs ;
} __attribute__((__aligned__((2) * (sizeof(unsigned long )) ))) ;
struct module_sect_attrs;
struct module_notes_attrs;
struct ftrace_event_call;
struct module {
   enum module_state state ;
   struct list_head list ;
   char name[64UL - sizeof(unsigned long )] ;
   struct module_kobject mkobj ;
   struct module_attribute *modinfo_attrs ;
   char const *version ;
   char const *srcversion ;
   struct kobject *holders_dir ;
   struct kernel_symbol const *syms ;
   unsigned long const *crcs ;
   unsigned int num_syms ;
   struct kernel_param *kp ;
   unsigned int num_kp ;
   unsigned int num_gpl_syms ;
   struct kernel_symbol const *gpl_syms ;
   unsigned long const *gpl_crcs ;
   struct kernel_symbol const *unused_syms ;
   unsigned long const *unused_crcs ;
   unsigned int num_unused_syms ;
   unsigned int num_unused_gpl_syms ;
   struct kernel_symbol const *unused_gpl_syms ;
   unsigned long const *unused_gpl_crcs ;
   struct kernel_symbol const *gpl_future_syms ;
   unsigned long const *gpl_future_crcs ;
   unsigned int num_gpl_future_syms ;
   unsigned int num_exentries ;
   struct exception_table_entry *extable ;
   int (*init)(void) ;
   void *module_init ;
   void *module_core ;
   unsigned int init_size ;
   unsigned int core_size ;
   unsigned int init_text_size ;
   unsigned int core_text_size ;
   unsigned int init_ro_size ;
   unsigned int core_ro_size ;
   struct mod_arch_specific arch ;
   unsigned int taints ;
   unsigned int num_bugs ;
   struct list_head bug_list ;
   struct bug_entry *bug_table ;
   Elf64_Sym *symtab ;
   Elf64_Sym *core_symtab ;
   unsigned int num_symtab ;
   unsigned int core_num_syms ;
   char *strtab ;
   char *core_strtab ;
   struct module_sect_attrs *sect_attrs ;
   struct module_notes_attrs *notes_attrs ;
   char *args ;
   void *percpu ;
   unsigned int percpu_size ;
   unsigned int num_tracepoints ;
   struct tracepoint * const *tracepoints_ptrs ;
   unsigned int num_trace_bprintk_fmt ;
   char const **trace_bprintk_fmt_start ;
   struct ftrace_event_call **trace_events ;
   unsigned int num_trace_events ;
   struct list_head source_list ;
   struct list_head target_list ;
   struct task_struct *waiter ;
   void (*exit)(void) ;
   struct module_ref *refptr ;
   ctor_fn_t *ctors ;
   unsigned int num_ctors ;
};
struct zc_device {
   struct input_dev *input_ep81 ;
   unsigned short last_key[4] ;
};
long ldv__builtin_expect(long val , long res ) ;
 static void ( __attribute__((__always_inline__)) clear_bit)(int nr , unsigned long volatile *addr ) __attribute__((__no_instrument_function__)) ;
 static void ( __attribute__((__always_inline__)) clear_bit)(int nr , unsigned long volatile *addr )
{ long volatile *__cil_tmp3 ;
  {
  __cil_tmp3 = (long volatile *)addr;
  __asm__ volatile (".section .smp_locks,\"a\"\n"
                       ".balign 4\n"
                       ".long 671f - .\n"
                       ".previous\n"
                       "671:"
                       "\n\tlock; "
                       "btr %1,%0": "+m" (*__cil_tmp3): "Ir" (nr));
  return;
}
}
extern int ( printk)(char const *fmt , ...) ;
void mutex_lock(struct mutex *lock ) ;
int __attribute__((__warn_unused_result__)) mutex_lock_interruptible(struct mutex *lock ) ;
int __attribute__((__warn_unused_result__)) mutex_lock_killable(struct mutex *lock ) ;
int mutex_trylock(struct mutex *lock ) ;
void mutex_unlock(struct mutex *lock ) ;
int atomic_dec_and_mutex_lock(atomic_t *cnt , struct mutex *lock ) ;
extern void *dev_get_drvdata(struct device const *dev ) ;
extern int dev_set_drvdata(struct device *dev , void *data ) ;
extern int ( dev_err)(struct device const *dev , char const *fmt
                                              , ...) ;
extern int ( _dev_info)(struct device const *dev , char const *fmt
                                                , ...) ;
extern void kfree(void const * ) ;
extern int __VERIFIER_nondet_int(void);
extern void abort(void);
void assume_abort_if_not(int cond) {
  if(!cond) {abort();}
}
extern void *malloc(size_t size);
long ldv_is_err(const void *ptr)
{
  return ((unsigned long)ptr > ((unsigned long)-4095));
}
void *ldv_malloc(size_t size)
{
 if (__VERIFIER_nondet_int()) {
  void *res = malloc(size);
  assume_abort_if_not(!ldv_is_err(res));
  return res;
 } else {
  return ((void *)0);
 }
}
void *__kmalloc(size_t size, gfp_t t)
{
 return ldv_malloc(size);
}
 static void *( __attribute__((__always_inline__)) kmalloc)(size_t size ,
                                                                    gfp_t flags ) __attribute__((__no_instrument_function__)) ;
 static void *( __attribute__((__always_inline__)) kmalloc)(size_t size ,
                                                                    gfp_t flags )
{ void *tmp___2 ;
  {
  {
  tmp___2 = __kmalloc(size, flags);
  }
  return (tmp___2);
}
}
 static void *kzalloc(size_t size , gfp_t flags ) __attribute__((__no_instrument_function__)) ;
void *ldv_zalloc(size_t size ) ;
 static void *kzalloc(size_t size , gfp_t flags )
{ void *tmp ;
  unsigned int __cil_tmp4 ;
  {
  {
  __cil_tmp4 = flags | 32768U;
  tmp = kmalloc(size, __cil_tmp4);
  }
  return (tmp);
}
}
extern void input_event(struct input_dev *dev , unsigned int type , unsigned int code ,
                        int value ) ;
 static void *hid_get_drvdata(struct hid_device *hdev ) __attribute__((__no_instrument_function__)) ;
 static void *hid_get_drvdata(struct hid_device *hdev )
{ void *tmp ;
  unsigned long __cil_tmp3 ;
  unsigned long __cil_tmp4 ;
  struct device *__cil_tmp5 ;
  struct device const *__cil_tmp6 ;
  {
  {
  __cil_tmp3 = (unsigned long )hdev;
  __cil_tmp4 = __cil_tmp3 + 6328;
  __cil_tmp5 = (struct device *)__cil_tmp4;
  __cil_tmp6 = (struct device const *)__cil_tmp5;
  tmp = dev_get_drvdata(__cil_tmp6);
  }
  return (tmp);
}
}
 static void hid_set_drvdata(struct hid_device *hdev , void *data ) __attribute__((__no_instrument_function__)) ;
 static void hid_set_drvdata(struct hid_device *hdev , void *data )
{ unsigned long __cil_tmp3 ;
  unsigned long __cil_tmp4 ;
  struct device *__cil_tmp5 ;
  {
  {
  __cil_tmp3 = (unsigned long )hdev;
  __cil_tmp4 = __cil_tmp3 + 6328;
  __cil_tmp5 = (struct device *)__cil_tmp4;
  dev_set_drvdata(__cil_tmp5, data);
  }
  return;
}
}
extern int hid_debug ;
extern int __attribute__((__warn_unused_result__)) __hid_register_driver(struct hid_driver * ,
                                                                          struct module * ,
                                                                          char const *mod_name ) ;
extern void hid_unregister_driver(struct hid_driver * ) ;
extern int hid_connect(struct hid_device *hid , unsigned int connect_mask ) ;
extern void hid_disconnect(struct hid_device *hid ) ;
 static void hid_map_usage(struct hid_input *hidinput , struct hid_usage *usage ,
                                   unsigned long **bit , int *max , __u8 type , __u16 c ) __attribute__((__no_instrument_function__)) ;
 static void hid_map_usage(struct hid_input *hidinput , struct hid_usage *usage ,
                                   unsigned long **bit , int *max , __u8 type , __u16 c )
{ struct input_dev *input ;
  unsigned long __cil_tmp8 ;
  unsigned long __cil_tmp9 ;
  unsigned long __cil_tmp10 ;
  unsigned long __cil_tmp11 ;
  unsigned long __cil_tmp12 ;
  unsigned long __cil_tmp13 ;
  unsigned long __cil_tmp14 ;
  unsigned long __cil_tmp15 ;
  unsigned long __cil_tmp16 ;
  unsigned long __cil_tmp17 ;
  unsigned long __cil_tmp18 ;
  unsigned long __cil_tmp19 ;
  unsigned long __cil_tmp20 ;
  unsigned long __cil_tmp21 ;
  unsigned long __cil_tmp22 ;
  unsigned long __cil_tmp23 ;
  unsigned long __cil_tmp24 ;
  unsigned long __cil_tmp25 ;
  unsigned long __cil_tmp26 ;
  unsigned long __cil_tmp27 ;
  unsigned long __cil_tmp28 ;
  unsigned long __cil_tmp29 ;
  {
  __cil_tmp8 = (unsigned long )hidinput;
  __cil_tmp9 = __cil_tmp8 + 24;
  input = *((struct input_dev **)__cil_tmp9);
  __cil_tmp10 = (unsigned long )usage;
  __cil_tmp11 = __cil_tmp10 + 10;
  *((__u8 *)__cil_tmp11) = type;
  __cil_tmp12 = (unsigned long )usage;
  __cil_tmp13 = __cil_tmp12 + 8;
  *((__u16 *)__cil_tmp13) = c;
  if ((int )type == 3) {
    goto case_3;
  } else
  if ((int )type == 2) {
    goto case_2;
  } else
  if ((int )type == 1) {
    goto case_1;
  } else
  if ((int )type == 17) {
    goto case_17;
  } else
  if (0) {
    case_3:
    __cil_tmp14 = 0 * 8UL;
    __cil_tmp15 = 152 + __cil_tmp14;
    __cil_tmp16 = (unsigned long )input;
    __cil_tmp17 = __cil_tmp16 + __cil_tmp15;
    *bit = (unsigned long *)__cil_tmp17;
    *max = 63;
    goto switch_break;
    case_2:
    __cil_tmp18 = 0 * 8UL;
    __cil_tmp19 = 144 + __cil_tmp18;
    __cil_tmp20 = (unsigned long )input;
    __cil_tmp21 = __cil_tmp20 + __cil_tmp19;
    *bit = (unsigned long *)__cil_tmp21;
    *max = 15;
    goto switch_break;
    case_1:
    __cil_tmp22 = 0 * 8UL;
    __cil_tmp23 = 48 + __cil_tmp22;
    __cil_tmp24 = (unsigned long )input;
    __cil_tmp25 = __cil_tmp24 + __cil_tmp23;
    *bit = (unsigned long *)__cil_tmp25;
    *max = 767;
    goto switch_break;
    case_17:
    __cil_tmp26 = 0 * 8UL;
    __cil_tmp27 = 168 + __cil_tmp26;
    __cil_tmp28 = (unsigned long )input;
    __cil_tmp29 = __cil_tmp28 + __cil_tmp27;
    *bit = (unsigned long *)__cil_tmp29;
    *max = 15;
    goto switch_break;
  } else {
    switch_break: ;
  }
  return;
}
}
 static void hid_map_usage_clear(struct hid_input *hidinput , struct hid_usage *usage ,
                                         unsigned long **bit , int *max , __u8 type ,
                                         __u16 c ) __attribute__((__no_instrument_function__)) ;
 static void hid_map_usage_clear(struct hid_input *hidinput , struct hid_usage *usage ,
                                         unsigned long **bit , int *max , __u8 type ,
                                         __u16 c )
{ int __cil_tmp7 ;
  unsigned long *__cil_tmp8 ;
  unsigned long volatile *__cil_tmp9 ;
  {
  {
  hid_map_usage(hidinput, usage, bit, max, type, c);
  __cil_tmp7 = (int )c;
  __cil_tmp8 = *bit;
  __cil_tmp9 = (unsigned long volatile *)__cil_tmp8;
  clear_bit(__cil_tmp7, __cil_tmp9);
  }
  return;
}
}
 static int __attribute__((__warn_unused_result__)) hid_parse(struct hid_device *hdev ) __attribute__((__no_instrument_function__)) ;
 static int __attribute__((__warn_unused_result__)) hid_parse(struct hid_device *hdev )
{ int ret ;
  unsigned long __cil_tmp3 ;
  unsigned long __cil_tmp4 ;
  unsigned int __cil_tmp5 ;
  unsigned long __cil_tmp6 ;
  unsigned long __cil_tmp7 ;
  struct hid_ll_driver *__cil_tmp8 ;
  unsigned long __cil_tmp9 ;
  unsigned long __cil_tmp10 ;
  int (*__cil_tmp11)(struct hid_device *hdev ) ;
  unsigned long __cil_tmp12 ;
  unsigned long __cil_tmp13 ;
  unsigned long __cil_tmp14 ;
  unsigned long __cil_tmp15 ;
  unsigned int __cil_tmp16 ;
  {
  {
  __cil_tmp3 = (unsigned long )hdev;
  __cil_tmp4 = __cil_tmp3 + 7112;
  __cil_tmp5 = *((unsigned int *)__cil_tmp4);
  if (__cil_tmp5 & 2U) {
    return (0);
  } else {
  }
  }
  {
  __cil_tmp6 = (unsigned long )hdev;
  __cil_tmp7 = __cil_tmp6 + 7104;
  __cil_tmp8 = *((struct hid_ll_driver **)__cil_tmp7);
  __cil_tmp9 = (unsigned long )__cil_tmp8;
  __cil_tmp10 = __cil_tmp9 + 48;
  __cil_tmp11 = *((int (**)(struct hid_device *hdev ))__cil_tmp10);
  ret = (*__cil_tmp11)(hdev);
  }
  if (! ret) {
    __cil_tmp12 = (unsigned long )hdev;
    __cil_tmp13 = __cil_tmp12 + 7112;
    __cil_tmp14 = (unsigned long )hdev;
    __cil_tmp15 = __cil_tmp14 + 7112;
    __cil_tmp16 = *((unsigned int *)__cil_tmp15);
    *((unsigned int *)__cil_tmp13) = __cil_tmp16 | 2U;
  } else {
  }
  return (ret);
}
}
 static int __attribute__((__warn_unused_result__)) hid_hw_start(struct hid_device *hdev ,
                                                                          unsigned int connect_mask ) __attribute__((__no_instrument_function__)) ;
 static int __attribute__((__warn_unused_result__)) hid_hw_start(struct hid_device *hdev ,
                                                                          unsigned int connect_mask )
{ int ret ;
  int tmp ;
  unsigned long __cil_tmp5 ;
  unsigned long __cil_tmp6 ;
  struct hid_ll_driver *__cil_tmp7 ;
  int (*__cil_tmp8)(struct hid_device *hdev ) ;
  unsigned long __cil_tmp9 ;
  unsigned long __cil_tmp10 ;
  struct hid_ll_driver *__cil_tmp11 ;
  unsigned long __cil_tmp12 ;
  unsigned long __cil_tmp13 ;
  void (*__cil_tmp14)(struct hid_device *hdev ) ;
  {
  {
  __cil_tmp5 = (unsigned long )hdev;
  __cil_tmp6 = __cil_tmp5 + 7104;
  __cil_tmp7 = *((struct hid_ll_driver **)__cil_tmp6);
  __cil_tmp8 = *((int (**)(struct hid_device *hdev ))__cil_tmp7);
  tmp = (*__cil_tmp8)(hdev);
  ret = tmp;
  }
  if (ret) {
    return (ret);
  } else
  if (! connect_mask) {
    return (ret);
  } else {
  }
  {
  ret = hid_connect(hdev, connect_mask);
  }
  if (ret) {
    {
    __cil_tmp9 = (unsigned long )hdev;
    __cil_tmp10 = __cil_tmp9 + 7104;
    __cil_tmp11 = *((struct hid_ll_driver **)__cil_tmp10);
    __cil_tmp12 = (unsigned long )__cil_tmp11;
    __cil_tmp13 = __cil_tmp12 + 8;
    __cil_tmp14 = *((void (**)(struct hid_device *hdev ))__cil_tmp13);
    (*__cil_tmp14)(hdev);
    }
  } else {
  }
  return (ret);
}
}
 static void hid_hw_stop(struct hid_device *hdev ) __attribute__((__no_instrument_function__)) ;
 static void hid_hw_stop(struct hid_device *hdev )
{ unsigned long __cil_tmp2 ;
  unsigned long __cil_tmp3 ;
  struct hid_ll_driver *__cil_tmp4 ;
  unsigned long __cil_tmp5 ;
  unsigned long __cil_tmp6 ;
  void (*__cil_tmp7)(struct hid_device *hdev ) ;
  {
  {
  hid_disconnect(hdev);
  __cil_tmp2 = (unsigned long )hdev;
  __cil_tmp3 = __cil_tmp2 + 7104;
  __cil_tmp4 = *((struct hid_ll_driver **)__cil_tmp3);
  __cil_tmp5 = (unsigned long )__cil_tmp4;
  __cil_tmp6 = __cil_tmp5 + 8;
  __cil_tmp7 = *((void (**)(struct hid_device *hdev ))__cil_tmp6);
  (*__cil_tmp7)(hdev);
  }
  return;
}
}
extern struct module __this_module ;
int init_module(void) ;
void cleanup_module(void) ;
static __u8 *zc_report_fixup(struct hid_device *hdev , __u8 *rdesc , unsigned int *rsize )
{ __u8 tmp ;
  __u8 tmp___0 ;
  __u8 tmp___1 ;
  __u8 tmp___2 ;
  unsigned int __cil_tmp8 ;
  __u8 *__cil_tmp9 ;
  __u8 __cil_tmp10 ;
  int __cil_tmp11 ;
  __u8 *__cil_tmp12 ;
  __u8 __cil_tmp13 ;
  int __cil_tmp14 ;
  __u8 *__cil_tmp15 ;
  __u8 __cil_tmp16 ;
  int __cil_tmp17 ;
  __u8 *__cil_tmp18 ;
  __u8 __cil_tmp19 ;
  int __cil_tmp20 ;
  __u8 *__cil_tmp21 ;
  __u8 __cil_tmp22 ;
  int __cil_tmp23 ;
  __u8 *__cil_tmp24 ;
  __u8 __cil_tmp25 ;
  int __cil_tmp26 ;
  unsigned long __cil_tmp27 ;
  unsigned long __cil_tmp28 ;
  struct device *__cil_tmp29 ;
  struct device const *__cil_tmp30 ;
  __u8 *__cil_tmp31 ;
  __u8 *__cil_tmp32 ;
  __u8 *__cil_tmp33 ;
  __u8 *__cil_tmp34 ;
  __u8 *__cil_tmp35 ;
  __u8 *__cil_tmp36 ;
  {
  {
  __cil_tmp8 = *rsize;
  if (__cil_tmp8 >= 253U) {
    {
    __cil_tmp9 = rdesc + 150;
    __cil_tmp10 = *__cil_tmp9;
    __cil_tmp11 = (int )__cil_tmp10;
    if (__cil_tmp11 == 188) {
      {
      __cil_tmp12 = rdesc + 151;
      __cil_tmp13 = *__cil_tmp12;
      __cil_tmp14 = (int )__cil_tmp13;
      if (__cil_tmp14 == 255) {
        {
        __cil_tmp15 = rdesc + 202;
        __cil_tmp16 = *__cil_tmp15;
        __cil_tmp17 = (int )__cil_tmp16;
        if (__cil_tmp17 == 188) {
          {
          __cil_tmp18 = rdesc + 203;
          __cil_tmp19 = *__cil_tmp18;
          __cil_tmp20 = (int )__cil_tmp19;
          if (__cil_tmp20 == 255) {
            {
            __cil_tmp21 = rdesc + 225;
            __cil_tmp22 = *__cil_tmp21;
            __cil_tmp23 = (int )__cil_tmp22;
            if (__cil_tmp23 == 188) {
              {
              __cil_tmp24 = rdesc + 226;
              __cil_tmp25 = *__cil_tmp24;
              __cil_tmp26 = (int )__cil_tmp25;
              if (__cil_tmp26 == 255) {
                {
                __cil_tmp27 = (unsigned long )hdev;
                __cil_tmp28 = __cil_tmp27 + 6328;
                __cil_tmp29 = (struct device *)__cil_tmp28;
                __cil_tmp30 = (struct device const *)__cil_tmp29;
                _dev_info(__cil_tmp30, "fixing up zydacron remote control report descriptor\n");
                tmp___0 = (__u8 )12;
                __cil_tmp31 = rdesc + 225;
                *__cil_tmp31 = tmp___0;
                tmp = tmp___0;
                __cil_tmp32 = rdesc + 202;
                *__cil_tmp32 = tmp;
                __cil_tmp33 = rdesc + 150;
                *__cil_tmp33 = tmp;
                tmp___2 = (__u8 )0;
                __cil_tmp34 = rdesc + 226;
                *__cil_tmp34 = tmp___2;
                tmp___1 = tmp___2;
                __cil_tmp35 = rdesc + 203;
                *__cil_tmp35 = tmp___1;
                __cil_tmp36 = rdesc + 151;
                *__cil_tmp36 = tmp___1;
                }
              } else {
              }
              }
            } else {
            }
            }
          } else {
          }
          }
        } else {
        }
        }
      } else {
      }
      }
    } else {
    }
    }
  } else {
  }
  }
  return (rdesc);
}
}
static int zc_input_mapping(struct hid_device *hdev , struct hid_input *hi , struct hid_field *field ,
                            struct hid_usage *usage , unsigned long **bit , int *max )
{ int i ;
  struct zc_device *zc ;
  void *tmp ;
  unsigned long __cil_tmp10 ;
  unsigned long __cil_tmp11 ;
  unsigned int __cil_tmp12 ;
  unsigned int __cil_tmp13 ;
  unsigned int __cil_tmp14 ;
  unsigned int __cil_tmp15 ;
  unsigned int __cil_tmp16 ;
  unsigned int __cil_tmp17 ;
  __u8 __cil_tmp18 ;
  __u16 __cil_tmp19 ;
  __u8 __cil_tmp20 ;
  __u16 __cil_tmp21 ;
  __u8 __cil_tmp22 ;
  __u16 __cil_tmp23 ;
  __u8 __cil_tmp24 ;
  __u16 __cil_tmp25 ;
  __u8 __cil_tmp26 ;
  __u16 __cil_tmp27 ;
  __u8 __cil_tmp28 ;
  __u16 __cil_tmp29 ;
  __u8 __cil_tmp30 ;
  __u16 __cil_tmp31 ;
  __u8 __cil_tmp32 ;
  __u16 __cil_tmp33 ;
  __u8 __cil_tmp34 ;
  __u16 __cil_tmp35 ;
  __u8 __cil_tmp36 ;
  __u16 __cil_tmp37 ;
  __u8 __cil_tmp38 ;
  __u16 __cil_tmp39 ;
  __u8 __cil_tmp40 ;
  __u16 __cil_tmp41 ;
  unsigned long __cil_tmp42 ;
  unsigned long __cil_tmp43 ;
  unsigned long __cil_tmp44 ;
  unsigned long __cil_tmp45 ;
  {
  {
  tmp = hid_get_drvdata(hdev);
  zc = (struct zc_device *)tmp;
  __cil_tmp10 = (unsigned long )hi;
  __cil_tmp11 = __cil_tmp10 + 24;
  *((struct input_dev **)zc) = *((struct input_dev **)__cil_tmp11);
  }
  {
  __cil_tmp12 = *((unsigned int *)usage);
  __cil_tmp13 = __cil_tmp12 & 4294901760U;
  if (__cil_tmp13 != 786432U) {
    return (0);
  } else {
  }
  }
  {
  while (1) {
    while_continue: ;
    if (hid_debug) {
      {
      __cil_tmp14 = *((unsigned int *)usage);
      __cil_tmp15 = __cil_tmp14 & 65535U;
      printk("<7>%s: zynacron input mapping event [0x%x]\n", "/home/zakharov/launch/work/current--X--drivers/--X--defaultlinux-3.4--X--32_1--X--cpachecker/linux-3.4/csd_deg_dscv/238/dscv_tempdir/dscv/ri/32_1/drivers/hid/hid-zydacron.c.common.c",
             __cil_tmp15);
      }
    } else {
    }
    goto while_break;
  }
  while_break: ;
  }
  {
  __cil_tmp16 = *((unsigned int *)usage);
  __cil_tmp17 = __cil_tmp16 & 65535U;
  if ((int )__cil_tmp17 == 16) {
    goto case_16;
  } else
  if ((int )__cil_tmp17 == 48) {
    goto case_48;
  } else
  if ((int )__cil_tmp17 == 112) {
    goto case_112;
  } else
  if ((int )__cil_tmp17 == 4) {
    goto case_4;
  } else
  if ((int )__cil_tmp17 == 13) {
    goto case_13;
  } else
  if ((int )__cil_tmp17 == 37) {
    goto case_37;
  } else
  if ((int )__cil_tmp17 == 71) {
    goto case_71;
  } else
  if ((int )__cil_tmp17 == 73) {
    goto case_73;
  } else
  if ((int )__cil_tmp17 == 74) {
    goto case_74;
  } else
  if ((int )__cil_tmp17 == 72) {
    goto case_72;
  } else
  if ((int )__cil_tmp17 == 36) {
    goto case_36;
  } else
  if ((int )__cil_tmp17 == 50) {
    goto case_50;
  } else {
    {
    goto switch_default;
    if (0) {
      case_16:
      {
      __cil_tmp18 = (__u8 )1;
      __cil_tmp19 = (__u16 )373;
      hid_map_usage_clear(hi, usage, bit, max, __cil_tmp18, __cil_tmp19);
      }
      goto switch_break;
      case_48:
      {
      __cil_tmp20 = (__u8 )1;
      __cil_tmp21 = (__u16 )375;
      hid_map_usage_clear(hi, usage, bit, max, __cil_tmp20, __cil_tmp21);
      }
      goto switch_break;
      case_112:
      {
      __cil_tmp22 = (__u8 )1;
      __cil_tmp23 = (__u16 )358;
      hid_map_usage_clear(hi, usage, bit, max, __cil_tmp22, __cil_tmp23);
      }
      goto switch_break;
      case_4:
      {
      __cil_tmp24 = (__u8 )1;
      __cil_tmp25 = (__u16 )385;
      hid_map_usage_clear(hi, usage, bit, max, __cil_tmp24, __cil_tmp25);
      }
      goto switch_break;
      case_13:
      {
      __cil_tmp26 = (__u8 )1;
      __cil_tmp27 = (__u16 )366;
      hid_map_usage_clear(hi, usage, bit, max, __cil_tmp26, __cil_tmp27);
      }
      goto switch_break;
      case_37:
      {
      __cil_tmp28 = (__u8 )1;
      __cil_tmp29 = (__u16 )377;
      hid_map_usage_clear(hi, usage, bit, max, __cil_tmp28, __cil_tmp29);
      }
      goto switch_break;
      case_71:
      {
      __cil_tmp30 = (__u8 )1;
      __cil_tmp31 = (__u16 )392;
      hid_map_usage_clear(hi, usage, bit, max, __cil_tmp30, __cil_tmp31);
      }
      goto switch_break;
      case_73:
      {
      __cil_tmp32 = (__u8 )1;
      __cil_tmp33 = (__u16 )390;
      hid_map_usage_clear(hi, usage, bit, max, __cil_tmp32, __cil_tmp33);
      }
      goto switch_break;
      case_74:
      {
      __cil_tmp34 = (__u8 )1;
      __cil_tmp35 = (__u16 )393;
      hid_map_usage_clear(hi, usage, bit, max, __cil_tmp34, __cil_tmp35);
      }
      goto switch_break;
      case_72:
      {
      __cil_tmp36 = (__u8 )1;
      __cil_tmp37 = (__u16 )389;
      hid_map_usage_clear(hi, usage, bit, max, __cil_tmp36, __cil_tmp37);
      }
      goto switch_break;
      case_36:
      {
      __cil_tmp38 = (__u8 )1;
      __cil_tmp39 = (__u16 )139;
      hid_map_usage_clear(hi, usage, bit, max, __cil_tmp38, __cil_tmp39);
      }
      goto switch_break;
      case_50:
      {
      __cil_tmp40 = (__u8 )1;
      __cil_tmp41 = (__u16 )388;
      hid_map_usage_clear(hi, usage, bit, max, __cil_tmp40, __cil_tmp41);
      }
      goto switch_break;
      switch_default:
      return (0);
    } else {
      switch_break: ;
    }
    }
  }
  }
  i = 0;
  {
  while (1) {
    while_continue___0: ;
    if (i < 4) {
    } else {
      goto while_break___0;
    }
    __cil_tmp42 = i * 2UL;
    __cil_tmp43 = 8 + __cil_tmp42;
    __cil_tmp44 = (unsigned long )zc;
    __cil_tmp45 = __cil_tmp44 + __cil_tmp43;
    *((unsigned short *)__cil_tmp45) = (unsigned short)0;
    i = i + 1;
  }
  while_break___0: ;
  }
  return (1);
}
}
static int zc_raw_event(struct hid_device *hdev , struct hid_report *report , u8 *data ,
                        int size )
{ struct zc_device *zc ;
  void *tmp ;
  int ret ;
  unsigned int key ;
  unsigned short index ;
  u8 *__cil_tmp10 ;
  u8 __cil_tmp11 ;
  unsigned int __cil_tmp12 ;
  unsigned long __cil_tmp13 ;
  unsigned long __cil_tmp14 ;
  unsigned int __cil_tmp15 ;
  int __cil_tmp16 ;
  unsigned long __cil_tmp17 ;
  unsigned long __cil_tmp18 ;
  unsigned long __cil_tmp19 ;
  unsigned long __cil_tmp20 ;
  unsigned short __cil_tmp21 ;
  struct input_dev *__cil_tmp22 ;
  unsigned long __cil_tmp23 ;
  unsigned long __cil_tmp24 ;
  unsigned long __cil_tmp25 ;
  unsigned long __cil_tmp26 ;
  int __cil_tmp27 ;
  int __cil_tmp28 ;
  unsigned long __cil_tmp29 ;
  unsigned long __cil_tmp30 ;
  unsigned int __cil_tmp31 ;
  u8 *__cil_tmp32 ;
  u8 __cil_tmp33 ;
  struct input_dev *__cil_tmp34 ;
  unsigned long __cil_tmp35 ;
  unsigned long __cil_tmp36 ;
  unsigned long __cil_tmp37 ;
  unsigned long __cil_tmp38 ;
  {
  {
  tmp = hid_get_drvdata(hdev);
  zc = (struct zc_device *)tmp;
  ret = 0;
  }
  {
  __cil_tmp10 = data + 0;
  __cil_tmp11 = *__cil_tmp10;
  __cil_tmp12 = (unsigned int )__cil_tmp11;
  __cil_tmp13 = (unsigned long )report;
  __cil_tmp14 = __cil_tmp13 + 16;
  __cil_tmp15 = *((unsigned int *)__cil_tmp14);
  if (__cil_tmp15 == __cil_tmp12) {
    index = (unsigned short)0;
    {
    while (1) {
      while_continue: ;
      {
      __cil_tmp16 = (int )index;
      if (__cil_tmp16 < 4) {
      } else {
        goto while_break;
      }
      }
      __cil_tmp17 = index * 2UL;
      __cil_tmp18 = 8 + __cil_tmp17;
      __cil_tmp19 = (unsigned long )zc;
      __cil_tmp20 = __cil_tmp19 + __cil_tmp18;
      __cil_tmp21 = *((unsigned short *)__cil_tmp20);
      key = (unsigned int )__cil_tmp21;
      if (key) {
        {
        __cil_tmp22 = *((struct input_dev **)zc);
        input_event(__cil_tmp22, 1U, key, 0);
        __cil_tmp23 = index * 2UL;
        __cil_tmp24 = 8 + __cil_tmp23;
        __cil_tmp25 = (unsigned long )zc;
        __cil_tmp26 = __cil_tmp25 + __cil_tmp24;
        *((unsigned short *)__cil_tmp26) = (unsigned short)0;
        }
      } else {
      }
      __cil_tmp27 = (int )index;
      __cil_tmp28 = __cil_tmp27 + 1;
      index = (unsigned short )__cil_tmp28;
    }
    while_break: ;
    }
    key = 0U;
    {
    __cil_tmp29 = (unsigned long )report;
    __cil_tmp30 = __cil_tmp29 + 16;
    __cil_tmp31 = *((unsigned int *)__cil_tmp30);
    if ((int )__cil_tmp31 == 2) {
      goto case_2;
    } else
    if ((int )__cil_tmp31 == 3) {
      goto case_2;
    } else
    if (0) {
      case_2:
      case_3:
      {
      __cil_tmp32 = data + 1;
      __cil_tmp33 = *__cil_tmp32;
      if ((int )__cil_tmp33 == 16) {
        goto case_16;
      } else
      if ((int )__cil_tmp33 == 48) {
        goto case_48;
      } else
      if ((int )__cil_tmp33 == 112) {
        goto case_112;
      } else
      if ((int )__cil_tmp33 == 4) {
        goto case_4;
      } else
      if (0) {
        case_16:
        key = 373U;
        index = (unsigned short)0;
        goto switch_break___0;
        case_48:
        key = 375U;
        index = (unsigned short)1;
        goto switch_break___0;
        case_112:
        key = 358U;
        index = (unsigned short)2;
        goto switch_break___0;
        case_4:
        key = 385U;
        index = (unsigned short)3;
        goto switch_break___0;
      } else {
        switch_break___0: ;
      }
      }
      if (key) {
        {
        __cil_tmp34 = *((struct input_dev **)zc);
        input_event(__cil_tmp34, 1U, key, 1);
        __cil_tmp35 = index * 2UL;
        __cil_tmp36 = 8 + __cil_tmp35;
        __cil_tmp37 = (unsigned long )zc;
        __cil_tmp38 = __cil_tmp37 + __cil_tmp36;
        *((unsigned short *)__cil_tmp38) = (unsigned short )key;
        }
      } else {
      }
      ret = 1;
      goto switch_break;
    } else {
      switch_break: ;
    }
    }
  } else {
  }
  }
  return (ret);
}
}
static int zc_probe(struct hid_device *hdev , struct hid_device_id const *id )
{ int ret ;
  struct zc_device *zc ;
  void *tmp ;
  void *__cil_tmp6 ;
  unsigned long __cil_tmp7 ;
  unsigned long __cil_tmp8 ;
  unsigned long __cil_tmp9 ;
  unsigned long __cil_tmp10 ;
  struct device *__cil_tmp11 ;
  struct device const *__cil_tmp12 ;
  void *__cil_tmp13 ;
  unsigned long __cil_tmp14 ;
  unsigned long __cil_tmp15 ;
  struct device *__cil_tmp16 ;
  struct device const *__cil_tmp17 ;
  unsigned long __cil_tmp18 ;
  unsigned long __cil_tmp19 ;
  struct device *__cil_tmp20 ;
  struct device const *__cil_tmp21 ;
  void const *__cil_tmp22 ;
  {
  {
  tmp = kzalloc(16UL, 208U);
  zc = (struct zc_device *)tmp;
  }
  {
  __cil_tmp6 = (void *)0;
  __cil_tmp7 = (unsigned long )__cil_tmp6;
  __cil_tmp8 = (unsigned long )zc;
  if (__cil_tmp8 == __cil_tmp7) {
    {
    __cil_tmp9 = (unsigned long )hdev;
    __cil_tmp10 = __cil_tmp9 + 6328;
    __cil_tmp11 = (struct device *)__cil_tmp10;
    __cil_tmp12 = (struct device const *)__cil_tmp11;
    dev_err(__cil_tmp12, "can\'t alloc descriptor\n");
    }
    return (-12);
  } else {
  }
  }
  {
  __cil_tmp13 = (void *)zc;
  hid_set_drvdata(hdev, __cil_tmp13);
  ret = (int )hid_parse(hdev);
  }
  if (ret) {
    {
    __cil_tmp14 = (unsigned long )hdev;
    __cil_tmp15 = __cil_tmp14 + 6328;
    __cil_tmp16 = (struct device *)__cil_tmp15;
    __cil_tmp17 = (struct device const *)__cil_tmp16;
    dev_err(__cil_tmp17, "parse failed\n");
    }
    goto err_free;
  } else {
  }
  {
  ret = (int )hid_hw_start(hdev, 45U);
  }
  if (ret) {
    {
    __cil_tmp18 = (unsigned long )hdev;
    __cil_tmp19 = __cil_tmp18 + 6328;
    __cil_tmp20 = (struct device *)__cil_tmp19;
    __cil_tmp21 = (struct device const *)__cil_tmp20;
    dev_err(__cil_tmp21, "hw start failed\n");
    }
    goto err_free;
  } else {
  }
  return (0);
  err_free:
  {
  __cil_tmp22 = (void const *)zc;
  kfree(__cil_tmp22);
  }
  return (ret);
}
}
static void zc_remove(struct hid_device *hdev )
{ struct zc_device *zc ;
  void *tmp ;
  void const *__cil_tmp4 ;
  {
  {
  tmp = hid_get_drvdata(hdev);
  zc = (struct zc_device *)tmp;
  hid_hw_stop(hdev);
  __cil_tmp4 = (void const *)zc;
  kfree(__cil_tmp4);
  }
  return;
}
}
static struct hid_device_id const zc_devices[1] = { {(__u16 )3, (unsigned short)0, (__u32 )5100, (__u32 )6, 0UL}};
extern struct hid_device_id const __mod_hid_device_table __attribute__((__unused__,
__alias__("zc_devices"))) ;
static struct hid_driver zc_driver =
     {(char *)"zydacron", zc_devices, {(struct list_head *)0, (struct list_head *)0},
    {{{{{0U}}, 0U, 0U, (void *)0}}}, & zc_probe, & zc_remove, (struct hid_report_id const *)0,
    & zc_raw_event, (struct hid_usage_id const *)0, (int (*)(struct hid_device *hdev ,
                                                               struct hid_field *field ,
                                                               struct hid_usage *usage ,
                                                               __s32 value ))0, & zc_report_fixup,
    & zc_input_mapping, (int (*)(struct hid_device *hdev , struct hid_input *hidinput ,
                                 struct hid_field *field , struct hid_usage *usage ,
                                 unsigned long **bit , int *max ))0, (void (*)(struct hid_device *hdev ,
                                                                               struct hid_field *field ,
                                                                               struct hid_usage *usage ))0,
    (int (*)(struct hid_device *hdev , pm_message_t message ))0, (int (*)(struct hid_device *hdev ))0,
    (int (*)(struct hid_device *hdev ))0, {(char const *)0, (struct bus_type *)0,
                                           (struct module *)0, (char const *)0,
                                           (_Bool)0, (struct of_device_id const *)0,
                                           (int (*)(struct device *dev ))0, (int (*)(struct device *dev ))0,
                                           (void (*)(struct device *dev ))0, (int (*)(struct device *dev ,
                                                                                      pm_message_t state ))0,
                                           (int (*)(struct device *dev ))0, (struct attribute_group const **)0,
                                           (struct dev_pm_ops const *)0, (struct driver_private *)0}};
static int zc_init(void) __attribute__((__section__(".init.text"), __no_instrument_function__)) ;
static int zc_init(void)
{ int tmp ;
  {
  {
  tmp = (int )__hid_register_driver(& zc_driver, & __this_module, "hid_zydacron");
  }
  return (tmp);
}
}
static void zc_exit(void) __attribute__((__section__(".exit.text"), __no_instrument_function__)) ;
static void zc_exit(void)
{
  {
  {
  hid_unregister_driver(& zc_driver);
  }
  return;
}
}
int init_module(void)
{ int tmp ;
  {
  {
  tmp = zc_init();
  }
  return (tmp);
}
}
void cleanup_module(void)
{
  {
  {
  zc_exit();
  }
  return;
}
}
static char const __mod_license236[12] __attribute__((__used__, __unused__, __section__(".modinfo"),
__aligned__(1))) =
  { (char const )'l', (char const )'i', (char const )'c', (char const )'e',
        (char const )'n', (char const )'s', (char const )'e', (char const )'=',
        (char const )'G', (char const )'P', (char const )'L', (char const )'\000'};
void ldv_check_final_state(void) ;
extern void ldv_check_return_value(int res ) ;
extern void ldv_initialize(void) ;
extern int __VERIFIER_nondet_int(void) ;
int LDV_IN_INTERRUPT ;
static int res_zc_probe_3 ;
void main(void)
{ struct hid_device *var_group1 ;
  __u8 *var_zc_report_fixup_0_p1 ;
  unsigned int *var_zc_report_fixup_0_p2 ;
  struct hid_input *var_group2 ;
  struct hid_field *var_zc_input_mapping_1_p2 ;
  struct hid_usage *var_zc_input_mapping_1_p3 ;
  unsigned long **var_zc_input_mapping_1_p4 ;
  int *var_zc_input_mapping_1_p5 ;
  struct hid_report *var_group3 ;
  u8 *var_zc_raw_event_2_p2 ;
  int var_zc_raw_event_2_p3 ;
  struct hid_device_id const *var_zc_probe_3_p1 ;
  int tmp ;
  int ldv_s_zc_driver_hid_driver ;
  int tmp___0 ;
  int tmp___1 ;
  int __cil_tmp17 ;
  {
  {
  LDV_IN_INTERRUPT = 1;
  ldv_initialize();
  tmp = zc_init();
  }
  if (tmp) {
    goto ldv_final;
  } else {
  }
  ldv_s_zc_driver_hid_driver = 0;
  {
  while (1) {
    while_continue: ;
    {
    tmp___1 = __VERIFIER_nondet_int();
    }
    if (tmp___1) {
    } else {
      {
      __cil_tmp17 = ldv_s_zc_driver_hid_driver == 0;
      if (! __cil_tmp17) {
      } else {
        goto while_break;
      }
      }
    }
    {
    tmp___0 = __VERIFIER_nondet_int();
    }
    if (tmp___0 == 0) {
      goto case_0;
    } else
    if (tmp___0 == 1) {
      goto case_1;
    } else
    if (tmp___0 == 2) {
      goto case_2;
    } else
    if (tmp___0 == 3) {
      goto case_3;
    } else
    if (tmp___0 == 4) {
      goto case_4;
    } else {
      {
      goto switch_default;
      if (0) {
        case_0:
        if (ldv_s_zc_driver_hid_driver == 0) {
          {
          res_zc_probe_3 = zc_probe(var_group1, var_zc_probe_3_p1);
          ldv_check_return_value(res_zc_probe_3);
          }
          if (res_zc_probe_3) {
            goto ldv_module_exit;
          } else {
          }
          ldv_s_zc_driver_hid_driver = 0;
        } else {
        }
        goto switch_break;
        case_1:
        {
        zc_report_fixup(var_group1, var_zc_report_fixup_0_p1, var_zc_report_fixup_0_p2);
        }
        goto switch_break;
        case_2:
        {
        zc_input_mapping(var_group1, var_group2, var_zc_input_mapping_1_p2, var_zc_input_mapping_1_p3,
                         var_zc_input_mapping_1_p4, var_zc_input_mapping_1_p5);
        }
        goto switch_break;
        case_3:
        {
        zc_raw_event(var_group1, var_group3, var_zc_raw_event_2_p2, var_zc_raw_event_2_p3);
        }
        goto switch_break;
        case_4:
        {
        zc_remove(var_group1);
        }
        goto switch_break;
        switch_default:
        goto switch_break;
      } else {
        switch_break: ;
      }
      }
    }
  }
  while_break: ;
  }
  ldv_module_exit:
  {
  zc_exit();
  }
  ldv_final:
  {
  ldv_check_final_state();
  }
  return;
}
}
void ldv_blast_assert(void)
{
  {
  ERROR: {reach_error();abort();}
}
}
extern int __VERIFIER_nondet_int(void) ;
int ldv_mutex = 1;
int __attribute__((__warn_unused_result__)) mutex_lock_interruptible(struct mutex *lock )
{ int nondetermined ;
  {
  if (ldv_mutex == 1) {
  } else {
    {
    ldv_blast_assert();
    }
  }
  {
  nondetermined = __VERIFIER_nondet_int();
  }
  if (nondetermined) {
    ldv_mutex = 2;
    return (0);
  } else {
    return (-4);
  }
}
}
int __attribute__((__warn_unused_result__)) mutex_lock_killable(struct mutex *lock )
{ int nondetermined ;
  {
  if (ldv_mutex == 1) {
  } else {
    {
    ldv_blast_assert();
    }
  }
  {
  nondetermined = __VERIFIER_nondet_int();
  }
  if (nondetermined) {
    ldv_mutex = 2;
    return (0);
  } else {
    return (-4);
  }
}
}
int atomic_dec_and_mutex_lock(atomic_t *cnt , struct mutex *lock )
{ int atomic_value_after_dec ;
  {
  if (ldv_mutex == 1) {
  } else {
    {
    ldv_blast_assert();
    }
  }
  {
  atomic_value_after_dec = __VERIFIER_nondet_int();
  }
  if (atomic_value_after_dec == 0) {
    ldv_mutex = 2;
    return (1);
  } else {
  }
  return (0);
}
}
void mutex_lock(struct mutex *lock )
{
  {
  if (ldv_mutex == 1) {
  } else {
    {
    ldv_blast_assert();
    }
  }
  ldv_mutex = 2;
  return;
}
}
int mutex_trylock(struct mutex *lock )
{ int nondetermined ;
  {
  if (ldv_mutex == 1) {
  } else {
    {
    ldv_blast_assert();
    }
  }
  {
  nondetermined = __VERIFIER_nondet_int();
  }
  if (nondetermined) {
    ldv_mutex = 2;
    return (1);
  } else {
    return (0);
  }
}
}
void mutex_unlock(struct mutex *lock )
{
  {
  if (ldv_mutex == 2) {
  } else {
    {
    ldv_blast_assert();
    }
  }
  ldv_mutex = 1;
  return;
}
}
void ldv_check_final_state(void)
{
  {
  if (ldv_mutex == 1) {
  } else {
    {
    ldv_blast_assert();
    }
  }
  return;
}
}
long ldv__builtin_expect(long val , long res )
{
  {
  return (val);
}
}
int __VERIFIER_nondet_int(void);
int __hid_register_driver(struct hid_driver *arg0, struct module *arg1, const char *arg2) {
  return __VERIFIER_nondet_int();
}
int __VERIFIER_nondet_int(void);
int _dev_info(const struct device *arg0, const char *arg1, ...) {
  return __VERIFIER_nondet_int();
}
int __VERIFIER_nondet_int(void);
int dev_err(const struct device *arg0, const char *arg1, ...) {
  return __VERIFIER_nondet_int();
}
void *dev_get_drvdata(const struct device *arg0) {
  return ldv_malloc(0UL);
}
int __VERIFIER_nondet_int(void);
int dev_set_drvdata(struct device *arg0, void *arg1) {
  return __VERIFIER_nondet_int();
}
int __VERIFIER_nondet_int(void);
int hid_connect(struct hid_device *arg0, unsigned int arg1) {
  return __VERIFIER_nondet_int();
}
void hid_disconnect(struct hid_device *arg0) {
  return;
}
void hid_unregister_driver(struct hid_driver *arg0) {
  return;
}
void input_event(struct input_dev *arg0, unsigned int arg1, unsigned int arg2, int arg3) {
  return;
}
void ldv_check_return_value(int arg0) {
  return;
}
void ldv_initialize() {
  return;
}
int __VERIFIER_nondet_int(void);
int printk(const char *arg0, ...) {
  return __VERIFIER_nondet_int();
}
void free(void *);
void kfree(void const *p) {
  free((void *)p);
}
