extern void abort(void);

extern void __assert_fail (const char *__assertion, const char *__file,
      unsigned int __line, const char *__function)
     __attribute__ ((__nothrow__ , __leaf__)) __attribute__ ((__noreturn__));
extern void __assert_perror_fail (int __errnum, const char *__file,
      unsigned int __line, const char *__function)
     __attribute__ ((__nothrow__ , __leaf__)) __attribute__ ((__noreturn__));
extern void __assert (const char *__assertion, const char *__file, int __line)
     __attribute__ ((__nothrow__ , __leaf__)) __attribute__ ((__noreturn__));

void reach_error() { ((void) sizeof ((0) ? 1 : 0), __extension__ ({ if (0) ; else __assert_fail ("0", "32_1_cilled_ok_nondet_linux-3.4-32_1-drivers--block--paride--fit2.ko-ldv_main0_sequence_infinite_withcheck_stateful.cil.out.c", 3, __extension__ __PRETTY_FUNCTION__); })); }
typedef unsigned short __u16;
typedef unsigned int __u32;
typedef unsigned long long __u64;
typedef short s16;
typedef unsigned short u16;
typedef unsigned int u32;
typedef long __kernel_long_t;
typedef unsigned long __kernel_ulong_t;
typedef __kernel_ulong_t __kernel_size_t;
typedef __kernel_long_t __kernel_ssize_t;
typedef unsigned short umode_t;
typedef __kernel_size_t size_t;
typedef __kernel_ssize_t ssize_t;
struct __anonstruct_atomic_t_7 {
   int counter ;
};
typedef struct __anonstruct_atomic_t_7 atomic_t;
struct list_head {
   struct list_head *next ;
   struct list_head *prev ;
};
struct module;
struct module;
typedef void (*ctor_fn_t)(void);
struct task_struct;
struct task_struct;
struct task_struct;
struct task_struct;
struct arch_spinlock;
struct arch_spinlock;
struct task_struct;
struct task_struct;
struct bug_entry {
   int bug_addr_disp ;
   int file_disp ;
   unsigned short line ;
   unsigned short flags ;
};
struct static_key;
struct static_key;
typedef u16 __ticket_t;
typedef u32 __ticketpair_t;
struct __raw_tickets {
   __ticket_t head ;
   __ticket_t tail ;
};
union __anonunion____missing_field_name_36 {
   __ticketpair_t head_tail ;
   struct __raw_tickets tickets ;
};
struct arch_spinlock {
   union __anonunion____missing_field_name_36 __annonCompField17 ;
};
typedef struct arch_spinlock arch_spinlock_t;
struct task_struct;
struct raw_spinlock {
   arch_spinlock_t raw_lock ;
   unsigned int magic ;
   unsigned int owner_cpu ;
   void *owner ;
};
union __anonunion____missing_field_name_39 {
   struct raw_spinlock rlock ;
};
struct spinlock {
   union __anonunion____missing_field_name_39 __annonCompField19 ;
};
typedef struct spinlock spinlock_t;
struct __wait_queue_head {
   spinlock_t lock ;
   struct list_head task_list ;
};
typedef struct __wait_queue_head wait_queue_head_t;
struct task_struct;
struct mutex {
   atomic_t count ;
   spinlock_t wait_lock ;
   struct list_head wait_list ;
   struct task_struct *owner ;
   char const *name ;
   void *magic ;
};
struct task_struct;
typedef __u64 Elf64_Addr;
typedef __u16 Elf64_Half;
typedef __u32 Elf64_Word;
typedef __u64 Elf64_Xword;
struct elf64_sym {
   Elf64_Word st_name ;
   unsigned char st_info ;
   unsigned char st_other ;
   Elf64_Half st_shndx ;
   Elf64_Addr st_value ;
   Elf64_Xword st_size ;
};
typedef struct elf64_sym Elf64_Sym;
struct sock;
struct sock;
struct kobject;
struct kobject;
enum kobj_ns_type {
    KOBJ_NS_TYPE_NONE = 0,
    KOBJ_NS_TYPE_NET = 1,
    KOBJ_NS_TYPES = 2
} ;
struct kobj_ns_type_operations {
   enum kobj_ns_type type ;
   void *(*grab_current_ns)(void) ;
   void const *(*netlink_ns)(struct sock *sk ) ;
   void const *(*initial_ns)(void) ;
   void (*drop_ns)(void * ) ;
};
struct kobject;
struct module;
enum kobj_ns_type;
struct attribute {
   char const *name ;
   umode_t mode ;
};
struct sysfs_ops {
   ssize_t (*show)(struct kobject * , struct attribute * , char * ) ;
   ssize_t (*store)(struct kobject * , struct attribute * , char const * , size_t ) ;
   void const *(*namespace)(struct kobject * , struct attribute const * ) ;
};
struct sysfs_dirent;
struct sysfs_dirent;
struct kref {
   atomic_t refcount ;
};
struct kset;
struct kobj_type;
struct kobject {
   char const *name ;
   struct list_head entry ;
   struct kobject *parent ;
   struct kset *kset ;
   struct kobj_type *ktype ;
   struct sysfs_dirent *sd ;
   struct kref kref ;
   unsigned int state_initialized : 1 ;
   unsigned int state_in_sysfs : 1 ;
   unsigned int state_add_uevent_sent : 1 ;
   unsigned int state_remove_uevent_sent : 1 ;
   unsigned int uevent_suppress : 1 ;
};
struct kobj_type {
   void (*release)(struct kobject *kobj ) ;
   struct sysfs_ops const *sysfs_ops ;
   struct attribute **default_attrs ;
   struct kobj_ns_type_operations const *(*child_ns_type)(struct kobject *kobj ) ;
   void const *(*namespace)(struct kobject *kobj ) ;
};
struct kobj_uevent_env {
   char *envp[32] ;
   int envp_idx ;
   char buf[2048] ;
   int buflen ;
};
struct kset_uevent_ops {
   int (* const filter)(struct kset *kset , struct kobject *kobj ) ;
   char const *(* const name)(struct kset *kset , struct kobject *kobj ) ;
   int (* const uevent)(struct kset *kset , struct kobject *kobj , struct kobj_uevent_env *env ) ;
};
struct sock;
struct kset {
   struct list_head list ;
   spinlock_t list_lock ;
   struct kobject kobj ;
   struct kset_uevent_ops const *uevent_ops ;
};
struct kernel_param;
struct kernel_param;
struct kernel_param_ops {
   int (*set)(char const *val , struct kernel_param const *kp ) ;
   int (*get)(char *buffer , struct kernel_param const *kp ) ;
   void (*free)(void *arg ) ;
};
struct kparam_string;
struct kparam_array;
union __anonunion____missing_field_name_199 {
   void *arg ;
   struct kparam_string const *str ;
   struct kparam_array const *arr ;
};
struct kernel_param {
   char const *name ;
   struct kernel_param_ops const *ops ;
   u16 perm ;
   s16 level ;
   union __anonunion____missing_field_name_199 __annonCompField32 ;
};
struct kparam_string {
   unsigned int maxlen ;
   char *string ;
};
struct kparam_array {
   unsigned int max ;
   unsigned int elemsize ;
   unsigned int *num ;
   struct kernel_param_ops const *ops ;
   void *elem ;
};
struct module;
struct module;
struct static_key {
   atomic_t enabled ;
};
struct module;
struct tracepoint;
struct tracepoint;
struct tracepoint_func {
   void *func ;
   void *data ;
};
struct tracepoint {
   char const *name ;
   struct static_key key ;
   void (*regfunc)(void) ;
   void (*unregfunc)(void) ;
   struct tracepoint_func *funcs ;
};
struct kernel_symbol {
   unsigned long value ;
   char const *name ;
};
struct mod_arch_specific {
};
struct module;
struct module_param_attrs;
struct module_kobject {
   struct kobject kobj ;
   struct module *mod ;
   struct kobject *drivers_dir ;
   struct module_param_attrs *mp ;
};
struct module_attribute {
   struct attribute attr ;
   ssize_t (*show)(struct module_attribute * , struct module_kobject * , char * ) ;
   ssize_t (*store)(struct module_attribute * , struct module_kobject * , char const * ,
                    size_t count ) ;
   void (*setup)(struct module * , char const * ) ;
   int (*test)(struct module * ) ;
   void (*free)(struct module * ) ;
};
struct exception_table_entry;
struct exception_table_entry;
enum module_state {
    MODULE_STATE_LIVE = 0,
    MODULE_STATE_COMING = 1,
    MODULE_STATE_GOING = 2
} ;
struct module_ref {
   unsigned long incs ;
   unsigned long decs ;
} __attribute__((__aligned__((2) * (sizeof(unsigned long )) ))) ;
struct module_sect_attrs;
struct module_notes_attrs;
struct ftrace_event_call;
struct module {
   enum module_state state ;
   struct list_head list ;
   char name[64UL - sizeof(unsigned long )] ;
   struct module_kobject mkobj ;
   struct module_attribute *modinfo_attrs ;
   char const *version ;
   char const *srcversion ;
   struct kobject *holders_dir ;
   struct kernel_symbol const *syms ;
   unsigned long const *crcs ;
   unsigned int num_syms ;
   struct kernel_param *kp ;
   unsigned int num_kp ;
   unsigned int num_gpl_syms ;
   struct kernel_symbol const *gpl_syms ;
   unsigned long const *gpl_crcs ;
   struct kernel_symbol const *unused_syms ;
   unsigned long const *unused_crcs ;
   unsigned int num_unused_syms ;
   unsigned int num_unused_gpl_syms ;
   struct kernel_symbol const *unused_gpl_syms ;
   unsigned long const *unused_gpl_crcs ;
   struct kernel_symbol const *gpl_future_syms ;
   unsigned long const *gpl_future_crcs ;
   unsigned int num_gpl_future_syms ;
   unsigned int num_exentries ;
   struct exception_table_entry *extable ;
   int (*init)(void) ;
   void *module_init ;
   void *module_core ;
   unsigned int init_size ;
   unsigned int core_size ;
   unsigned int init_text_size ;
   unsigned int core_text_size ;
   unsigned int init_ro_size ;
   unsigned int core_ro_size ;
   struct mod_arch_specific arch ;
   unsigned int taints ;
   unsigned int num_bugs ;
   struct list_head bug_list ;
   struct bug_entry *bug_table ;
   Elf64_Sym *symtab ;
   Elf64_Sym *core_symtab ;
   unsigned int num_symtab ;
   unsigned int core_num_syms ;
   char *strtab ;
   char *core_strtab ;
   struct module_sect_attrs *sect_attrs ;
   struct module_notes_attrs *notes_attrs ;
   char *args ;
   void *percpu ;
   unsigned int percpu_size ;
   unsigned int num_tracepoints ;
   struct tracepoint * const *tracepoints_ptrs ;
   unsigned int num_trace_bprintk_fmt ;
   char const **trace_bprintk_fmt_start ;
   struct ftrace_event_call **trace_events ;
   unsigned int num_trace_events ;
   struct list_head source_list ;
   struct list_head target_list ;
   struct task_struct *waiter ;
   void (*exit)(void) ;
   struct module_ref *refptr ;
   ctor_fn_t *ctors ;
   unsigned int num_ctors ;
};
struct pi_protocol;
struct pi_adapter {
   struct pi_protocol *proto ;
   int port ;
   int mode ;
   int delay ;
   int devtype ;
   char *device ;
   int unit ;
   int saved_r0 ;
   int saved_r2 ;
   int reserved ;
   unsigned long private ;
   wait_queue_head_t parq ;
   void *pardev ;
   char *parname ;
   int claimed ;
   void (*claim_cont)(void) ;
};
typedef struct pi_adapter PIA;
struct pi_protocol {
   char name[8] ;
   int index ;
   int max_mode ;
   int epp_first ;
   int default_delay ;
   int max_units ;
   void (*write_regr)(PIA * , int , int , int ) ;
   int (*read_regr)(PIA * , int , int ) ;
   void (*write_block)(PIA * , char * , int ) ;
   void (*read_block)(PIA * , char * , int ) ;
   void (*connect)(PIA * ) ;
   void (*disconnect)(PIA * ) ;
   int (*test_port)(PIA * ) ;
   int (*probe_unit)(PIA * ) ;
   int (*test_proto)(PIA * , char * , int ) ;
   void (*log_adapter)(PIA * , char * , int ) ;
   int (*init_proto)(PIA * ) ;
   void (*release_proto)(PIA * ) ;
   struct module *owner ;
};
typedef struct pi_protocol PIP;
long ldv__builtin_expect(long val , long res ) ;
extern int ( printk)(char const *fmt , ...) ;
void mutex_lock(struct mutex *lock ) ;
int __attribute__((__warn_unused_result__)) mutex_lock_interruptible(struct mutex *lock ) ;
int __attribute__((__warn_unused_result__)) mutex_lock_killable(struct mutex *lock ) ;
int mutex_trylock(struct mutex *lock ) ;
void mutex_unlock(struct mutex *lock ) ;
int atomic_dec_and_mutex_lock(atomic_t *cnt , struct mutex *lock ) ;
 static void outb(unsigned char value , int port ) __attribute__((__no_instrument_function__)) ;
 static void outb(unsigned char value , int port )
{
  {
  __asm__ volatile ("out"
                       "b"
                       " %"
                       "b"
                       "0, %w1": : "a" (value), "Nd" (port));
  return;
}
}
 static unsigned char inb(int port ) __attribute__((__no_instrument_function__)) ;
 static unsigned char inb(int port )
{ unsigned char value ;
  {
  __asm__ volatile ("in"
                       "b"
                       " %w1, %"
                       "b"
                       "0": "=a" (value): "Nd" (port));
  return (value);
}
}
extern struct module __this_module ;
int init_module(void) ;
void cleanup_module(void) ;
extern void __udelay(unsigned long usecs ) ;
extern int paride_register(PIP * ) ;
extern void paride_unregister(PIP * ) ;
static void fit2_write_regr(PIA *pi , int cont , int regr , int val )
{ unsigned long __cil_tmp5 ;
  unsigned long __cil_tmp6 ;
  int __cil_tmp7 ;
  int __cil_tmp8 ;
  unsigned long __cil_tmp9 ;
  unsigned long __cil_tmp10 ;
  unsigned long __cil_tmp11 ;
  unsigned long __cil_tmp12 ;
  int __cil_tmp13 ;
  unsigned long __cil_tmp14 ;
  unsigned char __cil_tmp15 ;
  unsigned long __cil_tmp16 ;
  unsigned long __cil_tmp17 ;
  int __cil_tmp18 ;
  unsigned long __cil_tmp19 ;
  unsigned long __cil_tmp20 ;
  unsigned long __cil_tmp21 ;
  unsigned long __cil_tmp22 ;
  int __cil_tmp23 ;
  unsigned long __cil_tmp24 ;
  unsigned long __cil_tmp25 ;
  unsigned long __cil_tmp26 ;
  int __cil_tmp27 ;
  int __cil_tmp28 ;
  unsigned long __cil_tmp29 ;
  unsigned long __cil_tmp30 ;
  unsigned long __cil_tmp31 ;
  unsigned long __cil_tmp32 ;
  int __cil_tmp33 ;
  unsigned long __cil_tmp34 ;
  unsigned char __cil_tmp35 ;
  unsigned long __cil_tmp36 ;
  unsigned long __cil_tmp37 ;
  int __cil_tmp38 ;
  unsigned long __cil_tmp39 ;
  unsigned long __cil_tmp40 ;
  unsigned long __cil_tmp41 ;
  unsigned long __cil_tmp42 ;
  int __cil_tmp43 ;
  unsigned long __cil_tmp44 ;
  unsigned long __cil_tmp45 ;
  unsigned long __cil_tmp46 ;
  int __cil_tmp47 ;
  int __cil_tmp48 ;
  unsigned long __cil_tmp49 ;
  unsigned long __cil_tmp50 ;
  unsigned long __cil_tmp51 ;
  unsigned long __cil_tmp52 ;
  int __cil_tmp53 ;
  unsigned long __cil_tmp54 ;
  unsigned long __cil_tmp55 ;
  unsigned long __cil_tmp56 ;
  int __cil_tmp57 ;
  unsigned long __cil_tmp58 ;
  unsigned long __cil_tmp59 ;
  unsigned long __cil_tmp60 ;
  unsigned long __cil_tmp61 ;
  int __cil_tmp62 ;
  unsigned long __cil_tmp63 ;
  unsigned long __cil_tmp64 ;
  unsigned long __cil_tmp65 ;
  int __cil_tmp66 ;
  int __cil_tmp67 ;
  unsigned long __cil_tmp68 ;
  unsigned long __cil_tmp69 ;
  unsigned long __cil_tmp70 ;
  unsigned long __cil_tmp71 ;
  int __cil_tmp72 ;
  unsigned long __cil_tmp73 ;
  {
  if (cont == 1) {
    return;
  } else {
  }
  {
  __cil_tmp5 = (unsigned long )pi;
  __cil_tmp6 = __cil_tmp5 + 8;
  __cil_tmp7 = *((int *)__cil_tmp6);
  __cil_tmp8 = __cil_tmp7 + 2;
  outb((unsigned char)12, __cil_tmp8);
  }
  {
  __cil_tmp9 = (unsigned long )pi;
  __cil_tmp10 = __cil_tmp9 + 16;
  if (*((int *)__cil_tmp10)) {
    {
    __cil_tmp11 = (unsigned long )pi;
    __cil_tmp12 = __cil_tmp11 + 16;
    __cil_tmp13 = *((int *)__cil_tmp12);
    __cil_tmp14 = (unsigned long )__cil_tmp13;
    __udelay(__cil_tmp14);
    }
  } else {
  }
  }
  {
  __cil_tmp15 = (unsigned char )regr;
  __cil_tmp16 = (unsigned long )pi;
  __cil_tmp17 = __cil_tmp16 + 8;
  __cil_tmp18 = *((int *)__cil_tmp17);
  outb(__cil_tmp15, __cil_tmp18);
  }
  {
  __cil_tmp19 = (unsigned long )pi;
  __cil_tmp20 = __cil_tmp19 + 16;
  if (*((int *)__cil_tmp20)) {
    {
    __cil_tmp21 = (unsigned long )pi;
    __cil_tmp22 = __cil_tmp21 + 16;
    __cil_tmp23 = *((int *)__cil_tmp22);
    __cil_tmp24 = (unsigned long )__cil_tmp23;
    __udelay(__cil_tmp24);
    }
  } else {
  }
  }
  {
  __cil_tmp25 = (unsigned long )pi;
  __cil_tmp26 = __cil_tmp25 + 8;
  __cil_tmp27 = *((int *)__cil_tmp26);
  __cil_tmp28 = __cil_tmp27 + 2;
  outb((unsigned char)4, __cil_tmp28);
  }
  {
  __cil_tmp29 = (unsigned long )pi;
  __cil_tmp30 = __cil_tmp29 + 16;
  if (*((int *)__cil_tmp30)) {
    {
    __cil_tmp31 = (unsigned long )pi;
    __cil_tmp32 = __cil_tmp31 + 16;
    __cil_tmp33 = *((int *)__cil_tmp32);
    __cil_tmp34 = (unsigned long )__cil_tmp33;
    __udelay(__cil_tmp34);
    }
  } else {
  }
  }
  {
  __cil_tmp35 = (unsigned char )val;
  __cil_tmp36 = (unsigned long )pi;
  __cil_tmp37 = __cil_tmp36 + 8;
  __cil_tmp38 = *((int *)__cil_tmp37);
  outb(__cil_tmp35, __cil_tmp38);
  }
  {
  __cil_tmp39 = (unsigned long )pi;
  __cil_tmp40 = __cil_tmp39 + 16;
  if (*((int *)__cil_tmp40)) {
    {
    __cil_tmp41 = (unsigned long )pi;
    __cil_tmp42 = __cil_tmp41 + 16;
    __cil_tmp43 = *((int *)__cil_tmp42);
    __cil_tmp44 = (unsigned long )__cil_tmp43;
    __udelay(__cil_tmp44);
    }
  } else {
  }
  }
  {
  __cil_tmp45 = (unsigned long )pi;
  __cil_tmp46 = __cil_tmp45 + 8;
  __cil_tmp47 = *((int *)__cil_tmp46);
  __cil_tmp48 = __cil_tmp47 + 2;
  outb((unsigned char)5, __cil_tmp48);
  }
  {
  __cil_tmp49 = (unsigned long )pi;
  __cil_tmp50 = __cil_tmp49 + 16;
  if (*((int *)__cil_tmp50)) {
    {
    __cil_tmp51 = (unsigned long )pi;
    __cil_tmp52 = __cil_tmp51 + 16;
    __cil_tmp53 = *((int *)__cil_tmp52);
    __cil_tmp54 = (unsigned long )__cil_tmp53;
    __udelay(__cil_tmp54);
    }
  } else {
  }
  }
  {
  __cil_tmp55 = (unsigned long )pi;
  __cil_tmp56 = __cil_tmp55 + 8;
  __cil_tmp57 = *((int *)__cil_tmp56);
  outb((unsigned char)0, __cil_tmp57);
  }
  {
  __cil_tmp58 = (unsigned long )pi;
  __cil_tmp59 = __cil_tmp58 + 16;
  if (*((int *)__cil_tmp59)) {
    {
    __cil_tmp60 = (unsigned long )pi;
    __cil_tmp61 = __cil_tmp60 + 16;
    __cil_tmp62 = *((int *)__cil_tmp61);
    __cil_tmp63 = (unsigned long )__cil_tmp62;
    __udelay(__cil_tmp63);
    }
  } else {
  }
  }
  {
  __cil_tmp64 = (unsigned long )pi;
  __cil_tmp65 = __cil_tmp64 + 8;
  __cil_tmp66 = *((int *)__cil_tmp65);
  __cil_tmp67 = __cil_tmp66 + 2;
  outb((unsigned char)4, __cil_tmp67);
  }
  {
  __cil_tmp68 = (unsigned long )pi;
  __cil_tmp69 = __cil_tmp68 + 16;
  if (*((int *)__cil_tmp69)) {
    {
    __cil_tmp70 = (unsigned long )pi;
    __cil_tmp71 = __cil_tmp70 + 16;
    __cil_tmp72 = *((int *)__cil_tmp71);
    __cil_tmp73 = (unsigned long )__cil_tmp72;
    __udelay(__cil_tmp73);
    }
  } else {
  }
  }
  return;
}
}
static int fit2_read_regr(PIA *pi , int cont , int regr )
{ int a ;
  int b ;
  int r ;
  unsigned char tmp ;
  unsigned char tmp___0 ;
  unsigned long __cil_tmp9 ;
  unsigned long __cil_tmp10 ;
  int __cil_tmp11 ;
  int __cil_tmp12 ;
  unsigned long __cil_tmp13 ;
  unsigned long __cil_tmp14 ;
  unsigned long __cil_tmp15 ;
  unsigned long __cil_tmp16 ;
  int __cil_tmp17 ;
  unsigned long __cil_tmp18 ;
  unsigned char __cil_tmp19 ;
  unsigned long __cil_tmp20 ;
  unsigned long __cil_tmp21 ;
  int __cil_tmp22 ;
  unsigned long __cil_tmp23 ;
  unsigned long __cil_tmp24 ;
  unsigned long __cil_tmp25 ;
  unsigned long __cil_tmp26 ;
  int __cil_tmp27 ;
  unsigned long __cil_tmp28 ;
  unsigned long __cil_tmp29 ;
  unsigned long __cil_tmp30 ;
  int __cil_tmp31 ;
  int __cil_tmp32 ;
  unsigned long __cil_tmp33 ;
  unsigned long __cil_tmp34 ;
  unsigned long __cil_tmp35 ;
  unsigned long __cil_tmp36 ;
  int __cil_tmp37 ;
  unsigned long __cil_tmp38 ;
  unsigned long __cil_tmp39 ;
  unsigned long __cil_tmp40 ;
  int __cil_tmp41 ;
  int __cil_tmp42 ;
  unsigned long __cil_tmp43 ;
  unsigned long __cil_tmp44 ;
  unsigned long __cil_tmp45 ;
  unsigned long __cil_tmp46 ;
  int __cil_tmp47 ;
  unsigned long __cil_tmp48 ;
  unsigned long __cil_tmp49 ;
  unsigned long __cil_tmp50 ;
  int __cil_tmp51 ;
  unsigned long __cil_tmp52 ;
  unsigned long __cil_tmp53 ;
  unsigned long __cil_tmp54 ;
  unsigned long __cil_tmp55 ;
  int __cil_tmp56 ;
  unsigned long __cil_tmp57 ;
  unsigned long __cil_tmp58 ;
  unsigned long __cil_tmp59 ;
  unsigned long __cil_tmp60 ;
  unsigned long __cil_tmp61 ;
  int __cil_tmp62 ;
  unsigned long __cil_tmp63 ;
  unsigned long __cil_tmp64 ;
  unsigned long __cil_tmp65 ;
  int __cil_tmp66 ;
  int __cil_tmp67 ;
  int __cil_tmp68 ;
  unsigned long __cil_tmp69 ;
  unsigned long __cil_tmp70 ;
  int __cil_tmp71 ;
  unsigned long __cil_tmp72 ;
  unsigned long __cil_tmp73 ;
  unsigned long __cil_tmp74 ;
  unsigned long __cil_tmp75 ;
  int __cil_tmp76 ;
  unsigned long __cil_tmp77 ;
  unsigned long __cil_tmp78 ;
  unsigned long __cil_tmp79 ;
  unsigned long __cil_tmp80 ;
  unsigned long __cil_tmp81 ;
  int __cil_tmp82 ;
  unsigned long __cil_tmp83 ;
  unsigned long __cil_tmp84 ;
  unsigned long __cil_tmp85 ;
  int __cil_tmp86 ;
  int __cil_tmp87 ;
  int __cil_tmp88 ;
  unsigned long __cil_tmp89 ;
  unsigned long __cil_tmp90 ;
  int __cil_tmp91 ;
  int __cil_tmp92 ;
  unsigned long __cil_tmp93 ;
  unsigned long __cil_tmp94 ;
  unsigned long __cil_tmp95 ;
  unsigned long __cil_tmp96 ;
  int __cil_tmp97 ;
  unsigned long __cil_tmp98 ;
  int __cil_tmp99 ;
  int __cil_tmp100 ;
  int __cil_tmp101 ;
  {
  if (cont) {
    if (regr != 6) {
      return (255);
    } else {
    }
    r = 7;
  } else {
    r = regr + 16;
  }
  {
  __cil_tmp9 = (unsigned long )pi;
  __cil_tmp10 = __cil_tmp9 + 8;
  __cil_tmp11 = *((int *)__cil_tmp10);
  __cil_tmp12 = __cil_tmp11 + 2;
  outb((unsigned char)12, __cil_tmp12);
  }
  {
  __cil_tmp13 = (unsigned long )pi;
  __cil_tmp14 = __cil_tmp13 + 16;
  if (*((int *)__cil_tmp14)) {
    {
    __cil_tmp15 = (unsigned long )pi;
    __cil_tmp16 = __cil_tmp15 + 16;
    __cil_tmp17 = *((int *)__cil_tmp16);
    __cil_tmp18 = (unsigned long )__cil_tmp17;
    __udelay(__cil_tmp18);
    }
  } else {
  }
  }
  {
  __cil_tmp19 = (unsigned char )r;
  __cil_tmp20 = (unsigned long )pi;
  __cil_tmp21 = __cil_tmp20 + 8;
  __cil_tmp22 = *((int *)__cil_tmp21);
  outb(__cil_tmp19, __cil_tmp22);
  }
  {
  __cil_tmp23 = (unsigned long )pi;
  __cil_tmp24 = __cil_tmp23 + 16;
  if (*((int *)__cil_tmp24)) {
    {
    __cil_tmp25 = (unsigned long )pi;
    __cil_tmp26 = __cil_tmp25 + 16;
    __cil_tmp27 = *((int *)__cil_tmp26);
    __cil_tmp28 = (unsigned long )__cil_tmp27;
    __udelay(__cil_tmp28);
    }
  } else {
  }
  }
  {
  __cil_tmp29 = (unsigned long )pi;
  __cil_tmp30 = __cil_tmp29 + 8;
  __cil_tmp31 = *((int *)__cil_tmp30);
  __cil_tmp32 = __cil_tmp31 + 2;
  outb((unsigned char)4, __cil_tmp32);
  }
  {
  __cil_tmp33 = (unsigned long )pi;
  __cil_tmp34 = __cil_tmp33 + 16;
  if (*((int *)__cil_tmp34)) {
    {
    __cil_tmp35 = (unsigned long )pi;
    __cil_tmp36 = __cil_tmp35 + 16;
    __cil_tmp37 = *((int *)__cil_tmp36);
    __cil_tmp38 = (unsigned long )__cil_tmp37;
    __udelay(__cil_tmp38);
    }
  } else {
  }
  }
  {
  __cil_tmp39 = (unsigned long )pi;
  __cil_tmp40 = __cil_tmp39 + 8;
  __cil_tmp41 = *((int *)__cil_tmp40);
  __cil_tmp42 = __cil_tmp41 + 2;
  outb((unsigned char)5, __cil_tmp42);
  }
  {
  __cil_tmp43 = (unsigned long )pi;
  __cil_tmp44 = __cil_tmp43 + 16;
  if (*((int *)__cil_tmp44)) {
    {
    __cil_tmp45 = (unsigned long )pi;
    __cil_tmp46 = __cil_tmp45 + 16;
    __cil_tmp47 = *((int *)__cil_tmp46);
    __cil_tmp48 = (unsigned long )__cil_tmp47;
    __udelay(__cil_tmp48);
    }
  } else {
  }
  }
  {
  __cil_tmp49 = (unsigned long )pi;
  __cil_tmp50 = __cil_tmp49 + 8;
  __cil_tmp51 = *((int *)__cil_tmp50);
  outb((unsigned char)0, __cil_tmp51);
  }
  {
  __cil_tmp52 = (unsigned long )pi;
  __cil_tmp53 = __cil_tmp52 + 16;
  if (*((int *)__cil_tmp53)) {
    {
    __cil_tmp54 = (unsigned long )pi;
    __cil_tmp55 = __cil_tmp54 + 16;
    __cil_tmp56 = *((int *)__cil_tmp55);
    __cil_tmp57 = (unsigned long )__cil_tmp56;
    __udelay(__cil_tmp57);
    }
  } else {
  }
  }
  {
  __cil_tmp58 = (unsigned long )pi;
  __cil_tmp59 = __cil_tmp58 + 16;
  if (*((int *)__cil_tmp59)) {
    {
    __cil_tmp60 = (unsigned long )pi;
    __cil_tmp61 = __cil_tmp60 + 16;
    __cil_tmp62 = *((int *)__cil_tmp61);
    __cil_tmp63 = (unsigned long )__cil_tmp62;
    __udelay(__cil_tmp63);
    }
  } else {
  }
  }
  {
  __cil_tmp64 = (unsigned long )pi;
  __cil_tmp65 = __cil_tmp64 + 8;
  __cil_tmp66 = *((int *)__cil_tmp65);
  __cil_tmp67 = __cil_tmp66 + 1;
  tmp = inb(__cil_tmp67);
  __cil_tmp68 = (int )tmp;
  a = __cil_tmp68 & 255;
  __cil_tmp69 = (unsigned long )pi;
  __cil_tmp70 = __cil_tmp69 + 8;
  __cil_tmp71 = *((int *)__cil_tmp70);
  outb((unsigned char)1, __cil_tmp71);
  }
  {
  __cil_tmp72 = (unsigned long )pi;
  __cil_tmp73 = __cil_tmp72 + 16;
  if (*((int *)__cil_tmp73)) {
    {
    __cil_tmp74 = (unsigned long )pi;
    __cil_tmp75 = __cil_tmp74 + 16;
    __cil_tmp76 = *((int *)__cil_tmp75);
    __cil_tmp77 = (unsigned long )__cil_tmp76;
    __udelay(__cil_tmp77);
    }
  } else {
  }
  }
  {
  __cil_tmp78 = (unsigned long )pi;
  __cil_tmp79 = __cil_tmp78 + 16;
  if (*((int *)__cil_tmp79)) {
    {
    __cil_tmp80 = (unsigned long )pi;
    __cil_tmp81 = __cil_tmp80 + 16;
    __cil_tmp82 = *((int *)__cil_tmp81);
    __cil_tmp83 = (unsigned long )__cil_tmp82;
    __udelay(__cil_tmp83);
    }
  } else {
  }
  }
  {
  __cil_tmp84 = (unsigned long )pi;
  __cil_tmp85 = __cil_tmp84 + 8;
  __cil_tmp86 = *((int *)__cil_tmp85);
  __cil_tmp87 = __cil_tmp86 + 1;
  tmp___0 = inb(__cil_tmp87);
  __cil_tmp88 = (int )tmp___0;
  b = __cil_tmp88 & 255;
  __cil_tmp89 = (unsigned long )pi;
  __cil_tmp90 = __cil_tmp89 + 8;
  __cil_tmp91 = *((int *)__cil_tmp90);
  __cil_tmp92 = __cil_tmp91 + 2;
  outb((unsigned char)4, __cil_tmp92);
  }
  {
  __cil_tmp93 = (unsigned long )pi;
  __cil_tmp94 = __cil_tmp93 + 16;
  if (*((int *)__cil_tmp94)) {
    {
    __cil_tmp95 = (unsigned long )pi;
    __cil_tmp96 = __cil_tmp95 + 16;
    __cil_tmp97 = *((int *)__cil_tmp96);
    __cil_tmp98 = (unsigned long )__cil_tmp97;
    __udelay(__cil_tmp98);
    }
  } else {
  }
  }
  {
  __cil_tmp99 = b & 240;
  __cil_tmp100 = a >> 4;
  __cil_tmp101 = __cil_tmp100 & 15;
  return (__cil_tmp101 | __cil_tmp99);
  }
}
}
static void fit2_read_block(PIA *pi , char *buf , int count )
{ int k ;
  int a ;
  int b ;
  int c ;
  int d ;
  unsigned char tmp ;
  unsigned char tmp___0 ;
  unsigned char tmp___1 ;
  unsigned char tmp___2 ;
  unsigned char tmp___3 ;
  unsigned char tmp___4 ;
  unsigned char tmp___5 ;
  unsigned char tmp___6 ;
  unsigned long __cil_tmp17 ;
  unsigned long __cil_tmp18 ;
  int __cil_tmp19 ;
  int __cil_tmp20 ;
  unsigned long __cil_tmp21 ;
  unsigned long __cil_tmp22 ;
  unsigned long __cil_tmp23 ;
  unsigned long __cil_tmp24 ;
  int __cil_tmp25 ;
  unsigned long __cil_tmp26 ;
  unsigned long __cil_tmp27 ;
  unsigned long __cil_tmp28 ;
  int __cil_tmp29 ;
  unsigned long __cil_tmp30 ;
  unsigned long __cil_tmp31 ;
  unsigned long __cil_tmp32 ;
  unsigned long __cil_tmp33 ;
  int __cil_tmp34 ;
  unsigned long __cil_tmp35 ;
  int __cil_tmp36 ;
  unsigned long __cil_tmp37 ;
  unsigned long __cil_tmp38 ;
  int __cil_tmp39 ;
  int __cil_tmp40 ;
  unsigned long __cil_tmp41 ;
  unsigned long __cil_tmp42 ;
  unsigned long __cil_tmp43 ;
  unsigned long __cil_tmp44 ;
  int __cil_tmp45 ;
  unsigned long __cil_tmp46 ;
  unsigned long __cil_tmp47 ;
  unsigned long __cil_tmp48 ;
  int __cil_tmp49 ;
  int __cil_tmp50 ;
  unsigned long __cil_tmp51 ;
  unsigned long __cil_tmp52 ;
  unsigned long __cil_tmp53 ;
  unsigned long __cil_tmp54 ;
  int __cil_tmp55 ;
  unsigned long __cil_tmp56 ;
  unsigned long __cil_tmp57 ;
  unsigned long __cil_tmp58 ;
  int __cil_tmp59 ;
  unsigned long __cil_tmp60 ;
  unsigned long __cil_tmp61 ;
  unsigned long __cil_tmp62 ;
  unsigned long __cil_tmp63 ;
  int __cil_tmp64 ;
  unsigned long __cil_tmp65 ;
  unsigned long __cil_tmp66 ;
  unsigned long __cil_tmp67 ;
  unsigned long __cil_tmp68 ;
  unsigned long __cil_tmp69 ;
  int __cil_tmp70 ;
  unsigned long __cil_tmp71 ;
  unsigned long __cil_tmp72 ;
  unsigned long __cil_tmp73 ;
  int __cil_tmp74 ;
  int __cil_tmp75 ;
  int __cil_tmp76 ;
  unsigned long __cil_tmp77 ;
  unsigned long __cil_tmp78 ;
  int __cil_tmp79 ;
  unsigned long __cil_tmp80 ;
  unsigned long __cil_tmp81 ;
  unsigned long __cil_tmp82 ;
  unsigned long __cil_tmp83 ;
  int __cil_tmp84 ;
  unsigned long __cil_tmp85 ;
  unsigned long __cil_tmp86 ;
  unsigned long __cil_tmp87 ;
  unsigned long __cil_tmp88 ;
  unsigned long __cil_tmp89 ;
  int __cil_tmp90 ;
  unsigned long __cil_tmp91 ;
  unsigned long __cil_tmp92 ;
  unsigned long __cil_tmp93 ;
  int __cil_tmp94 ;
  int __cil_tmp95 ;
  int __cil_tmp96 ;
  unsigned long __cil_tmp97 ;
  unsigned long __cil_tmp98 ;
  int __cil_tmp99 ;
  unsigned long __cil_tmp100 ;
  unsigned long __cil_tmp101 ;
  unsigned long __cil_tmp102 ;
  unsigned long __cil_tmp103 ;
  int __cil_tmp104 ;
  unsigned long __cil_tmp105 ;
  unsigned long __cil_tmp106 ;
  unsigned long __cil_tmp107 ;
  unsigned long __cil_tmp108 ;
  unsigned long __cil_tmp109 ;
  int __cil_tmp110 ;
  unsigned long __cil_tmp111 ;
  unsigned long __cil_tmp112 ;
  unsigned long __cil_tmp113 ;
  int __cil_tmp114 ;
  int __cil_tmp115 ;
  int __cil_tmp116 ;
  unsigned long __cil_tmp117 ;
  unsigned long __cil_tmp118 ;
  int __cil_tmp119 ;
  unsigned long __cil_tmp120 ;
  unsigned long __cil_tmp121 ;
  unsigned long __cil_tmp122 ;
  unsigned long __cil_tmp123 ;
  int __cil_tmp124 ;
  unsigned long __cil_tmp125 ;
  unsigned long __cil_tmp126 ;
  unsigned long __cil_tmp127 ;
  unsigned long __cil_tmp128 ;
  unsigned long __cil_tmp129 ;
  int __cil_tmp130 ;
  unsigned long __cil_tmp131 ;
  unsigned long __cil_tmp132 ;
  unsigned long __cil_tmp133 ;
  int __cil_tmp134 ;
  int __cil_tmp135 ;
  int __cil_tmp136 ;
  int __cil_tmp137 ;
  char *__cil_tmp138 ;
  int __cil_tmp139 ;
  int __cil_tmp140 ;
  int __cil_tmp141 ;
  int __cil_tmp142 ;
  int __cil_tmp143 ;
  int __cil_tmp144 ;
  char *__cil_tmp145 ;
  int __cil_tmp146 ;
  int __cil_tmp147 ;
  int __cil_tmp148 ;
  int __cil_tmp149 ;
  unsigned long __cil_tmp150 ;
  unsigned long __cil_tmp151 ;
  int __cil_tmp152 ;
  int __cil_tmp153 ;
  unsigned long __cil_tmp154 ;
  unsigned long __cil_tmp155 ;
  unsigned long __cil_tmp156 ;
  unsigned long __cil_tmp157 ;
  int __cil_tmp158 ;
  unsigned long __cil_tmp159 ;
  unsigned long __cil_tmp160 ;
  unsigned long __cil_tmp161 ;
  int __cil_tmp162 ;
  int __cil_tmp163 ;
  unsigned long __cil_tmp164 ;
  unsigned long __cil_tmp165 ;
  unsigned long __cil_tmp166 ;
  unsigned long __cil_tmp167 ;
  int __cil_tmp168 ;
  unsigned long __cil_tmp169 ;
  unsigned long __cil_tmp170 ;
  unsigned long __cil_tmp171 ;
  unsigned long __cil_tmp172 ;
  unsigned long __cil_tmp173 ;
  int __cil_tmp174 ;
  unsigned long __cil_tmp175 ;
  unsigned long __cil_tmp176 ;
  unsigned long __cil_tmp177 ;
  int __cil_tmp178 ;
  int __cil_tmp179 ;
  int __cil_tmp180 ;
  unsigned long __cil_tmp181 ;
  unsigned long __cil_tmp182 ;
  int __cil_tmp183 ;
  unsigned long __cil_tmp184 ;
  unsigned long __cil_tmp185 ;
  unsigned long __cil_tmp186 ;
  unsigned long __cil_tmp187 ;
  int __cil_tmp188 ;
  unsigned long __cil_tmp189 ;
  unsigned long __cil_tmp190 ;
  unsigned long __cil_tmp191 ;
  unsigned long __cil_tmp192 ;
  unsigned long __cil_tmp193 ;
  int __cil_tmp194 ;
  unsigned long __cil_tmp195 ;
  unsigned long __cil_tmp196 ;
  unsigned long __cil_tmp197 ;
  int __cil_tmp198 ;
  int __cil_tmp199 ;
  int __cil_tmp200 ;
  unsigned long __cil_tmp201 ;
  unsigned long __cil_tmp202 ;
  int __cil_tmp203 ;
  unsigned long __cil_tmp204 ;
  unsigned long __cil_tmp205 ;
  unsigned long __cil_tmp206 ;
  unsigned long __cil_tmp207 ;
  int __cil_tmp208 ;
  unsigned long __cil_tmp209 ;
  unsigned long __cil_tmp210 ;
  unsigned long __cil_tmp211 ;
  unsigned long __cil_tmp212 ;
  unsigned long __cil_tmp213 ;
  int __cil_tmp214 ;
  unsigned long __cil_tmp215 ;
  unsigned long __cil_tmp216 ;
  unsigned long __cil_tmp217 ;
  int __cil_tmp218 ;
  int __cil_tmp219 ;
  int __cil_tmp220 ;
  unsigned long __cil_tmp221 ;
  unsigned long __cil_tmp222 ;
  int __cil_tmp223 ;
  unsigned long __cil_tmp224 ;
  unsigned long __cil_tmp225 ;
  unsigned long __cil_tmp226 ;
  unsigned long __cil_tmp227 ;
  int __cil_tmp228 ;
  unsigned long __cil_tmp229 ;
  unsigned long __cil_tmp230 ;
  unsigned long __cil_tmp231 ;
  unsigned long __cil_tmp232 ;
  unsigned long __cil_tmp233 ;
  int __cil_tmp234 ;
  unsigned long __cil_tmp235 ;
  unsigned long __cil_tmp236 ;
  unsigned long __cil_tmp237 ;
  int __cil_tmp238 ;
  int __cil_tmp239 ;
  int __cil_tmp240 ;
  int __cil_tmp241 ;
  int __cil_tmp242 ;
  char *__cil_tmp243 ;
  int __cil_tmp244 ;
  int __cil_tmp245 ;
  int __cil_tmp246 ;
  int __cil_tmp247 ;
  int __cil_tmp248 ;
  int __cil_tmp249 ;
  char *__cil_tmp250 ;
  int __cil_tmp251 ;
  int __cil_tmp252 ;
  int __cil_tmp253 ;
  int __cil_tmp254 ;
  unsigned long __cil_tmp255 ;
  unsigned long __cil_tmp256 ;
  int __cil_tmp257 ;
  int __cil_tmp258 ;
  unsigned long __cil_tmp259 ;
  unsigned long __cil_tmp260 ;
  unsigned long __cil_tmp261 ;
  unsigned long __cil_tmp262 ;
  int __cil_tmp263 ;
  unsigned long __cil_tmp264 ;
  {
  {
  __cil_tmp17 = (unsigned long )pi;
  __cil_tmp18 = __cil_tmp17 + 8;
  __cil_tmp19 = *((int *)__cil_tmp18);
  __cil_tmp20 = __cil_tmp19 + 2;
  outb((unsigned char)12, __cil_tmp20);
  }
  {
  __cil_tmp21 = (unsigned long )pi;
  __cil_tmp22 = __cil_tmp21 + 16;
  if (*((int *)__cil_tmp22)) {
    {
    __cil_tmp23 = (unsigned long )pi;
    __cil_tmp24 = __cil_tmp23 + 16;
    __cil_tmp25 = *((int *)__cil_tmp24);
    __cil_tmp26 = (unsigned long )__cil_tmp25;
    __udelay(__cil_tmp26);
    }
  } else {
  }
  }
  {
  __cil_tmp27 = (unsigned long )pi;
  __cil_tmp28 = __cil_tmp27 + 8;
  __cil_tmp29 = *((int *)__cil_tmp28);
  outb((unsigned char)16, __cil_tmp29);
  }
  {
  __cil_tmp30 = (unsigned long )pi;
  __cil_tmp31 = __cil_tmp30 + 16;
  if (*((int *)__cil_tmp31)) {
    {
    __cil_tmp32 = (unsigned long )pi;
    __cil_tmp33 = __cil_tmp32 + 16;
    __cil_tmp34 = *((int *)__cil_tmp33);
    __cil_tmp35 = (unsigned long )__cil_tmp34;
    __udelay(__cil_tmp35);
    }
  } else {
  }
  }
  k = 0;
  {
  while (1) {
    while_continue: ;
    {
    __cil_tmp36 = count / 4;
    if (k < __cil_tmp36) {
    } else {
      goto while_break;
    }
    }
    {
    __cil_tmp37 = (unsigned long )pi;
    __cil_tmp38 = __cil_tmp37 + 8;
    __cil_tmp39 = *((int *)__cil_tmp38);
    __cil_tmp40 = __cil_tmp39 + 2;
    outb((unsigned char)4, __cil_tmp40);
    }
    {
    __cil_tmp41 = (unsigned long )pi;
    __cil_tmp42 = __cil_tmp41 + 16;
    if (*((int *)__cil_tmp42)) {
      {
      __cil_tmp43 = (unsigned long )pi;
      __cil_tmp44 = __cil_tmp43 + 16;
      __cil_tmp45 = *((int *)__cil_tmp44);
      __cil_tmp46 = (unsigned long )__cil_tmp45;
      __udelay(__cil_tmp46);
      }
    } else {
    }
    }
    {
    __cil_tmp47 = (unsigned long )pi;
    __cil_tmp48 = __cil_tmp47 + 8;
    __cil_tmp49 = *((int *)__cil_tmp48);
    __cil_tmp50 = __cil_tmp49 + 2;
    outb((unsigned char)5, __cil_tmp50);
    }
    {
    __cil_tmp51 = (unsigned long )pi;
    __cil_tmp52 = __cil_tmp51 + 16;
    if (*((int *)__cil_tmp52)) {
      {
      __cil_tmp53 = (unsigned long )pi;
      __cil_tmp54 = __cil_tmp53 + 16;
      __cil_tmp55 = *((int *)__cil_tmp54);
      __cil_tmp56 = (unsigned long )__cil_tmp55;
      __udelay(__cil_tmp56);
      }
    } else {
    }
    }
    {
    __cil_tmp57 = (unsigned long )pi;
    __cil_tmp58 = __cil_tmp57 + 8;
    __cil_tmp59 = *((int *)__cil_tmp58);
    outb((unsigned char)0, __cil_tmp59);
    }
    {
    __cil_tmp60 = (unsigned long )pi;
    __cil_tmp61 = __cil_tmp60 + 16;
    if (*((int *)__cil_tmp61)) {
      {
      __cil_tmp62 = (unsigned long )pi;
      __cil_tmp63 = __cil_tmp62 + 16;
      __cil_tmp64 = *((int *)__cil_tmp63);
      __cil_tmp65 = (unsigned long )__cil_tmp64;
      __udelay(__cil_tmp65);
      }
    } else {
    }
    }
    {
    __cil_tmp66 = (unsigned long )pi;
    __cil_tmp67 = __cil_tmp66 + 16;
    if (*((int *)__cil_tmp67)) {
      {
      __cil_tmp68 = (unsigned long )pi;
      __cil_tmp69 = __cil_tmp68 + 16;
      __cil_tmp70 = *((int *)__cil_tmp69);
      __cil_tmp71 = (unsigned long )__cil_tmp70;
      __udelay(__cil_tmp71);
      }
    } else {
    }
    }
    {
    __cil_tmp72 = (unsigned long )pi;
    __cil_tmp73 = __cil_tmp72 + 8;
    __cil_tmp74 = *((int *)__cil_tmp73);
    __cil_tmp75 = __cil_tmp74 + 1;
    tmp = inb(__cil_tmp75);
    __cil_tmp76 = (int )tmp;
    a = __cil_tmp76 & 255;
    __cil_tmp77 = (unsigned long )pi;
    __cil_tmp78 = __cil_tmp77 + 8;
    __cil_tmp79 = *((int *)__cil_tmp78);
    outb((unsigned char)1, __cil_tmp79);
    }
    {
    __cil_tmp80 = (unsigned long )pi;
    __cil_tmp81 = __cil_tmp80 + 16;
    if (*((int *)__cil_tmp81)) {
      {
      __cil_tmp82 = (unsigned long )pi;
      __cil_tmp83 = __cil_tmp82 + 16;
      __cil_tmp84 = *((int *)__cil_tmp83);
      __cil_tmp85 = (unsigned long )__cil_tmp84;
      __udelay(__cil_tmp85);
      }
    } else {
    }
    }
    {
    __cil_tmp86 = (unsigned long )pi;
    __cil_tmp87 = __cil_tmp86 + 16;
    if (*((int *)__cil_tmp87)) {
      {
      __cil_tmp88 = (unsigned long )pi;
      __cil_tmp89 = __cil_tmp88 + 16;
      __cil_tmp90 = *((int *)__cil_tmp89);
      __cil_tmp91 = (unsigned long )__cil_tmp90;
      __udelay(__cil_tmp91);
      }
    } else {
    }
    }
    {
    __cil_tmp92 = (unsigned long )pi;
    __cil_tmp93 = __cil_tmp92 + 8;
    __cil_tmp94 = *((int *)__cil_tmp93);
    __cil_tmp95 = __cil_tmp94 + 1;
    tmp___0 = inb(__cil_tmp95);
    __cil_tmp96 = (int )tmp___0;
    b = __cil_tmp96 & 255;
    __cil_tmp97 = (unsigned long )pi;
    __cil_tmp98 = __cil_tmp97 + 8;
    __cil_tmp99 = *((int *)__cil_tmp98);
    outb((unsigned char)3, __cil_tmp99);
    }
    {
    __cil_tmp100 = (unsigned long )pi;
    __cil_tmp101 = __cil_tmp100 + 16;
    if (*((int *)__cil_tmp101)) {
      {
      __cil_tmp102 = (unsigned long )pi;
      __cil_tmp103 = __cil_tmp102 + 16;
      __cil_tmp104 = *((int *)__cil_tmp103);
      __cil_tmp105 = (unsigned long )__cil_tmp104;
      __udelay(__cil_tmp105);
      }
    } else {
    }
    }
    {
    __cil_tmp106 = (unsigned long )pi;
    __cil_tmp107 = __cil_tmp106 + 16;
    if (*((int *)__cil_tmp107)) {
      {
      __cil_tmp108 = (unsigned long )pi;
      __cil_tmp109 = __cil_tmp108 + 16;
      __cil_tmp110 = *((int *)__cil_tmp109);
      __cil_tmp111 = (unsigned long )__cil_tmp110;
      __udelay(__cil_tmp111);
      }
    } else {
    }
    }
    {
    __cil_tmp112 = (unsigned long )pi;
    __cil_tmp113 = __cil_tmp112 + 8;
    __cil_tmp114 = *((int *)__cil_tmp113);
    __cil_tmp115 = __cil_tmp114 + 1;
    tmp___1 = inb(__cil_tmp115);
    __cil_tmp116 = (int )tmp___1;
    c = __cil_tmp116 & 255;
    __cil_tmp117 = (unsigned long )pi;
    __cil_tmp118 = __cil_tmp117 + 8;
    __cil_tmp119 = *((int *)__cil_tmp118);
    outb((unsigned char)2, __cil_tmp119);
    }
    {
    __cil_tmp120 = (unsigned long )pi;
    __cil_tmp121 = __cil_tmp120 + 16;
    if (*((int *)__cil_tmp121)) {
      {
      __cil_tmp122 = (unsigned long )pi;
      __cil_tmp123 = __cil_tmp122 + 16;
      __cil_tmp124 = *((int *)__cil_tmp123);
      __cil_tmp125 = (unsigned long )__cil_tmp124;
      __udelay(__cil_tmp125);
      }
    } else {
    }
    }
    {
    __cil_tmp126 = (unsigned long )pi;
    __cil_tmp127 = __cil_tmp126 + 16;
    if (*((int *)__cil_tmp127)) {
      {
      __cil_tmp128 = (unsigned long )pi;
      __cil_tmp129 = __cil_tmp128 + 16;
      __cil_tmp130 = *((int *)__cil_tmp129);
      __cil_tmp131 = (unsigned long )__cil_tmp130;
      __udelay(__cil_tmp131);
      }
    } else {
    }
    }
    {
    __cil_tmp132 = (unsigned long )pi;
    __cil_tmp133 = __cil_tmp132 + 8;
    __cil_tmp134 = *((int *)__cil_tmp133);
    __cil_tmp135 = __cil_tmp134 + 1;
    tmp___2 = inb(__cil_tmp135);
    __cil_tmp136 = (int )tmp___2;
    d = __cil_tmp136 & 255;
    __cil_tmp137 = 4 * k;
    __cil_tmp138 = buf + __cil_tmp137;
    __cil_tmp139 = b & 240;
    __cil_tmp140 = a >> 4;
    __cil_tmp141 = __cil_tmp140 & 15;
    __cil_tmp142 = __cil_tmp141 | __cil_tmp139;
    *__cil_tmp138 = (char )__cil_tmp142;
    __cil_tmp143 = 4 * k;
    __cil_tmp144 = __cil_tmp143 + 1;
    __cil_tmp145 = buf + __cil_tmp144;
    __cil_tmp146 = c & 240;
    __cil_tmp147 = d >> 4;
    __cil_tmp148 = __cil_tmp147 & 15;
    __cil_tmp149 = __cil_tmp148 | __cil_tmp146;
    *__cil_tmp145 = (char )__cil_tmp149;
    __cil_tmp150 = (unsigned long )pi;
    __cil_tmp151 = __cil_tmp150 + 8;
    __cil_tmp152 = *((int *)__cil_tmp151);
    __cil_tmp153 = __cil_tmp152 + 2;
    outb((unsigned char)4, __cil_tmp153);
    }
    {
    __cil_tmp154 = (unsigned long )pi;
    __cil_tmp155 = __cil_tmp154 + 16;
    if (*((int *)__cil_tmp155)) {
      {
      __cil_tmp156 = (unsigned long )pi;
      __cil_tmp157 = __cil_tmp156 + 16;
      __cil_tmp158 = *((int *)__cil_tmp157);
      __cil_tmp159 = (unsigned long )__cil_tmp158;
      __udelay(__cil_tmp159);
      }
    } else {
    }
    }
    {
    __cil_tmp160 = (unsigned long )pi;
    __cil_tmp161 = __cil_tmp160 + 8;
    __cil_tmp162 = *((int *)__cil_tmp161);
    __cil_tmp163 = __cil_tmp162 + 2;
    outb((unsigned char)5, __cil_tmp163);
    }
    {
    __cil_tmp164 = (unsigned long )pi;
    __cil_tmp165 = __cil_tmp164 + 16;
    if (*((int *)__cil_tmp165)) {
      {
      __cil_tmp166 = (unsigned long )pi;
      __cil_tmp167 = __cil_tmp166 + 16;
      __cil_tmp168 = *((int *)__cil_tmp167);
      __cil_tmp169 = (unsigned long )__cil_tmp168;
      __udelay(__cil_tmp169);
      }
    } else {
    }
    }
    {
    __cil_tmp170 = (unsigned long )pi;
    __cil_tmp171 = __cil_tmp170 + 16;
    if (*((int *)__cil_tmp171)) {
      {
      __cil_tmp172 = (unsigned long )pi;
      __cil_tmp173 = __cil_tmp172 + 16;
      __cil_tmp174 = *((int *)__cil_tmp173);
      __cil_tmp175 = (unsigned long )__cil_tmp174;
      __udelay(__cil_tmp175);
      }
    } else {
    }
    }
    {
    __cil_tmp176 = (unsigned long )pi;
    __cil_tmp177 = __cil_tmp176 + 8;
    __cil_tmp178 = *((int *)__cil_tmp177);
    __cil_tmp179 = __cil_tmp178 + 1;
    tmp___3 = inb(__cil_tmp179);
    __cil_tmp180 = (int )tmp___3;
    a = __cil_tmp180 & 255;
    __cil_tmp181 = (unsigned long )pi;
    __cil_tmp182 = __cil_tmp181 + 8;
    __cil_tmp183 = *((int *)__cil_tmp182);
    outb((unsigned char)3, __cil_tmp183);
    }
    {
    __cil_tmp184 = (unsigned long )pi;
    __cil_tmp185 = __cil_tmp184 + 16;
    if (*((int *)__cil_tmp185)) {
      {
      __cil_tmp186 = (unsigned long )pi;
      __cil_tmp187 = __cil_tmp186 + 16;
      __cil_tmp188 = *((int *)__cil_tmp187);
      __cil_tmp189 = (unsigned long )__cil_tmp188;
      __udelay(__cil_tmp189);
      }
    } else {
    }
    }
    {
    __cil_tmp190 = (unsigned long )pi;
    __cil_tmp191 = __cil_tmp190 + 16;
    if (*((int *)__cil_tmp191)) {
      {
      __cil_tmp192 = (unsigned long )pi;
      __cil_tmp193 = __cil_tmp192 + 16;
      __cil_tmp194 = *((int *)__cil_tmp193);
      __cil_tmp195 = (unsigned long )__cil_tmp194;
      __udelay(__cil_tmp195);
      }
    } else {
    }
    }
    {
    __cil_tmp196 = (unsigned long )pi;
    __cil_tmp197 = __cil_tmp196 + 8;
    __cil_tmp198 = *((int *)__cil_tmp197);
    __cil_tmp199 = __cil_tmp198 + 1;
    tmp___4 = inb(__cil_tmp199);
    __cil_tmp200 = (int )tmp___4;
    b = __cil_tmp200 & 255;
    __cil_tmp201 = (unsigned long )pi;
    __cil_tmp202 = __cil_tmp201 + 8;
    __cil_tmp203 = *((int *)__cil_tmp202);
    outb((unsigned char)1, __cil_tmp203);
    }
    {
    __cil_tmp204 = (unsigned long )pi;
    __cil_tmp205 = __cil_tmp204 + 16;
    if (*((int *)__cil_tmp205)) {
      {
      __cil_tmp206 = (unsigned long )pi;
      __cil_tmp207 = __cil_tmp206 + 16;
      __cil_tmp208 = *((int *)__cil_tmp207);
      __cil_tmp209 = (unsigned long )__cil_tmp208;
      __udelay(__cil_tmp209);
      }
    } else {
    }
    }
    {
    __cil_tmp210 = (unsigned long )pi;
    __cil_tmp211 = __cil_tmp210 + 16;
    if (*((int *)__cil_tmp211)) {
      {
      __cil_tmp212 = (unsigned long )pi;
      __cil_tmp213 = __cil_tmp212 + 16;
      __cil_tmp214 = *((int *)__cil_tmp213);
      __cil_tmp215 = (unsigned long )__cil_tmp214;
      __udelay(__cil_tmp215);
      }
    } else {
    }
    }
    {
    __cil_tmp216 = (unsigned long )pi;
    __cil_tmp217 = __cil_tmp216 + 8;
    __cil_tmp218 = *((int *)__cil_tmp217);
    __cil_tmp219 = __cil_tmp218 + 1;
    tmp___5 = inb(__cil_tmp219);
    __cil_tmp220 = (int )tmp___5;
    c = __cil_tmp220 & 255;
    __cil_tmp221 = (unsigned long )pi;
    __cil_tmp222 = __cil_tmp221 + 8;
    __cil_tmp223 = *((int *)__cil_tmp222);
    outb((unsigned char)0, __cil_tmp223);
    }
    {
    __cil_tmp224 = (unsigned long )pi;
    __cil_tmp225 = __cil_tmp224 + 16;
    if (*((int *)__cil_tmp225)) {
      {
      __cil_tmp226 = (unsigned long )pi;
      __cil_tmp227 = __cil_tmp226 + 16;
      __cil_tmp228 = *((int *)__cil_tmp227);
      __cil_tmp229 = (unsigned long )__cil_tmp228;
      __udelay(__cil_tmp229);
      }
    } else {
    }
    }
    {
    __cil_tmp230 = (unsigned long )pi;
    __cil_tmp231 = __cil_tmp230 + 16;
    if (*((int *)__cil_tmp231)) {
      {
      __cil_tmp232 = (unsigned long )pi;
      __cil_tmp233 = __cil_tmp232 + 16;
      __cil_tmp234 = *((int *)__cil_tmp233);
      __cil_tmp235 = (unsigned long )__cil_tmp234;
      __udelay(__cil_tmp235);
      }
    } else {
    }
    }
    {
    __cil_tmp236 = (unsigned long )pi;
    __cil_tmp237 = __cil_tmp236 + 8;
    __cil_tmp238 = *((int *)__cil_tmp237);
    __cil_tmp239 = __cil_tmp238 + 1;
    tmp___6 = inb(__cil_tmp239);
    __cil_tmp240 = (int )tmp___6;
    d = __cil_tmp240 & 255;
    __cil_tmp241 = 4 * k;
    __cil_tmp242 = __cil_tmp241 + 2;
    __cil_tmp243 = buf + __cil_tmp242;
    __cil_tmp244 = c & 240;
    __cil_tmp245 = d >> 4;
    __cil_tmp246 = __cil_tmp245 & 15;
    __cil_tmp247 = __cil_tmp246 | __cil_tmp244;
    *__cil_tmp243 = (char )__cil_tmp247;
    __cil_tmp248 = 4 * k;
    __cil_tmp249 = __cil_tmp248 + 3;
    __cil_tmp250 = buf + __cil_tmp249;
    __cil_tmp251 = b & 240;
    __cil_tmp252 = a >> 4;
    __cil_tmp253 = __cil_tmp252 & 15;
    __cil_tmp254 = __cil_tmp253 | __cil_tmp251;
    *__cil_tmp250 = (char )__cil_tmp254;
    k = k + 1;
    }
  }
  while_break: ;
  }
  {
  __cil_tmp255 = (unsigned long )pi;
  __cil_tmp256 = __cil_tmp255 + 8;
  __cil_tmp257 = *((int *)__cil_tmp256);
  __cil_tmp258 = __cil_tmp257 + 2;
  outb((unsigned char)4, __cil_tmp258);
  }
  {
  __cil_tmp259 = (unsigned long )pi;
  __cil_tmp260 = __cil_tmp259 + 16;
  if (*((int *)__cil_tmp260)) {
    {
    __cil_tmp261 = (unsigned long )pi;
    __cil_tmp262 = __cil_tmp261 + 16;
    __cil_tmp263 = *((int *)__cil_tmp262);
    __cil_tmp264 = (unsigned long )__cil_tmp263;
    __udelay(__cil_tmp264);
    }
  } else {
  }
  }
  return;
}
}
static void fit2_write_block(PIA *pi , char *buf , int count )
{ int k ;
  unsigned long __cil_tmp5 ;
  unsigned long __cil_tmp6 ;
  int __cil_tmp7 ;
  int __cil_tmp8 ;
  unsigned long __cil_tmp9 ;
  unsigned long __cil_tmp10 ;
  unsigned long __cil_tmp11 ;
  unsigned long __cil_tmp12 ;
  int __cil_tmp13 ;
  unsigned long __cil_tmp14 ;
  unsigned long __cil_tmp15 ;
  unsigned long __cil_tmp16 ;
  int __cil_tmp17 ;
  unsigned long __cil_tmp18 ;
  unsigned long __cil_tmp19 ;
  unsigned long __cil_tmp20 ;
  unsigned long __cil_tmp21 ;
  int __cil_tmp22 ;
  unsigned long __cil_tmp23 ;
  int __cil_tmp24 ;
  unsigned long __cil_tmp25 ;
  unsigned long __cil_tmp26 ;
  int __cil_tmp27 ;
  int __cil_tmp28 ;
  unsigned long __cil_tmp29 ;
  unsigned long __cil_tmp30 ;
  unsigned long __cil_tmp31 ;
  unsigned long __cil_tmp32 ;
  int __cil_tmp33 ;
  unsigned long __cil_tmp34 ;
  int __cil_tmp35 ;
  char *__cil_tmp36 ;
  char __cil_tmp37 ;
  unsigned char __cil_tmp38 ;
  unsigned long __cil_tmp39 ;
  unsigned long __cil_tmp40 ;
  int __cil_tmp41 ;
  unsigned long __cil_tmp42 ;
  unsigned long __cil_tmp43 ;
  unsigned long __cil_tmp44 ;
  unsigned long __cil_tmp45 ;
  int __cil_tmp46 ;
  unsigned long __cil_tmp47 ;
  unsigned long __cil_tmp48 ;
  unsigned long __cil_tmp49 ;
  int __cil_tmp50 ;
  int __cil_tmp51 ;
  unsigned long __cil_tmp52 ;
  unsigned long __cil_tmp53 ;
  unsigned long __cil_tmp54 ;
  unsigned long __cil_tmp55 ;
  int __cil_tmp56 ;
  unsigned long __cil_tmp57 ;
  int __cil_tmp58 ;
  int __cil_tmp59 ;
  char *__cil_tmp60 ;
  char __cil_tmp61 ;
  unsigned char __cil_tmp62 ;
  unsigned long __cil_tmp63 ;
  unsigned long __cil_tmp64 ;
  int __cil_tmp65 ;
  unsigned long __cil_tmp66 ;
  unsigned long __cil_tmp67 ;
  unsigned long __cil_tmp68 ;
  unsigned long __cil_tmp69 ;
  int __cil_tmp70 ;
  unsigned long __cil_tmp71 ;
  unsigned long __cil_tmp72 ;
  unsigned long __cil_tmp73 ;
  int __cil_tmp74 ;
  int __cil_tmp75 ;
  unsigned long __cil_tmp76 ;
  unsigned long __cil_tmp77 ;
  unsigned long __cil_tmp78 ;
  unsigned long __cil_tmp79 ;
  int __cil_tmp80 ;
  unsigned long __cil_tmp81 ;
  {
  {
  __cil_tmp5 = (unsigned long )pi;
  __cil_tmp6 = __cil_tmp5 + 8;
  __cil_tmp7 = *((int *)__cil_tmp6);
  __cil_tmp8 = __cil_tmp7 + 2;
  outb((unsigned char)12, __cil_tmp8);
  }
  {
  __cil_tmp9 = (unsigned long )pi;
  __cil_tmp10 = __cil_tmp9 + 16;
  if (*((int *)__cil_tmp10)) {
    {
    __cil_tmp11 = (unsigned long )pi;
    __cil_tmp12 = __cil_tmp11 + 16;
    __cil_tmp13 = *((int *)__cil_tmp12);
    __cil_tmp14 = (unsigned long )__cil_tmp13;
    __udelay(__cil_tmp14);
    }
  } else {
  }
  }
  {
  __cil_tmp15 = (unsigned long )pi;
  __cil_tmp16 = __cil_tmp15 + 8;
  __cil_tmp17 = *((int *)__cil_tmp16);
  outb((unsigned char)0, __cil_tmp17);
  }
  {
  __cil_tmp18 = (unsigned long )pi;
  __cil_tmp19 = __cil_tmp18 + 16;
  if (*((int *)__cil_tmp19)) {
    {
    __cil_tmp20 = (unsigned long )pi;
    __cil_tmp21 = __cil_tmp20 + 16;
    __cil_tmp22 = *((int *)__cil_tmp21);
    __cil_tmp23 = (unsigned long )__cil_tmp22;
    __udelay(__cil_tmp23);
    }
  } else {
  }
  }
  k = 0;
  {
  while (1) {
    while_continue: ;
    {
    __cil_tmp24 = count / 2;
    if (k < __cil_tmp24) {
    } else {
      goto while_break;
    }
    }
    {
    __cil_tmp25 = (unsigned long )pi;
    __cil_tmp26 = __cil_tmp25 + 8;
    __cil_tmp27 = *((int *)__cil_tmp26);
    __cil_tmp28 = __cil_tmp27 + 2;
    outb((unsigned char)4, __cil_tmp28);
    }
    {
    __cil_tmp29 = (unsigned long )pi;
    __cil_tmp30 = __cil_tmp29 + 16;
    if (*((int *)__cil_tmp30)) {
      {
      __cil_tmp31 = (unsigned long )pi;
      __cil_tmp32 = __cil_tmp31 + 16;
      __cil_tmp33 = *((int *)__cil_tmp32);
      __cil_tmp34 = (unsigned long )__cil_tmp33;
      __udelay(__cil_tmp34);
      }
    } else {
    }
    }
    {
    __cil_tmp35 = 2 * k;
    __cil_tmp36 = buf + __cil_tmp35;
    __cil_tmp37 = *__cil_tmp36;
    __cil_tmp38 = (unsigned char )__cil_tmp37;
    __cil_tmp39 = (unsigned long )pi;
    __cil_tmp40 = __cil_tmp39 + 8;
    __cil_tmp41 = *((int *)__cil_tmp40);
    outb(__cil_tmp38, __cil_tmp41);
    }
    {
    __cil_tmp42 = (unsigned long )pi;
    __cil_tmp43 = __cil_tmp42 + 16;
    if (*((int *)__cil_tmp43)) {
      {
      __cil_tmp44 = (unsigned long )pi;
      __cil_tmp45 = __cil_tmp44 + 16;
      __cil_tmp46 = *((int *)__cil_tmp45);
      __cil_tmp47 = (unsigned long )__cil_tmp46;
      __udelay(__cil_tmp47);
      }
    } else {
    }
    }
    {
    __cil_tmp48 = (unsigned long )pi;
    __cil_tmp49 = __cil_tmp48 + 8;
    __cil_tmp50 = *((int *)__cil_tmp49);
    __cil_tmp51 = __cil_tmp50 + 2;
    outb((unsigned char)5, __cil_tmp51);
    }
    {
    __cil_tmp52 = (unsigned long )pi;
    __cil_tmp53 = __cil_tmp52 + 16;
    if (*((int *)__cil_tmp53)) {
      {
      __cil_tmp54 = (unsigned long )pi;
      __cil_tmp55 = __cil_tmp54 + 16;
      __cil_tmp56 = *((int *)__cil_tmp55);
      __cil_tmp57 = (unsigned long )__cil_tmp56;
      __udelay(__cil_tmp57);
      }
    } else {
    }
    }
    {
    __cil_tmp58 = 2 * k;
    __cil_tmp59 = __cil_tmp58 + 1;
    __cil_tmp60 = buf + __cil_tmp59;
    __cil_tmp61 = *__cil_tmp60;
    __cil_tmp62 = (unsigned char )__cil_tmp61;
    __cil_tmp63 = (unsigned long )pi;
    __cil_tmp64 = __cil_tmp63 + 8;
    __cil_tmp65 = *((int *)__cil_tmp64);
    outb(__cil_tmp62, __cil_tmp65);
    }
    {
    __cil_tmp66 = (unsigned long )pi;
    __cil_tmp67 = __cil_tmp66 + 16;
    if (*((int *)__cil_tmp67)) {
      {
      __cil_tmp68 = (unsigned long )pi;
      __cil_tmp69 = __cil_tmp68 + 16;
      __cil_tmp70 = *((int *)__cil_tmp69);
      __cil_tmp71 = (unsigned long )__cil_tmp70;
      __udelay(__cil_tmp71);
      }
    } else {
    }
    }
    k = k + 1;
  }
  while_break: ;
  }
  {
  __cil_tmp72 = (unsigned long )pi;
  __cil_tmp73 = __cil_tmp72 + 8;
  __cil_tmp74 = *((int *)__cil_tmp73);
  __cil_tmp75 = __cil_tmp74 + 2;
  outb((unsigned char)4, __cil_tmp75);
  }
  {
  __cil_tmp76 = (unsigned long )pi;
  __cil_tmp77 = __cil_tmp76 + 16;
  if (*((int *)__cil_tmp77)) {
    {
    __cil_tmp78 = (unsigned long )pi;
    __cil_tmp79 = __cil_tmp78 + 16;
    __cil_tmp80 = *((int *)__cil_tmp79);
    __cil_tmp81 = (unsigned long )__cil_tmp80;
    __udelay(__cil_tmp81);
    }
  } else {
  }
  }
  return;
}
}
static void fit2_connect(PIA *pi )
{ unsigned char tmp ;
  unsigned char tmp___0 ;
  unsigned long __cil_tmp4 ;
  unsigned long __cil_tmp5 ;
  unsigned long __cil_tmp6 ;
  unsigned long __cil_tmp7 ;
  int __cil_tmp8 ;
  unsigned long __cil_tmp9 ;
  unsigned long __cil_tmp10 ;
  unsigned long __cil_tmp11 ;
  int __cil_tmp12 ;
  unsigned long __cil_tmp13 ;
  unsigned long __cil_tmp14 ;
  int __cil_tmp15 ;
  unsigned long __cil_tmp16 ;
  unsigned long __cil_tmp17 ;
  unsigned long __cil_tmp18 ;
  unsigned long __cil_tmp19 ;
  int __cil_tmp20 ;
  unsigned long __cil_tmp21 ;
  unsigned long __cil_tmp22 ;
  unsigned long __cil_tmp23 ;
  int __cil_tmp24 ;
  int __cil_tmp25 ;
  unsigned long __cil_tmp26 ;
  unsigned long __cil_tmp27 ;
  int __cil_tmp28 ;
  unsigned long __cil_tmp29 ;
  unsigned long __cil_tmp30 ;
  int __cil_tmp31 ;
  int __cil_tmp32 ;
  unsigned long __cil_tmp33 ;
  unsigned long __cil_tmp34 ;
  unsigned long __cil_tmp35 ;
  unsigned long __cil_tmp36 ;
  int __cil_tmp37 ;
  unsigned long __cil_tmp38 ;
  {
  {
  __cil_tmp4 = (unsigned long )pi;
  __cil_tmp5 = __cil_tmp4 + 16;
  if (*((int *)__cil_tmp5)) {
    {
    __cil_tmp6 = (unsigned long )pi;
    __cil_tmp7 = __cil_tmp6 + 16;
    __cil_tmp8 = *((int *)__cil_tmp7);
    __cil_tmp9 = (unsigned long )__cil_tmp8;
    __udelay(__cil_tmp9);
    }
  } else {
  }
  }
  {
  __cil_tmp10 = (unsigned long )pi;
  __cil_tmp11 = __cil_tmp10 + 8;
  __cil_tmp12 = *((int *)__cil_tmp11);
  tmp = inb(__cil_tmp12);
  __cil_tmp13 = (unsigned long )pi;
  __cil_tmp14 = __cil_tmp13 + 36;
  __cil_tmp15 = (int )tmp;
  *((int *)__cil_tmp14) = __cil_tmp15 & 255;
  }
  {
  __cil_tmp16 = (unsigned long )pi;
  __cil_tmp17 = __cil_tmp16 + 16;
  if (*((int *)__cil_tmp17)) {
    {
    __cil_tmp18 = (unsigned long )pi;
    __cil_tmp19 = __cil_tmp18 + 16;
    __cil_tmp20 = *((int *)__cil_tmp19);
    __cil_tmp21 = (unsigned long )__cil_tmp20;
    __udelay(__cil_tmp21);
    }
  } else {
  }
  }
  {
  __cil_tmp22 = (unsigned long )pi;
  __cil_tmp23 = __cil_tmp22 + 8;
  __cil_tmp24 = *((int *)__cil_tmp23);
  __cil_tmp25 = __cil_tmp24 + 2;
  tmp___0 = inb(__cil_tmp25);
  __cil_tmp26 = (unsigned long )pi;
  __cil_tmp27 = __cil_tmp26 + 40;
  __cil_tmp28 = (int )tmp___0;
  *((int *)__cil_tmp27) = __cil_tmp28 & 255;
  __cil_tmp29 = (unsigned long )pi;
  __cil_tmp30 = __cil_tmp29 + 8;
  __cil_tmp31 = *((int *)__cil_tmp30);
  __cil_tmp32 = __cil_tmp31 + 2;
  outb((unsigned char)204, __cil_tmp32);
  }
  {
  __cil_tmp33 = (unsigned long )pi;
  __cil_tmp34 = __cil_tmp33 + 16;
  if (*((int *)__cil_tmp34)) {
    {
    __cil_tmp35 = (unsigned long )pi;
    __cil_tmp36 = __cil_tmp35 + 16;
    __cil_tmp37 = *((int *)__cil_tmp36);
    __cil_tmp38 = (unsigned long )__cil_tmp37;
    __udelay(__cil_tmp38);
    }
  } else {
  }
  }
  return;
}
}
static void fit2_disconnect(PIA *pi )
{ unsigned long __cil_tmp2 ;
  unsigned long __cil_tmp3 ;
  int __cil_tmp4 ;
  unsigned char __cil_tmp5 ;
  unsigned long __cil_tmp6 ;
  unsigned long __cil_tmp7 ;
  int __cil_tmp8 ;
  unsigned long __cil_tmp9 ;
  unsigned long __cil_tmp10 ;
  unsigned long __cil_tmp11 ;
  unsigned long __cil_tmp12 ;
  int __cil_tmp13 ;
  unsigned long __cil_tmp14 ;
  unsigned long __cil_tmp15 ;
  unsigned long __cil_tmp16 ;
  int __cil_tmp17 ;
  unsigned char __cil_tmp18 ;
  unsigned long __cil_tmp19 ;
  unsigned long __cil_tmp20 ;
  int __cil_tmp21 ;
  int __cil_tmp22 ;
  unsigned long __cil_tmp23 ;
  unsigned long __cil_tmp24 ;
  unsigned long __cil_tmp25 ;
  unsigned long __cil_tmp26 ;
  int __cil_tmp27 ;
  unsigned long __cil_tmp28 ;
  {
  {
  __cil_tmp2 = (unsigned long )pi;
  __cil_tmp3 = __cil_tmp2 + 36;
  __cil_tmp4 = *((int *)__cil_tmp3);
  __cil_tmp5 = (unsigned char )__cil_tmp4;
  __cil_tmp6 = (unsigned long )pi;
  __cil_tmp7 = __cil_tmp6 + 8;
  __cil_tmp8 = *((int *)__cil_tmp7);
  outb(__cil_tmp5, __cil_tmp8);
  }
  {
  __cil_tmp9 = (unsigned long )pi;
  __cil_tmp10 = __cil_tmp9 + 16;
  if (*((int *)__cil_tmp10)) {
    {
    __cil_tmp11 = (unsigned long )pi;
    __cil_tmp12 = __cil_tmp11 + 16;
    __cil_tmp13 = *((int *)__cil_tmp12);
    __cil_tmp14 = (unsigned long )__cil_tmp13;
    __udelay(__cil_tmp14);
    }
  } else {
  }
  }
  {
  __cil_tmp15 = (unsigned long )pi;
  __cil_tmp16 = __cil_tmp15 + 40;
  __cil_tmp17 = *((int *)__cil_tmp16);
  __cil_tmp18 = (unsigned char )__cil_tmp17;
  __cil_tmp19 = (unsigned long )pi;
  __cil_tmp20 = __cil_tmp19 + 8;
  __cil_tmp21 = *((int *)__cil_tmp20);
  __cil_tmp22 = __cil_tmp21 + 2;
  outb(__cil_tmp18, __cil_tmp22);
  }
  {
  __cil_tmp23 = (unsigned long )pi;
  __cil_tmp24 = __cil_tmp23 + 16;
  if (*((int *)__cil_tmp24)) {
    {
    __cil_tmp25 = (unsigned long )pi;
    __cil_tmp26 = __cil_tmp25 + 16;
    __cil_tmp27 = *((int *)__cil_tmp26);
    __cil_tmp28 = (unsigned long )__cil_tmp27;
    __udelay(__cil_tmp28);
    }
  } else {
  }
  }
  return;
}
}
static void fit2_log_adapter(PIA *pi , char *scratch , int verbose )
{ unsigned long __cil_tmp4 ;
  unsigned long __cil_tmp5 ;
  char *__cil_tmp6 ;
  unsigned long __cil_tmp7 ;
  unsigned long __cil_tmp8 ;
  int __cil_tmp9 ;
  unsigned long __cil_tmp10 ;
  unsigned long __cil_tmp11 ;
  int __cil_tmp12 ;
  {
  {
  __cil_tmp4 = (unsigned long )pi;
  __cil_tmp5 = __cil_tmp4 + 24;
  __cil_tmp6 = *((char **)__cil_tmp5);
  __cil_tmp7 = (unsigned long )pi;
  __cil_tmp8 = __cil_tmp7 + 8;
  __cil_tmp9 = *((int *)__cil_tmp8);
  __cil_tmp10 = (unsigned long )pi;
  __cil_tmp11 = __cil_tmp10 + 16;
  __cil_tmp12 = *((int *)__cil_tmp11);
  printk("%s: fit2 %s, FIT 2000 adapter at 0x%x, delay %d\n", __cil_tmp6, "1.0", __cil_tmp9,
         __cil_tmp12);
  }
  return;
}
}
static struct pi_protocol fit2 =
     {{(char )'f', (char )'i', (char )'t', (char )'2', (char )'\000', (char)0, (char)0,
     (char)0}, 0, 1, 2, 1, 1, & fit2_write_regr, & fit2_read_regr, & fit2_write_block,
    & fit2_read_block, & fit2_connect, & fit2_disconnect, (int (*)(PIA * ))0, (int (*)(PIA * ))0,
    (int (*)(PIA * , char * , int ))0, & fit2_log_adapter, (int (*)(PIA * ))0, (void (*)(PIA * ))0,
    & __this_module};
static int fit2_init(void) __attribute__((__section__(".init.text"), __no_instrument_function__)) ;
static int fit2_init(void)
{ int tmp ;
  {
  {
  tmp = paride_register(& fit2);
  }
  return (tmp);
}
}
static void fit2_exit(void) __attribute__((__section__(".exit.text"), __no_instrument_function__)) ;
static void fit2_exit(void)
{
  {
  {
  paride_unregister(& fit2);
  }
  return;
}
}
static char const __mod_license150[12] __attribute__((__used__, __unused__, __section__(".modinfo"),
__aligned__(1))) =
  { (char const )'l', (char const )'i', (char const )'c', (char const )'e',
        (char const )'n', (char const )'s', (char const )'e', (char const )'=',
        (char const )'G', (char const )'P', (char const )'L', (char const )'\000'};
int init_module(void)
{ int tmp ;
  {
  {
  tmp = fit2_init();
  }
  return (tmp);
}
}
void cleanup_module(void)
{
  {
  {
  fit2_exit();
  }
  return;
}
}
void ldv_check_final_state(void) ;
extern void ldv_initialize(void) ;
extern int __VERIFIER_nondet_int(void) ;
int LDV_IN_INTERRUPT ;
void main(void)
{ PIA *var_fit2_write_regr_0_p0 ;
  int var_fit2_write_regr_0_p1 ;
  int var_fit2_write_regr_0_p2 ;
  int var_fit2_write_regr_0_p3 ;
  PIA *var_fit2_read_regr_1_p0 ;
  int var_fit2_read_regr_1_p1 ;
  int var_fit2_read_regr_1_p2 ;
  PIA *var_fit2_write_block_3_p0 ;
  char *var_fit2_write_block_3_p1 ;
  int var_fit2_write_block_3_p2 ;
  PIA *var_fit2_read_block_2_p0 ;
  char *var_fit2_read_block_2_p1 ;
  int var_fit2_read_block_2_p2 ;
  PIA *var_fit2_connect_4_p0 ;
  PIA *var_fit2_disconnect_5_p0 ;
  PIA *var_fit2_log_adapter_6_p0 ;
  char *var_fit2_log_adapter_6_p1 ;
  int var_fit2_log_adapter_6_p2 ;
  int tmp ;
  int ldv_s_fit2_pi_protocol ;
  int tmp___0 ;
  int tmp___1 ;
  int __cil_tmp23 ;
  {
  {
  LDV_IN_INTERRUPT = 1;
  ldv_initialize();
  tmp = fit2_init();
  }
  if (tmp) {
    goto ldv_final;
  } else {
  }
  ldv_s_fit2_pi_protocol = 0;
  {
  while (1) {
    while_continue: ;
    {
    tmp___1 = __VERIFIER_nondet_int();
    }
    if (tmp___1) {
    } else {
      {
      __cil_tmp23 = ldv_s_fit2_pi_protocol == 0;
      if (! __cil_tmp23) {
      } else {
        goto while_break;
      }
      }
    }
    {
    tmp___0 = __VERIFIER_nondet_int();
    }
    if (tmp___0 == 0) {
      goto case_0;
    } else
    if (tmp___0 == 1) {
      goto case_1;
    } else
    if (tmp___0 == 2) {
      goto case_2;
    } else
    if (tmp___0 == 3) {
      goto case_3;
    } else
    if (tmp___0 == 4) {
      goto case_4;
    } else
    if (tmp___0 == 5) {
      goto case_5;
    } else
    if (tmp___0 == 6) {
      goto case_6;
    } else {
      {
      goto switch_default;
      if (0) {
        case_0:
        if (ldv_s_fit2_pi_protocol == 0) {
          {
          fit2_connect(var_fit2_connect_4_p0);
          ldv_s_fit2_pi_protocol = ldv_s_fit2_pi_protocol + 1;
          }
        } else {
        }
        goto switch_break;
        case_1:
        if (ldv_s_fit2_pi_protocol == 1) {
          {
          fit2_disconnect(var_fit2_disconnect_5_p0);
          ldv_s_fit2_pi_protocol = 0;
          }
        } else {
        }
        goto switch_break;
        case_2:
        {
        fit2_write_regr(var_fit2_write_regr_0_p0, var_fit2_write_regr_0_p1, var_fit2_write_regr_0_p2,
                        var_fit2_write_regr_0_p3);
        }
        goto switch_break;
        case_3:
        {
        fit2_read_regr(var_fit2_read_regr_1_p0, var_fit2_read_regr_1_p1, var_fit2_read_regr_1_p2);
        }
        goto switch_break;
        case_4:
        {
        fit2_write_block(var_fit2_write_block_3_p0, var_fit2_write_block_3_p1, var_fit2_write_block_3_p2);
        }
        goto switch_break;
        case_5:
        {
        fit2_read_block(var_fit2_read_block_2_p0, var_fit2_read_block_2_p1, var_fit2_read_block_2_p2);
        }
        goto switch_break;
        case_6:
        {
        fit2_log_adapter(var_fit2_log_adapter_6_p0, var_fit2_log_adapter_6_p1, var_fit2_log_adapter_6_p2);
        }
        goto switch_break;
        switch_default:
        goto switch_break;
      } else {
        switch_break: ;
      }
      }
    }
  }
  while_break: ;
  }
  {
  fit2_exit();
  }
  ldv_final:
  {
  ldv_check_final_state();
  }
  return;
}
}
void ldv_blast_assert(void)
{
  {
  ERROR: {reach_error();abort();}
}
}
extern int __VERIFIER_nondet_int(void) ;
int ldv_mutex = 1;
int __attribute__((__warn_unused_result__)) mutex_lock_interruptible(struct mutex *lock )
{ int nondetermined ;
  {
  if (ldv_mutex == 1) {
  } else {
    {
    ldv_blast_assert();
    }
  }
  {
  nondetermined = __VERIFIER_nondet_int();
  }
  if (nondetermined) {
    ldv_mutex = 2;
    return (0);
  } else {
    return (-4);
  }
}
}
int __attribute__((__warn_unused_result__)) mutex_lock_killable(struct mutex *lock )
{ int nondetermined ;
  {
  if (ldv_mutex == 1) {
  } else {
    {
    ldv_blast_assert();
    }
  }
  {
  nondetermined = __VERIFIER_nondet_int();
  }
  if (nondetermined) {
    ldv_mutex = 2;
    return (0);
  } else {
    return (-4);
  }
}
}
int atomic_dec_and_mutex_lock(atomic_t *cnt , struct mutex *lock )
{ int atomic_value_after_dec ;
  {
  if (ldv_mutex == 1) {
  } else {
    {
    ldv_blast_assert();
    }
  }
  {
  atomic_value_after_dec = __VERIFIER_nondet_int();
  }
  if (atomic_value_after_dec == 0) {
    ldv_mutex = 2;
    return (1);
  } else {
  }
  return (0);
}
}
void mutex_lock(struct mutex *lock )
{
  {
  if (ldv_mutex == 1) {
  } else {
    {
    ldv_blast_assert();
    }
  }
  ldv_mutex = 2;
  return;
}
}
int mutex_trylock(struct mutex *lock )
{ int nondetermined ;
  {
  if (ldv_mutex == 1) {
  } else {
    {
    ldv_blast_assert();
    }
  }
  {
  nondetermined = __VERIFIER_nondet_int();
  }
  if (nondetermined) {
    ldv_mutex = 2;
    return (1);
  } else {
    return (0);
  }
}
}
void mutex_unlock(struct mutex *lock )
{
  {
  if (ldv_mutex == 2) {
  } else {
    {
    ldv_blast_assert();
    }
  }
  ldv_mutex = 1;
  return;
}
}
void ldv_check_final_state(void)
{
  {
  if (ldv_mutex == 1) {
  } else {
    {
    ldv_blast_assert();
    }
  }
  return;
}
}
long ldv__builtin_expect(long val , long res )
{
  {
  return (val);
}
}
void __udelay(unsigned long arg0) {
  return;
}
void ldv_initialize() {
  return;
}
int __VERIFIER_nondet_int(void);
int paride_register(PIP *arg0) {
  return __VERIFIER_nondet_int();
}
void paride_unregister(PIP *arg0) {
  return;
}
int __VERIFIER_nondet_int(void);
int printk(const char *arg0, ...) {
  return __VERIFIER_nondet_int();
}
void free(void *);
void kfree(void const *p) {
  free((void *)p);
}
