extern void abort(void);

extern void __assert_fail (const char *__assertion, const char *__file,
      unsigned int __line, const char *__function)
     __attribute__ ((__nothrow__ , __leaf__)) __attribute__ ((__noreturn__));
extern void __assert_perror_fail (int __errnum, const char *__file,
      unsigned int __line, const char *__function)
     __attribute__ ((__nothrow__ , __leaf__)) __attribute__ ((__noreturn__));
extern void __assert (const char *__assertion, const char *__file, int __line)
     __attribute__ ((__nothrow__ , __leaf__)) __attribute__ ((__noreturn__));

void reach_error() { ((void) sizeof ((0) ? 1 : 0), __extension__ ({ if (0) ; else __assert_fail ("0", "32_1_cilled_ok_nondet_linux-3.4-32_1-drivers--mtd--ar7part.ko-ldv_main0_sequence_infinite_withcheck_stateful.cil.out.c", 3, __extension__ __PRETTY_FUNCTION__); })); }
typedef unsigned char __u8;
typedef unsigned short __u16;
typedef unsigned int __u32;
typedef unsigned long long __u64;
typedef unsigned char u8;
typedef short s16;
typedef unsigned short u16;
typedef unsigned int u32;
typedef long long s64;
typedef unsigned long long u64;
typedef long __kernel_long_t;
typedef unsigned long __kernel_ulong_t;
typedef __kernel_ulong_t __kernel_size_t;
typedef __kernel_long_t __kernel_ssize_t;
typedef long long __kernel_loff_t;
typedef __u32 __kernel_dev_t;
typedef __kernel_dev_t dev_t;
typedef unsigned short umode_t;
typedef _Bool bool;
typedef __kernel_loff_t loff_t;
typedef __kernel_size_t size_t;
typedef __kernel_ssize_t ssize_t;
typedef unsigned char u_char;
typedef unsigned long u_long;
typedef __u8 uint8_t;
typedef __u32 uint32_t;
typedef __u64 uint64_t;
typedef unsigned int gfp_t;
typedef u64 phys_addr_t;
typedef phys_addr_t resource_size_t;
struct __anonstruct_atomic_t_7 {
   int counter ;
};
typedef struct __anonstruct_atomic_t_7 atomic_t;
struct __anonstruct_atomic64_t_8 {
   long counter ;
};
typedef struct __anonstruct_atomic64_t_8 atomic64_t;
struct list_head {
   struct list_head *next ;
   struct list_head *prev ;
};
struct module;
struct module;
typedef void (*ctor_fn_t)(void);
struct device;
struct device;
struct completion;
struct completion;
struct page;
struct page;
struct task_struct;
struct task_struct;
struct task_struct;
struct file;
struct file;
struct page;
struct task_struct;
struct arch_spinlock;
struct arch_spinlock;
struct task_struct;
struct task_struct;
struct bug_entry {
   int bug_addr_disp ;
   int file_disp ;
   unsigned short line ;
   unsigned short flags ;
};
struct static_key;
struct static_key;
struct kmem_cache;
typedef atomic64_t atomic_long_t;
typedef u16 __ticket_t;
typedef u32 __ticketpair_t;
struct __raw_tickets {
   __ticket_t head ;
   __ticket_t tail ;
};
union __anonunion____missing_field_name_36 {
   __ticketpair_t head_tail ;
   struct __raw_tickets tickets ;
};
struct arch_spinlock {
   union __anonunion____missing_field_name_36 __annonCompField17 ;
};
typedef struct arch_spinlock arch_spinlock_t;
struct task_struct;
struct raw_spinlock {
   arch_spinlock_t raw_lock ;
   unsigned int magic ;
   unsigned int owner_cpu ;
   void *owner ;
};
union __anonunion____missing_field_name_39 {
   struct raw_spinlock rlock ;
};
struct spinlock {
   union __anonunion____missing_field_name_39 __annonCompField19 ;
};
typedef struct spinlock spinlock_t;
struct __wait_queue_head {
   spinlock_t lock ;
   struct list_head task_list ;
};
typedef struct __wait_queue_head wait_queue_head_t;
struct task_struct;
struct page;
struct mutex {
   atomic_t count ;
   spinlock_t wait_lock ;
   struct list_head wait_list ;
   struct task_struct *owner ;
   char const *name ;
   void *magic ;
};
struct completion {
   unsigned int done ;
   wait_queue_head_t wait ;
};
struct notifier_block;
struct notifier_block;
struct notifier_block {
   int (*notifier_call)(struct notifier_block * , unsigned long , void * ) ;
   struct notifier_block *next ;
   int priority ;
};
struct page;
struct device;
struct device;
union ktime {
   s64 tv64 ;
};
typedef union ktime ktime_t;
struct tvec_base;
struct tvec_base;
struct timer_list {
   struct list_head entry ;
   unsigned long expires ;
   struct tvec_base *base ;
   void (*function)(unsigned long ) ;
   unsigned long data ;
   int slack ;
   int start_pid ;
   void *start_site ;
   char start_comm[16] ;
};
struct work_struct;
struct work_struct;
struct work_struct {
   atomic_long_t data ;
   struct list_head entry ;
   void (*func)(struct work_struct *work ) ;
};
struct device;
struct pm_message {
   int event ;
};
typedef struct pm_message pm_message_t;
struct dev_pm_ops {
   int (*prepare)(struct device *dev ) ;
   void (*complete)(struct device *dev ) ;
   int (*suspend)(struct device *dev ) ;
   int (*resume)(struct device *dev ) ;
   int (*freeze)(struct device *dev ) ;
   int (*thaw)(struct device *dev ) ;
   int (*poweroff)(struct device *dev ) ;
   int (*restore)(struct device *dev ) ;
   int (*suspend_late)(struct device *dev ) ;
   int (*resume_early)(struct device *dev ) ;
   int (*freeze_late)(struct device *dev ) ;
   int (*thaw_early)(struct device *dev ) ;
   int (*poweroff_late)(struct device *dev ) ;
   int (*restore_early)(struct device *dev ) ;
   int (*suspend_noirq)(struct device *dev ) ;
   int (*resume_noirq)(struct device *dev ) ;
   int (*freeze_noirq)(struct device *dev ) ;
   int (*thaw_noirq)(struct device *dev ) ;
   int (*poweroff_noirq)(struct device *dev ) ;
   int (*restore_noirq)(struct device *dev ) ;
   int (*runtime_suspend)(struct device *dev ) ;
   int (*runtime_resume)(struct device *dev ) ;
   int (*runtime_idle)(struct device *dev ) ;
};
enum rpm_status {
    RPM_ACTIVE = 0,
    RPM_RESUMING = 1,
    RPM_SUSPENDED = 2,
    RPM_SUSPENDING = 3
} ;
enum rpm_request {
    RPM_REQ_NONE = 0,
    RPM_REQ_IDLE = 1,
    RPM_REQ_SUSPEND = 2,
    RPM_REQ_AUTOSUSPEND = 3,
    RPM_REQ_RESUME = 4
} ;
struct wakeup_source;
struct wakeup_source;
struct pm_subsys_data {
   spinlock_t lock ;
   unsigned int refcount ;
};
struct dev_pm_qos_request;
struct pm_qos_constraints;
struct dev_pm_info {
   pm_message_t power_state ;
   unsigned int can_wakeup : 1 ;
   unsigned int async_suspend : 1 ;
   bool is_prepared : 1 ;
   bool is_suspended : 1 ;
   bool ignore_children : 1 ;
   spinlock_t lock ;
   struct list_head entry ;
   struct completion completion ;
   struct wakeup_source *wakeup ;
   bool wakeup_path : 1 ;
   struct timer_list suspend_timer ;
   unsigned long timer_expires ;
   struct work_struct work ;
   wait_queue_head_t wait_queue ;
   atomic_t usage_count ;
   atomic_t child_count ;
   unsigned int disable_depth : 3 ;
   unsigned int idle_notification : 1 ;
   unsigned int request_pending : 1 ;
   unsigned int deferred_resume : 1 ;
   unsigned int run_wake : 1 ;
   unsigned int runtime_auto : 1 ;
   unsigned int no_callbacks : 1 ;
   unsigned int irq_safe : 1 ;
   unsigned int use_autosuspend : 1 ;
   unsigned int timer_autosuspends : 1 ;
   enum rpm_request request ;
   enum rpm_status runtime_status ;
   int runtime_error ;
   int autosuspend_delay ;
   unsigned long last_busy ;
   unsigned long active_jiffies ;
   unsigned long suspended_jiffies ;
   unsigned long accounting_timestamp ;
   ktime_t suspend_time ;
   s64 max_time_suspended_ns ;
   struct dev_pm_qos_request *pq_req ;
   struct pm_subsys_data *subsys_data ;
   struct pm_qos_constraints *constraints ;
};
struct dev_pm_domain {
   struct dev_pm_ops ops ;
};
struct vm_area_struct;
struct vm_area_struct;
struct page;
struct vm_area_struct;
struct sock;
struct sock;
struct kobject;
struct kobject;
enum kobj_ns_type {
    KOBJ_NS_TYPE_NONE = 0,
    KOBJ_NS_TYPE_NET = 1,
    KOBJ_NS_TYPES = 2
} ;
struct kobj_ns_type_operations {
   enum kobj_ns_type type ;
   void *(*grab_current_ns)(void) ;
   void const *(*netlink_ns)(struct sock *sk ) ;
   void const *(*initial_ns)(void) ;
   void (*drop_ns)(void * ) ;
};
struct kobject;
struct module;
enum kobj_ns_type;
struct attribute {
   char const *name ;
   umode_t mode ;
};
struct attribute_group {
   char const *name ;
   umode_t (*is_visible)(struct kobject * , struct attribute * , int ) ;
   struct attribute **attrs ;
};
struct file;
struct vm_area_struct;
struct bin_attribute {
   struct attribute attr ;
   size_t size ;
   void *private ;
   ssize_t (*read)(struct file * , struct kobject * , struct bin_attribute * , char * ,
                   loff_t , size_t ) ;
   ssize_t (*write)(struct file * , struct kobject * , struct bin_attribute * , char * ,
                    loff_t , size_t ) ;
   int (*mmap)(struct file * , struct kobject * , struct bin_attribute *attr , struct vm_area_struct *vma ) ;
};
struct sysfs_ops {
   ssize_t (*show)(struct kobject * , struct attribute * , char * ) ;
   ssize_t (*store)(struct kobject * , struct attribute * , char const * , size_t ) ;
   void const *(*namespace)(struct kobject * , struct attribute const * ) ;
};
struct sysfs_dirent;
struct sysfs_dirent;
struct kref {
   atomic_t refcount ;
};
struct kset;
struct kobj_type;
struct kobject {
   char const *name ;
   struct list_head entry ;
   struct kobject *parent ;
   struct kset *kset ;
   struct kobj_type *ktype ;
   struct sysfs_dirent *sd ;
   struct kref kref ;
   unsigned int state_initialized : 1 ;
   unsigned int state_in_sysfs : 1 ;
   unsigned int state_add_uevent_sent : 1 ;
   unsigned int state_remove_uevent_sent : 1 ;
   unsigned int uevent_suppress : 1 ;
};
struct kobj_type {
   void (*release)(struct kobject *kobj ) ;
   struct sysfs_ops const *sysfs_ops ;
   struct attribute **default_attrs ;
   struct kobj_ns_type_operations const *(*child_ns_type)(struct kobject *kobj ) ;
   void const *(*namespace)(struct kobject *kobj ) ;
};
struct kobj_uevent_env {
   char *envp[32] ;
   int envp_idx ;
   char buf[2048] ;
   int buflen ;
};
struct kset_uevent_ops {
   int (* const filter)(struct kset *kset , struct kobject *kobj ) ;
   char const *(* const name)(struct kset *kset , struct kobject *kobj ) ;
   int (* const uevent)(struct kset *kset , struct kobject *kobj , struct kobj_uevent_env *env ) ;
};
struct sock;
struct kset {
   struct list_head list ;
   spinlock_t list_lock ;
   struct kobject kobj ;
   struct kset_uevent_ops const *uevent_ops ;
};
struct kmem_cache_cpu {
   void **freelist ;
   unsigned long tid ;
   struct page *page ;
   struct page *partial ;
   int node ;
   unsigned int stat[26] ;
};
struct kmem_cache_node {
   spinlock_t list_lock ;
   unsigned long nr_partial ;
   struct list_head partial ;
   atomic_long_t nr_slabs ;
   atomic_long_t total_objects ;
   struct list_head full ;
};
struct kmem_cache_order_objects {
   unsigned long x ;
};
struct kmem_cache {
   struct kmem_cache_cpu *cpu_slab ;
   unsigned long flags ;
   unsigned long min_partial ;
   int size ;
   int objsize ;
   int offset ;
   int cpu_partial ;
   struct kmem_cache_order_objects oo ;
   struct kmem_cache_order_objects max ;
   struct kmem_cache_order_objects min ;
   gfp_t allocflags ;
   int refcount ;
   void (*ctor)(void * ) ;
   int inuse ;
   int align ;
   int reserved ;
   char const *name ;
   struct list_head list ;
   struct kobject kobj ;
   int remote_node_defrag_ratio ;
   struct kmem_cache_node *node[1 << 10] ;
};
struct kvec {
   void *iov_base ;
   size_t iov_len ;
};
struct klist_node;
struct klist_node;
struct klist_node {
   void *n_klist ;
   struct list_head n_node ;
   struct kref n_ref ;
};
struct dma_map_ops;
struct dev_archdata {
   void *acpi_handle ;
   struct dma_map_ops *dma_ops ;
   void *iommu ;
};
struct device;
struct device_private;
struct device_private;
struct device_driver;
struct device_driver;
struct driver_private;
struct driver_private;
struct module;
struct class;
struct class;
struct subsys_private;
struct subsys_private;
struct bus_type;
struct bus_type;
struct device_node;
struct device_node;
struct iommu_ops;
struct iommu_ops;
struct bus_attribute {
   struct attribute attr ;
   ssize_t (*show)(struct bus_type *bus , char *buf ) ;
   ssize_t (*store)(struct bus_type *bus , char const *buf , size_t count ) ;
};
struct device_attribute;
struct driver_attribute;
struct bus_type {
   char const *name ;
   char const *dev_name ;
   struct device *dev_root ;
   struct bus_attribute *bus_attrs ;
   struct device_attribute *dev_attrs ;
   struct driver_attribute *drv_attrs ;
   int (*match)(struct device *dev , struct device_driver *drv ) ;
   int (*uevent)(struct device *dev , struct kobj_uevent_env *env ) ;
   int (*probe)(struct device *dev ) ;
   int (*remove)(struct device *dev ) ;
   void (*shutdown)(struct device *dev ) ;
   int (*suspend)(struct device *dev , pm_message_t state ) ;
   int (*resume)(struct device *dev ) ;
   struct dev_pm_ops const *pm ;
   struct iommu_ops *iommu_ops ;
   struct subsys_private *p ;
};
struct device_type;
struct notifier_block;
struct of_device_id;
struct device_driver {
   char const *name ;
   struct bus_type *bus ;
   struct module *owner ;
   char const *mod_name ;
   bool suppress_bind_attrs ;
   struct of_device_id const *of_match_table ;
   int (*probe)(struct device *dev ) ;
   int (*remove)(struct device *dev ) ;
   void (*shutdown)(struct device *dev ) ;
   int (*suspend)(struct device *dev , pm_message_t state ) ;
   int (*resume)(struct device *dev ) ;
   struct attribute_group const **groups ;
   struct dev_pm_ops const *pm ;
   struct driver_private *p ;
};
struct driver_attribute {
   struct attribute attr ;
   ssize_t (*show)(struct device_driver *driver , char *buf ) ;
   ssize_t (*store)(struct device_driver *driver , char const *buf , size_t count ) ;
};
struct class_attribute;
struct class {
   char const *name ;
   struct module *owner ;
   struct class_attribute *class_attrs ;
   struct device_attribute *dev_attrs ;
   struct bin_attribute *dev_bin_attrs ;
   struct kobject *dev_kobj ;
   int (*dev_uevent)(struct device *dev , struct kobj_uevent_env *env ) ;
   char *(*devnode)(struct device *dev , umode_t *mode ) ;
   void (*class_release)(struct class *class ) ;
   void (*dev_release)(struct device *dev ) ;
   int (*suspend)(struct device *dev , pm_message_t state ) ;
   int (*resume)(struct device *dev ) ;
   struct kobj_ns_type_operations const *ns_type ;
   void const *(*namespace)(struct device *dev ) ;
   struct dev_pm_ops const *pm ;
   struct subsys_private *p ;
};
struct class_attribute {
   struct attribute attr ;
   ssize_t (*show)(struct class *class , struct class_attribute *attr , char *buf ) ;
   ssize_t (*store)(struct class *class , struct class_attribute *attr , char const *buf ,
                    size_t count ) ;
   void const *(*namespace)(struct class *class , struct class_attribute const *attr ) ;
};
struct device_type {
   char const *name ;
   struct attribute_group const **groups ;
   int (*uevent)(struct device *dev , struct kobj_uevent_env *env ) ;
   char *(*devnode)(struct device *dev , umode_t *mode ) ;
   void (*release)(struct device *dev ) ;
   struct dev_pm_ops const *pm ;
};
struct device_attribute {
   struct attribute attr ;
   ssize_t (*show)(struct device *dev , struct device_attribute *attr , char *buf ) ;
   ssize_t (*store)(struct device *dev , struct device_attribute *attr , char const *buf ,
                    size_t count ) ;
};
struct device_dma_parameters {
   unsigned int max_segment_size ;
   unsigned long segment_boundary_mask ;
};
struct dma_coherent_mem;
struct device {
   struct device *parent ;
   struct device_private *p ;
   struct kobject kobj ;
   char const *init_name ;
   struct device_type const *type ;
   struct mutex mutex ;
   struct bus_type *bus ;
   struct device_driver *driver ;
   void *platform_data ;
   struct dev_pm_info power ;
   struct dev_pm_domain *pm_domain ;
   int numa_node ;
   u64 *dma_mask ;
   u64 coherent_dma_mask ;
   struct device_dma_parameters *dma_parms ;
   struct list_head dma_pools ;
   struct dma_coherent_mem *dma_mem ;
   struct dev_archdata archdata ;
   struct device_node *of_node ;
   dev_t devt ;
   u32 id ;
   spinlock_t devres_lock ;
   struct list_head devres_head ;
   struct klist_node knode_class ;
   struct class *class ;
   struct attribute_group const **groups ;
   void (*release)(struct device *dev ) ;
};
struct wakeup_source {
   char const *name ;
   struct list_head entry ;
   spinlock_t lock ;
   struct timer_list timer ;
   unsigned long timer_expires ;
   ktime_t total_time ;
   ktime_t max_time ;
   ktime_t last_time ;
   unsigned long event_count ;
   unsigned long active_count ;
   unsigned long relax_count ;
   unsigned long hit_count ;
   unsigned int active : 1 ;
};
struct otp_info {
   __u32 start ;
   __u32 length ;
   __u32 locked ;
};
struct nand_oobfree {
   __u32 offset ;
   __u32 length ;
};
struct mtd_ecc_stats {
   __u32 corrected ;
   __u32 failed ;
   __u32 badblocks ;
   __u32 bbtblocks ;
};
struct mtd_info;
struct erase_info {
   struct mtd_info *mtd ;
   uint64_t addr ;
   uint64_t len ;
   uint64_t fail_addr ;
   u_long time ;
   u_long retries ;
   unsigned int dev ;
   unsigned int cell ;
   void (*callback)(struct erase_info *self ) ;
   u_long priv ;
   u_char state ;
   struct erase_info *next ;
};
struct mtd_erase_region_info {
   uint64_t offset ;
   uint32_t erasesize ;
   uint32_t numblocks ;
   unsigned long *lockmap ;
};
struct mtd_oob_ops {
   unsigned int mode ;
   size_t len ;
   size_t retlen ;
   size_t ooblen ;
   size_t oobretlen ;
   uint32_t ooboffs ;
   uint8_t *datbuf ;
   uint8_t *oobbuf ;
};
struct nand_ecclayout {
   __u32 eccbytes ;
   __u32 eccpos[448] ;
   __u32 oobavail ;
   struct nand_oobfree oobfree[32] ;
};
struct module;
struct backing_dev_info;
struct mtd_info {
   u_char type ;
   uint32_t flags ;
   uint64_t size ;
   uint32_t erasesize ;
   uint32_t writesize ;
   uint32_t writebufsize ;
   uint32_t oobsize ;
   uint32_t oobavail ;
   unsigned int erasesize_shift ;
   unsigned int writesize_shift ;
   unsigned int erasesize_mask ;
   unsigned int writesize_mask ;
   char const *name ;
   int index ;
   struct nand_ecclayout *ecclayout ;
   unsigned int ecc_strength ;
   int numeraseregions ;
   struct mtd_erase_region_info *eraseregions ;
   int (*_erase)(struct mtd_info *mtd , struct erase_info *instr ) ;
   int (*_point)(struct mtd_info *mtd , loff_t from , size_t len , size_t *retlen ,
                 void **virt , resource_size_t *phys ) ;
   int (*_unpoint)(struct mtd_info *mtd , loff_t from , size_t len ) ;
   unsigned long (*_get_unmapped_area)(struct mtd_info *mtd , unsigned long len ,
                                       unsigned long offset , unsigned long flags ) ;
   int (*_read)(struct mtd_info *mtd , loff_t from , size_t len , size_t *retlen ,
                u_char *buf ) ;
   int (*_write)(struct mtd_info *mtd , loff_t to , size_t len , size_t *retlen ,
                 u_char const *buf ) ;
   int (*_panic_write)(struct mtd_info *mtd , loff_t to , size_t len , size_t *retlen ,
                       u_char const *buf ) ;
   int (*_read_oob)(struct mtd_info *mtd , loff_t from , struct mtd_oob_ops *ops ) ;
   int (*_write_oob)(struct mtd_info *mtd , loff_t to , struct mtd_oob_ops *ops ) ;
   int (*_get_fact_prot_info)(struct mtd_info *mtd , struct otp_info *buf , size_t len ) ;
   int (*_read_fact_prot_reg)(struct mtd_info *mtd , loff_t from , size_t len , size_t *retlen ,
                              u_char *buf ) ;
   int (*_get_user_prot_info)(struct mtd_info *mtd , struct otp_info *buf , size_t len ) ;
   int (*_read_user_prot_reg)(struct mtd_info *mtd , loff_t from , size_t len , size_t *retlen ,
                              u_char *buf ) ;
   int (*_write_user_prot_reg)(struct mtd_info *mtd , loff_t to , size_t len , size_t *retlen ,
                               u_char *buf ) ;
   int (*_lock_user_prot_reg)(struct mtd_info *mtd , loff_t from , size_t len ) ;
   int (*_writev)(struct mtd_info *mtd , struct kvec const *vecs , unsigned long count ,
                  loff_t to , size_t *retlen ) ;
   void (*_sync)(struct mtd_info *mtd ) ;
   int (*_lock)(struct mtd_info *mtd , loff_t ofs , uint64_t len ) ;
   int (*_unlock)(struct mtd_info *mtd , loff_t ofs , uint64_t len ) ;
   int (*_is_locked)(struct mtd_info *mtd , loff_t ofs , uint64_t len ) ;
   int (*_block_isbad)(struct mtd_info *mtd , loff_t ofs ) ;
   int (*_block_markbad)(struct mtd_info *mtd , loff_t ofs ) ;
   int (*_suspend)(struct mtd_info *mtd ) ;
   void (*_resume)(struct mtd_info *mtd ) ;
   int (*_get_device)(struct mtd_info *mtd ) ;
   void (*_put_device)(struct mtd_info *mtd ) ;
   struct backing_dev_info *backing_dev_info ;
   struct notifier_block reboot_notifier ;
   struct mtd_ecc_stats ecc_stats ;
   int subpage_sft ;
   void *priv ;
   struct module *owner ;
   struct device dev ;
   int usecount ;
};
struct mtd_partition;
struct mtd_partition;
struct mtd_part_parser_data;
struct mtd_part_parser_data;
struct mtd_partition {
   char *name ;
   uint64_t size ;
   uint64_t offset ;
   uint32_t mask_flags ;
   struct nand_ecclayout *ecclayout ;
};
struct mtd_info;
struct device_node;
struct mtd_part_parser_data {
   unsigned long origin ;
   struct device_node *of_node ;
};
struct mtd_part_parser {
   struct list_head list ;
   struct module *owner ;
   char const *name ;
   int (*parse_fn)(struct mtd_info * , struct mtd_partition ** , struct mtd_part_parser_data * ) ;
};
struct completion;
struct file;
struct task_struct;
typedef __u64 Elf64_Addr;
typedef __u16 Elf64_Half;
typedef __u32 Elf64_Word;
typedef __u64 Elf64_Xword;
struct elf64_sym {
   Elf64_Word st_name ;
   unsigned char st_info ;
   unsigned char st_other ;
   Elf64_Half st_shndx ;
   Elf64_Addr st_value ;
   Elf64_Xword st_size ;
};
typedef struct elf64_sym Elf64_Sym;
struct file;
struct kernel_param;
struct kernel_param;
struct kernel_param_ops {
   int (*set)(char const *val , struct kernel_param const *kp ) ;
   int (*get)(char *buffer , struct kernel_param const *kp ) ;
   void (*free)(void *arg ) ;
};
struct kparam_string;
struct kparam_array;
union __anonunion____missing_field_name_200 {
   void *arg ;
   struct kparam_string const *str ;
   struct kparam_array const *arr ;
};
struct kernel_param {
   char const *name ;
   struct kernel_param_ops const *ops ;
   u16 perm ;
   s16 level ;
   union __anonunion____missing_field_name_200 __annonCompField32 ;
};
struct kparam_string {
   unsigned int maxlen ;
   char *string ;
};
struct kparam_array {
   unsigned int max ;
   unsigned int elemsize ;
   unsigned int *num ;
   struct kernel_param_ops const *ops ;
   void *elem ;
};
struct module;
struct module;
struct static_key {
   atomic_t enabled ;
};
struct module;
struct tracepoint;
struct tracepoint;
struct tracepoint_func {
   void *func ;
   void *data ;
};
struct tracepoint {
   char const *name ;
   struct static_key key ;
   void (*regfunc)(void) ;
   void (*unregfunc)(void) ;
   struct tracepoint_func *funcs ;
};
struct kernel_symbol {
   unsigned long value ;
   char const *name ;
};
struct mod_arch_specific {
};
struct module;
struct module_param_attrs;
struct module_kobject {
   struct kobject kobj ;
   struct module *mod ;
   struct kobject *drivers_dir ;
   struct module_param_attrs *mp ;
};
struct module_attribute {
   struct attribute attr ;
   ssize_t (*show)(struct module_attribute * , struct module_kobject * , char * ) ;
   ssize_t (*store)(struct module_attribute * , struct module_kobject * , char const * ,
                    size_t count ) ;
   void (*setup)(struct module * , char const * ) ;
   int (*test)(struct module * ) ;
   void (*free)(struct module * ) ;
};
struct exception_table_entry;
struct exception_table_entry;
struct notifier_block;
enum module_state {
    MODULE_STATE_LIVE = 0,
    MODULE_STATE_COMING = 1,
    MODULE_STATE_GOING = 2
} ;
struct module_ref {
   unsigned long incs ;
   unsigned long decs ;
} __attribute__((__aligned__((2) * (sizeof(unsigned long )) ))) ;
struct module_sect_attrs;
struct module_notes_attrs;
struct ftrace_event_call;
struct module {
   enum module_state state ;
   struct list_head list ;
   char name[64UL - sizeof(unsigned long )] ;
   struct module_kobject mkobj ;
   struct module_attribute *modinfo_attrs ;
   char const *version ;
   char const *srcversion ;
   struct kobject *holders_dir ;
   struct kernel_symbol const *syms ;
   unsigned long const *crcs ;
   unsigned int num_syms ;
   struct kernel_param *kp ;
   unsigned int num_kp ;
   unsigned int num_gpl_syms ;
   struct kernel_symbol const *gpl_syms ;
   unsigned long const *gpl_crcs ;
   struct kernel_symbol const *unused_syms ;
   unsigned long const *unused_crcs ;
   unsigned int num_unused_syms ;
   unsigned int num_unused_gpl_syms ;
   struct kernel_symbol const *unused_gpl_syms ;
   unsigned long const *unused_gpl_crcs ;
   struct kernel_symbol const *gpl_future_syms ;
   unsigned long const *gpl_future_crcs ;
   unsigned int num_gpl_future_syms ;
   unsigned int num_exentries ;
   struct exception_table_entry *extable ;
   int (*init)(void) ;
   void *module_init ;
   void *module_core ;
   unsigned int init_size ;
   unsigned int core_size ;
   unsigned int init_text_size ;
   unsigned int core_text_size ;
   unsigned int init_ro_size ;
   unsigned int core_ro_size ;
   struct mod_arch_specific arch ;
   unsigned int taints ;
   unsigned int num_bugs ;
   struct list_head bug_list ;
   struct bug_entry *bug_table ;
   Elf64_Sym *symtab ;
   Elf64_Sym *core_symtab ;
   unsigned int num_symtab ;
   unsigned int core_num_syms ;
   char *strtab ;
   char *core_strtab ;
   struct module_sect_attrs *sect_attrs ;
   struct module_notes_attrs *notes_attrs ;
   char *args ;
   void *percpu ;
   unsigned int percpu_size ;
   unsigned int num_tracepoints ;
   struct tracepoint * const *tracepoints_ptrs ;
   unsigned int num_trace_bprintk_fmt ;
   char const **trace_bprintk_fmt_start ;
   struct ftrace_event_call **trace_events ;
   unsigned int num_trace_events ;
   struct list_head source_list ;
   struct list_head target_list ;
   struct task_struct *waiter ;
   void (*exit)(void) ;
   struct module_ref *refptr ;
   ctor_fn_t *ctors ;
   unsigned int num_ctors ;
};
struct ar7_bin_rec {
   unsigned int checksum ;
   unsigned int length ;
   unsigned int address ;
};
long ldv__builtin_expect(long val , long res ) ;
extern int ( printk)(char const *fmt , ...) ;
extern int strncmp(char const * , char const * , __kernel_size_t ) ;
void mutex_lock(struct mutex *lock ) ;
int __attribute__((__warn_unused_result__)) mutex_lock_interruptible(struct mutex *lock ) ;
int __attribute__((__warn_unused_result__)) mutex_lock_killable(struct mutex *lock ) ;
int mutex_trylock(struct mutex *lock ) ;
void mutex_unlock(struct mutex *lock ) ;
int atomic_dec_and_mutex_lock(atomic_t *cnt , struct mutex *lock ) ;
extern int __VERIFIER_nondet_int(void);
extern void abort(void);
void assume_abort_if_not(int cond) {
  if(!cond) {abort();}
}
extern void *malloc(size_t size);
long ldv_is_err(const void *ptr)
{
  return ((unsigned long)ptr > ((unsigned long)-4095));
}
void *ldv_malloc(size_t size)
{
 if (__VERIFIER_nondet_int()) {
  void *res = malloc(size);
  assume_abort_if_not(!ldv_is_err(res));
  return res;
 } else {
  return ((void *)0);
 }
}
void *__kmalloc(size_t size, gfp_t t)
{
 return ldv_malloc(size);
}
 static void *( __attribute__((__always_inline__)) kmalloc)(size_t size ,
                                                                    gfp_t flags ) __attribute__((__no_instrument_function__)) ;
 static void *( __attribute__((__always_inline__)) kmalloc)(size_t size ,
                                                                    gfp_t flags )
{ void *tmp___2 ;
  {
  {
  tmp___2 = __kmalloc(size, flags);
  }
  return (tmp___2);
}
}
 static void *kzalloc(size_t size , gfp_t flags ) __attribute__((__no_instrument_function__)) ;
void *ldv_zalloc(size_t size ) ;
 static void *kzalloc(size_t size , gfp_t flags )
{ void *tmp ;
  unsigned int __cil_tmp4 ;
  {
  {
  __cil_tmp4 = flags | 32768U;
  tmp = kmalloc(size, __cil_tmp4);
  }
  return (tmp);
}
}
extern int mtd_read(struct mtd_info *mtd , loff_t from , size_t len , size_t *retlen ,
                    u_char *buf ) ;
extern int register_mtd_parser(struct mtd_part_parser *parser ) ;
extern struct module __this_module ;
int init_module(void) ;
static int create_mtd_partitions(struct mtd_info *master , struct mtd_partition **pparts ,
                                 struct mtd_part_parser_data *data )
{ struct ar7_bin_rec header ;
  unsigned int offset ;
  size_t len ;
  unsigned int pre_size ;
  unsigned int post_size ;
  unsigned int root_offset ;
  int retries ;
  struct mtd_partition *ar7_parts ;
  void *tmp ;
  int tmp___0 ;
  int tmp___1 ;
  unsigned long __cil_tmp15 ;
  unsigned long __cil_tmp16 ;
  unsigned long __cil_tmp17 ;
  struct mtd_partition *__cil_tmp18 ;
  struct mtd_partition *__cil_tmp19 ;
  unsigned long __cil_tmp20 ;
  unsigned long __cil_tmp21 ;
  struct mtd_partition *__cil_tmp22 ;
  unsigned long __cil_tmp23 ;
  unsigned long __cil_tmp24 ;
  unsigned long __cil_tmp25 ;
  unsigned long __cil_tmp26 ;
  uint32_t __cil_tmp27 ;
  struct mtd_partition *__cil_tmp28 ;
  unsigned long __cil_tmp29 ;
  unsigned long __cil_tmp30 ;
  struct mtd_partition *__cil_tmp31 ;
  struct mtd_partition *__cil_tmp32 ;
  unsigned long __cil_tmp33 ;
  unsigned long __cil_tmp34 ;
  struct mtd_partition *__cil_tmp35 ;
  unsigned long __cil_tmp36 ;
  unsigned long __cil_tmp37 ;
  unsigned long __cil_tmp38 ;
  unsigned long __cil_tmp39 ;
  uint32_t __cil_tmp40 ;
  struct mtd_partition *__cil_tmp41 ;
  unsigned long __cil_tmp42 ;
  unsigned long __cil_tmp43 ;
  loff_t __cil_tmp44 ;
  uint8_t *__cil_tmp45 ;
  char *__cil_tmp46 ;
  char const *__cil_tmp47 ;
  __kernel_size_t __cil_tmp48 ;
  struct mtd_partition *__cil_tmp49 ;
  unsigned long __cil_tmp50 ;
  unsigned long __cil_tmp51 ;
  struct ar7_bin_rec *__cil_tmp52 ;
  unsigned int __cil_tmp53 ;
  struct ar7_bin_rec *__cil_tmp54 ;
  unsigned int __cil_tmp55 ;
  unsigned long __cil_tmp56 ;
  unsigned long __cil_tmp57 ;
  uint32_t __cil_tmp58 ;
  struct mtd_partition *__cil_tmp59 ;
  unsigned long __cil_tmp60 ;
  unsigned long __cil_tmp61 ;
  uint64_t __cil_tmp62 ;
  struct mtd_partition *__cil_tmp63 ;
  unsigned long __cil_tmp64 ;
  unsigned long __cil_tmp65 ;
  unsigned long __cil_tmp66 ;
  unsigned long __cil_tmp67 ;
  uint32_t __cil_tmp68 ;
  uint64_t __cil_tmp69 ;
  unsigned long __cil_tmp70 ;
  unsigned long __cil_tmp71 ;
  uint64_t __cil_tmp72 ;
  unsigned long __cil_tmp73 ;
  unsigned long __cil_tmp74 ;
  struct ar7_bin_rec *__cil_tmp75 ;
  unsigned int __cil_tmp76 ;
  unsigned long __cil_tmp77 ;
  unsigned long __cil_tmp78 ;
  unsigned int __cil_tmp79 ;
  unsigned long __cil_tmp80 ;
  unsigned long __cil_tmp81 ;
  unsigned long __cil_tmp82 ;
  unsigned long __cil_tmp83 ;
  loff_t __cil_tmp84 ;
  uint8_t *__cil_tmp85 ;
  unsigned long __cil_tmp86 ;
  unsigned long __cil_tmp87 ;
  unsigned long __cil_tmp88 ;
  unsigned long __cil_tmp89 ;
  unsigned long __cil_tmp90 ;
  unsigned int __cil_tmp91 ;
  unsigned long __cil_tmp92 ;
  unsigned long __cil_tmp93 ;
  unsigned long __cil_tmp94 ;
  unsigned long __cil_tmp95 ;
  loff_t __cil_tmp96 ;
  uint8_t *__cil_tmp97 ;
  unsigned long __cil_tmp98 ;
  unsigned long __cil_tmp99 ;
  unsigned long __cil_tmp100 ;
  unsigned long __cil_tmp101 ;
  struct ar7_bin_rec *__cil_tmp102 ;
  unsigned int __cil_tmp103 ;
  loff_t __cil_tmp104 ;
  u8 *__cil_tmp105 ;
  struct ar7_bin_rec *__cil_tmp106 ;
  unsigned int __cil_tmp107 ;
  unsigned long __cil_tmp108 ;
  unsigned long __cil_tmp109 ;
  uint32_t __cil_tmp110 ;
  uint32_t __cil_tmp111 ;
  unsigned long __cil_tmp112 ;
  unsigned long __cil_tmp113 ;
  uint32_t __cil_tmp114 ;
  uint32_t __cil_tmp115 ;
  uint32_t __cil_tmp116 ;
  struct mtd_partition *__cil_tmp117 ;
  struct mtd_partition *__cil_tmp118 ;
  unsigned long __cil_tmp119 ;
  unsigned long __cil_tmp120 ;
  struct mtd_partition *__cil_tmp121 ;
  unsigned long __cil_tmp122 ;
  unsigned long __cil_tmp123 ;
  uint64_t __cil_tmp124 ;
  uint64_t __cil_tmp125 ;
  unsigned long __cil_tmp126 ;
  unsigned long __cil_tmp127 ;
  uint64_t __cil_tmp128 ;
  uint64_t __cil_tmp129 ;
  struct mtd_partition *__cil_tmp130 ;
  unsigned long __cil_tmp131 ;
  unsigned long __cil_tmp132 ;
  struct mtd_partition *__cil_tmp133 ;
  struct mtd_partition *__cil_tmp134 ;
  unsigned long __cil_tmp135 ;
  unsigned long __cil_tmp136 ;
  struct mtd_partition *__cil_tmp137 ;
  unsigned long __cil_tmp138 ;
  unsigned long __cil_tmp139 ;
  uint64_t __cil_tmp140 ;
  uint64_t __cil_tmp141 ;
  unsigned long __cil_tmp142 ;
  unsigned long __cil_tmp143 ;
  uint64_t __cil_tmp144 ;
  uint64_t __cil_tmp145 ;
  struct mtd_partition *__cil_tmp146 ;
  unsigned long __cil_tmp147 ;
  unsigned long __cil_tmp148 ;
  {
  {
  __cil_tmp15 = (unsigned long )master;
  __cil_tmp16 = __cil_tmp15 + 16;
  pre_size = *((uint32_t *)__cil_tmp16);
  post_size = 0U;
  root_offset = 917504U;
  retries = 10;
  __cil_tmp17 = 40UL * 4UL;
  tmp = kzalloc(__cil_tmp17, 208U);
  ar7_parts = (struct mtd_partition *)tmp;
  }
  if (! ar7_parts) {
    return (-12);
  } else {
  }
  __cil_tmp18 = ar7_parts + 0;
  *((char **)__cil_tmp18) = (char *)"loader";
  __cil_tmp19 = ar7_parts + 0;
  __cil_tmp20 = (unsigned long )__cil_tmp19;
  __cil_tmp21 = __cil_tmp20 + 16;
  *((uint64_t *)__cil_tmp21) = (uint64_t )0;
  __cil_tmp22 = ar7_parts + 0;
  __cil_tmp23 = (unsigned long )__cil_tmp22;
  __cil_tmp24 = __cil_tmp23 + 8;
  __cil_tmp25 = (unsigned long )master;
  __cil_tmp26 = __cil_tmp25 + 16;
  __cil_tmp27 = *((uint32_t *)__cil_tmp26);
  *((uint64_t *)__cil_tmp24) = (uint64_t )__cil_tmp27;
  __cil_tmp28 = ar7_parts + 0;
  __cil_tmp29 = (unsigned long )__cil_tmp28;
  __cil_tmp30 = __cil_tmp29 + 24;
  *((uint32_t *)__cil_tmp30) = (uint32_t )1024;
  __cil_tmp31 = ar7_parts + 1;
  *((char **)__cil_tmp31) = (char *)"config";
  __cil_tmp32 = ar7_parts + 1;
  __cil_tmp33 = (unsigned long )__cil_tmp32;
  __cil_tmp34 = __cil_tmp33 + 16;
  *((uint64_t *)__cil_tmp34) = (uint64_t )0;
  __cil_tmp35 = ar7_parts + 1;
  __cil_tmp36 = (unsigned long )__cil_tmp35;
  __cil_tmp37 = __cil_tmp36 + 8;
  __cil_tmp38 = (unsigned long )master;
  __cil_tmp39 = __cil_tmp38 + 16;
  __cil_tmp40 = *((uint32_t *)__cil_tmp39);
  *((uint64_t *)__cil_tmp37) = (uint64_t )__cil_tmp40;
  __cil_tmp41 = ar7_parts + 1;
  __cil_tmp42 = (unsigned long )__cil_tmp41;
  __cil_tmp43 = __cil_tmp42 + 24;
  *((uint32_t *)__cil_tmp43) = (uint32_t )0;
  {
  while (1) {
    while_continue: ;
    {
    offset = pre_size;
    __cil_tmp44 = (loff_t )offset;
    __cil_tmp45 = (uint8_t *)(& header);
    mtd_read(master, __cil_tmp44, 12UL, & len, __cil_tmp45);
    __cil_tmp46 = (char *)(& header);
    __cil_tmp47 = (char const *)__cil_tmp46;
    __cil_tmp48 = (__kernel_size_t )8;
    tmp___0 = strncmp(__cil_tmp47, "TIENV0.8", __cil_tmp48);
    }
    if (tmp___0) {
    } else {
      __cil_tmp49 = ar7_parts + 1;
      __cil_tmp50 = (unsigned long )__cil_tmp49;
      __cil_tmp51 = __cil_tmp50 + 16;
      *((uint64_t *)__cil_tmp51) = (uint64_t )pre_size;
    }
    {
    __cil_tmp52 = & header;
    __cil_tmp53 = *((unsigned int *)__cil_tmp52);
    if (__cil_tmp53 == 4277008962U) {
      goto while_break;
    } else {
    }
    }
    {
    __cil_tmp54 = & header;
    __cil_tmp55 = *((unsigned int *)__cil_tmp54);
    if (__cil_tmp55 == 4276949633U) {
      goto while_break;
    } else {
    }
    }
    __cil_tmp56 = (unsigned long )master;
    __cil_tmp57 = __cil_tmp56 + 16;
    __cil_tmp58 = *((uint32_t *)__cil_tmp57);
    pre_size = pre_size + __cil_tmp58;
    tmp___1 = retries;
    retries = retries - 1;
    if (tmp___1) {
    } else {
      goto while_break;
    }
  }
  while_break: ;
  }
  pre_size = offset;
  {
  __cil_tmp59 = ar7_parts + 1;
  __cil_tmp60 = (unsigned long )__cil_tmp59;
  __cil_tmp61 = __cil_tmp60 + 16;
  __cil_tmp62 = *((uint64_t *)__cil_tmp61);
  if (! __cil_tmp62) {
    __cil_tmp63 = ar7_parts + 1;
    __cil_tmp64 = (unsigned long )__cil_tmp63;
    __cil_tmp65 = __cil_tmp64 + 16;
    __cil_tmp66 = (unsigned long )master;
    __cil_tmp67 = __cil_tmp66 + 16;
    __cil_tmp68 = *((uint32_t *)__cil_tmp67);
    __cil_tmp69 = (uint64_t )__cil_tmp68;
    __cil_tmp70 = (unsigned long )master;
    __cil_tmp71 = __cil_tmp70 + 8;
    __cil_tmp72 = *((uint64_t *)__cil_tmp71);
    *((uint64_t *)__cil_tmp65) = __cil_tmp72 - __cil_tmp69;
    __cil_tmp73 = (unsigned long )master;
    __cil_tmp74 = __cil_tmp73 + 16;
    post_size = *((uint32_t *)__cil_tmp74);
  } else {
  }
  }
  {
  __cil_tmp75 = & header;
  __cil_tmp76 = *((unsigned int *)__cil_tmp75);
  if ((int )__cil_tmp76 == 4277008962U) {
    goto case_4277008962;
  } else
  if ((int )__cil_tmp76 == 4276949633U) {
    goto case_4276949633;
  } else {
    {
    goto switch_default;
    if (0) {
      case_4277008962:
      {
      while (1) {
        while_continue___0: ;
        {
        __cil_tmp77 = (unsigned long )(& header) + 4;
        if (*((unsigned int *)__cil_tmp77)) {
        } else {
          goto while_break___0;
        }
        }
        {
        __cil_tmp78 = (unsigned long )(& header) + 4;
        __cil_tmp79 = *((unsigned int *)__cil_tmp78);
        __cil_tmp80 = (unsigned long )__cil_tmp79;
        __cil_tmp81 = 12UL + __cil_tmp80;
        __cil_tmp82 = (unsigned long )offset;
        __cil_tmp83 = __cil_tmp82 + __cil_tmp81;
        offset = (unsigned int )__cil_tmp83;
        __cil_tmp84 = (loff_t )offset;
        __cil_tmp85 = (uint8_t *)(& header);
        mtd_read(master, __cil_tmp84, 12UL, & len, __cil_tmp85);
        }
      }
      while_break___0: ;
      }
      __cil_tmp86 = (unsigned long )offset;
      __cil_tmp87 = __cil_tmp86 + 12UL;
      __cil_tmp88 = __cil_tmp87 + 4UL;
      root_offset = (unsigned int )__cil_tmp88;
      goto switch_break;
      case_4276949633:
      {
      while (1) {
        while_continue___1: ;
        {
        __cil_tmp89 = (unsigned long )(& header) + 4;
        if (*((unsigned int *)__cil_tmp89)) {
        } else {
          goto while_break___1;
        }
        }
        {
        __cil_tmp90 = (unsigned long )(& header) + 4;
        __cil_tmp91 = *((unsigned int *)__cil_tmp90);
        __cil_tmp92 = (unsigned long )__cil_tmp91;
        __cil_tmp93 = 12UL + __cil_tmp92;
        __cil_tmp94 = (unsigned long )offset;
        __cil_tmp95 = __cil_tmp94 + __cil_tmp93;
        offset = (unsigned int )__cil_tmp95;
        __cil_tmp96 = (loff_t )offset;
        __cil_tmp97 = (uint8_t *)(& header);
        mtd_read(master, __cil_tmp96, 12UL, & len, __cil_tmp97);
        }
      }
      while_break___1: ;
      }
      __cil_tmp98 = (unsigned long )offset;
      __cil_tmp99 = __cil_tmp98 + 12UL;
      __cil_tmp100 = __cil_tmp99 + 4UL;
      __cil_tmp101 = __cil_tmp100 + 255UL;
      root_offset = (unsigned int )__cil_tmp101;
      root_offset = root_offset & 4294967040U;
      goto switch_break;
      switch_default:
      {
      __cil_tmp102 = & header;
      __cil_tmp103 = *((unsigned int *)__cil_tmp102);
      printk("<4>Unknown magic: %08x\n", __cil_tmp103);
      }
      goto switch_break;
    } else {
      switch_break: ;
    }
    }
  }
  }
  {
  __cil_tmp104 = (loff_t )root_offset;
  __cil_tmp105 = (u8 *)(& header);
  mtd_read(master, __cil_tmp104, 12UL, & len, __cil_tmp105);
  }
  {
  __cil_tmp106 = & header;
  __cil_tmp107 = *((unsigned int *)__cil_tmp106);
  if (__cil_tmp107 != 1936814952U) {
    __cil_tmp108 = (unsigned long )master;
    __cil_tmp109 = __cil_tmp108 + 16;
    __cil_tmp110 = *((uint32_t *)__cil_tmp109);
    __cil_tmp111 = __cil_tmp110 - 1U;
    root_offset = root_offset + __cil_tmp111;
    __cil_tmp112 = (unsigned long )master;
    __cil_tmp113 = __cil_tmp112 + 16;
    __cil_tmp114 = *((uint32_t *)__cil_tmp113);
    __cil_tmp115 = __cil_tmp114 - 1U;
    __cil_tmp116 = ~ __cil_tmp115;
    root_offset = root_offset & __cil_tmp116;
  } else {
  }
  }
  __cil_tmp117 = ar7_parts + 2;
  *((char **)__cil_tmp117) = (char *)"linux";
  __cil_tmp118 = ar7_parts + 2;
  __cil_tmp119 = (unsigned long )__cil_tmp118;
  __cil_tmp120 = __cil_tmp119 + 16;
  *((uint64_t *)__cil_tmp120) = (uint64_t )pre_size;
  __cil_tmp121 = ar7_parts + 2;
  __cil_tmp122 = (unsigned long )__cil_tmp121;
  __cil_tmp123 = __cil_tmp122 + 8;
  __cil_tmp124 = (uint64_t )post_size;
  __cil_tmp125 = (uint64_t )pre_size;
  __cil_tmp126 = (unsigned long )master;
  __cil_tmp127 = __cil_tmp126 + 8;
  __cil_tmp128 = *((uint64_t *)__cil_tmp127);
  __cil_tmp129 = __cil_tmp128 - __cil_tmp125;
  *((uint64_t *)__cil_tmp123) = __cil_tmp129 - __cil_tmp124;
  __cil_tmp130 = ar7_parts + 2;
  __cil_tmp131 = (unsigned long )__cil_tmp130;
  __cil_tmp132 = __cil_tmp131 + 24;
  *((uint32_t *)__cil_tmp132) = (uint32_t )0;
  __cil_tmp133 = ar7_parts + 3;
  *((char **)__cil_tmp133) = (char *)"rootfs";
  __cil_tmp134 = ar7_parts + 3;
  __cil_tmp135 = (unsigned long )__cil_tmp134;
  __cil_tmp136 = __cil_tmp135 + 16;
  *((uint64_t *)__cil_tmp136) = (uint64_t )root_offset;
  __cil_tmp137 = ar7_parts + 3;
  __cil_tmp138 = (unsigned long )__cil_tmp137;
  __cil_tmp139 = __cil_tmp138 + 8;
  __cil_tmp140 = (uint64_t )post_size;
  __cil_tmp141 = (uint64_t )root_offset;
  __cil_tmp142 = (unsigned long )master;
  __cil_tmp143 = __cil_tmp142 + 8;
  __cil_tmp144 = *((uint64_t *)__cil_tmp143);
  __cil_tmp145 = __cil_tmp144 - __cil_tmp141;
  *((uint64_t *)__cil_tmp139) = __cil_tmp145 - __cil_tmp140;
  __cil_tmp146 = ar7_parts + 3;
  __cil_tmp147 = (unsigned long )__cil_tmp146;
  __cil_tmp148 = __cil_tmp147 + 24;
  *((uint32_t *)__cil_tmp148) = (uint32_t )0;
  *pparts = ar7_parts;
  return (4);
}
}
static struct mtd_part_parser ar7_parser = {{(struct list_head *)0, (struct list_head *)0}, & __this_module, "ar7part", & create_mtd_partitions};
static int ar7_parser_init(void) __attribute__((__section__(".init.text"), __no_instrument_function__)) ;
static int ar7_parser_init(void)
{ int tmp ;
  {
  {
  tmp = register_mtd_parser(& ar7_parser);
  }
  return (tmp);
}
}
int init_module(void)
{ int tmp ;
  {
  {
  tmp = ar7_parser_init();
  }
  return (tmp);
}
}
static char const __mod_license151[12] __attribute__((__used__, __unused__, __section__(".modinfo"),
__aligned__(1))) =
  { (char const )'l', (char const )'i', (char const )'c', (char const )'e',
        (char const )'n', (char const )'s', (char const )'e', (char const )'=',
        (char const )'G', (char const )'P', (char const )'L', (char const )'\000'};
static char const __mod_author153[72] __attribute__((__used__, __unused__, __section__(".modinfo"),
__aligned__(1))) =
  { (char const )'a', (char const )'u', (char const )'t', (char const )'h',
        (char const )'o', (char const )'r', (char const )'=', (char const )'F',
        (char const )'e', (char const )'l', (char const )'i', (char const )'x',
        (char const )' ', (char const )'F', (char const )'i', (char const )'e',
        (char const )'t', (char const )'k', (char const )'a', (char const )'u',
        (char const )' ', (char const )'<', (char const )'n', (char const )'b',
        (char const )'d', (char const )'@', (char const )'o', (char const )'p',
        (char const )'e', (char const )'n', (char const )'w', (char const )'r',
        (char const )'t', (char const )'.', (char const )'o', (char const )'r',
        (char const )'g', (char const )'>', (char const )',', (char const )' ',
        (char const )'E', (char const )'u', (char const )'g', (char const )'e',
        (char const )'n', (char const )'e', (char const )' ', (char const )'K',
        (char const )'o', (char const )'n', (char const )'e', (char const )'v',
        (char const )' ', (char const )'<', (char const )'e', (char const )'j',
        (char const )'k', (char const )'a', (char const )'@', (char const )'o',
        (char const )'p', (char const )'e', (char const )'n', (char const )'w',
        (char const )'r', (char const )'t', (char const )'.', (char const )'o',
        (char const )'r', (char const )'g', (char const )'>', (char const )'\000'};
static char const __mod_description154[40] __attribute__((__used__, __unused__,
__section__(".modinfo"), __aligned__(1))) =
  { (char const )'d', (char const )'e', (char const )'s', (char const )'c',
        (char const )'r', (char const )'i', (char const )'p', (char const )'t',
        (char const )'i', (char const )'o', (char const )'n', (char const )'=',
        (char const )'M', (char const )'T', (char const )'D', (char const )' ',
        (char const )'p', (char const )'a', (char const )'r', (char const )'t',
        (char const )'i', (char const )'t', (char const )'i', (char const )'o',
        (char const )'n', (char const )'i', (char const )'n', (char const )'g',
        (char const )' ', (char const )'f', (char const )'o', (char const )'r',
        (char const )' ', (char const )'T', (char const )'I', (char const )' ',
        (char const )'A', (char const )'R', (char const )'7', (char const )'\000'};
void ldv_check_final_state(void) ;
extern void ldv_initialize(void) ;
extern int __VERIFIER_nondet_int(void) ;
int LDV_IN_INTERRUPT ;
void main(void)
{ struct mtd_info *var_group1 ;
  struct mtd_partition **var_group2 ;
  struct mtd_part_parser_data *var_create_mtd_partitions_0_p2 ;
  int tmp ;
  int tmp___0 ;
  int tmp___1 ;
  {
  {
  LDV_IN_INTERRUPT = 1;
  ldv_initialize();
  tmp = ar7_parser_init();
  }
  if (tmp) {
    goto ldv_module_exit;
  } else {
  }
  {
  while (1) {
    while_continue: ;
    {
    tmp___1 = __VERIFIER_nondet_int();
    }
    if (tmp___1) {
    } else {
      goto while_break;
    }
    {
    tmp___0 = __VERIFIER_nondet_int();
    }
    if (tmp___0 == 0) {
      goto case_0;
    } else {
      {
      goto switch_default;
      if (0) {
        case_0:
        {
        create_mtd_partitions(var_group1, var_group2, var_create_mtd_partitions_0_p2);
        }
        goto switch_break;
        switch_default:
        goto switch_break;
      } else {
        switch_break: ;
      }
      }
    }
  }
  while_break: ;
  }
  ldv_module_exit:
  {
  ldv_check_final_state();
  }
  return;
}
}
void ldv_blast_assert(void)
{
  {
  ERROR: {reach_error();abort();}
}
}
extern int __VERIFIER_nondet_int(void) ;
int ldv_mutex = 1;
int __attribute__((__warn_unused_result__)) mutex_lock_interruptible(struct mutex *lock )
{ int nondetermined ;
  {
  if (ldv_mutex == 1) {
  } else {
    {
    ldv_blast_assert();
    }
  }
  {
  nondetermined = __VERIFIER_nondet_int();
  }
  if (nondetermined) {
    ldv_mutex = 2;
    return (0);
  } else {
    return (-4);
  }
}
}
int __attribute__((__warn_unused_result__)) mutex_lock_killable(struct mutex *lock )
{ int nondetermined ;
  {
  if (ldv_mutex == 1) {
  } else {
    {
    ldv_blast_assert();
    }
  }
  {
  nondetermined = __VERIFIER_nondet_int();
  }
  if (nondetermined) {
    ldv_mutex = 2;
    return (0);
  } else {
    return (-4);
  }
}
}
int atomic_dec_and_mutex_lock(atomic_t *cnt , struct mutex *lock )
{ int atomic_value_after_dec ;
  {
  if (ldv_mutex == 1) {
  } else {
    {
    ldv_blast_assert();
    }
  }
  {
  atomic_value_after_dec = __VERIFIER_nondet_int();
  }
  if (atomic_value_after_dec == 0) {
    ldv_mutex = 2;
    return (1);
  } else {
  }
  return (0);
}
}
void mutex_lock(struct mutex *lock )
{
  {
  if (ldv_mutex == 1) {
  } else {
    {
    ldv_blast_assert();
    }
  }
  ldv_mutex = 2;
  return;
}
}
int mutex_trylock(struct mutex *lock )
{ int nondetermined ;
  {
  if (ldv_mutex == 1) {
  } else {
    {
    ldv_blast_assert();
    }
  }
  {
  nondetermined = __VERIFIER_nondet_int();
  }
  if (nondetermined) {
    ldv_mutex = 2;
    return (1);
  } else {
    return (0);
  }
}
}
void mutex_unlock(struct mutex *lock )
{
  {
  if (ldv_mutex == 2) {
  } else {
    {
    ldv_blast_assert();
    }
  }
  ldv_mutex = 1;
  return;
}
}
void ldv_check_final_state(void)
{
  {
  if (ldv_mutex == 1) {
  } else {
    {
    ldv_blast_assert();
    }
  }
  return;
}
}
long ldv__builtin_expect(long val , long res )
{
  {
  return (val);
}
}
void ldv_initialize() {
  return;
}
int __VERIFIER_nondet_int(void);
int mtd_read(struct mtd_info *arg0, loff_t arg1, size_t arg2, size_t *arg3, u_char *arg4) {
  return __VERIFIER_nondet_int();
}
int __VERIFIER_nondet_int(void);
int printk(const char *arg0, ...) {
  return __VERIFIER_nondet_int();
}
int __VERIFIER_nondet_int(void);
int register_mtd_parser(struct mtd_part_parser *arg0) {
  return __VERIFIER_nondet_int();
}
void free(void *);
void kfree(void const *p) {
  free((void *)p);
}
