extern void abort(void);

extern void __assert_fail (const char *__assertion, const char *__file,
      unsigned int __line, const char *__function)
     __attribute__ ((__nothrow__ , __leaf__)) __attribute__ ((__noreturn__));
extern void __assert_perror_fail (int __errnum, const char *__file,
      unsigned int __line, const char *__function)
     __attribute__ ((__nothrow__ , __leaf__)) __attribute__ ((__noreturn__));
extern void __assert (const char *__assertion, const char *__file, int __line)
     __attribute__ ((__nothrow__ , __leaf__)) __attribute__ ((__noreturn__));

void reach_error() { ((void) sizeof ((0) ? 1 : 0), __extension__ ({ if (0) ; else __assert_fail ("0", "43_1a_cilled_ok_nondet_linux-43_1a-drivers--staging--comedi--drivers--comedi_bond.ko-ldv_main0_sequence_infinite_withcheck_stateful.cil.out.c", 3, __extension__ __PRETTY_FUNCTION__); })); }
typedef unsigned short __u16;
typedef unsigned int __u32;
typedef unsigned long long __u64;
typedef unsigned char u8;
typedef short s16;
typedef unsigned short u16;
typedef unsigned int u32;
typedef long long s64;
typedef unsigned long long u64;
typedef long __kernel_long_t;
typedef unsigned long __kernel_ulong_t;
typedef __kernel_ulong_t __kernel_size_t;
typedef __kernel_long_t __kernel_ssize_t;
typedef long long __kernel_loff_t;
typedef __u32 __kernel_dev_t;
typedef __kernel_dev_t dev_t;
typedef unsigned short umode_t;
typedef _Bool bool;
typedef __kernel_loff_t loff_t;
typedef __kernel_size_t size_t;
typedef __kernel_ssize_t ssize_t;
typedef u64 dma_addr_t;
typedef unsigned int gfp_t;
struct __anonstruct_atomic_t_6 {
   int counter ;
};
typedef struct __anonstruct_atomic_t_6 atomic_t;
struct __anonstruct_atomic64_t_7 {
   long counter ;
};
typedef struct __anonstruct_atomic64_t_7 atomic64_t;
struct list_head {
   struct list_head *next ;
   struct list_head *prev ;
};
struct hlist_node;
struct hlist_head {
   struct hlist_node *first ;
};
struct hlist_node {
   struct hlist_node *next ;
   struct hlist_node **pprev ;
};
struct module;
struct module;
typedef void (*ctor_fn_t)(void);
struct device;
struct device;
struct completion;
struct completion;
struct page;
struct page;
struct task_struct;
struct task_struct;
struct mm_struct;
struct mm_struct;
typedef unsigned long pgdval_t;
typedef unsigned long pgprotval_t;
struct pgprot {
   pgprotval_t pgprot ;
};
typedef struct pgprot pgprot_t;
struct __anonstruct_pgd_t_16 {
   pgdval_t pgd ;
};
typedef struct __anonstruct_pgd_t_16 pgd_t;
typedef struct page *pgtable_t;
struct file;
struct file;
struct cpumask;
struct cpumask;
struct arch_spinlock;
struct arch_spinlock;
struct bug_entry {
   int bug_addr_disp ;
   int file_disp ;
   unsigned short line ;
   unsigned short flags ;
};
struct cpumask {
   unsigned long bits[64U] ;
};
typedef struct cpumask *cpumask_var_t;
struct static_key;
struct static_key;
struct kmem_cache;
typedef atomic64_t atomic_long_t;
typedef u16 __ticket_t;
typedef u32 __ticketpair_t;
struct __raw_tickets {
   __ticket_t head ;
   __ticket_t tail ;
};
union __anonunion_ldv_5907_29 {
   __ticketpair_t head_tail ;
   struct __raw_tickets tickets ;
};
struct arch_spinlock {
   union __anonunion_ldv_5907_29 ldv_5907 ;
};
typedef struct arch_spinlock arch_spinlock_t;
struct lockdep_map;
struct lockdep_map;
struct stack_trace {
   unsigned int nr_entries ;
   unsigned int max_entries ;
   unsigned long *entries ;
   int skip ;
};
struct lockdep_subclass_key {
   char __one_byte ;
};
struct lock_class_key {
   struct lockdep_subclass_key subkeys[8U] ;
};
struct lock_class {
   struct list_head hash_entry ;
   struct list_head lock_entry ;
   struct lockdep_subclass_key *key ;
   unsigned int subclass ;
   unsigned int dep_gen_id ;
   unsigned long usage_mask ;
   struct stack_trace usage_traces[13U] ;
   struct list_head locks_after ;
   struct list_head locks_before ;
   unsigned int version ;
   unsigned long ops ;
   char const *name ;
   int name_version ;
   unsigned long contention_point[4U] ;
   unsigned long contending_point[4U] ;
};
struct lockdep_map {
   struct lock_class_key *key ;
   struct lock_class *class_cache[2U] ;
   char const *name ;
   int cpu ;
   unsigned long ip ;
};
struct raw_spinlock {
   arch_spinlock_t raw_lock ;
   unsigned int magic ;
   unsigned int owner_cpu ;
   void *owner ;
   struct lockdep_map dep_map ;
};
typedef struct raw_spinlock raw_spinlock_t;
struct __anonstruct_ldv_6122_33 {
   u8 __padding[24U] ;
   struct lockdep_map dep_map ;
};
union __anonunion_ldv_6123_32 {
   struct raw_spinlock rlock ;
   struct __anonstruct_ldv_6122_33 ldv_6122 ;
};
struct spinlock {
   union __anonunion_ldv_6123_32 ldv_6123 ;
};
typedef struct spinlock spinlock_t;
struct __wait_queue_head {
   spinlock_t lock ;
   struct list_head task_list ;
};
typedef struct __wait_queue_head wait_queue_head_t;
struct __anonstruct_nodemask_t_36 {
   unsigned long bits[16U] ;
};
typedef struct __anonstruct_nodemask_t_36 nodemask_t;
struct mutex {
   atomic_t count ;
   spinlock_t wait_lock ;
   struct list_head wait_list ;
   struct task_struct *owner ;
   char const *name ;
   void *magic ;
   struct lockdep_map dep_map ;
};
struct rw_semaphore;
struct rw_semaphore;
struct rw_semaphore {
   long count ;
   raw_spinlock_t wait_lock ;
   struct list_head wait_list ;
   struct lockdep_map dep_map ;
};
struct completion {
   unsigned int done ;
   wait_queue_head_t wait ;
};
union ktime {
   s64 tv64 ;
};
typedef union ktime ktime_t;
struct tvec_base;
struct tvec_base;
struct timer_list {
   struct list_head entry ;
   unsigned long expires ;
   struct tvec_base *base ;
   void (*function)(unsigned long ) ;
   unsigned long data ;
   int slack ;
   int start_pid ;
   void *start_site ;
   char start_comm[16U] ;
   struct lockdep_map lockdep_map ;
};
struct work_struct;
struct work_struct;
struct work_struct {
   atomic_long_t data ;
   struct list_head entry ;
   void (*func)(struct work_struct * ) ;
   struct lockdep_map lockdep_map ;
};
struct pm_message {
   int event ;
};
typedef struct pm_message pm_message_t;
struct dev_pm_ops {
   int (*prepare)(struct device * ) ;
   void (*complete)(struct device * ) ;
   int (*suspend)(struct device * ) ;
   int (*resume)(struct device * ) ;
   int (*freeze)(struct device * ) ;
   int (*thaw)(struct device * ) ;
   int (*poweroff)(struct device * ) ;
   int (*restore)(struct device * ) ;
   int (*suspend_late)(struct device * ) ;
   int (*resume_early)(struct device * ) ;
   int (*freeze_late)(struct device * ) ;
   int (*thaw_early)(struct device * ) ;
   int (*poweroff_late)(struct device * ) ;
   int (*restore_early)(struct device * ) ;
   int (*suspend_noirq)(struct device * ) ;
   int (*resume_noirq)(struct device * ) ;
   int (*freeze_noirq)(struct device * ) ;
   int (*thaw_noirq)(struct device * ) ;
   int (*poweroff_noirq)(struct device * ) ;
   int (*restore_noirq)(struct device * ) ;
   int (*runtime_suspend)(struct device * ) ;
   int (*runtime_resume)(struct device * ) ;
   int (*runtime_idle)(struct device * ) ;
};
enum rpm_status {
    RPM_ACTIVE = 0,
    RPM_RESUMING = 1,
    RPM_SUSPENDED = 2,
    RPM_SUSPENDING = 3
} ;
enum rpm_request {
    RPM_REQ_NONE = 0,
    RPM_REQ_IDLE = 1,
    RPM_REQ_SUSPEND = 2,
    RPM_REQ_AUTOSUSPEND = 3,
    RPM_REQ_RESUME = 4
} ;
struct wakeup_source;
struct wakeup_source;
struct pm_subsys_data {
   spinlock_t lock ;
   unsigned int refcount ;
};
struct dev_pm_qos_request;
struct pm_qos_constraints;
struct dev_pm_info {
   pm_message_t power_state ;
   unsigned char can_wakeup : 1 ;
   unsigned char async_suspend : 1 ;
   bool is_prepared ;
   bool is_suspended ;
   bool ignore_children ;
   spinlock_t lock ;
   struct list_head entry ;
   struct completion completion ;
   struct wakeup_source *wakeup ;
   bool wakeup_path ;
   struct timer_list suspend_timer ;
   unsigned long timer_expires ;
   struct work_struct work ;
   wait_queue_head_t wait_queue ;
   atomic_t usage_count ;
   atomic_t child_count ;
   unsigned char disable_depth : 3 ;
   unsigned char idle_notification : 1 ;
   unsigned char request_pending : 1 ;
   unsigned char deferred_resume : 1 ;
   unsigned char run_wake : 1 ;
   unsigned char runtime_auto : 1 ;
   unsigned char no_callbacks : 1 ;
   unsigned char irq_safe : 1 ;
   unsigned char use_autosuspend : 1 ;
   unsigned char timer_autosuspends : 1 ;
   enum rpm_request request ;
   enum rpm_status runtime_status ;
   int runtime_error ;
   int autosuspend_delay ;
   unsigned long last_busy ;
   unsigned long active_jiffies ;
   unsigned long suspended_jiffies ;
   unsigned long accounting_timestamp ;
   ktime_t suspend_time ;
   s64 max_time_suspended_ns ;
   struct dev_pm_qos_request *pq_req ;
   struct pm_subsys_data *subsys_data ;
   struct pm_qos_constraints *constraints ;
};
struct dev_pm_domain {
   struct dev_pm_ops ops ;
};
struct __anonstruct_mm_context_t_101 {
   void *ldt ;
   int size ;
   unsigned short ia32_compat ;
   struct mutex lock ;
   void *vdso ;
};
typedef struct __anonstruct_mm_context_t_101 mm_context_t;
struct vm_area_struct;
struct vm_area_struct;
struct rb_node {
   unsigned long rb_parent_color ;
   struct rb_node *rb_right ;
   struct rb_node *rb_left ;
};
struct rb_root {
   struct rb_node *rb_node ;
};
typedef __u64 Elf64_Addr;
typedef __u16 Elf64_Half;
typedef __u32 Elf64_Word;
typedef __u64 Elf64_Xword;
struct elf64_sym {
   Elf64_Word st_name ;
   unsigned char st_info ;
   unsigned char st_other ;
   Elf64_Half st_shndx ;
   Elf64_Addr st_value ;
   Elf64_Xword st_size ;
};
typedef struct elf64_sym Elf64_Sym;
struct sock;
struct sock;
struct kobject;
struct kobject;
enum kobj_ns_type {
    KOBJ_NS_TYPE_NONE = 0,
    KOBJ_NS_TYPE_NET = 1,
    KOBJ_NS_TYPES = 2
} ;
struct kobj_ns_type_operations {
   enum kobj_ns_type type ;
   void *(*grab_current_ns)(void) ;
   void const *(*netlink_ns)(struct sock * ) ;
   void const *(*initial_ns)(void) ;
   void (*drop_ns)(void * ) ;
};
struct attribute {
   char const *name ;
   umode_t mode ;
   struct lock_class_key *key ;
   struct lock_class_key skey ;
};
struct attribute_group {
   char const *name ;
   umode_t (*is_visible)(struct kobject * , struct attribute * , int ) ;
   struct attribute **attrs ;
};
struct bin_attribute {
   struct attribute attr ;
   size_t size ;
   void *private ;
   ssize_t (*read)(struct file * , struct kobject * , struct bin_attribute * , char * ,
                   loff_t , size_t ) ;
   ssize_t (*write)(struct file * , struct kobject * , struct bin_attribute * , char * ,
                    loff_t , size_t ) ;
   int (*mmap)(struct file * , struct kobject * , struct bin_attribute * , struct vm_area_struct * ) ;
};
struct sysfs_ops {
   ssize_t (*show)(struct kobject * , struct attribute * , char * ) ;
   ssize_t (*store)(struct kobject * , struct attribute * , char const * , size_t ) ;
   void const *(*namespace)(struct kobject * , struct attribute const * ) ;
};
struct sysfs_dirent;
struct sysfs_dirent;
struct kref {
   atomic_t refcount ;
};
struct kset;
struct kobj_type;
struct kobject {
   char const *name ;
   struct list_head entry ;
   struct kobject *parent ;
   struct kset *kset ;
   struct kobj_type *ktype ;
   struct sysfs_dirent *sd ;
   struct kref kref ;
   unsigned char state_initialized : 1 ;
   unsigned char state_in_sysfs : 1 ;
   unsigned char state_add_uevent_sent : 1 ;
   unsigned char state_remove_uevent_sent : 1 ;
   unsigned char uevent_suppress : 1 ;
};
struct kobj_type {
   void (*release)(struct kobject * ) ;
   struct sysfs_ops const *sysfs_ops ;
   struct attribute **default_attrs ;
   struct kobj_ns_type_operations const *(*child_ns_type)(struct kobject * ) ;
   void const *(*namespace)(struct kobject * ) ;
};
struct kobj_uevent_env {
   char *envp[32U] ;
   int envp_idx ;
   char buf[2048U] ;
   int buflen ;
};
struct kset_uevent_ops {
   int (* const filter)(struct kset * , struct kobject * ) ;
   char const *(* const name)(struct kset * , struct kobject * ) ;
   int (* const uevent)(struct kset * , struct kobject * , struct kobj_uevent_env * ) ;
};
struct kset {
   struct list_head list ;
   spinlock_t list_lock ;
   struct kobject kobj ;
   struct kset_uevent_ops const *uevent_ops ;
};
struct kernel_param;
struct kernel_param;
struct kernel_param_ops {
   int (*set)(char const * , struct kernel_param const * ) ;
   int (*get)(char * , struct kernel_param const * ) ;
   void (*free)(void * ) ;
};
struct kparam_string;
struct kparam_array;
union __anonunion_ldv_13363_134 {
   void *arg ;
   struct kparam_string const *str ;
   struct kparam_array const *arr ;
};
struct kernel_param {
   char const *name ;
   struct kernel_param_ops const *ops ;
   u16 perm ;
   s16 level ;
   union __anonunion_ldv_13363_134 ldv_13363 ;
};
struct kparam_string {
   unsigned int maxlen ;
   char *string ;
};
struct kparam_array {
   unsigned int max ;
   unsigned int elemsize ;
   unsigned int *num ;
   struct kernel_param_ops const *ops ;
   void *elem ;
};
struct static_key {
   atomic_t enabled ;
};
struct tracepoint;
struct tracepoint;
struct tracepoint_func {
   void *func ;
   void *data ;
};
struct tracepoint {
   char const *name ;
   struct static_key key ;
   void (*regfunc)(void) ;
   void (*unregfunc)(void) ;
   struct tracepoint_func *funcs ;
};
struct kernel_symbol {
   unsigned long value ;
   char const *name ;
};
struct mod_arch_specific {
};
struct module_param_attrs;
struct module_kobject {
   struct kobject kobj ;
   struct module *mod ;
   struct kobject *drivers_dir ;
   struct module_param_attrs *mp ;
};
struct module_attribute {
   struct attribute attr ;
   ssize_t (*show)(struct module_attribute * , struct module_kobject * , char * ) ;
   ssize_t (*store)(struct module_attribute * , struct module_kobject * , char const * ,
                    size_t ) ;
   void (*setup)(struct module * , char const * ) ;
   int (*test)(struct module * ) ;
   void (*free)(struct module * ) ;
};
struct exception_table_entry;
struct exception_table_entry;
enum module_state {
    MODULE_STATE_LIVE = 0,
    MODULE_STATE_COMING = 1,
    MODULE_STATE_GOING = 2
} ;
struct module_ref {
   unsigned long incs ;
   unsigned long decs ;
};
struct module_sect_attrs;
struct module_notes_attrs;
struct ftrace_event_call;
struct module {
   enum module_state state ;
   struct list_head list ;
   char name[56U] ;
   struct module_kobject mkobj ;
   struct module_attribute *modinfo_attrs ;
   char const *version ;
   char const *srcversion ;
   struct kobject *holders_dir ;
   struct kernel_symbol const *syms ;
   unsigned long const *crcs ;
   unsigned int num_syms ;
   struct kernel_param *kp ;
   unsigned int num_kp ;
   unsigned int num_gpl_syms ;
   struct kernel_symbol const *gpl_syms ;
   unsigned long const *gpl_crcs ;
   struct kernel_symbol const *unused_syms ;
   unsigned long const *unused_crcs ;
   unsigned int num_unused_syms ;
   unsigned int num_unused_gpl_syms ;
   struct kernel_symbol const *unused_gpl_syms ;
   unsigned long const *unused_gpl_crcs ;
   struct kernel_symbol const *gpl_future_syms ;
   unsigned long const *gpl_future_crcs ;
   unsigned int num_gpl_future_syms ;
   unsigned int num_exentries ;
   struct exception_table_entry *extable ;
   int (*init)(void) ;
   void *module_init ;
   void *module_core ;
   unsigned int init_size ;
   unsigned int core_size ;
   unsigned int init_text_size ;
   unsigned int core_text_size ;
   unsigned int init_ro_size ;
   unsigned int core_ro_size ;
   struct mod_arch_specific arch ;
   unsigned int taints ;
   unsigned int num_bugs ;
   struct list_head bug_list ;
   struct bug_entry *bug_table ;
   Elf64_Sym *symtab ;
   Elf64_Sym *core_symtab ;
   unsigned int num_symtab ;
   unsigned int core_num_syms ;
   char *strtab ;
   char *core_strtab ;
   struct module_sect_attrs *sect_attrs ;
   struct module_notes_attrs *notes_attrs ;
   char *args ;
   void *percpu ;
   unsigned int percpu_size ;
   unsigned int num_tracepoints ;
   struct tracepoint * const *tracepoints_ptrs ;
   unsigned int num_trace_bprintk_fmt ;
   char const **trace_bprintk_fmt_start ;
   struct ftrace_event_call **trace_events ;
   unsigned int num_trace_events ;
   struct list_head source_list ;
   struct list_head target_list ;
   struct task_struct *waiter ;
   void (*exit)(void) ;
   struct module_ref *refptr ;
   ctor_fn_t (**ctors)(void) ;
   unsigned int num_ctors ;
};
struct kmem_cache_cpu {
   void **freelist ;
   unsigned long tid ;
   struct page *page ;
   struct page *partial ;
   int node ;
   unsigned int stat[26U] ;
};
struct kmem_cache_node {
   spinlock_t list_lock ;
   unsigned long nr_partial ;
   struct list_head partial ;
   atomic_long_t nr_slabs ;
   atomic_long_t total_objects ;
   struct list_head full ;
};
struct kmem_cache_order_objects {
   unsigned long x ;
};
struct kmem_cache {
   struct kmem_cache_cpu *cpu_slab ;
   unsigned long flags ;
   unsigned long min_partial ;
   int size ;
   int objsize ;
   int offset ;
   int cpu_partial ;
   struct kmem_cache_order_objects oo ;
   struct kmem_cache_order_objects max ;
   struct kmem_cache_order_objects min ;
   gfp_t allocflags ;
   int refcount ;
   void (*ctor)(void * ) ;
   int inuse ;
   int align ;
   int reserved ;
   char const *name ;
   struct list_head list ;
   struct kobject kobj ;
   int remote_node_defrag_ratio ;
   struct kmem_cache_node *node[1024U] ;
};
struct comedi_insn {
   unsigned int insn ;
   unsigned int n ;
   unsigned int *data ;
   unsigned int subdev ;
   unsigned int chanspec ;
   unsigned int unused[3U] ;
};
struct comedi_cmd {
   unsigned int subdev ;
   unsigned int flags ;
   unsigned int start_src ;
   unsigned int start_arg ;
   unsigned int scan_begin_src ;
   unsigned int scan_begin_arg ;
   unsigned int convert_src ;
   unsigned int convert_arg ;
   unsigned int scan_end_src ;
   unsigned int scan_end_arg ;
   unsigned int stop_src ;
   unsigned int stop_arg ;
   unsigned int *chanlist ;
   unsigned int chanlist_len ;
   short *data ;
   unsigned int data_len ;
};
struct comedi_krange {
   int min ;
   int max ;
   unsigned int flags ;
};
struct comedi_devconfig {
   char board_name[20U] ;
   int options[32U] ;
};
struct comedi_device;
struct prio_tree_node;
struct raw_prio_tree_node {
   struct prio_tree_node *left ;
   struct prio_tree_node *right ;
   struct prio_tree_node *parent ;
};
struct prio_tree_node {
   struct prio_tree_node *left ;
   struct prio_tree_node *right ;
   struct prio_tree_node *parent ;
   unsigned long start ;
   unsigned long last ;
};
struct address_space;
struct address_space;
union __anonunion_ldv_14709_136 {
   unsigned long index ;
   void *freelist ;
};
struct __anonstruct_ldv_14719_140 {
   unsigned short inuse ;
   unsigned short objects : 15 ;
   unsigned char frozen : 1 ;
};
union __anonunion_ldv_14720_139 {
   atomic_t _mapcount ;
   struct __anonstruct_ldv_14719_140 ldv_14719 ;
};
struct __anonstruct_ldv_14722_138 {
   union __anonunion_ldv_14720_139 ldv_14720 ;
   atomic_t _count ;
};
union __anonunion_ldv_14723_137 {
   unsigned long counters ;
   struct __anonstruct_ldv_14722_138 ldv_14722 ;
};
struct __anonstruct_ldv_14724_135 {
   union __anonunion_ldv_14709_136 ldv_14709 ;
   union __anonunion_ldv_14723_137 ldv_14723 ;
};
struct __anonstruct_ldv_14731_142 {
   struct page *next ;
   int pages ;
   int pobjects ;
};
union __anonunion_ldv_14732_141 {
   struct list_head lru ;
   struct __anonstruct_ldv_14731_142 ldv_14731 ;
};
union __anonunion_ldv_14737_143 {
   unsigned long private ;
   struct kmem_cache *slab ;
   struct page *first_page ;
};
struct page {
   unsigned long flags ;
   struct address_space *mapping ;
   struct __anonstruct_ldv_14724_135 ldv_14724 ;
   union __anonunion_ldv_14732_141 ldv_14732 ;
   union __anonunion_ldv_14737_143 ldv_14737 ;
   unsigned long debug_flags ;
};
struct __anonstruct_vm_set_145 {
   struct list_head list ;
   void *parent ;
   struct vm_area_struct *head ;
};
union __anonunion_shared_144 {
   struct __anonstruct_vm_set_145 vm_set ;
   struct raw_prio_tree_node prio_tree_node ;
};
struct anon_vma;
struct vm_operations_struct;
struct mempolicy;
struct vm_area_struct {
   struct mm_struct *vm_mm ;
   unsigned long vm_start ;
   unsigned long vm_end ;
   struct vm_area_struct *vm_next ;
   struct vm_area_struct *vm_prev ;
   pgprot_t vm_page_prot ;
   unsigned long vm_flags ;
   struct rb_node vm_rb ;
   union __anonunion_shared_144 shared ;
   struct list_head anon_vma_chain ;
   struct anon_vma *anon_vma ;
   struct vm_operations_struct const *vm_ops ;
   unsigned long vm_pgoff ;
   struct file *vm_file ;
   void *vm_private_data ;
   struct mempolicy *vm_policy ;
};
struct core_thread {
   struct task_struct *task ;
   struct core_thread *next ;
};
struct core_state {
   atomic_t nr_threads ;
   struct core_thread dumper ;
   struct completion startup ;
};
struct mm_rss_stat {
   atomic_long_t count[3U] ;
};
struct linux_binfmt;
struct mmu_notifier_mm;
struct mm_struct {
   struct vm_area_struct *mmap ;
   struct rb_root mm_rb ;
   struct vm_area_struct *mmap_cache ;
   unsigned long (*get_unmapped_area)(struct file * , unsigned long , unsigned long ,
                                      unsigned long , unsigned long ) ;
   void (*unmap_area)(struct mm_struct * , unsigned long ) ;
   unsigned long mmap_base ;
   unsigned long task_size ;
   unsigned long cached_hole_size ;
   unsigned long free_area_cache ;
   pgd_t *pgd ;
   atomic_t mm_users ;
   atomic_t mm_count ;
   int map_count ;
   spinlock_t page_table_lock ;
   struct rw_semaphore mmap_sem ;
   struct list_head mmlist ;
   unsigned long hiwater_rss ;
   unsigned long hiwater_vm ;
   unsigned long total_vm ;
   unsigned long locked_vm ;
   unsigned long pinned_vm ;
   unsigned long shared_vm ;
   unsigned long exec_vm ;
   unsigned long stack_vm ;
   unsigned long reserved_vm ;
   unsigned long def_flags ;
   unsigned long nr_ptes ;
   unsigned long start_code ;
   unsigned long end_code ;
   unsigned long start_data ;
   unsigned long end_data ;
   unsigned long start_brk ;
   unsigned long brk ;
   unsigned long start_stack ;
   unsigned long arg_start ;
   unsigned long arg_end ;
   unsigned long env_start ;
   unsigned long env_end ;
   unsigned long saved_auxv[44U] ;
   struct mm_rss_stat rss_stat ;
   struct linux_binfmt *binfmt ;
   cpumask_var_t cpu_vm_mask_var ;
   mm_context_t context ;
   unsigned int faultstamp ;
   unsigned int token_priority ;
   unsigned int last_interval ;
   unsigned long flags ;
   struct core_state *core_state ;
   spinlock_t ioctx_lock ;
   struct hlist_head ioctx_list ;
   struct task_struct *owner ;
   struct file *exe_file ;
   unsigned long num_exe_file_vmas ;
   struct mmu_notifier_mm *mmu_notifier_mm ;
   pgtable_t pmd_huge_pte ;
   struct cpumask cpumask_allocation ;
};
struct vm_fault {
   unsigned int flags ;
   unsigned long pgoff ;
   void *virtual_address ;
   struct page *page ;
};
struct vm_operations_struct {
   void (*open)(struct vm_area_struct * ) ;
   void (*close)(struct vm_area_struct * ) ;
   int (*fault)(struct vm_area_struct * , struct vm_fault * ) ;
   int (*page_mkwrite)(struct vm_area_struct * , struct vm_fault * ) ;
   int (*access)(struct vm_area_struct * , unsigned long , void * , int , int ) ;
   int (*set_policy)(struct vm_area_struct * , struct mempolicy * ) ;
   struct mempolicy *(*get_policy)(struct vm_area_struct * , unsigned long ) ;
   int (*migrate)(struct vm_area_struct * , nodemask_t const * , nodemask_t const * ,
                  unsigned long ) ;
};
struct klist_node;
struct klist_node;
struct klist_node {
   void *n_klist ;
   struct list_head n_node ;
   struct kref n_ref ;
};
struct dma_map_ops;
struct dev_archdata {
   void *acpi_handle ;
   struct dma_map_ops *dma_ops ;
   void *iommu ;
};
struct device_private;
struct device_private;
struct device_driver;
struct device_driver;
struct driver_private;
struct driver_private;
struct class;
struct class;
struct subsys_private;
struct subsys_private;
struct bus_type;
struct bus_type;
struct device_node;
struct device_node;
struct iommu_ops;
struct iommu_ops;
struct bus_attribute {
   struct attribute attr ;
   ssize_t (*show)(struct bus_type * , char * ) ;
   ssize_t (*store)(struct bus_type * , char const * , size_t ) ;
};
struct device_attribute;
struct driver_attribute;
struct bus_type {
   char const *name ;
   char const *dev_name ;
   struct device *dev_root ;
   struct bus_attribute *bus_attrs ;
   struct device_attribute *dev_attrs ;
   struct driver_attribute *drv_attrs ;
   int (*match)(struct device * , struct device_driver * ) ;
   int (*uevent)(struct device * , struct kobj_uevent_env * ) ;
   int (*probe)(struct device * ) ;
   int (*remove)(struct device * ) ;
   void (*shutdown)(struct device * ) ;
   int (*suspend)(struct device * , pm_message_t ) ;
   int (*resume)(struct device * ) ;
   struct dev_pm_ops const *pm ;
   struct iommu_ops *iommu_ops ;
   struct subsys_private *p ;
};
struct device_type;
struct of_device_id;
struct device_driver {
   char const *name ;
   struct bus_type *bus ;
   struct module *owner ;
   char const *mod_name ;
   bool suppress_bind_attrs ;
   struct of_device_id const *of_match_table ;
   int (*probe)(struct device * ) ;
   int (*remove)(struct device * ) ;
   void (*shutdown)(struct device * ) ;
   int (*suspend)(struct device * , pm_message_t ) ;
   int (*resume)(struct device * ) ;
   struct attribute_group const **groups ;
   struct dev_pm_ops const *pm ;
   struct driver_private *p ;
};
struct driver_attribute {
   struct attribute attr ;
   ssize_t (*show)(struct device_driver * , char * ) ;
   ssize_t (*store)(struct device_driver * , char const * , size_t ) ;
};
struct class_attribute;
struct class {
   char const *name ;
   struct module *owner ;
   struct class_attribute *class_attrs ;
   struct device_attribute *dev_attrs ;
   struct bin_attribute *dev_bin_attrs ;
   struct kobject *dev_kobj ;
   int (*dev_uevent)(struct device * , struct kobj_uevent_env * ) ;
   char *(*devnode)(struct device * , umode_t * ) ;
   void (*class_release)(struct class * ) ;
   void (*dev_release)(struct device * ) ;
   int (*suspend)(struct device * , pm_message_t ) ;
   int (*resume)(struct device * ) ;
   struct kobj_ns_type_operations const *ns_type ;
   void const *(*namespace)(struct device * ) ;
   struct dev_pm_ops const *pm ;
   struct subsys_private *p ;
};
struct class_attribute {
   struct attribute attr ;
   ssize_t (*show)(struct class * , struct class_attribute * , char * ) ;
   ssize_t (*store)(struct class * , struct class_attribute * , char const * , size_t ) ;
   void const *(*namespace)(struct class * , struct class_attribute const * ) ;
};
struct device_type {
   char const *name ;
   struct attribute_group const **groups ;
   int (*uevent)(struct device * , struct kobj_uevent_env * ) ;
   char *(*devnode)(struct device * , umode_t * ) ;
   void (*release)(struct device * ) ;
   struct dev_pm_ops const *pm ;
};
struct device_attribute {
   struct attribute attr ;
   ssize_t (*show)(struct device * , struct device_attribute * , char * ) ;
   ssize_t (*store)(struct device * , struct device_attribute * , char const * ,
                    size_t ) ;
};
struct device_dma_parameters {
   unsigned int max_segment_size ;
   unsigned long segment_boundary_mask ;
};
struct dma_coherent_mem;
struct device {
   struct device *parent ;
   struct device_private *p ;
   struct kobject kobj ;
   char const *init_name ;
   struct device_type const *type ;
   struct mutex mutex ;
   struct bus_type *bus ;
   struct device_driver *driver ;
   void *platform_data ;
   struct dev_pm_info power ;
   struct dev_pm_domain *pm_domain ;
   int numa_node ;
   u64 *dma_mask ;
   u64 coherent_dma_mask ;
   struct device_dma_parameters *dma_parms ;
   struct list_head dma_pools ;
   struct dma_coherent_mem *dma_mem ;
   struct dev_archdata archdata ;
   struct device_node *of_node ;
   dev_t devt ;
   u32 id ;
   spinlock_t devres_lock ;
   struct list_head devres_head ;
   struct klist_node knode_class ;
   struct class *class ;
   struct attribute_group const **groups ;
   void (*release)(struct device * ) ;
};
struct wakeup_source {
   char const *name ;
   struct list_head entry ;
   spinlock_t lock ;
   struct timer_list timer ;
   unsigned long timer_expires ;
   ktime_t total_time ;
   ktime_t max_time ;
   ktime_t last_time ;
   unsigned long event_count ;
   unsigned long active_count ;
   unsigned long relax_count ;
   unsigned long hit_count ;
   unsigned char active : 1 ;
};
struct dma_attrs {
   unsigned long flags[1U] ;
};
enum dma_data_direction {
    DMA_BIDIRECTIONAL = 0,
    DMA_TO_DEVICE = 1,
    DMA_FROM_DEVICE = 2,
    DMA_NONE = 3
} ;
struct scatterlist {
   unsigned long sg_magic ;
   unsigned long page_link ;
   unsigned int offset ;
   unsigned int length ;
   dma_addr_t dma_address ;
   unsigned int dma_length ;
};
struct dma_map_ops {
   void *(*alloc)(struct device * , size_t , dma_addr_t * , gfp_t , struct dma_attrs * ) ;
   void (*free)(struct device * , size_t , void * , dma_addr_t , struct dma_attrs * ) ;
   int (*mmap)(struct device * , struct vm_area_struct * , void * , dma_addr_t ,
               size_t , struct dma_attrs * ) ;
   dma_addr_t (*map_page)(struct device * , struct page * , unsigned long , size_t ,
                          enum dma_data_direction , struct dma_attrs * ) ;
   void (*unmap_page)(struct device * , dma_addr_t , size_t , enum dma_data_direction ,
                      struct dma_attrs * ) ;
   int (*map_sg)(struct device * , struct scatterlist * , int , enum dma_data_direction ,
                 struct dma_attrs * ) ;
   void (*unmap_sg)(struct device * , struct scatterlist * , int , enum dma_data_direction ,
                    struct dma_attrs * ) ;
   void (*sync_single_for_cpu)(struct device * , dma_addr_t , size_t , enum dma_data_direction ) ;
   void (*sync_single_for_device)(struct device * , dma_addr_t , size_t , enum dma_data_direction ) ;
   void (*sync_sg_for_cpu)(struct device * , struct scatterlist * , int , enum dma_data_direction ) ;
   void (*sync_sg_for_device)(struct device * , struct scatterlist * , int , enum dma_data_direction ) ;
   int (*mapping_error)(struct device * , dma_addr_t ) ;
   int (*dma_supported)(struct device * , u64 ) ;
   int (*set_dma_mask)(struct device * , u64 ) ;
   int is_phys ;
};
struct exception_table_entry {
   unsigned long insn ;
   unsigned long fixup ;
};
struct comedi_async;
struct comedi_lrange;
struct comedi_subdevice {
   struct comedi_device *device ;
   int type ;
   int n_chan ;
   int subdev_flags ;
   int len_chanlist ;
   void *private ;
   struct comedi_async *async ;
   void *lock ;
   void *busy ;
   unsigned int runflags ;
   spinlock_t spin_lock ;
   int io_bits ;
   unsigned int maxdata ;
   unsigned int const *maxdata_list ;
   unsigned int flags ;
   unsigned int const *flaglist ;
   unsigned int settling_time_0 ;
   struct comedi_lrange const *range_table ;
   struct comedi_lrange const * const *range_table_list ;
   unsigned int *chanlist ;
   int (*insn_read)(struct comedi_device * , struct comedi_subdevice * , struct comedi_insn * ,
                    unsigned int * ) ;
   int (*insn_write)(struct comedi_device * , struct comedi_subdevice * , struct comedi_insn * ,
                     unsigned int * ) ;
   int (*insn_bits)(struct comedi_device * , struct comedi_subdevice * , struct comedi_insn * ,
                    unsigned int * ) ;
   int (*insn_config)(struct comedi_device * , struct comedi_subdevice * , struct comedi_insn * ,
                      unsigned int * ) ;
   int (*do_cmd)(struct comedi_device * , struct comedi_subdevice * ) ;
   int (*do_cmdtest)(struct comedi_device * , struct comedi_subdevice * , struct comedi_cmd * ) ;
   int (*poll)(struct comedi_device * , struct comedi_subdevice * ) ;
   int (*cancel)(struct comedi_device * , struct comedi_subdevice * ) ;
   int (*buf_change)(struct comedi_device * , struct comedi_subdevice * , unsigned long ) ;
   void (*munge)(struct comedi_device * , struct comedi_subdevice * , void * , unsigned int ,
                 unsigned int ) ;
   enum dma_data_direction async_dma_dir ;
   unsigned int state ;
   struct device *class_dev ;
   int minor ;
};
struct comedi_buf_page {
   void *virt_addr ;
   dma_addr_t dma_addr ;
};
struct comedi_async {
   struct comedi_subdevice *subdevice ;
   void *prealloc_buf ;
   unsigned int prealloc_bufsz ;
   struct comedi_buf_page *buf_page_list ;
   unsigned int n_buf_pages ;
   unsigned int max_bufsize ;
   unsigned int mmap_count ;
   unsigned int buf_write_count ;
   unsigned int buf_write_alloc_count ;
   unsigned int buf_read_count ;
   unsigned int buf_read_alloc_count ;
   unsigned int buf_write_ptr ;
   unsigned int buf_read_ptr ;
   unsigned int cur_chan ;
   unsigned int scan_progress ;
   unsigned int munge_chan ;
   unsigned int munge_count ;
   unsigned int munge_ptr ;
   unsigned int events ;
   struct comedi_cmd cmd ;
   wait_queue_head_t wait_head ;
   unsigned int cb_mask ;
   int (*cb_func)(unsigned int , void * ) ;
   void *cb_arg ;
   int (*inttrig)(struct comedi_device * , struct comedi_subdevice * , unsigned int ) ;
};
struct comedi_driver {
   struct comedi_driver *next ;
   char const *driver_name ;
   struct module *module ;
   int (*attach)(struct comedi_device * , struct comedi_devconfig * ) ;
   int (*detach)(struct comedi_device * ) ;
   unsigned int num_names ;
   char const * const *board_name ;
   int offset ;
};
struct fasync_struct;
struct comedi_device {
   int use_count ;
   struct comedi_driver *driver ;
   void *private ;
   struct device *class_dev ;
   int minor ;
   struct device *hw_dev ;
   char const *board_name ;
   void const *board_ptr ;
   int attached ;
   spinlock_t spinlock ;
   struct mutex mutex ;
   int in_request_module ;
   int n_subdevices ;
   struct comedi_subdevice *subdevices ;
   unsigned long iobase ;
   unsigned int irq ;
   struct comedi_subdevice *read_subdev ;
   struct comedi_subdevice *write_subdev ;
   struct fasync_struct *async_queue ;
   int (*open)(struct comedi_device * ) ;
   void (*close)(struct comedi_device * ) ;
};
struct comedi_lrange {
   int length ;
   struct comedi_krange range[0U] ;
};
struct BondingBoard {
   char const *name ;
};
struct BondedDevice {
   struct comedi_device *dev ;
   unsigned int minor ;
   unsigned int subdev ;
   unsigned int subdev_type ;
   unsigned int nchans ;
   unsigned int chanid_offset ;
};
struct Private {
   char name[256U] ;
   struct BondedDevice **devs ;
   unsigned int ndevs ;
   struct BondedDevice *chanIdDevMap[256U] ;
   unsigned int nchans ;
};
void ldv_spin_lock(void) ;
void ldv_spin_unlock(void) ;
int ldv_spin_trylock(void) ;
extern int printk(char const * , ...) ;
extern int snprintf(char * , size_t , char const * , ...) ;
extern void *memset(void * , int , size_t ) ;
extern size_t strlen(char const * ) ;
extern char *strncat(char * , char const * , __kernel_size_t ) ;
extern void __raw_spin_lock_init(raw_spinlock_t * , char const * , struct lock_class_key * ) ;
 static raw_spinlock_t *spinlock_check(spinlock_t *lock )
{
  {
  return ((struct raw_spinlock *)lock);
}
}
extern struct module __this_module ;
extern void kfree(void const * ) ;
extern void *kmem_cache_alloc(struct kmem_cache * , gfp_t ) ;
void *ldv_kmem_cache_alloc_16(struct kmem_cache *ldv_func_arg1 , gfp_t ldv_func_arg2 ) ;
extern int __VERIFIER_nondet_int(void);
extern void abort(void);
void assume_abort_if_not(int cond) {
  if(!cond) {abort();}
}
extern void *malloc(size_t size);
long ldv_is_err(const void *ptr)
{
  return ((unsigned long)ptr > ((unsigned long)-4095));
}
void *ldv_malloc(size_t size)
{
 if (__VERIFIER_nondet_int()) {
  void *res = malloc(size);
  assume_abort_if_not(!ldv_is_err(res));
  return res;
 } else {
  return ((void *)0);
 }
}
void *__kmalloc(size_t size, gfp_t t)
{
 return ldv_malloc(size);
}
 static void *ldv_kmalloc_12(size_t size , gfp_t flags )
{ void *tmp___2 ;
  {
  {
  tmp___2 = __kmalloc(size, flags);
  }
  return (tmp___2);
}
}
 static void *kmalloc(size_t size , gfp_t flags ) ;
 static void *kmalloc_array(size_t n , size_t size , gfp_t flags )
{ void *tmp ;
  unsigned long __cil_tmp5 ;
  size_t __cil_tmp6 ;
  {
  if (size != 0UL) {
    {
    __cil_tmp5 = 0xffffffffffffffffUL / size;
    if (__cil_tmp5 < n) {
      return ((void *)0);
    } else {
    }
    }
  } else {
  }
  {
  __cil_tmp6 = n * size;
  tmp = __kmalloc(__cil_tmp6, flags);
  }
  return (tmp);
}
}
 static void *ldv_kcalloc_14(size_t n , size_t size , gfp_t flags )
{ void *tmp ;
  unsigned int __cil_tmp5 ;
  {
  {
  __cil_tmp5 = flags | 32768U;
  tmp = kmalloc_array(n, size, __cil_tmp5);
  }
  return (tmp);
}
}
 static void *kcalloc(size_t n , size_t size , gfp_t flags ) ;
 static void *kzalloc(size_t size , gfp_t flags ) ;
void ldv_check_alloc_flags(gfp_t flags ) ;
void ldv_check_alloc_nonatomic(void) ;
struct page *ldv_check_alloc_flags_and_return_some_page(gfp_t flags ) ;
extern struct comedi_device *comedi_open(char const * ) ;
extern int comedi_close(struct comedi_device * ) ;
extern int comedi_dio_config(struct comedi_device * , unsigned int , unsigned int ,
                             unsigned int ) ;
extern int comedi_dio_bitfield(struct comedi_device * , unsigned int , unsigned int ,
                               unsigned int * ) ;
extern int comedi_find_subdevice_by_type(struct comedi_device * , int , unsigned int ) ;
extern int comedi_get_n_channels(struct comedi_device * , unsigned int ) ;
extern int comedi_driver_register(struct comedi_driver * ) ;
extern int comedi_driver_unregister(struct comedi_driver * ) ;
extern struct comedi_lrange const range_unipolar5 ;
 static int alloc_subdevices(struct comedi_device *dev , unsigned int num_subdevices )
{ unsigned int i ;
  void *tmp ;
  struct lock_class_key __key ;
  unsigned long __cil_tmp6 ;
  unsigned long __cil_tmp7 ;
  size_t __cil_tmp8 ;
  unsigned long __cil_tmp9 ;
  unsigned long __cil_tmp10 ;
  struct comedi_subdevice *__cil_tmp11 ;
  unsigned long __cil_tmp12 ;
  unsigned long __cil_tmp13 ;
  unsigned long __cil_tmp14 ;
  struct comedi_subdevice *__cil_tmp15 ;
  unsigned long __cil_tmp16 ;
  unsigned long __cil_tmp17 ;
  unsigned long __cil_tmp18 ;
  unsigned long __cil_tmp19 ;
  struct comedi_subdevice *__cil_tmp20 ;
  struct comedi_subdevice *__cil_tmp21 ;
  unsigned long __cil_tmp22 ;
  unsigned long __cil_tmp23 ;
  unsigned long __cil_tmp24 ;
  struct comedi_subdevice *__cil_tmp25 ;
  struct comedi_subdevice *__cil_tmp26 ;
  unsigned long __cil_tmp27 ;
  unsigned long __cil_tmp28 ;
  unsigned long __cil_tmp29 ;
  unsigned long __cil_tmp30 ;
  unsigned long __cil_tmp31 ;
  struct comedi_subdevice *__cil_tmp32 ;
  struct comedi_subdevice *__cil_tmp33 ;
  unsigned long __cil_tmp34 ;
  unsigned long __cil_tmp35 ;
  spinlock_t *__cil_tmp36 ;
  unsigned long __cil_tmp37 ;
  unsigned long __cil_tmp38 ;
  unsigned long __cil_tmp39 ;
  struct comedi_subdevice *__cil_tmp40 ;
  struct comedi_subdevice *__cil_tmp41 ;
  unsigned long __cil_tmp42 ;
  unsigned long __cil_tmp43 ;
  struct raw_spinlock *__cil_tmp44 ;
  unsigned long __cil_tmp45 ;
  unsigned long __cil_tmp46 ;
  unsigned long __cil_tmp47 ;
  struct comedi_subdevice *__cil_tmp48 ;
  struct comedi_subdevice *__cil_tmp49 ;
  unsigned long __cil_tmp50 ;
  unsigned long __cil_tmp51 ;
  {
  {
  __cil_tmp6 = (unsigned long )dev;
  __cil_tmp7 = __cil_tmp6 + 316;
  *((int *)__cil_tmp7) = (int )num_subdevices;
  __cil_tmp8 = (size_t )num_subdevices;
  tmp = kcalloc(__cil_tmp8, 304UL, 208U);
  __cil_tmp9 = (unsigned long )dev;
  __cil_tmp10 = __cil_tmp9 + 320;
  *((struct comedi_subdevice **)__cil_tmp10) = (struct comedi_subdevice *)tmp;
  }
  {
  __cil_tmp11 = (struct comedi_subdevice *)0;
  __cil_tmp12 = (unsigned long )__cil_tmp11;
  __cil_tmp13 = (unsigned long )dev;
  __cil_tmp14 = __cil_tmp13 + 320;
  __cil_tmp15 = *((struct comedi_subdevice **)__cil_tmp14);
  __cil_tmp16 = (unsigned long )__cil_tmp15;
  if (__cil_tmp16 == __cil_tmp12) {
    return (-12);
  } else {
  }
  }
  i = 0U;
  goto ldv_19205;
  ldv_19204:
  {
  __cil_tmp17 = (unsigned long )i;
  __cil_tmp18 = (unsigned long )dev;
  __cil_tmp19 = __cil_tmp18 + 320;
  __cil_tmp20 = *((struct comedi_subdevice **)__cil_tmp19);
  __cil_tmp21 = __cil_tmp20 + __cil_tmp17;
  *((struct comedi_device **)__cil_tmp21) = dev;
  __cil_tmp22 = (unsigned long )i;
  __cil_tmp23 = (unsigned long )dev;
  __cil_tmp24 = __cil_tmp23 + 320;
  __cil_tmp25 = *((struct comedi_subdevice **)__cil_tmp24);
  __cil_tmp26 = __cil_tmp25 + __cil_tmp22;
  __cil_tmp27 = (unsigned long )__cil_tmp26;
  __cil_tmp28 = __cil_tmp27 + 280;
  *((enum dma_data_direction *)__cil_tmp28) = (enum dma_data_direction )3;
  __cil_tmp29 = (unsigned long )i;
  __cil_tmp30 = (unsigned long )dev;
  __cil_tmp31 = __cil_tmp30 + 320;
  __cil_tmp32 = *((struct comedi_subdevice **)__cil_tmp31);
  __cil_tmp33 = __cil_tmp32 + __cil_tmp29;
  __cil_tmp34 = (unsigned long )__cil_tmp33;
  __cil_tmp35 = __cil_tmp34 + 64;
  __cil_tmp36 = (spinlock_t *)__cil_tmp35;
  spinlock_check(__cil_tmp36);
  __cil_tmp37 = (unsigned long )i;
  __cil_tmp38 = (unsigned long )dev;
  __cil_tmp39 = __cil_tmp38 + 320;
  __cil_tmp40 = *((struct comedi_subdevice **)__cil_tmp39);
  __cil_tmp41 = __cil_tmp40 + __cil_tmp37;
  __cil_tmp42 = (unsigned long )__cil_tmp41;
  __cil_tmp43 = __cil_tmp42 + 64;
  __cil_tmp44 = (struct raw_spinlock *)__cil_tmp43;
  __raw_spin_lock_init(__cil_tmp44, "&(&dev->subdevices[i].spin_lock)->rlock", & __key);
  __cil_tmp45 = (unsigned long )i;
  __cil_tmp46 = (unsigned long )dev;
  __cil_tmp47 = __cil_tmp46 + 320;
  __cil_tmp48 = *((struct comedi_subdevice **)__cil_tmp47);
  __cil_tmp49 = __cil_tmp48 + __cil_tmp45;
  __cil_tmp50 = (unsigned long )__cil_tmp49;
  __cil_tmp51 = __cil_tmp50 + 296;
  *((int *)__cil_tmp51) = -1;
  i = i + 1U;
  }
  ldv_19205: ;
  if (i < num_subdevices) {
    goto ldv_19204;
  } else {
    goto ldv_19206;
  }
  ldv_19206: ;
  return (0);
}
}
 static int alloc_private(struct comedi_device *dev , int size )
{ unsigned long __cil_tmp3 ;
  unsigned long __cil_tmp4 ;
  size_t __cil_tmp5 ;
  void *__cil_tmp6 ;
  unsigned long __cil_tmp7 ;
  unsigned long __cil_tmp8 ;
  unsigned long __cil_tmp9 ;
  void *__cil_tmp10 ;
  unsigned long __cil_tmp11 ;
  {
  {
  __cil_tmp3 = (unsigned long )dev;
  __cil_tmp4 = __cil_tmp3 + 16;
  __cil_tmp5 = (size_t )size;
  *((void **)__cil_tmp4) = kzalloc(__cil_tmp5, 208U);
  }
  {
  __cil_tmp6 = (void *)0;
  __cil_tmp7 = (unsigned long )__cil_tmp6;
  __cil_tmp8 = (unsigned long )dev;
  __cil_tmp9 = __cil_tmp8 + 16;
  __cil_tmp10 = *((void **)__cil_tmp9);
  __cil_tmp11 = (unsigned long )__cil_tmp10;
  if (__cil_tmp11 == __cil_tmp7) {
    return (-12);
  } else {
  }
  }
  return (0);
}
}
static struct BondingBoard const bondingBoards[1U] = { {"comedi_bond"}};
static int bonding_attach(struct comedi_device *dev , struct comedi_devconfig *it ) ;
static int bonding_detach(struct comedi_device *dev ) ;
static int doDevConfig(struct comedi_device *dev , struct comedi_devconfig *it ) ;
static void doDevUnconfig(struct comedi_device *dev ) ;
static void *Realloc(void const *oldmem , size_t newlen , size_t oldlen ) ;
static struct comedi_driver driver_bonding =
     {(struct comedi_driver *)0, "comedi_bond", & __this_module, & bonding_attach, & bonding_detach,
    1U, & bondingBoards[0].name, 8};
static int bonding_dio_insn_bits(struct comedi_device *dev , struct comedi_subdevice *s ,
                                 struct comedi_insn *insn , unsigned int *data ) ;
static int bonding_dio_insn_config(struct comedi_device *dev , struct comedi_subdevice *s ,
                                   struct comedi_insn *insn , unsigned int *data ) ;
static int bonding_attach(struct comedi_device *dev , struct comedi_devconfig *it )
{ struct comedi_subdevice *s ;
  int tmp ;
  int tmp___0 ;
  int tmp___1 ;
  unsigned long __cil_tmp7 ;
  unsigned long __cil_tmp8 ;
  int __cil_tmp9 ;
  unsigned long __cil_tmp10 ;
  unsigned long __cil_tmp11 ;
  unsigned long __cil_tmp12 ;
  unsigned long __cil_tmp13 ;
  void *__cil_tmp14 ;
  struct Private *__cil_tmp15 ;
  char (*__cil_tmp16)[256U] ;
  unsigned long __cil_tmp17 ;
  unsigned long __cil_tmp18 ;
  unsigned long __cil_tmp19 ;
  unsigned long __cil_tmp20 ;
  unsigned long __cil_tmp21 ;
  unsigned long __cil_tmp22 ;
  unsigned long __cil_tmp23 ;
  unsigned long __cil_tmp24 ;
  unsigned long __cil_tmp25 ;
  unsigned long __cil_tmp26 ;
  void *__cil_tmp27 ;
  struct Private *__cil_tmp28 ;
  unsigned long __cil_tmp29 ;
  unsigned long __cil_tmp30 ;
  unsigned int __cil_tmp31 ;
  unsigned long __cil_tmp32 ;
  unsigned long __cil_tmp33 ;
  unsigned long __cil_tmp34 ;
  unsigned long __cil_tmp35 ;
  unsigned long __cil_tmp36 ;
  unsigned long __cil_tmp37 ;
  unsigned long __cil_tmp38 ;
  unsigned long __cil_tmp39 ;
  unsigned long __cil_tmp40 ;
  unsigned long __cil_tmp41 ;
  void *__cil_tmp42 ;
  struct Private *__cil_tmp43 ;
  unsigned long __cil_tmp44 ;
  unsigned long __cil_tmp45 ;
  unsigned int __cil_tmp46 ;
  unsigned long __cil_tmp47 ;
  unsigned long __cil_tmp48 ;
  void *__cil_tmp49 ;
  struct Private *__cil_tmp50 ;
  unsigned long __cil_tmp51 ;
  unsigned long __cil_tmp52 ;
  unsigned int __cil_tmp53 ;
  {
  {
  __cil_tmp7 = (unsigned long )dev;
  __cil_tmp8 = __cil_tmp7 + 32;
  __cil_tmp9 = *((int *)__cil_tmp8);
  printk("<6>comedi_bond: comedi%d\n", __cil_tmp9);
  tmp = alloc_private(dev, 2328);
  }
  if (tmp < 0) {
    return (-12);
  } else {
  }
  {
  tmp___0 = doDevConfig(dev, it);
  }
  if (tmp___0 == 0) {
    return (-22);
  } else {
  }
  {
  __cil_tmp10 = (unsigned long )dev;
  __cil_tmp11 = __cil_tmp10 + 48;
  __cil_tmp12 = (unsigned long )dev;
  __cil_tmp13 = __cil_tmp12 + 16;
  __cil_tmp14 = *((void **)__cil_tmp13);
  __cil_tmp15 = (struct Private *)__cil_tmp14;
  __cil_tmp16 = (char (*)[256U])__cil_tmp15;
  *((char const **)__cil_tmp11) = (char const *)__cil_tmp16;
  tmp___1 = alloc_subdevices(dev, 1U);
  }
  if (tmp___1 < 0) {
    return (-12);
  } else {
  }
  {
  __cil_tmp17 = (unsigned long )dev;
  __cil_tmp18 = __cil_tmp17 + 320;
  s = *((struct comedi_subdevice **)__cil_tmp18);
  __cil_tmp19 = (unsigned long )s;
  __cil_tmp20 = __cil_tmp19 + 8;
  *((int *)__cil_tmp20) = 5;
  __cil_tmp21 = (unsigned long )s;
  __cil_tmp22 = __cil_tmp21 + 16;
  *((int *)__cil_tmp22) = 196608;
  __cil_tmp23 = (unsigned long )s;
  __cil_tmp24 = __cil_tmp23 + 12;
  __cil_tmp25 = (unsigned long )dev;
  __cil_tmp26 = __cil_tmp25 + 16;
  __cil_tmp27 = *((void **)__cil_tmp26);
  __cil_tmp28 = (struct Private *)__cil_tmp27;
  __cil_tmp29 = (unsigned long )__cil_tmp28;
  __cil_tmp30 = __cil_tmp29 + 2320;
  __cil_tmp31 = *((unsigned int *)__cil_tmp30);
  *((int *)__cil_tmp24) = (int )__cil_tmp31;
  __cil_tmp32 = (unsigned long )s;
  __cil_tmp33 = __cil_tmp32 + 140;
  *((unsigned int *)__cil_tmp33) = 1U;
  __cil_tmp34 = (unsigned long )s;
  __cil_tmp35 = __cil_tmp34 + 176;
  *((struct comedi_lrange const **)__cil_tmp35) = & range_unipolar5;
  __cil_tmp36 = (unsigned long )s;
  __cil_tmp37 = __cil_tmp36 + 216;
  *((int (**)(struct comedi_device * , struct comedi_subdevice * , struct comedi_insn * ,
              unsigned int * ))__cil_tmp37) = & bonding_dio_insn_bits;
  __cil_tmp38 = (unsigned long )s;
  __cil_tmp39 = __cil_tmp38 + 224;
  *((int (**)(struct comedi_device * , struct comedi_subdevice * , struct comedi_insn * ,
              unsigned int * ))__cil_tmp39) = & bonding_dio_insn_config;
  __cil_tmp40 = (unsigned long )dev;
  __cil_tmp41 = __cil_tmp40 + 16;
  __cil_tmp42 = *((void **)__cil_tmp41);
  __cil_tmp43 = (struct Private *)__cil_tmp42;
  __cil_tmp44 = (unsigned long )__cil_tmp43;
  __cil_tmp45 = __cil_tmp44 + 2320;
  __cil_tmp46 = *((unsigned int *)__cil_tmp45);
  __cil_tmp47 = (unsigned long )dev;
  __cil_tmp48 = __cil_tmp47 + 16;
  __cil_tmp49 = *((void **)__cil_tmp48);
  __cil_tmp50 = (struct Private *)__cil_tmp49;
  __cil_tmp51 = (unsigned long )__cil_tmp50;
  __cil_tmp52 = __cil_tmp51 + 264;
  __cil_tmp53 = *((unsigned int *)__cil_tmp52);
  printk("<6>comedi_bond: attached with %u DIO channels coming from %u different subdevices all bonded together.  John Lennon would be proud!\n",
         __cil_tmp46, __cil_tmp53);
  }
  return (1);
}
}
static int bonding_detach(struct comedi_device *dev )
{ unsigned long __cil_tmp2 ;
  unsigned long __cil_tmp3 ;
  int __cil_tmp4 ;
  {
  {
  __cil_tmp2 = (unsigned long )dev;
  __cil_tmp3 = __cil_tmp2 + 32;
  __cil_tmp4 = *((int *)__cil_tmp3);
  printk("<6>comedi_bond: comedi%d: remove\n", __cil_tmp4);
  doDevUnconfig(dev);
  }
  return (0);
}
}
static int bonding_dio_insn_bits(struct comedi_device *dev , struct comedi_subdevice *s ,
                                 struct comedi_insn *insn , unsigned int *data )
{ unsigned int nchans ;
  unsigned int num_done ;
  unsigned int i ;
  struct BondedDevice *bdev ;
  unsigned int subdevMask ;
  unsigned int writeMask ;
  unsigned int dataBits ;
  int tmp ;
  unsigned long __cil_tmp13 ;
  unsigned long __cil_tmp14 ;
  unsigned int __cil_tmp15 ;
  unsigned long __cil_tmp16 ;
  unsigned long __cil_tmp17 ;
  void *__cil_tmp18 ;
  struct Private *__cil_tmp19 ;
  unsigned long __cil_tmp20 ;
  unsigned long __cil_tmp21 ;
  unsigned int __cil_tmp22 ;
  unsigned long __cil_tmp23 ;
  unsigned long __cil_tmp24 ;
  void *__cil_tmp25 ;
  struct Private *__cil_tmp26 ;
  unsigned long __cil_tmp27 ;
  unsigned long __cil_tmp28 ;
  unsigned long __cil_tmp29 ;
  unsigned long __cil_tmp30 ;
  unsigned long __cil_tmp31 ;
  void *__cil_tmp32 ;
  struct Private *__cil_tmp33 ;
  unsigned long __cil_tmp34 ;
  unsigned long __cil_tmp35 ;
  struct BondedDevice **__cil_tmp36 ;
  struct BondedDevice **__cil_tmp37 ;
  unsigned long __cil_tmp38 ;
  unsigned long __cil_tmp39 ;
  unsigned int __cil_tmp40 ;
  int __cil_tmp41 ;
  int __cil_tmp42 ;
  int __cil_tmp43 ;
  unsigned long __cil_tmp44 ;
  unsigned long __cil_tmp45 ;
  unsigned int __cil_tmp46 ;
  int __cil_tmp47 ;
  unsigned int __cil_tmp48 ;
  unsigned int __cil_tmp49 ;
  unsigned int *__cil_tmp50 ;
  int __cil_tmp51 ;
  unsigned int *__cil_tmp52 ;
  unsigned int __cil_tmp53 ;
  unsigned int __cil_tmp54 ;
  struct comedi_device *__cil_tmp55 ;
  unsigned long __cil_tmp56 ;
  unsigned long __cil_tmp57 ;
  unsigned int __cil_tmp58 ;
  unsigned int *__cil_tmp59 ;
  int __cil_tmp60 ;
  unsigned int __cil_tmp61 ;
  unsigned int __cil_tmp62 ;
  unsigned int *__cil_tmp63 ;
  unsigned int __cil_tmp64 ;
  unsigned int *__cil_tmp65 ;
  int __cil_tmp66 ;
  unsigned int *__cil_tmp67 ;
  unsigned int __cil_tmp68 ;
  unsigned int __cil_tmp69 ;
  unsigned int __cil_tmp70 ;
  unsigned int *__cil_tmp71 ;
  unsigned int __cil_tmp72 ;
  unsigned long __cil_tmp73 ;
  unsigned long __cil_tmp74 ;
  unsigned int *__cil_tmp75 ;
  unsigned long __cil_tmp76 ;
  unsigned long __cil_tmp77 ;
  unsigned int __cil_tmp78 ;
  unsigned long __cil_tmp79 ;
  unsigned long __cil_tmp80 ;
  void *__cil_tmp81 ;
  struct Private *__cil_tmp82 ;
  unsigned long __cil_tmp83 ;
  unsigned long __cil_tmp84 ;
  unsigned int __cil_tmp85 ;
  unsigned long __cil_tmp86 ;
  unsigned long __cil_tmp87 ;
  unsigned int __cil_tmp88 ;
  {
  nchans = 32U;
  num_done = 0U;
  {
  __cil_tmp13 = (unsigned long )insn;
  __cil_tmp14 = __cil_tmp13 + 4;
  __cil_tmp15 = *((unsigned int *)__cil_tmp14);
  if (__cil_tmp15 != 2U) {
    return (-22);
  } else {
  }
  }
  {
  __cil_tmp16 = (unsigned long )dev;
  __cil_tmp17 = __cil_tmp16 + 16;
  __cil_tmp18 = *((void **)__cil_tmp17);
  __cil_tmp19 = (struct Private *)__cil_tmp18;
  __cil_tmp20 = (unsigned long )__cil_tmp19;
  __cil_tmp21 = __cil_tmp20 + 2320;
  __cil_tmp22 = *((unsigned int *)__cil_tmp21);
  if (__cil_tmp22 < nchans) {
    __cil_tmp23 = (unsigned long )dev;
    __cil_tmp24 = __cil_tmp23 + 16;
    __cil_tmp25 = *((void **)__cil_tmp24);
    __cil_tmp26 = (struct Private *)__cil_tmp25;
    __cil_tmp27 = (unsigned long )__cil_tmp26;
    __cil_tmp28 = __cil_tmp27 + 2320;
    nchans = *((unsigned int *)__cil_tmp28);
  } else {
  }
  }
  i = 0U;
  goto ldv_19365;
  ldv_19364:
  __cil_tmp29 = (unsigned long )i;
  __cil_tmp30 = (unsigned long )dev;
  __cil_tmp31 = __cil_tmp30 + 16;
  __cil_tmp32 = *((void **)__cil_tmp31);
  __cil_tmp33 = (struct Private *)__cil_tmp32;
  __cil_tmp34 = (unsigned long )__cil_tmp33;
  __cil_tmp35 = __cil_tmp34 + 256;
  __cil_tmp36 = *((struct BondedDevice ***)__cil_tmp35);
  __cil_tmp37 = __cil_tmp36 + __cil_tmp29;
  bdev = *__cil_tmp37;
  __cil_tmp38 = (unsigned long )bdev;
  __cil_tmp39 = __cil_tmp38 + 20;
  __cil_tmp40 = *((unsigned int *)__cil_tmp39);
  __cil_tmp41 = (int )__cil_tmp40;
  __cil_tmp42 = 1 << __cil_tmp41;
  __cil_tmp43 = __cil_tmp42 + -1;
  subdevMask = (unsigned int )__cil_tmp43;
  {
  __cil_tmp44 = (unsigned long )bdev;
  __cil_tmp45 = __cil_tmp44 + 20;
  __cil_tmp46 = *((unsigned int *)__cil_tmp45);
  if (__cil_tmp46 > 31U) {
    subdevMask = 4294967295U;
  } else {
  }
  }
  {
  __cil_tmp47 = (int )num_done;
  __cil_tmp48 = *data;
  __cil_tmp49 = __cil_tmp48 >> __cil_tmp47;
  writeMask = __cil_tmp49 & subdevMask;
  __cil_tmp50 = & dataBits;
  __cil_tmp51 = (int )num_done;
  __cil_tmp52 = data + 1UL;
  __cil_tmp53 = *__cil_tmp52;
  __cil_tmp54 = __cil_tmp53 >> __cil_tmp51;
  *__cil_tmp50 = __cil_tmp54 & subdevMask;
  __cil_tmp55 = *((struct comedi_device **)bdev);
  __cil_tmp56 = (unsigned long )bdev;
  __cil_tmp57 = __cil_tmp56 + 12;
  __cil_tmp58 = *((unsigned int *)__cil_tmp57);
  tmp = comedi_dio_bitfield(__cil_tmp55, __cil_tmp58, writeMask, & dataBits);
  }
  if (tmp != 2) {
    return (-22);
  } else {
  }
  __cil_tmp59 = data + 1UL;
  __cil_tmp60 = (int )num_done;
  __cil_tmp61 = subdevMask << __cil_tmp60;
  __cil_tmp62 = ~ __cil_tmp61;
  __cil_tmp63 = data + 1UL;
  __cil_tmp64 = *__cil_tmp63;
  *__cil_tmp59 = __cil_tmp64 & __cil_tmp62;
  __cil_tmp65 = data + 1UL;
  __cil_tmp66 = (int )num_done;
  __cil_tmp67 = & dataBits;
  __cil_tmp68 = *__cil_tmp67;
  __cil_tmp69 = __cil_tmp68 & subdevMask;
  __cil_tmp70 = __cil_tmp69 << __cil_tmp66;
  __cil_tmp71 = data + 1UL;
  __cil_tmp72 = *__cil_tmp71;
  *__cil_tmp65 = __cil_tmp72 | __cil_tmp70;
  __cil_tmp73 = (unsigned long )s;
  __cil_tmp74 = __cil_tmp73 + 284;
  __cil_tmp75 = data + 1UL;
  *((unsigned int *)__cil_tmp74) = *__cil_tmp75;
  __cil_tmp76 = (unsigned long )bdev;
  __cil_tmp77 = __cil_tmp76 + 20;
  __cil_tmp78 = *((unsigned int *)__cil_tmp77);
  num_done = __cil_tmp78 + num_done;
  i = i + 1U;
  ldv_19365: ;
  if (num_done < nchans) {
    {
    __cil_tmp79 = (unsigned long )dev;
    __cil_tmp80 = __cil_tmp79 + 16;
    __cil_tmp81 = *((void **)__cil_tmp80);
    __cil_tmp82 = (struct Private *)__cil_tmp81;
    __cil_tmp83 = (unsigned long )__cil_tmp82;
    __cil_tmp84 = __cil_tmp83 + 264;
    __cil_tmp85 = *((unsigned int *)__cil_tmp84);
    if (__cil_tmp85 > i) {
      goto ldv_19364;
    } else {
      goto ldv_19366;
    }
    }
  } else {
    goto ldv_19366;
  }
  ldv_19366: ;
  {
  __cil_tmp86 = (unsigned long )insn;
  __cil_tmp87 = __cil_tmp86 + 4;
  __cil_tmp88 = *((unsigned int *)__cil_tmp87);
  return ((int )__cil_tmp88);
  }
}
}
static int bonding_dio_insn_config(struct comedi_device *dev , struct comedi_subdevice *s ,
                                   struct comedi_insn *insn , unsigned int *data )
{ int chan ;
  int ret ;
  int io_bits ;
  unsigned int io ;
  struct BondedDevice *bdev ;
  unsigned long __cil_tmp10 ;
  unsigned long __cil_tmp11 ;
  unsigned int __cil_tmp12 ;
  int __cil_tmp13 ;
  unsigned long __cil_tmp14 ;
  unsigned long __cil_tmp15 ;
  unsigned long __cil_tmp16 ;
  unsigned long __cil_tmp17 ;
  void *__cil_tmp18 ;
  struct Private *__cil_tmp19 ;
  unsigned long __cil_tmp20 ;
  unsigned long __cil_tmp21 ;
  unsigned int __cil_tmp22 ;
  unsigned int __cil_tmp23 ;
  unsigned long __cil_tmp24 ;
  unsigned long __cil_tmp25 ;
  unsigned long __cil_tmp26 ;
  unsigned long __cil_tmp27 ;
  void *__cil_tmp28 ;
  struct Private *__cil_tmp29 ;
  unsigned long __cil_tmp30 ;
  unsigned long __cil_tmp31 ;
  unsigned int __cil_tmp32 ;
  int __cil_tmp33 ;
  int __cil_tmp34 ;
  int __cil_tmp35 ;
  unsigned int *__cil_tmp36 ;
  int __cil_tmp37 ;
  unsigned int __cil_tmp38 ;
  unsigned long __cil_tmp39 ;
  unsigned long __cil_tmp40 ;
  unsigned int __cil_tmp41 ;
  unsigned long __cil_tmp42 ;
  unsigned long __cil_tmp43 ;
  unsigned int __cil_tmp44 ;
  unsigned int __cil_tmp45 ;
  unsigned int __cil_tmp46 ;
  struct comedi_device *__cil_tmp47 ;
  unsigned long __cil_tmp48 ;
  unsigned long __cil_tmp49 ;
  unsigned int __cil_tmp50 ;
  unsigned int __cil_tmp51 ;
  unsigned long __cil_tmp52 ;
  unsigned long __cil_tmp53 ;
  unsigned long __cil_tmp54 ;
  unsigned long __cil_tmp55 ;
  unsigned int __cil_tmp56 ;
  {
  __cil_tmp10 = (unsigned long )insn;
  __cil_tmp11 = __cil_tmp10 + 20;
  __cil_tmp12 = *((unsigned int *)__cil_tmp11);
  __cil_tmp13 = (int )__cil_tmp12;
  chan = __cil_tmp13 & 65535;
  __cil_tmp14 = (unsigned long )s;
  __cil_tmp15 = __cil_tmp14 + 136;
  io_bits = *((int *)__cil_tmp15);
  if (chan < 0) {
    return (-22);
  } else {
    {
    __cil_tmp16 = (unsigned long )dev;
    __cil_tmp17 = __cil_tmp16 + 16;
    __cil_tmp18 = *((void **)__cil_tmp17);
    __cil_tmp19 = (struct Private *)__cil_tmp18;
    __cil_tmp20 = (unsigned long )__cil_tmp19;
    __cil_tmp21 = __cil_tmp20 + 2320;
    __cil_tmp22 = *((unsigned int *)__cil_tmp21);
    __cil_tmp23 = (unsigned int )chan;
    if (__cil_tmp23 >= __cil_tmp22) {
      return (-22);
    } else {
    }
    }
  }
  __cil_tmp24 = chan * 8UL;
  __cil_tmp25 = 272 + __cil_tmp24;
  __cil_tmp26 = (unsigned long )dev;
  __cil_tmp27 = __cil_tmp26 + 16;
  __cil_tmp28 = *((void **)__cil_tmp27);
  __cil_tmp29 = (struct Private *)__cil_tmp28;
  __cil_tmp30 = (unsigned long )__cil_tmp29;
  __cil_tmp31 = __cil_tmp30 + __cil_tmp25;
  bdev = *((struct BondedDevice **)__cil_tmp31);
  {
  __cil_tmp32 = *data;
  if ((int )__cil_tmp32 == 1) {
    goto case_1;
  } else
  if ((int )__cil_tmp32 == 0) {
    goto case_0;
  } else
  if ((int )__cil_tmp32 == 28) {
    goto case_28;
  } else {
    {
    goto switch_default;
    if (0) {
      case_1:
      io = 1U;
      __cil_tmp33 = 1 << chan;
      io_bits = __cil_tmp33 | io_bits;
      goto ldv_19379;
      case_0:
      io = 0U;
      __cil_tmp34 = 1 << chan;
      __cil_tmp35 = ~ __cil_tmp34;
      io_bits = __cil_tmp35 & io_bits;
      goto ldv_19379;
      case_28:
      __cil_tmp36 = data + 1UL;
      __cil_tmp37 = io_bits >> chan;
      __cil_tmp38 = (unsigned int )__cil_tmp37;
      *__cil_tmp36 = __cil_tmp38 & 1U;
      {
      __cil_tmp39 = (unsigned long )insn;
      __cil_tmp40 = __cil_tmp39 + 4;
      __cil_tmp41 = *((unsigned int *)__cil_tmp40);
      return ((int )__cil_tmp41);
      }
      switch_default: ;
      return (-22);
    } else {
      switch_break: ;
    }
    }
  }
  }
  ldv_19379:
  {
  __cil_tmp42 = (unsigned long )bdev;
  __cil_tmp43 = __cil_tmp42 + 24;
  __cil_tmp44 = *((unsigned int *)__cil_tmp43);
  __cil_tmp45 = (unsigned int )chan;
  __cil_tmp46 = __cil_tmp45 - __cil_tmp44;
  chan = (int )__cil_tmp46;
  __cil_tmp47 = *((struct comedi_device **)bdev);
  __cil_tmp48 = (unsigned long )bdev;
  __cil_tmp49 = __cil_tmp48 + 12;
  __cil_tmp50 = *((unsigned int *)__cil_tmp49);
  __cil_tmp51 = (unsigned int )chan;
  ret = comedi_dio_config(__cil_tmp47, __cil_tmp50, __cil_tmp51, io);
  }
  if (ret != 1) {
    return (-22);
  } else {
  }
  __cil_tmp52 = (unsigned long )s;
  __cil_tmp53 = __cil_tmp52 + 136;
  *((int *)__cil_tmp53) = io_bits;
  {
  __cil_tmp54 = (unsigned long )insn;
  __cil_tmp55 = __cil_tmp54 + 4;
  __cil_tmp56 = *((unsigned int *)__cil_tmp55);
  return ((int )__cil_tmp56);
  }
}
}
extern void *memcpy(void * , void const * , size_t ) ;
static void *Realloc(void const *oldmem , size_t newlen , size_t oldlen )
{ void *newmem ;
  void *tmp ;
  size_t __len ;
  size_t _min1 ;
  size_t _min2 ;
  size_t tmp___0 ;
  void *__ret ;
  void *__cil_tmp11 ;
  unsigned long __cil_tmp12 ;
  unsigned long __cil_tmp13 ;
  void const *__cil_tmp14 ;
  unsigned long __cil_tmp15 ;
  unsigned long __cil_tmp16 ;
  {
  {
  tmp = kmalloc(newlen, 208U);
  newmem = tmp;
  }
  {
  __cil_tmp11 = (void *)0;
  __cil_tmp12 = (unsigned long )__cil_tmp11;
  __cil_tmp13 = (unsigned long )newmem;
  if (__cil_tmp13 != __cil_tmp12) {
    {
    __cil_tmp14 = (void const *)0;
    __cil_tmp15 = (unsigned long )__cil_tmp14;
    __cil_tmp16 = (unsigned long )oldmem;
    if (__cil_tmp16 != __cil_tmp15) {
      _min1 = oldlen;
      _min2 = newlen;
      if (_min1 < _min2) {
        tmp___0 = _min1;
      } else {
        tmp___0 = _min2;
      }
      {
      __len = tmp___0;
      __ret = memcpy(newmem, oldmem, __len);
      }
    } else {
    }
    }
  } else {
  }
  }
  {
  kfree(oldmem);
  }
  return (newmem);
}
}
static int doDevConfig(struct comedi_device *dev , struct comedi_devconfig *it )
{ int i ;
  struct comedi_device *devs_opened[48U] ;
  char file[18U] ;
  int minor ;
  struct comedi_device *d ;
  int sdev ;
  int nchans ;
  int tmp ;
  struct BondedDevice *bdev ;
  struct comedi_device *tmp___0 ;
  void *tmp___1 ;
  unsigned int tmp___2 ;
  int tmp___3 ;
  void *tmp___4 ;
  char buf[20U] ;
  int left ;
  size_t tmp___5 ;
  void *__cil_tmp20 ;
  unsigned long __cil_tmp21 ;
  unsigned long __cil_tmp22 ;
  unsigned long __cil_tmp23 ;
  unsigned long __cil_tmp24 ;
  void *__cil_tmp25 ;
  struct Private *__cil_tmp26 ;
  unsigned long __cil_tmp27 ;
  unsigned long __cil_tmp28 ;
  unsigned long __cil_tmp29 ;
  unsigned long __cil_tmp30 ;
  unsigned long __cil_tmp31 ;
  unsigned long __cil_tmp32 ;
  unsigned long __cil_tmp33 ;
  unsigned long __cil_tmp34 ;
  unsigned long __cil_tmp35 ;
  unsigned long __cil_tmp36 ;
  unsigned long __cil_tmp37 ;
  unsigned long __cil_tmp38 ;
  unsigned long __cil_tmp39 ;
  unsigned long __cil_tmp40 ;
  unsigned long __cil_tmp41 ;
  unsigned long __cil_tmp42 ;
  unsigned long __cil_tmp43 ;
  unsigned long __cil_tmp44 ;
  unsigned long __cil_tmp45 ;
  unsigned long __cil_tmp46 ;
  unsigned long __cil_tmp47 ;
  unsigned long __cil_tmp48 ;
  unsigned long __cil_tmp49 ;
  unsigned long __cil_tmp50 ;
  unsigned long __cil_tmp51 ;
  unsigned long __cil_tmp52 ;
  unsigned long __cil_tmp53 ;
  unsigned long __cil_tmp54 ;
  unsigned long __cil_tmp55 ;
  unsigned long __cil_tmp56 ;
  unsigned long __cil_tmp57 ;
  unsigned long __cil_tmp58 ;
  unsigned long __cil_tmp59 ;
  unsigned long __cil_tmp60 ;
  unsigned long __cil_tmp61 ;
  unsigned long __cil_tmp62 ;
  unsigned long __cil_tmp63 ;
  unsigned long __cil_tmp64 ;
  unsigned long __cil_tmp65 ;
  unsigned long __cil_tmp66 ;
  unsigned long __cil_tmp67 ;
  unsigned long __cil_tmp68 ;
  unsigned long __cil_tmp69 ;
  unsigned long __cil_tmp70 ;
  int __cil_tmp71 ;
  struct comedi_device *__cil_tmp72 ;
  unsigned long __cil_tmp73 ;
  unsigned long __cil_tmp74 ;
  unsigned long __cil_tmp75 ;
  struct comedi_device *__cil_tmp76 ;
  unsigned long __cil_tmp77 ;
  char *__cil_tmp78 ;
  unsigned long __cil_tmp79 ;
  unsigned long __cil_tmp80 ;
  char const *__cil_tmp81 ;
  unsigned long __cil_tmp82 ;
  unsigned long __cil_tmp83 ;
  struct comedi_device *__cil_tmp84 ;
  unsigned long __cil_tmp85 ;
  unsigned long __cil_tmp86 ;
  unsigned int __cil_tmp87 ;
  struct BondedDevice *__cil_tmp88 ;
  unsigned long __cil_tmp89 ;
  unsigned long __cil_tmp90 ;
  unsigned long __cil_tmp91 ;
  unsigned long __cil_tmp92 ;
  unsigned long __cil_tmp93 ;
  unsigned long __cil_tmp94 ;
  unsigned long __cil_tmp95 ;
  unsigned long __cil_tmp96 ;
  unsigned long __cil_tmp97 ;
  unsigned long __cil_tmp98 ;
  unsigned long __cil_tmp99 ;
  unsigned long __cil_tmp100 ;
  unsigned long __cil_tmp101 ;
  unsigned long __cil_tmp102 ;
  void *__cil_tmp103 ;
  struct Private *__cil_tmp104 ;
  unsigned long __cil_tmp105 ;
  unsigned long __cil_tmp106 ;
  unsigned long __cil_tmp107 ;
  unsigned long __cil_tmp108 ;
  void *__cil_tmp109 ;
  struct Private *__cil_tmp110 ;
  unsigned long __cil_tmp111 ;
  unsigned long __cil_tmp112 ;
  unsigned long __cil_tmp113 ;
  unsigned long __cil_tmp114 ;
  void *__cil_tmp115 ;
  struct Private *__cil_tmp116 ;
  unsigned long __cil_tmp117 ;
  unsigned long __cil_tmp118 ;
  unsigned long __cil_tmp119 ;
  unsigned long __cil_tmp120 ;
  void *__cil_tmp121 ;
  struct Private *__cil_tmp122 ;
  unsigned long __cil_tmp123 ;
  unsigned long __cil_tmp124 ;
  unsigned int __cil_tmp125 ;
  unsigned long __cil_tmp126 ;
  unsigned long __cil_tmp127 ;
  unsigned long __cil_tmp128 ;
  unsigned long __cil_tmp129 ;
  void *__cil_tmp130 ;
  struct Private *__cil_tmp131 ;
  unsigned long __cil_tmp132 ;
  unsigned long __cil_tmp133 ;
  unsigned long __cil_tmp134 ;
  unsigned long __cil_tmp135 ;
  void *__cil_tmp136 ;
  struct Private *__cil_tmp137 ;
  unsigned long __cil_tmp138 ;
  unsigned long __cil_tmp139 ;
  unsigned int __cil_tmp140 ;
  unsigned int __cil_tmp141 ;
  unsigned long __cil_tmp142 ;
  unsigned long __cil_tmp143 ;
  void *__cil_tmp144 ;
  struct Private *__cil_tmp145 ;
  unsigned long __cil_tmp146 ;
  unsigned long __cil_tmp147 ;
  unsigned long __cil_tmp148 ;
  unsigned long __cil_tmp149 ;
  void *__cil_tmp150 ;
  struct Private *__cil_tmp151 ;
  unsigned long __cil_tmp152 ;
  unsigned long __cil_tmp153 ;
  unsigned int __cil_tmp154 ;
  unsigned long __cil_tmp155 ;
  unsigned long __cil_tmp156 ;
  void *__cil_tmp157 ;
  struct Private *__cil_tmp158 ;
  unsigned long __cil_tmp159 ;
  unsigned long __cil_tmp160 ;
  struct BondedDevice **__cil_tmp161 ;
  void const *__cil_tmp162 ;
  unsigned long __cil_tmp163 ;
  unsigned long __cil_tmp164 ;
  void *__cil_tmp165 ;
  struct Private *__cil_tmp166 ;
  unsigned long __cil_tmp167 ;
  unsigned long __cil_tmp168 ;
  unsigned int __cil_tmp169 ;
  unsigned long __cil_tmp170 ;
  unsigned long __cil_tmp171 ;
  size_t __cil_tmp172 ;
  unsigned long __cil_tmp173 ;
  unsigned long __cil_tmp174 ;
  void *__cil_tmp175 ;
  struct Private *__cil_tmp176 ;
  unsigned long __cil_tmp177 ;
  unsigned long __cil_tmp178 ;
  struct BondedDevice **__cil_tmp179 ;
  unsigned long __cil_tmp180 ;
  unsigned long __cil_tmp181 ;
  unsigned long __cil_tmp182 ;
  void *__cil_tmp183 ;
  struct Private *__cil_tmp184 ;
  unsigned long __cil_tmp185 ;
  unsigned long __cil_tmp186 ;
  struct BondedDevice **__cil_tmp187 ;
  unsigned long __cil_tmp188 ;
  unsigned long __cil_tmp189 ;
  unsigned long __cil_tmp190 ;
  void *__cil_tmp191 ;
  struct Private *__cil_tmp192 ;
  unsigned long __cil_tmp193 ;
  unsigned long __cil_tmp194 ;
  unsigned int __cil_tmp195 ;
  unsigned int __cil_tmp196 ;
  unsigned long __cil_tmp197 ;
  unsigned long __cil_tmp198 ;
  unsigned long __cil_tmp199 ;
  void *__cil_tmp200 ;
  struct Private *__cil_tmp201 ;
  unsigned long __cil_tmp202 ;
  unsigned long __cil_tmp203 ;
  struct BondedDevice **__cil_tmp204 ;
  struct BondedDevice **__cil_tmp205 ;
  unsigned long __cil_tmp206 ;
  unsigned long __cil_tmp207 ;
  void *__cil_tmp208 ;
  struct Private *__cil_tmp209 ;
  char (*__cil_tmp210)[256U] ;
  char const *__cil_tmp211 ;
  unsigned int __cil_tmp212 ;
  unsigned int __cil_tmp213 ;
  char *__cil_tmp214 ;
  unsigned long __cil_tmp215 ;
  unsigned long __cil_tmp216 ;
  int __cil_tmp217 ;
  unsigned long __cil_tmp218 ;
  unsigned long __cil_tmp219 ;
  unsigned int __cil_tmp220 ;
  unsigned long __cil_tmp221 ;
  unsigned long __cil_tmp222 ;
  unsigned long __cil_tmp223 ;
  unsigned long __cil_tmp224 ;
  void *__cil_tmp225 ;
  struct Private *__cil_tmp226 ;
  char (*__cil_tmp227)[256U] ;
  char *__cil_tmp228 ;
  char const *__cil_tmp229 ;
  __kernel_size_t __cil_tmp230 ;
  int __cil_tmp231 ;
  unsigned int __cil_tmp232 ;
  unsigned long __cil_tmp233 ;
  unsigned long __cil_tmp234 ;
  unsigned long __cil_tmp235 ;
  unsigned long __cil_tmp236 ;
  int __cil_tmp237 ;
  unsigned long __cil_tmp238 ;
  unsigned long __cil_tmp239 ;
  void *__cil_tmp240 ;
  struct Private *__cil_tmp241 ;
  unsigned long __cil_tmp242 ;
  unsigned long __cil_tmp243 ;
  unsigned int __cil_tmp244 ;
  {
  {
  __cil_tmp20 = (void *)(& devs_opened);
  memset(__cil_tmp20, 0, 384UL);
  __cil_tmp21 = 0 * 1UL;
  __cil_tmp22 = 0 + __cil_tmp21;
  __cil_tmp23 = (unsigned long )dev;
  __cil_tmp24 = __cil_tmp23 + 16;
  __cil_tmp25 = *((void **)__cil_tmp24);
  __cil_tmp26 = (struct Private *)__cil_tmp25;
  __cil_tmp27 = (unsigned long )__cil_tmp26;
  __cil_tmp28 = __cil_tmp27 + __cil_tmp22;
  *((char *)__cil_tmp28) = (char)0;
  i = 0;
  }
  goto ldv_19420;
  ldv_19419:
  __cil_tmp29 = 0 * 1UL;
  __cil_tmp30 = (unsigned long )(file) + __cil_tmp29;
  *((char *)__cil_tmp30) = (char )'/';
  __cil_tmp31 = 1 * 1UL;
  __cil_tmp32 = (unsigned long )(file) + __cil_tmp31;
  *((char *)__cil_tmp32) = (char )'d';
  __cil_tmp33 = 2 * 1UL;
  __cil_tmp34 = (unsigned long )(file) + __cil_tmp33;
  *((char *)__cil_tmp34) = (char )'e';
  __cil_tmp35 = 3 * 1UL;
  __cil_tmp36 = (unsigned long )(file) + __cil_tmp35;
  *((char *)__cil_tmp36) = (char )'v';
  __cil_tmp37 = 4 * 1UL;
  __cil_tmp38 = (unsigned long )(file) + __cil_tmp37;
  *((char *)__cil_tmp38) = (char )'/';
  __cil_tmp39 = 5 * 1UL;
  __cil_tmp40 = (unsigned long )(file) + __cil_tmp39;
  *((char *)__cil_tmp40) = (char )'c';
  __cil_tmp41 = 6 * 1UL;
  __cil_tmp42 = (unsigned long )(file) + __cil_tmp41;
  *((char *)__cil_tmp42) = (char )'o';
  __cil_tmp43 = 7 * 1UL;
  __cil_tmp44 = (unsigned long )(file) + __cil_tmp43;
  *((char *)__cil_tmp44) = (char )'m';
  __cil_tmp45 = 8 * 1UL;
  __cil_tmp46 = (unsigned long )(file) + __cil_tmp45;
  *((char *)__cil_tmp46) = (char )'e';
  __cil_tmp47 = 9 * 1UL;
  __cil_tmp48 = (unsigned long )(file) + __cil_tmp47;
  *((char *)__cil_tmp48) = (char )'d';
  __cil_tmp49 = 10 * 1UL;
  __cil_tmp50 = (unsigned long )(file) + __cil_tmp49;
  *((char *)__cil_tmp50) = (char )'i';
  __cil_tmp51 = 11 * 1UL;
  __cil_tmp52 = (unsigned long )(file) + __cil_tmp51;
  *((char *)__cil_tmp52) = (char )'X';
  __cil_tmp53 = 12 * 1UL;
  __cil_tmp54 = (unsigned long )(file) + __cil_tmp53;
  *((char *)__cil_tmp54) = (char )'X';
  __cil_tmp55 = 13 * 1UL;
  __cil_tmp56 = (unsigned long )(file) + __cil_tmp55;
  *((char *)__cil_tmp56) = (char )'X';
  __cil_tmp57 = 14 * 1UL;
  __cil_tmp58 = (unsigned long )(file) + __cil_tmp57;
  *((char *)__cil_tmp58) = (char )'X';
  __cil_tmp59 = 15 * 1UL;
  __cil_tmp60 = (unsigned long )(file) + __cil_tmp59;
  *((char *)__cil_tmp60) = (char )'X';
  __cil_tmp61 = 16 * 1UL;
  __cil_tmp62 = (unsigned long )(file) + __cil_tmp61;
  *((char *)__cil_tmp62) = (char )'X';
  __cil_tmp63 = 17 * 1UL;
  __cil_tmp64 = (unsigned long )(file) + __cil_tmp63;
  *((char *)__cil_tmp64) = (char )'\000';
  __cil_tmp65 = i * 4UL;
  __cil_tmp66 = 20 + __cil_tmp65;
  __cil_tmp67 = (unsigned long )it;
  __cil_tmp68 = __cil_tmp67 + __cil_tmp66;
  minor = *((int *)__cil_tmp68);
  sdev = -1;
  bdev = (struct BondedDevice *)0;
  if (minor < 0) {
    {
    printk("<3>comedi_bond: INTERNAL ERROR: Minor %d is invalid!\n", minor);
    }
    return (0);
  } else
  if (minor > 47) {
    {
    printk("<3>comedi_bond: INTERNAL ERROR: Minor %d is invalid!\n", minor);
    }
    return (0);
  } else {
  }
  {
  __cil_tmp69 = (unsigned long )dev;
  __cil_tmp70 = __cil_tmp69 + 32;
  __cil_tmp71 = *((int *)__cil_tmp70);
  if (__cil_tmp71 == minor) {
    {
    printk("<3>comedi_bond: INTERNAL ERROR: Cannot bond this driver to itself!\n");
    }
    return (0);
  } else {
  }
  }
  {
  __cil_tmp72 = (struct comedi_device *)0;
  __cil_tmp73 = (unsigned long )__cil_tmp72;
  __cil_tmp74 = minor * 8UL;
  __cil_tmp75 = (unsigned long )(devs_opened) + __cil_tmp74;
  __cil_tmp76 = *((struct comedi_device **)__cil_tmp75);
  __cil_tmp77 = (unsigned long )__cil_tmp76;
  if (__cil_tmp77 != __cil_tmp73) {
    {
    printk("<3>comedi_bond: INTERNAL ERROR: Minor %d specified more than once!\n",
           minor);
    }
    return (0);
  } else {
  }
  }
  {
  __cil_tmp78 = (char *)(& file);
  snprintf(__cil_tmp78, 18UL, "/dev/comedi%u", minor);
  __cil_tmp79 = 17UL * 1UL;
  __cil_tmp80 = (unsigned long )(file) + __cil_tmp79;
  *((char *)__cil_tmp80) = (char)0;
  __cil_tmp81 = (char const *)(& file);
  tmp___0 = comedi_open(__cil_tmp81);
  __cil_tmp82 = minor * 8UL;
  __cil_tmp83 = (unsigned long )(devs_opened) + __cil_tmp82;
  *((struct comedi_device **)__cil_tmp83) = tmp___0;
  d = tmp___0;
  }
  {
  __cil_tmp84 = (struct comedi_device *)0;
  __cil_tmp85 = (unsigned long )__cil_tmp84;
  __cil_tmp86 = (unsigned long )d;
  if (__cil_tmp86 == __cil_tmp85) {
    {
    printk("<3>comedi_bond: INTERNAL ERROR: Minor %u could not be opened\n", minor);
    }
    return (0);
  } else {
  }
  }
  goto ldv_19417;
  ldv_19416:
  {
  __cil_tmp87 = (unsigned int )sdev;
  nchans = comedi_get_n_channels(d, __cil_tmp87);
  }
  if (nchans <= 0) {
    {
    printk("<3>comedi_bond: INTERNAL ERROR: comedi_get_n_channels() returned %d on minor %u subdev %d!\n",
           nchans, minor, sdev);
    }
    return (0);
  } else {
  }
  {
  tmp___1 = kmalloc(32UL, 208U);
  bdev = (struct BondedDevice *)tmp___1;
  }
  {
  __cil_tmp88 = (struct BondedDevice *)0;
  __cil_tmp89 = (unsigned long )__cil_tmp88;
  __cil_tmp90 = (unsigned long )bdev;
  if (__cil_tmp90 == __cil_tmp89) {
    {
    printk("<3>comedi_bond: INTERNAL ERROR: Out of memory.\n");
    }
    return (0);
  } else {
  }
  }
  *((struct comedi_device **)bdev) = d;
  __cil_tmp91 = (unsigned long )bdev;
  __cil_tmp92 = __cil_tmp91 + 8;
  *((unsigned int *)__cil_tmp92) = (unsigned int )minor;
  __cil_tmp93 = (unsigned long )bdev;
  __cil_tmp94 = __cil_tmp93 + 12;
  *((unsigned int *)__cil_tmp94) = (unsigned int )sdev;
  __cil_tmp95 = (unsigned long )bdev;
  __cil_tmp96 = __cil_tmp95 + 16;
  *((unsigned int *)__cil_tmp96) = 5U;
  __cil_tmp97 = (unsigned long )bdev;
  __cil_tmp98 = __cil_tmp97 + 20;
  *((unsigned int *)__cil_tmp98) = (unsigned int )nchans;
  __cil_tmp99 = (unsigned long )bdev;
  __cil_tmp100 = __cil_tmp99 + 24;
  __cil_tmp101 = (unsigned long )dev;
  __cil_tmp102 = __cil_tmp101 + 16;
  __cil_tmp103 = *((void **)__cil_tmp102);
  __cil_tmp104 = (struct Private *)__cil_tmp103;
  __cil_tmp105 = (unsigned long )__cil_tmp104;
  __cil_tmp106 = __cil_tmp105 + 2320;
  *((unsigned int *)__cil_tmp100) = *((unsigned int *)__cil_tmp106);
  goto ldv_19412;
  ldv_19411:
  __cil_tmp107 = (unsigned long )dev;
  __cil_tmp108 = __cil_tmp107 + 16;
  __cil_tmp109 = *((void **)__cil_tmp108);
  __cil_tmp110 = (struct Private *)__cil_tmp109;
  __cil_tmp111 = (unsigned long )__cil_tmp110;
  __cil_tmp112 = __cil_tmp111 + 2320;
  tmp___2 = *((unsigned int *)__cil_tmp112);
  __cil_tmp113 = (unsigned long )dev;
  __cil_tmp114 = __cil_tmp113 + 16;
  __cil_tmp115 = *((void **)__cil_tmp114);
  __cil_tmp116 = (struct Private *)__cil_tmp115;
  __cil_tmp117 = (unsigned long )__cil_tmp116;
  __cil_tmp118 = __cil_tmp117 + 2320;
  __cil_tmp119 = (unsigned long )dev;
  __cil_tmp120 = __cil_tmp119 + 16;
  __cil_tmp121 = *((void **)__cil_tmp120);
  __cil_tmp122 = (struct Private *)__cil_tmp121;
  __cil_tmp123 = (unsigned long )__cil_tmp122;
  __cil_tmp124 = __cil_tmp123 + 2320;
  __cil_tmp125 = *((unsigned int *)__cil_tmp124);
  *((unsigned int *)__cil_tmp118) = __cil_tmp125 + 1U;
  __cil_tmp126 = tmp___2 * 8UL;
  __cil_tmp127 = 272 + __cil_tmp126;
  __cil_tmp128 = (unsigned long )dev;
  __cil_tmp129 = __cil_tmp128 + 16;
  __cil_tmp130 = *((void **)__cil_tmp129);
  __cil_tmp131 = (struct Private *)__cil_tmp130;
  __cil_tmp132 = (unsigned long )__cil_tmp131;
  __cil_tmp133 = __cil_tmp132 + __cil_tmp127;
  *((struct BondedDevice **)__cil_tmp133) = bdev;
  ldv_19412:
  tmp___3 = nchans;
  nchans = nchans - 1;
  if (tmp___3 != 0) {
    goto ldv_19411;
  } else {
    goto ldv_19413;
  }
  ldv_19413:
  {
  __cil_tmp134 = (unsigned long )dev;
  __cil_tmp135 = __cil_tmp134 + 16;
  __cil_tmp136 = *((void **)__cil_tmp135);
  __cil_tmp137 = (struct Private *)__cil_tmp136;
  __cil_tmp138 = (unsigned long )__cil_tmp137;
  __cil_tmp139 = __cil_tmp138 + 264;
  __cil_tmp140 = *((unsigned int *)__cil_tmp139);
  __cil_tmp141 = __cil_tmp140 * 8U;
  tmp = (int )__cil_tmp141;
  __cil_tmp142 = (unsigned long )dev;
  __cil_tmp143 = __cil_tmp142 + 16;
  __cil_tmp144 = *((void **)__cil_tmp143);
  __cil_tmp145 = (struct Private *)__cil_tmp144;
  __cil_tmp146 = (unsigned long )__cil_tmp145;
  __cil_tmp147 = __cil_tmp146 + 264;
  __cil_tmp148 = (unsigned long )dev;
  __cil_tmp149 = __cil_tmp148 + 16;
  __cil_tmp150 = *((void **)__cil_tmp149);
  __cil_tmp151 = (struct Private *)__cil_tmp150;
  __cil_tmp152 = (unsigned long )__cil_tmp151;
  __cil_tmp153 = __cil_tmp152 + 264;
  __cil_tmp154 = *((unsigned int *)__cil_tmp153);
  *((unsigned int *)__cil_tmp147) = __cil_tmp154 + 1U;
  __cil_tmp155 = (unsigned long )dev;
  __cil_tmp156 = __cil_tmp155 + 16;
  __cil_tmp157 = *((void **)__cil_tmp156);
  __cil_tmp158 = (struct Private *)__cil_tmp157;
  __cil_tmp159 = (unsigned long )__cil_tmp158;
  __cil_tmp160 = __cil_tmp159 + 256;
  __cil_tmp161 = *((struct BondedDevice ***)__cil_tmp160);
  __cil_tmp162 = (void const *)__cil_tmp161;
  __cil_tmp163 = (unsigned long )dev;
  __cil_tmp164 = __cil_tmp163 + 16;
  __cil_tmp165 = *((void **)__cil_tmp164);
  __cil_tmp166 = (struct Private *)__cil_tmp165;
  __cil_tmp167 = (unsigned long )__cil_tmp166;
  __cil_tmp168 = __cil_tmp167 + 264;
  __cil_tmp169 = *((unsigned int *)__cil_tmp168);
  __cil_tmp170 = (unsigned long )__cil_tmp169;
  __cil_tmp171 = __cil_tmp170 * 8UL;
  __cil_tmp172 = (size_t )tmp;
  tmp___4 = Realloc(__cil_tmp162, __cil_tmp171, __cil_tmp172);
  __cil_tmp173 = (unsigned long )dev;
  __cil_tmp174 = __cil_tmp173 + 16;
  __cil_tmp175 = *((void **)__cil_tmp174);
  __cil_tmp176 = (struct Private *)__cil_tmp175;
  __cil_tmp177 = (unsigned long )__cil_tmp176;
  __cil_tmp178 = __cil_tmp177 + 256;
  *((struct BondedDevice ***)__cil_tmp178) = (struct BondedDevice **)tmp___4;
  }
  {
  __cil_tmp179 = (struct BondedDevice **)0;
  __cil_tmp180 = (unsigned long )__cil_tmp179;
  __cil_tmp181 = (unsigned long )dev;
  __cil_tmp182 = __cil_tmp181 + 16;
  __cil_tmp183 = *((void **)__cil_tmp182);
  __cil_tmp184 = (struct Private *)__cil_tmp183;
  __cil_tmp185 = (unsigned long )__cil_tmp184;
  __cil_tmp186 = __cil_tmp185 + 256;
  __cil_tmp187 = *((struct BondedDevice ***)__cil_tmp186);
  __cil_tmp188 = (unsigned long )__cil_tmp187;
  if (__cil_tmp188 == __cil_tmp180) {
    {
    printk("<3>comedi_bond: INTERNAL ERROR: Could not allocate memory. Out of memory?");
    }
    return (0);
  } else {
  }
  }
  {
  __cil_tmp189 = (unsigned long )dev;
  __cil_tmp190 = __cil_tmp189 + 16;
  __cil_tmp191 = *((void **)__cil_tmp190);
  __cil_tmp192 = (struct Private *)__cil_tmp191;
  __cil_tmp193 = (unsigned long )__cil_tmp192;
  __cil_tmp194 = __cil_tmp193 + 264;
  __cil_tmp195 = *((unsigned int *)__cil_tmp194);
  __cil_tmp196 = __cil_tmp195 - 1U;
  __cil_tmp197 = (unsigned long )__cil_tmp196;
  __cil_tmp198 = (unsigned long )dev;
  __cil_tmp199 = __cil_tmp198 + 16;
  __cil_tmp200 = *((void **)__cil_tmp199);
  __cil_tmp201 = (struct Private *)__cil_tmp200;
  __cil_tmp202 = (unsigned long )__cil_tmp201;
  __cil_tmp203 = __cil_tmp202 + 256;
  __cil_tmp204 = *((struct BondedDevice ***)__cil_tmp203);
  __cil_tmp205 = __cil_tmp204 + __cil_tmp197;
  *__cil_tmp205 = bdev;
  __cil_tmp206 = (unsigned long )dev;
  __cil_tmp207 = __cil_tmp206 + 16;
  __cil_tmp208 = *((void **)__cil_tmp207);
  __cil_tmp209 = (struct Private *)__cil_tmp208;
  __cil_tmp210 = (char (*)[256U])__cil_tmp209;
  __cil_tmp211 = (char const *)__cil_tmp210;
  tmp___5 = strlen(__cil_tmp211);
  __cil_tmp212 = (unsigned int )tmp___5;
  __cil_tmp213 = 255U - __cil_tmp212;
  left = (int )__cil_tmp213;
  __cil_tmp214 = (char *)(& buf);
  __cil_tmp215 = (unsigned long )dev;
  __cil_tmp216 = __cil_tmp215 + 32;
  __cil_tmp217 = *((int *)__cil_tmp216);
  __cil_tmp218 = (unsigned long )bdev;
  __cil_tmp219 = __cil_tmp218 + 12;
  __cil_tmp220 = *((unsigned int *)__cil_tmp219);
  snprintf(__cil_tmp214, 20UL, "%d:%d ", __cil_tmp217, __cil_tmp220);
  __cil_tmp221 = 19UL * 1UL;
  __cil_tmp222 = (unsigned long )(buf) + __cil_tmp221;
  *((char *)__cil_tmp222) = (char)0;
  __cil_tmp223 = (unsigned long )dev;
  __cil_tmp224 = __cil_tmp223 + 16;
  __cil_tmp225 = *((void **)__cil_tmp224);
  __cil_tmp226 = (struct Private *)__cil_tmp225;
  __cil_tmp227 = (char (*)[256U])__cil_tmp226;
  __cil_tmp228 = (char *)__cil_tmp227;
  __cil_tmp229 = (char const *)(& buf);
  __cil_tmp230 = (__kernel_size_t )left;
  strncat(__cil_tmp228, __cil_tmp229, __cil_tmp230);
  }
  ldv_19417:
  {
  __cil_tmp231 = sdev + 1;
  __cil_tmp232 = (unsigned int )__cil_tmp231;
  sdev = comedi_find_subdevice_by_type(d, 5, __cil_tmp232);
  }
  if (sdev >= 0) {
    goto ldv_19416;
  } else {
    goto ldv_19418;
  }
  ldv_19418:
  i = i + 1;
  ldv_19420: ;
  if (i <= 31) {
    if (i == 0) {
      goto ldv_19419;
    } else {
      {
      __cil_tmp233 = i * 4UL;
      __cil_tmp234 = 20 + __cil_tmp233;
      __cil_tmp235 = (unsigned long )it;
      __cil_tmp236 = __cil_tmp235 + __cil_tmp234;
      __cil_tmp237 = *((int *)__cil_tmp236);
      if (__cil_tmp237 != 0) {
        goto ldv_19419;
      } else {
        goto ldv_19421;
      }
      }
    }
  } else {
    goto ldv_19421;
  }
  ldv_19421: ;
  {
  __cil_tmp238 = (unsigned long )dev;
  __cil_tmp239 = __cil_tmp238 + 16;
  __cil_tmp240 = *((void **)__cil_tmp239);
  __cil_tmp241 = (struct Private *)__cil_tmp240;
  __cil_tmp242 = (unsigned long )__cil_tmp241;
  __cil_tmp243 = __cil_tmp242 + 2320;
  __cil_tmp244 = *((unsigned int *)__cil_tmp243);
  if (__cil_tmp244 == 0U) {
    {
    printk("<3>comedi_bond: INTERNAL ERROR: No channels found!\n");
    }
    return (0);
  } else {
  }
  }
  return (1);
}
}
static void doDevUnconfig(struct comedi_device *dev )
{ unsigned long devs_closed ;
  struct BondedDevice *bdev ;
  unsigned int tmp ;
  void *__cil_tmp5 ;
  unsigned long __cil_tmp6 ;
  unsigned long __cil_tmp7 ;
  unsigned long __cil_tmp8 ;
  void *__cil_tmp9 ;
  unsigned long __cil_tmp10 ;
  unsigned long __cil_tmp11 ;
  unsigned long __cil_tmp12 ;
  void *__cil_tmp13 ;
  struct Private *__cil_tmp14 ;
  unsigned long __cil_tmp15 ;
  unsigned long __cil_tmp16 ;
  unsigned int __cil_tmp17 ;
  unsigned long __cil_tmp18 ;
  unsigned long __cil_tmp19 ;
  unsigned long __cil_tmp20 ;
  void *__cil_tmp21 ;
  struct Private *__cil_tmp22 ;
  unsigned long __cil_tmp23 ;
  unsigned long __cil_tmp24 ;
  struct BondedDevice **__cil_tmp25 ;
  struct BondedDevice **__cil_tmp26 ;
  struct BondedDevice *__cil_tmp27 ;
  unsigned long __cil_tmp28 ;
  unsigned long __cil_tmp29 ;
  unsigned long __cil_tmp30 ;
  unsigned long __cil_tmp31 ;
  unsigned int __cil_tmp32 ;
  int __cil_tmp33 ;
  int __cil_tmp34 ;
  unsigned long __cil_tmp35 ;
  unsigned long __cil_tmp36 ;
  struct comedi_device *__cil_tmp37 ;
  unsigned long __cil_tmp38 ;
  unsigned long __cil_tmp39 ;
  unsigned int __cil_tmp40 ;
  int __cil_tmp41 ;
  int __cil_tmp42 ;
  unsigned long __cil_tmp43 ;
  void const *__cil_tmp44 ;
  unsigned long __cil_tmp45 ;
  unsigned long __cil_tmp46 ;
  void *__cil_tmp47 ;
  struct Private *__cil_tmp48 ;
  unsigned long __cil_tmp49 ;
  unsigned long __cil_tmp50 ;
  unsigned long __cil_tmp51 ;
  unsigned long __cil_tmp52 ;
  void *__cil_tmp53 ;
  struct Private *__cil_tmp54 ;
  unsigned long __cil_tmp55 ;
  unsigned long __cil_tmp56 ;
  unsigned long __cil_tmp57 ;
  unsigned long __cil_tmp58 ;
  void *__cil_tmp59 ;
  struct Private *__cil_tmp60 ;
  unsigned long __cil_tmp61 ;
  unsigned long __cil_tmp62 ;
  unsigned int __cil_tmp63 ;
  struct BondedDevice **__cil_tmp64 ;
  unsigned long __cil_tmp65 ;
  unsigned long __cil_tmp66 ;
  unsigned long __cil_tmp67 ;
  void *__cil_tmp68 ;
  struct Private *__cil_tmp69 ;
  unsigned long __cil_tmp70 ;
  unsigned long __cil_tmp71 ;
  struct BondedDevice **__cil_tmp72 ;
  unsigned long __cil_tmp73 ;
  unsigned long __cil_tmp74 ;
  unsigned long __cil_tmp75 ;
  void *__cil_tmp76 ;
  struct Private *__cil_tmp77 ;
  unsigned long __cil_tmp78 ;
  unsigned long __cil_tmp79 ;
  struct BondedDevice **__cil_tmp80 ;
  void const *__cil_tmp81 ;
  unsigned long __cil_tmp82 ;
  unsigned long __cil_tmp83 ;
  void *__cil_tmp84 ;
  struct Private *__cil_tmp85 ;
  unsigned long __cil_tmp86 ;
  unsigned long __cil_tmp87 ;
  unsigned long __cil_tmp88 ;
  unsigned long __cil_tmp89 ;
  void *__cil_tmp90 ;
  void const *__cil_tmp91 ;
  unsigned long __cil_tmp92 ;
  unsigned long __cil_tmp93 ;
  {
  devs_closed = 0UL;
  {
  __cil_tmp5 = (void *)0;
  __cil_tmp6 = (unsigned long )__cil_tmp5;
  __cil_tmp7 = (unsigned long )dev;
  __cil_tmp8 = __cil_tmp7 + 16;
  __cil_tmp9 = *((void **)__cil_tmp8);
  __cil_tmp10 = (unsigned long )__cil_tmp9;
  if (__cil_tmp10 != __cil_tmp6) {
    goto ldv_19427;
    ldv_19428:
    __cil_tmp11 = (unsigned long )dev;
    __cil_tmp12 = __cil_tmp11 + 16;
    __cil_tmp13 = *((void **)__cil_tmp12);
    __cil_tmp14 = (struct Private *)__cil_tmp13;
    __cil_tmp15 = (unsigned long )__cil_tmp14;
    __cil_tmp16 = __cil_tmp15 + 264;
    __cil_tmp17 = *((unsigned int *)__cil_tmp16);
    __cil_tmp18 = (unsigned long )__cil_tmp17;
    __cil_tmp19 = (unsigned long )dev;
    __cil_tmp20 = __cil_tmp19 + 16;
    __cil_tmp21 = *((void **)__cil_tmp20);
    __cil_tmp22 = (struct Private *)__cil_tmp21;
    __cil_tmp23 = (unsigned long )__cil_tmp22;
    __cil_tmp24 = __cil_tmp23 + 256;
    __cil_tmp25 = *((struct BondedDevice ***)__cil_tmp24);
    __cil_tmp26 = __cil_tmp25 + __cil_tmp18;
    bdev = *__cil_tmp26;
    {
    __cil_tmp27 = (struct BondedDevice *)0;
    __cil_tmp28 = (unsigned long )__cil_tmp27;
    __cil_tmp29 = (unsigned long )bdev;
    if (__cil_tmp29 == __cil_tmp28) {
      goto ldv_19427;
    } else {
    }
    }
    {
    __cil_tmp30 = (unsigned long )bdev;
    __cil_tmp31 = __cil_tmp30 + 8;
    __cil_tmp32 = *((unsigned int *)__cil_tmp31);
    __cil_tmp33 = (int )__cil_tmp32;
    __cil_tmp34 = 1 << __cil_tmp33;
    __cil_tmp35 = (unsigned long )__cil_tmp34;
    __cil_tmp36 = __cil_tmp35 & devs_closed;
    if (__cil_tmp36 == 0UL) {
      {
      __cil_tmp37 = *((struct comedi_device **)bdev);
      comedi_close(__cil_tmp37);
      __cil_tmp38 = (unsigned long )bdev;
      __cil_tmp39 = __cil_tmp38 + 8;
      __cil_tmp40 = *((unsigned int *)__cil_tmp39);
      __cil_tmp41 = (int )__cil_tmp40;
      __cil_tmp42 = 1 << __cil_tmp41;
      __cil_tmp43 = (unsigned long )__cil_tmp42;
      devs_closed = __cil_tmp43 | devs_closed;
      }
    } else {
    }
    }
    {
    __cil_tmp44 = (void const *)bdev;
    kfree(__cil_tmp44);
    }
    ldv_19427:
    __cil_tmp45 = (unsigned long )dev;
    __cil_tmp46 = __cil_tmp45 + 16;
    __cil_tmp47 = *((void **)__cil_tmp46);
    __cil_tmp48 = (struct Private *)__cil_tmp47;
    __cil_tmp49 = (unsigned long )__cil_tmp48;
    __cil_tmp50 = __cil_tmp49 + 264;
    tmp = *((unsigned int *)__cil_tmp50);
    __cil_tmp51 = (unsigned long )dev;
    __cil_tmp52 = __cil_tmp51 + 16;
    __cil_tmp53 = *((void **)__cil_tmp52);
    __cil_tmp54 = (struct Private *)__cil_tmp53;
    __cil_tmp55 = (unsigned long )__cil_tmp54;
    __cil_tmp56 = __cil_tmp55 + 264;
    __cil_tmp57 = (unsigned long )dev;
    __cil_tmp58 = __cil_tmp57 + 16;
    __cil_tmp59 = *((void **)__cil_tmp58);
    __cil_tmp60 = (struct Private *)__cil_tmp59;
    __cil_tmp61 = (unsigned long )__cil_tmp60;
    __cil_tmp62 = __cil_tmp61 + 264;
    __cil_tmp63 = *((unsigned int *)__cil_tmp62);
    *((unsigned int *)__cil_tmp56) = __cil_tmp63 - 1U;
    if (tmp != 0U) {
      {
      __cil_tmp64 = (struct BondedDevice **)0;
      __cil_tmp65 = (unsigned long )__cil_tmp64;
      __cil_tmp66 = (unsigned long )dev;
      __cil_tmp67 = __cil_tmp66 + 16;
      __cil_tmp68 = *((void **)__cil_tmp67);
      __cil_tmp69 = (struct Private *)__cil_tmp68;
      __cil_tmp70 = (unsigned long )__cil_tmp69;
      __cil_tmp71 = __cil_tmp70 + 256;
      __cil_tmp72 = *((struct BondedDevice ***)__cil_tmp71);
      __cil_tmp73 = (unsigned long )__cil_tmp72;
      if (__cil_tmp73 != __cil_tmp65) {
        goto ldv_19428;
      } else {
        goto ldv_19429;
      }
      }
    } else {
      goto ldv_19429;
    }
    ldv_19429:
    {
    __cil_tmp74 = (unsigned long )dev;
    __cil_tmp75 = __cil_tmp74 + 16;
    __cil_tmp76 = *((void **)__cil_tmp75);
    __cil_tmp77 = (struct Private *)__cil_tmp76;
    __cil_tmp78 = (unsigned long )__cil_tmp77;
    __cil_tmp79 = __cil_tmp78 + 256;
    __cil_tmp80 = *((struct BondedDevice ***)__cil_tmp79);
    __cil_tmp81 = (void const *)__cil_tmp80;
    kfree(__cil_tmp81);
    __cil_tmp82 = (unsigned long )dev;
    __cil_tmp83 = __cil_tmp82 + 16;
    __cil_tmp84 = *((void **)__cil_tmp83);
    __cil_tmp85 = (struct Private *)__cil_tmp84;
    __cil_tmp86 = (unsigned long )__cil_tmp85;
    __cil_tmp87 = __cil_tmp86 + 256;
    *((struct BondedDevice ***)__cil_tmp87) = (struct BondedDevice **)0;
    __cil_tmp88 = (unsigned long )dev;
    __cil_tmp89 = __cil_tmp88 + 16;
    __cil_tmp90 = *((void **)__cil_tmp89);
    __cil_tmp91 = (void const *)__cil_tmp90;
    kfree(__cil_tmp91);
    __cil_tmp92 = (unsigned long )dev;
    __cil_tmp93 = __cil_tmp92 + 16;
    *((void **)__cil_tmp93) = (void *)0;
    }
  } else {
  }
  }
  return;
}
}
static int init(void)
{ int tmp ;
  {
  {
  tmp = comedi_driver_register(& driver_bonding);
  }
  return (tmp);
}
}
static void cleanup(void)
{
  {
  {
  comedi_driver_unregister(& driver_bonding);
  }
  return;
}
}
extern void ldv_check_final_state(void) ;
extern void ldv_initialize(void) ;
extern int __VERIFIER_nondet_int(void) ;
int LDV_IN_INTERRUPT ;
void main(void)
{ struct comedi_device *var_group1 ;
  struct comedi_devconfig *var_group2 ;
  int tmp ;
  int tmp___0 ;
  int tmp___1 ;
  {
  {
  LDV_IN_INTERRUPT = 1;
  ldv_initialize();
  tmp = init();
  }
  if (tmp != 0) {
    goto ldv_final;
  } else {
  }
  goto ldv_19466;
  ldv_19465:
  {
  tmp___0 = __VERIFIER_nondet_int();
  }
  if (tmp___0 == 0) {
    goto case_0;
  } else
  if (tmp___0 == 1) {
    goto case_1;
  } else {
    {
    goto switch_default;
    if (0) {
      case_0:
      {
      bonding_attach(var_group1, var_group2);
      }
      goto ldv_19462;
      case_1:
      {
      bonding_detach(var_group1);
      }
      goto ldv_19462;
      switch_default: ;
      goto ldv_19462;
    } else {
      switch_break: ;
    }
    }
  }
  ldv_19462: ;
  ldv_19466:
  {
  tmp___1 = __VERIFIER_nondet_int();
  }
  if (tmp___1 != 0) {
    goto ldv_19465;
  } else {
    goto ldv_19467;
  }
  ldv_19467: ;
  {
  cleanup();
  }
  ldv_final:
  {
  ldv_check_final_state();
  }
  return;
}
}
void ldv_blast_assert(void)
{
  {
  ERROR: {reach_error();abort();}
}
}
extern int __VERIFIER_nondet_int(void) ;
int ldv_spin = 0;
void ldv_check_alloc_flags(gfp_t flags )
{
  {
  if (ldv_spin != 0) {
    if (flags != 32U) {
      {
      ldv_blast_assert();
      }
    } else {
    }
  } else {
  }
  return;
}
}
extern struct page *ldv_some_page(void) ;
struct page *ldv_check_alloc_flags_and_return_some_page(gfp_t flags )
{ struct page *tmp ;
  {
  if (ldv_spin != 0) {
    if (flags != 32U) {
      {
      ldv_blast_assert();
      }
    } else {
    }
  } else {
  }
  {
  tmp = ldv_some_page();
  }
  return (tmp);
}
}
void ldv_check_alloc_nonatomic(void)
{
  {
  if (ldv_spin != 0) {
    {
    ldv_blast_assert();
    }
  } else {
  }
  return;
}
}
void ldv_spin_lock(void)
{
  {
  ldv_spin = 1;
  return;
}
}
void ldv_spin_unlock(void)
{
  {
  ldv_spin = 0;
  return;
}
}
int ldv_spin_trylock(void)
{ int is_lock ;
  {
  {
  is_lock = __VERIFIER_nondet_int();
  }
  if (is_lock != 0) {
    return (0);
  } else {
    ldv_spin = 1;
    return (1);
  }
}
}
void *ldv_malloc(size_t size ) ;
 static void *kmalloc(size_t size , gfp_t flags )
{
  {
  {
  ldv_check_alloc_flags(flags);
  ldv_kmalloc_12(size, flags);
  }
  return ((void *)0);
}
}
void *ldv_calloc(size_t nmemb , size_t size ) ;
 static void *kcalloc(size_t n , size_t size , gfp_t flags )
{
  {
  {
  ldv_check_alloc_flags(flags);
  ldv_kcalloc_14(n, size, flags);
  }
  return ((void *)0);
}
}
void *ldv_kmem_cache_alloc_16(struct kmem_cache *ldv_func_arg1 , gfp_t ldv_func_arg2 )
{
  {
  {
  ldv_check_alloc_flags(ldv_func_arg2);
  kmem_cache_alloc(ldv_func_arg1, ldv_func_arg2);
  }
  return ((void *)0);
}
}
void *ldv_zalloc(size_t size ) ;
extern _Bool __VERIFIER_nondet_bool(void) ;
extern void *calloc(size_t, size_t) ;
void *ldv_zalloc(size_t size )
{
  if(__VERIFIER_nondet_bool()) return 0;
  return calloc(1UL, size);
}
 static void *kzalloc(size_t size , gfp_t flags )
{ void *tmp ;
  {
  {
  ldv_check_alloc_flags(flags);
  tmp = ldv_zalloc(size);
  }
  return (tmp);
}
}
void __raw_spin_lock_init(raw_spinlock_t *arg0, const char *arg1, struct lock_class_key *arg2) {
  return;
}
int __VERIFIER_nondet_int(void);
int comedi_close(struct comedi_device *arg0) {
  return __VERIFIER_nondet_int();
}
int __VERIFIER_nondet_int(void);
int comedi_dio_bitfield(struct comedi_device *arg0, unsigned int arg1, unsigned int arg2, unsigned int *arg3) {
  return __VERIFIER_nondet_int();
}
int __VERIFIER_nondet_int(void);
int comedi_dio_config(struct comedi_device *arg0, unsigned int arg1, unsigned int arg2, unsigned int arg3) {
  return __VERIFIER_nondet_int();
}
int __VERIFIER_nondet_int(void);
int comedi_driver_register(struct comedi_driver *arg0) {
  return __VERIFIER_nondet_int();
}
int __VERIFIER_nondet_int(void);
int comedi_driver_unregister(struct comedi_driver *arg0) {
  return __VERIFIER_nondet_int();
}
int __VERIFIER_nondet_int(void);
int comedi_find_subdevice_by_type(struct comedi_device *arg0, int arg1, unsigned int arg2) {
  return __VERIFIER_nondet_int();
}
int __VERIFIER_nondet_int(void);
int comedi_get_n_channels(struct comedi_device *arg0, unsigned int arg1) {
  return __VERIFIER_nondet_int();
}
struct comedi_device *comedi_open(const char *arg0) {
  return ldv_malloc(sizeof(struct comedi_device));
}
void *kmem_cache_alloc(struct kmem_cache *arg0, gfp_t arg1) {
  return ldv_malloc(0UL);
}
void ldv_check_final_state() {
  return;
}
void ldv_initialize() {
  return;
}
struct page *ldv_some_page() {
  return ldv_malloc(sizeof(struct page));
}
int __VERIFIER_nondet_int(void);
int printk(const char *arg0, ...) {
  return __VERIFIER_nondet_int();
}
void free(void *);
void kfree(void const *p) {
  free((void *)p);
}
