extern void abort(void);

extern void __assert_fail (const char *__assertion, const char *__file,
      unsigned int __line, const char *__function)
     __attribute__ ((__nothrow__ , __leaf__)) __attribute__ ((__noreturn__));
extern void __assert_perror_fail (int __errnum, const char *__file,
      unsigned int __line, const char *__function)
     __attribute__ ((__nothrow__ , __leaf__)) __attribute__ ((__noreturn__));
extern void __assert (const char *__assertion, const char *__file, int __line)
     __attribute__ ((__nothrow__ , __leaf__)) __attribute__ ((__noreturn__));

void reach_error() { ((void) sizeof ((0) ? 1 : 0), __extension__ ({ if (0) ; else __assert_fail ("0", "43_1a_cilled_ok_nondet_linux-43_1a-drivers--input--joystick--turbografx.ko-ldv_main0_sequence_infinite_withcheck_stateful.cil.out.c", 3, __extension__ __PRETTY_FUNCTION__); })); }
typedef signed char __s8;
typedef unsigned char __u8;
typedef short __s16;
typedef unsigned short __u16;
typedef int __s32;
typedef unsigned int __u32;
typedef unsigned long long __u64;
typedef unsigned char u8;
typedef short s16;
typedef unsigned short u16;
typedef int s32;
typedef unsigned int u32;
typedef long long s64;
typedef unsigned long long u64;
typedef long __kernel_long_t;
typedef unsigned long __kernel_ulong_t;
typedef unsigned int __kernel_uid32_t;
typedef unsigned int __kernel_gid32_t;
typedef __kernel_ulong_t __kernel_size_t;
typedef __kernel_long_t __kernel_ssize_t;
typedef long long __kernel_loff_t;
typedef __kernel_long_t __kernel_time_t;
typedef __u32 __kernel_dev_t;
typedef __kernel_dev_t dev_t;
typedef unsigned short umode_t;
typedef _Bool bool;
typedef __kernel_uid32_t uid_t;
typedef __kernel_gid32_t gid_t;
typedef __kernel_loff_t loff_t;
typedef __kernel_size_t size_t;
typedef __kernel_ssize_t ssize_t;
typedef __kernel_time_t time_t;
typedef unsigned long sector_t;
typedef unsigned long blkcnt_t;
typedef unsigned int gfp_t;
typedef unsigned int fmode_t;
struct __anonstruct_atomic_t_6 {
   int counter ;
};
typedef struct __anonstruct_atomic_t_6 atomic_t;
struct __anonstruct_atomic64_t_7 {
   long counter ;
};
typedef struct __anonstruct_atomic64_t_7 atomic64_t;
struct list_head {
   struct list_head *next ;
   struct list_head *prev ;
};
struct hlist_node;
struct hlist_head {
   struct hlist_node *first ;
};
struct hlist_node {
   struct hlist_node *next ;
   struct hlist_node **pprev ;
};
struct rcu_head {
   struct rcu_head *next ;
   void (*func)(struct rcu_head * ) ;
};
struct module;
struct module;
typedef void (*ctor_fn_t)(void);
struct device;
struct device;
struct completion;
struct completion;
struct pid;
struct pid;
struct timespec;
struct timespec;
struct page;
struct page;
struct task_struct;
struct task_struct;
struct file;
struct file;
struct seq_file;
struct seq_file;
struct arch_spinlock;
struct arch_spinlock;
struct bug_entry {
   int bug_addr_disp ;
   int file_disp ;
   unsigned short line ;
   unsigned short flags ;
};
struct static_key;
struct static_key;
struct kmem_cache;
typedef atomic64_t atomic_long_t;
typedef u16 __ticket_t;
typedef u32 __ticketpair_t;
struct __raw_tickets {
   __ticket_t head ;
   __ticket_t tail ;
};
union __anonunion_ldv_5907_29 {
   __ticketpair_t head_tail ;
   struct __raw_tickets tickets ;
};
struct arch_spinlock {
   union __anonunion_ldv_5907_29 ldv_5907 ;
};
typedef struct arch_spinlock arch_spinlock_t;
struct __anonstruct_ldv_5914_31 {
   u32 read ;
   s32 write ;
};
union __anonunion_arch_rwlock_t_30 {
   s64 lock ;
   struct __anonstruct_ldv_5914_31 ldv_5914 ;
};
typedef union __anonunion_arch_rwlock_t_30 arch_rwlock_t;
struct lockdep_map;
struct lockdep_map;
struct stack_trace {
   unsigned int nr_entries ;
   unsigned int max_entries ;
   unsigned long *entries ;
   int skip ;
};
struct lockdep_subclass_key {
   char __one_byte ;
};
struct lock_class_key {
   struct lockdep_subclass_key subkeys[8U] ;
};
struct lock_class {
   struct list_head hash_entry ;
   struct list_head lock_entry ;
   struct lockdep_subclass_key *key ;
   unsigned int subclass ;
   unsigned int dep_gen_id ;
   unsigned long usage_mask ;
   struct stack_trace usage_traces[13U] ;
   struct list_head locks_after ;
   struct list_head locks_before ;
   unsigned int version ;
   unsigned long ops ;
   char const *name ;
   int name_version ;
   unsigned long contention_point[4U] ;
   unsigned long contending_point[4U] ;
};
struct lockdep_map {
   struct lock_class_key *key ;
   struct lock_class *class_cache[2U] ;
   char const *name ;
   int cpu ;
   unsigned long ip ;
};
struct raw_spinlock {
   arch_spinlock_t raw_lock ;
   unsigned int magic ;
   unsigned int owner_cpu ;
   void *owner ;
   struct lockdep_map dep_map ;
};
typedef struct raw_spinlock raw_spinlock_t;
struct __anonstruct_ldv_6122_33 {
   u8 __padding[24U] ;
   struct lockdep_map dep_map ;
};
union __anonunion_ldv_6123_32 {
   struct raw_spinlock rlock ;
   struct __anonstruct_ldv_6122_33 ldv_6122 ;
};
struct spinlock {
   union __anonunion_ldv_6123_32 ldv_6123 ;
};
typedef struct spinlock spinlock_t;
struct __anonstruct_rwlock_t_34 {
   arch_rwlock_t raw_lock ;
   unsigned int magic ;
   unsigned int owner_cpu ;
   void *owner ;
   struct lockdep_map dep_map ;
};
typedef struct __anonstruct_rwlock_t_34 rwlock_t;
struct seqcount {
   unsigned int sequence ;
};
typedef struct seqcount seqcount_t;
struct timespec {
   __kernel_time_t tv_sec ;
   long tv_nsec ;
};
struct kstat {
   u64 ino ;
   dev_t dev ;
   umode_t mode ;
   unsigned int nlink ;
   uid_t uid ;
   gid_t gid ;
   dev_t rdev ;
   loff_t size ;
   struct timespec atime ;
   struct timespec mtime ;
   struct timespec ctime ;
   unsigned long blksize ;
   unsigned long long blocks ;
};
struct __wait_queue_head {
   spinlock_t lock ;
   struct list_head task_list ;
};
typedef struct __wait_queue_head wait_queue_head_t;
struct mutex {
   atomic_t count ;
   spinlock_t wait_lock ;
   struct list_head wait_list ;
   struct task_struct *owner ;
   char const *name ;
   void *magic ;
   struct lockdep_map dep_map ;
};
struct rw_semaphore;
struct rw_semaphore;
struct rw_semaphore {
   long count ;
   raw_spinlock_t wait_lock ;
   struct list_head wait_list ;
   struct lockdep_map dep_map ;
};
struct completion {
   unsigned int done ;
   wait_queue_head_t wait ;
};
union ktime {
   s64 tv64 ;
};
typedef union ktime ktime_t;
struct tvec_base;
struct tvec_base;
struct timer_list {
   struct list_head entry ;
   unsigned long expires ;
   struct tvec_base *base ;
   void (*function)(unsigned long ) ;
   unsigned long data ;
   int slack ;
   int start_pid ;
   void *start_site ;
   char start_comm[16U] ;
   struct lockdep_map lockdep_map ;
};
struct work_struct;
struct work_struct;
struct work_struct {
   atomic_long_t data ;
   struct list_head entry ;
   void (*func)(struct work_struct * ) ;
   struct lockdep_map lockdep_map ;
};
struct pm_message {
   int event ;
};
typedef struct pm_message pm_message_t;
struct dev_pm_ops {
   int (*prepare)(struct device * ) ;
   void (*complete)(struct device * ) ;
   int (*suspend)(struct device * ) ;
   int (*resume)(struct device * ) ;
   int (*freeze)(struct device * ) ;
   int (*thaw)(struct device * ) ;
   int (*poweroff)(struct device * ) ;
   int (*restore)(struct device * ) ;
   int (*suspend_late)(struct device * ) ;
   int (*resume_early)(struct device * ) ;
   int (*freeze_late)(struct device * ) ;
   int (*thaw_early)(struct device * ) ;
   int (*poweroff_late)(struct device * ) ;
   int (*restore_early)(struct device * ) ;
   int (*suspend_noirq)(struct device * ) ;
   int (*resume_noirq)(struct device * ) ;
   int (*freeze_noirq)(struct device * ) ;
   int (*thaw_noirq)(struct device * ) ;
   int (*poweroff_noirq)(struct device * ) ;
   int (*restore_noirq)(struct device * ) ;
   int (*runtime_suspend)(struct device * ) ;
   int (*runtime_resume)(struct device * ) ;
   int (*runtime_idle)(struct device * ) ;
};
enum rpm_status {
    RPM_ACTIVE = 0,
    RPM_RESUMING = 1,
    RPM_SUSPENDED = 2,
    RPM_SUSPENDING = 3
} ;
enum rpm_request {
    RPM_REQ_NONE = 0,
    RPM_REQ_IDLE = 1,
    RPM_REQ_SUSPEND = 2,
    RPM_REQ_AUTOSUSPEND = 3,
    RPM_REQ_RESUME = 4
} ;
struct wakeup_source;
struct wakeup_source;
struct pm_subsys_data {
   spinlock_t lock ;
   unsigned int refcount ;
};
struct dev_pm_qos_request;
struct pm_qos_constraints;
struct dev_pm_info {
   pm_message_t power_state ;
   unsigned char can_wakeup : 1 ;
   unsigned char async_suspend : 1 ;
   bool is_prepared ;
   bool is_suspended ;
   bool ignore_children ;
   spinlock_t lock ;
   struct list_head entry ;
   struct completion completion ;
   struct wakeup_source *wakeup ;
   bool wakeup_path ;
   struct timer_list suspend_timer ;
   unsigned long timer_expires ;
   struct work_struct work ;
   wait_queue_head_t wait_queue ;
   atomic_t usage_count ;
   atomic_t child_count ;
   unsigned char disable_depth : 3 ;
   unsigned char idle_notification : 1 ;
   unsigned char request_pending : 1 ;
   unsigned char deferred_resume : 1 ;
   unsigned char run_wake : 1 ;
   unsigned char runtime_auto : 1 ;
   unsigned char no_callbacks : 1 ;
   unsigned char irq_safe : 1 ;
   unsigned char use_autosuspend : 1 ;
   unsigned char timer_autosuspends : 1 ;
   enum rpm_request request ;
   enum rpm_status runtime_status ;
   int runtime_error ;
   int autosuspend_delay ;
   unsigned long last_busy ;
   unsigned long active_jiffies ;
   unsigned long suspended_jiffies ;
   unsigned long accounting_timestamp ;
   ktime_t suspend_time ;
   s64 max_time_suspended_ns ;
   struct dev_pm_qos_request *pq_req ;
   struct pm_subsys_data *subsys_data ;
   struct pm_qos_constraints *constraints ;
};
struct dev_pm_domain {
   struct dev_pm_ops ops ;
};
struct vm_area_struct;
struct vm_area_struct;
struct cred;
struct cred;
typedef __u64 Elf64_Addr;
typedef __u16 Elf64_Half;
typedef __u32 Elf64_Word;
typedef __u64 Elf64_Xword;
struct elf64_sym {
   Elf64_Word st_name ;
   unsigned char st_info ;
   unsigned char st_other ;
   Elf64_Half st_shndx ;
   Elf64_Addr st_value ;
   Elf64_Xword st_size ;
};
typedef struct elf64_sym Elf64_Sym;
struct sock;
struct sock;
struct kobject;
struct kobject;
enum kobj_ns_type {
    KOBJ_NS_TYPE_NONE = 0,
    KOBJ_NS_TYPE_NET = 1,
    KOBJ_NS_TYPES = 2
} ;
struct kobj_ns_type_operations {
   enum kobj_ns_type type ;
   void *(*grab_current_ns)(void) ;
   void const *(*netlink_ns)(struct sock * ) ;
   void const *(*initial_ns)(void) ;
   void (*drop_ns)(void * ) ;
};
struct attribute {
   char const *name ;
   umode_t mode ;
   struct lock_class_key *key ;
   struct lock_class_key skey ;
};
struct attribute_group {
   char const *name ;
   umode_t (*is_visible)(struct kobject * , struct attribute * , int ) ;
   struct attribute **attrs ;
};
struct bin_attribute {
   struct attribute attr ;
   size_t size ;
   void *private ;
   ssize_t (*read)(struct file * , struct kobject * , struct bin_attribute * , char * ,
                   loff_t , size_t ) ;
   ssize_t (*write)(struct file * , struct kobject * , struct bin_attribute * , char * ,
                    loff_t , size_t ) ;
   int (*mmap)(struct file * , struct kobject * , struct bin_attribute * , struct vm_area_struct * ) ;
};
struct sysfs_ops {
   ssize_t (*show)(struct kobject * , struct attribute * , char * ) ;
   ssize_t (*store)(struct kobject * , struct attribute * , char const * , size_t ) ;
   void const *(*namespace)(struct kobject * , struct attribute const * ) ;
};
struct sysfs_dirent;
struct sysfs_dirent;
struct kref {
   atomic_t refcount ;
};
struct kset;
struct kobj_type;
struct kobject {
   char const *name ;
   struct list_head entry ;
   struct kobject *parent ;
   struct kset *kset ;
   struct kobj_type *ktype ;
   struct sysfs_dirent *sd ;
   struct kref kref ;
   unsigned char state_initialized : 1 ;
   unsigned char state_in_sysfs : 1 ;
   unsigned char state_add_uevent_sent : 1 ;
   unsigned char state_remove_uevent_sent : 1 ;
   unsigned char uevent_suppress : 1 ;
};
struct kobj_type {
   void (*release)(struct kobject * ) ;
   struct sysfs_ops const *sysfs_ops ;
   struct attribute **default_attrs ;
   struct kobj_ns_type_operations const *(*child_ns_type)(struct kobject * ) ;
   void const *(*namespace)(struct kobject * ) ;
};
struct kobj_uevent_env {
   char *envp[32U] ;
   int envp_idx ;
   char buf[2048U] ;
   int buflen ;
};
struct kset_uevent_ops {
   int (* const filter)(struct kset * , struct kobject * ) ;
   char const *(* const name)(struct kset * , struct kobject * ) ;
   int (* const uevent)(struct kset * , struct kobject * , struct kobj_uevent_env * ) ;
};
struct kset {
   struct list_head list ;
   spinlock_t list_lock ;
   struct kobject kobj ;
   struct kset_uevent_ops const *uevent_ops ;
};
struct kernel_param;
struct kernel_param;
struct kernel_param_ops {
   int (*set)(char const * , struct kernel_param const * ) ;
   int (*get)(char * , struct kernel_param const * ) ;
   void (*free)(void * ) ;
};
struct kparam_string;
struct kparam_array;
union __anonunion_ldv_13363_134 {
   void *arg ;
   struct kparam_string const *str ;
   struct kparam_array const *arr ;
};
struct kernel_param {
   char const *name ;
   struct kernel_param_ops const *ops ;
   u16 perm ;
   s16 level ;
   union __anonunion_ldv_13363_134 ldv_13363 ;
};
struct kparam_string {
   unsigned int maxlen ;
   char *string ;
};
struct kparam_array {
   unsigned int max ;
   unsigned int elemsize ;
   unsigned int *num ;
   struct kernel_param_ops const *ops ;
   void *elem ;
};
struct static_key {
   atomic_t enabled ;
};
struct tracepoint;
struct tracepoint;
struct tracepoint_func {
   void *func ;
   void *data ;
};
struct tracepoint {
   char const *name ;
   struct static_key key ;
   void (*regfunc)(void) ;
   void (*unregfunc)(void) ;
   struct tracepoint_func *funcs ;
};
struct kernel_symbol {
   unsigned long value ;
   char const *name ;
};
struct mod_arch_specific {
};
struct module_param_attrs;
struct module_kobject {
   struct kobject kobj ;
   struct module *mod ;
   struct kobject *drivers_dir ;
   struct module_param_attrs *mp ;
};
struct module_attribute {
   struct attribute attr ;
   ssize_t (*show)(struct module_attribute * , struct module_kobject * , char * ) ;
   ssize_t (*store)(struct module_attribute * , struct module_kobject * , char const * ,
                    size_t ) ;
   void (*setup)(struct module * , char const * ) ;
   int (*test)(struct module * ) ;
   void (*free)(struct module * ) ;
};
struct exception_table_entry;
struct exception_table_entry;
enum module_state {
    MODULE_STATE_LIVE = 0,
    MODULE_STATE_COMING = 1,
    MODULE_STATE_GOING = 2
} ;
struct module_ref {
   unsigned long incs ;
   unsigned long decs ;
};
struct module_sect_attrs;
struct module_notes_attrs;
struct ftrace_event_call;
struct module {
   enum module_state state ;
   struct list_head list ;
   char name[56U] ;
   struct module_kobject mkobj ;
   struct module_attribute *modinfo_attrs ;
   char const *version ;
   char const *srcversion ;
   struct kobject *holders_dir ;
   struct kernel_symbol const *syms ;
   unsigned long const *crcs ;
   unsigned int num_syms ;
   struct kernel_param *kp ;
   unsigned int num_kp ;
   unsigned int num_gpl_syms ;
   struct kernel_symbol const *gpl_syms ;
   unsigned long const *gpl_crcs ;
   struct kernel_symbol const *unused_syms ;
   unsigned long const *unused_crcs ;
   unsigned int num_unused_syms ;
   unsigned int num_unused_gpl_syms ;
   struct kernel_symbol const *unused_gpl_syms ;
   unsigned long const *unused_gpl_crcs ;
   struct kernel_symbol const *gpl_future_syms ;
   unsigned long const *gpl_future_crcs ;
   unsigned int num_gpl_future_syms ;
   unsigned int num_exentries ;
   struct exception_table_entry *extable ;
   int (*init)(void) ;
   void *module_init ;
   void *module_core ;
   unsigned int init_size ;
   unsigned int core_size ;
   unsigned int init_text_size ;
   unsigned int core_text_size ;
   unsigned int init_ro_size ;
   unsigned int core_ro_size ;
   struct mod_arch_specific arch ;
   unsigned int taints ;
   unsigned int num_bugs ;
   struct list_head bug_list ;
   struct bug_entry *bug_table ;
   Elf64_Sym *symtab ;
   Elf64_Sym *core_symtab ;
   unsigned int num_symtab ;
   unsigned int core_num_syms ;
   char *strtab ;
   char *core_strtab ;
   struct module_sect_attrs *sect_attrs ;
   struct module_notes_attrs *notes_attrs ;
   char *args ;
   void *percpu ;
   unsigned int percpu_size ;
   unsigned int num_tracepoints ;
   struct tracepoint * const *tracepoints_ptrs ;
   unsigned int num_trace_bprintk_fmt ;
   char const **trace_bprintk_fmt_start ;
   struct ftrace_event_call **trace_events ;
   unsigned int num_trace_events ;
   struct list_head source_list ;
   struct list_head target_list ;
   struct task_struct *waiter ;
   void (*exit)(void) ;
   struct module_ref *refptr ;
   ctor_fn_t (**ctors)(void) ;
   unsigned int num_ctors ;
};
struct kmem_cache_cpu {
   void **freelist ;
   unsigned long tid ;
   struct page *page ;
   struct page *partial ;
   int node ;
   unsigned int stat[26U] ;
};
struct kmem_cache_node {
   spinlock_t list_lock ;
   unsigned long nr_partial ;
   struct list_head partial ;
   atomic_long_t nr_slabs ;
   atomic_long_t total_objects ;
   struct list_head full ;
};
struct kmem_cache_order_objects {
   unsigned long x ;
};
struct kmem_cache {
   struct kmem_cache_cpu *cpu_slab ;
   unsigned long flags ;
   unsigned long min_partial ;
   int size ;
   int objsize ;
   int offset ;
   int cpu_partial ;
   struct kmem_cache_order_objects oo ;
   struct kmem_cache_order_objects max ;
   struct kmem_cache_order_objects min ;
   gfp_t allocflags ;
   int refcount ;
   void (*ctor)(void * ) ;
   int inuse ;
   int align ;
   int reserved ;
   char const *name ;
   struct list_head list ;
   struct kobject kobj ;
   int remote_node_defrag_ratio ;
   struct kmem_cache_node *node[1024U] ;
};
enum ldv_13860 {
    PARPORT_CLASS_LEGACY = 0,
    PARPORT_CLASS_PRINTER = 1,
    PARPORT_CLASS_MODEM = 2,
    PARPORT_CLASS_NET = 3,
    PARPORT_CLASS_HDC = 4,
    PARPORT_CLASS_PCMCIA = 5,
    PARPORT_CLASS_MEDIA = 6,
    PARPORT_CLASS_FDC = 7,
    PARPORT_CLASS_PORTS = 8,
    PARPORT_CLASS_SCANNER = 9,
    PARPORT_CLASS_DIGCAM = 10,
    PARPORT_CLASS_OTHER = 11,
    PARPORT_CLASS_UNSPEC = 12,
    PARPORT_CLASS_SCSIADAPTER = 13
} ;
typedef enum ldv_13860 parport_device_class;
struct block_device;
struct block_device;
struct hlist_bl_node;
struct hlist_bl_head {
   struct hlist_bl_node *first ;
};
struct hlist_bl_node {
   struct hlist_bl_node *next ;
   struct hlist_bl_node **pprev ;
};
struct nameidata;
struct nameidata;
struct path;
struct path;
struct vfsmount;
struct vfsmount;
struct qstr {
   unsigned int hash ;
   unsigned int len ;
   unsigned char const *name ;
};
struct inode;
struct dentry_operations;
struct super_block;
union __anonunion_d_u_135 {
   struct list_head d_child ;
   struct rcu_head d_rcu ;
};
struct dentry {
   unsigned int d_flags ;
   seqcount_t d_seq ;
   struct hlist_bl_node d_hash ;
   struct dentry *d_parent ;
   struct qstr d_name ;
   struct inode *d_inode ;
   unsigned char d_iname[32U] ;
   unsigned int d_count ;
   spinlock_t d_lock ;
   struct dentry_operations const *d_op ;
   struct super_block *d_sb ;
   unsigned long d_time ;
   void *d_fsdata ;
   struct list_head d_lru ;
   union __anonunion_d_u_135 d_u ;
   struct list_head d_subdirs ;
   struct list_head d_alias ;
};
struct dentry_operations {
   int (*d_revalidate)(struct dentry * , struct nameidata * ) ;
   int (*d_hash)(struct dentry const * , struct inode const * , struct qstr * ) ;
   int (*d_compare)(struct dentry const * , struct inode const * , struct dentry const * ,
                    struct inode const * , unsigned int , char const * , struct qstr const * ) ;
   int (*d_delete)(struct dentry const * ) ;
   void (*d_release)(struct dentry * ) ;
   void (*d_prune)(struct dentry * ) ;
   void (*d_iput)(struct dentry * , struct inode * ) ;
   char *(*d_dname)(struct dentry * , char * , int ) ;
   struct vfsmount *(*d_automount)(struct path * ) ;
   int (*d_manage)(struct dentry * , bool ) ;
};
struct path {
   struct vfsmount *mnt ;
   struct dentry *dentry ;
};
struct radix_tree_node;
struct radix_tree_root {
   unsigned int height ;
   gfp_t gfp_mask ;
   struct radix_tree_node *rnode ;
};
struct prio_tree_node;
struct prio_tree_node {
   struct prio_tree_node *left ;
   struct prio_tree_node *right ;
   struct prio_tree_node *parent ;
   unsigned long start ;
   unsigned long last ;
};
struct prio_tree_root {
   struct prio_tree_node *prio_tree_node ;
   unsigned short index_bits ;
   unsigned short raw ;
};
enum pid_type {
    PIDTYPE_PID = 0,
    PIDTYPE_PGID = 1,
    PIDTYPE_SID = 2,
    PIDTYPE_MAX = 3
} ;
struct pid_namespace;
struct upid {
   int nr ;
   struct pid_namespace *ns ;
   struct hlist_node pid_chain ;
};
struct pid {
   atomic_t count ;
   unsigned int level ;
   struct hlist_head tasks[3U] ;
   struct rcu_head rcu ;
   struct upid numbers[1U] ;
};
struct semaphore {
   raw_spinlock_t lock ;
   unsigned int count ;
   struct list_head wait_list ;
};
struct fiemap_extent {
   __u64 fe_logical ;
   __u64 fe_physical ;
   __u64 fe_length ;
   __u64 fe_reserved64[2U] ;
   __u32 fe_flags ;
   __u32 fe_reserved[3U] ;
};
struct shrink_control {
   gfp_t gfp_mask ;
   unsigned long nr_to_scan ;
};
struct shrinker {
   int (*shrink)(struct shrinker * , struct shrink_control * ) ;
   int seeks ;
   long batch ;
   struct list_head list ;
   atomic_long_t nr_in_batch ;
};
enum migrate_mode {
    MIGRATE_ASYNC = 0,
    MIGRATE_SYNC_LIGHT = 1,
    MIGRATE_SYNC = 2
} ;
struct export_operations;
struct export_operations;
struct iovec;
struct iovec;
struct kiocb;
struct kiocb;
struct pipe_inode_info;
struct pipe_inode_info;
struct poll_table_struct;
struct poll_table_struct;
struct kstatfs;
struct kstatfs;
struct iattr {
   unsigned int ia_valid ;
   umode_t ia_mode ;
   uid_t ia_uid ;
   gid_t ia_gid ;
   loff_t ia_size ;
   struct timespec ia_atime ;
   struct timespec ia_mtime ;
   struct timespec ia_ctime ;
   struct file *ia_file ;
};
struct if_dqinfo {
   __u64 dqi_bgrace ;
   __u64 dqi_igrace ;
   __u32 dqi_flags ;
   __u32 dqi_valid ;
};
struct fs_disk_quota {
   __s8 d_version ;
   __s8 d_flags ;
   __u16 d_fieldmask ;
   __u32 d_id ;
   __u64 d_blk_hardlimit ;
   __u64 d_blk_softlimit ;
   __u64 d_ino_hardlimit ;
   __u64 d_ino_softlimit ;
   __u64 d_bcount ;
   __u64 d_icount ;
   __s32 d_itimer ;
   __s32 d_btimer ;
   __u16 d_iwarns ;
   __u16 d_bwarns ;
   __s32 d_padding2 ;
   __u64 d_rtb_hardlimit ;
   __u64 d_rtb_softlimit ;
   __u64 d_rtbcount ;
   __s32 d_rtbtimer ;
   __u16 d_rtbwarns ;
   __s16 d_padding3 ;
   char d_padding4[8U] ;
};
struct fs_qfilestat {
   __u64 qfs_ino ;
   __u64 qfs_nblks ;
   __u32 qfs_nextents ;
};
typedef struct fs_qfilestat fs_qfilestat_t;
struct fs_quota_stat {
   __s8 qs_version ;
   __u16 qs_flags ;
   __s8 qs_pad ;
   fs_qfilestat_t qs_uquota ;
   fs_qfilestat_t qs_gquota ;
   __u32 qs_incoredqs ;
   __s32 qs_btimelimit ;
   __s32 qs_itimelimit ;
   __s32 qs_rtbtimelimit ;
   __u16 qs_bwarnlimit ;
   __u16 qs_iwarnlimit ;
};
struct dquot;
struct dquot;
typedef __kernel_uid32_t qid_t;
typedef long long qsize_t;
struct mem_dqblk {
   qsize_t dqb_bhardlimit ;
   qsize_t dqb_bsoftlimit ;
   qsize_t dqb_curspace ;
   qsize_t dqb_rsvspace ;
   qsize_t dqb_ihardlimit ;
   qsize_t dqb_isoftlimit ;
   qsize_t dqb_curinodes ;
   time_t dqb_btime ;
   time_t dqb_itime ;
};
struct quota_format_type;
struct quota_format_type;
struct mem_dqinfo {
   struct quota_format_type *dqi_format ;
   int dqi_fmt_id ;
   struct list_head dqi_dirty_list ;
   unsigned long dqi_flags ;
   unsigned int dqi_bgrace ;
   unsigned int dqi_igrace ;
   qsize_t dqi_maxblimit ;
   qsize_t dqi_maxilimit ;
   void *dqi_priv ;
};
struct dquot {
   struct hlist_node dq_hash ;
   struct list_head dq_inuse ;
   struct list_head dq_free ;
   struct list_head dq_dirty ;
   struct mutex dq_lock ;
   atomic_t dq_count ;
   wait_queue_head_t dq_wait_unused ;
   struct super_block *dq_sb ;
   unsigned int dq_id ;
   loff_t dq_off ;
   unsigned long dq_flags ;
   short dq_type ;
   struct mem_dqblk dq_dqb ;
};
struct quota_format_ops {
   int (*check_quota_file)(struct super_block * , int ) ;
   int (*read_file_info)(struct super_block * , int ) ;
   int (*write_file_info)(struct super_block * , int ) ;
   int (*free_file_info)(struct super_block * , int ) ;
   int (*read_dqblk)(struct dquot * ) ;
   int (*commit_dqblk)(struct dquot * ) ;
   int (*release_dqblk)(struct dquot * ) ;
};
struct dquot_operations {
   int (*write_dquot)(struct dquot * ) ;
   struct dquot *(*alloc_dquot)(struct super_block * , int ) ;
   void (*destroy_dquot)(struct dquot * ) ;
   int (*acquire_dquot)(struct dquot * ) ;
   int (*release_dquot)(struct dquot * ) ;
   int (*mark_dirty)(struct dquot * ) ;
   int (*write_info)(struct super_block * , int ) ;
   qsize_t *(*get_reserved_space)(struct inode * ) ;
};
struct quotactl_ops {
   int (*quota_on)(struct super_block * , int , int , struct path * ) ;
   int (*quota_on_meta)(struct super_block * , int , int ) ;
   int (*quota_off)(struct super_block * , int ) ;
   int (*quota_sync)(struct super_block * , int , int ) ;
   int (*get_info)(struct super_block * , int , struct if_dqinfo * ) ;
   int (*set_info)(struct super_block * , int , struct if_dqinfo * ) ;
   int (*get_dqblk)(struct super_block * , int , qid_t , struct fs_disk_quota * ) ;
   int (*set_dqblk)(struct super_block * , int , qid_t , struct fs_disk_quota * ) ;
   int (*get_xstate)(struct super_block * , struct fs_quota_stat * ) ;
   int (*set_xstate)(struct super_block * , unsigned int , int ) ;
};
struct quota_format_type {
   int qf_fmt_id ;
   struct quota_format_ops const *qf_ops ;
   struct module *qf_owner ;
   struct quota_format_type *qf_next ;
};
struct quota_info {
   unsigned int flags ;
   struct mutex dqio_mutex ;
   struct mutex dqonoff_mutex ;
   struct rw_semaphore dqptr_sem ;
   struct inode *files[2U] ;
   struct mem_dqinfo info[2U] ;
   struct quota_format_ops const *ops[2U] ;
};
struct address_space;
struct address_space;
struct writeback_control;
struct writeback_control;
union __anonunion_arg_138 {
   char *buf ;
   void *data ;
};
struct __anonstruct_read_descriptor_t_137 {
   size_t written ;
   size_t count ;
   union __anonunion_arg_138 arg ;
   int error ;
};
typedef struct __anonstruct_read_descriptor_t_137 read_descriptor_t;
struct address_space_operations {
   int (*writepage)(struct page * , struct writeback_control * ) ;
   int (*readpage)(struct file * , struct page * ) ;
   int (*writepages)(struct address_space * , struct writeback_control * ) ;
   int (*set_page_dirty)(struct page * ) ;
   int (*readpages)(struct file * , struct address_space * , struct list_head * ,
                    unsigned int ) ;
   int (*write_begin)(struct file * , struct address_space * , loff_t , unsigned int ,
                      unsigned int , struct page ** , void ** ) ;
   int (*write_end)(struct file * , struct address_space * , loff_t , unsigned int ,
                    unsigned int , struct page * , void * ) ;
   sector_t (*bmap)(struct address_space * , sector_t ) ;
   void (*invalidatepage)(struct page * , unsigned long ) ;
   int (*releasepage)(struct page * , gfp_t ) ;
   void (*freepage)(struct page * ) ;
   ssize_t (*direct_IO)(int , struct kiocb * , struct iovec const * , loff_t ,
                        unsigned long ) ;
   int (*get_xip_mem)(struct address_space * , unsigned long , int , void ** , unsigned long * ) ;
   int (*migratepage)(struct address_space * , struct page * , struct page * , enum migrate_mode ) ;
   int (*launder_page)(struct page * ) ;
   int (*is_partially_uptodate)(struct page * , read_descriptor_t * , unsigned long ) ;
   int (*error_remove_page)(struct address_space * , struct page * ) ;
};
struct backing_dev_info;
struct backing_dev_info;
struct address_space {
   struct inode *host ;
   struct radix_tree_root page_tree ;
   spinlock_t tree_lock ;
   unsigned int i_mmap_writable ;
   struct prio_tree_root i_mmap ;
   struct list_head i_mmap_nonlinear ;
   struct mutex i_mmap_mutex ;
   unsigned long nrpages ;
   unsigned long writeback_index ;
   struct address_space_operations const *a_ops ;
   unsigned long flags ;
   struct backing_dev_info *backing_dev_info ;
   spinlock_t private_lock ;
   struct list_head private_list ;
   struct address_space *assoc_mapping ;
};
struct request_queue;
struct request_queue;
struct hd_struct;
struct gendisk;
struct block_device {
   dev_t bd_dev ;
   int bd_openers ;
   struct inode *bd_inode ;
   struct super_block *bd_super ;
   struct mutex bd_mutex ;
   struct list_head bd_inodes ;
   void *bd_claiming ;
   void *bd_holder ;
   int bd_holders ;
   bool bd_write_holder ;
   struct list_head bd_holder_disks ;
   struct block_device *bd_contains ;
   unsigned int bd_block_size ;
   struct hd_struct *bd_part ;
   unsigned int bd_part_count ;
   int bd_invalidated ;
   struct gendisk *bd_disk ;
   struct request_queue *bd_queue ;
   struct list_head bd_list ;
   unsigned long bd_private ;
   int bd_fsfreeze_count ;
   struct mutex bd_fsfreeze_mutex ;
};
struct posix_acl;
struct posix_acl;
struct inode_operations;
union __anonunion_ldv_15764_139 {
   unsigned int const i_nlink ;
   unsigned int __i_nlink ;
};
union __anonunion_ldv_15783_140 {
   struct list_head i_dentry ;
   struct rcu_head i_rcu ;
};
struct file_operations;
struct file_lock;
struct cdev;
union __anonunion_ldv_15801_141 {
   struct pipe_inode_info *i_pipe ;
   struct block_device *i_bdev ;
   struct cdev *i_cdev ;
};
struct inode {
   umode_t i_mode ;
   unsigned short i_opflags ;
   uid_t i_uid ;
   gid_t i_gid ;
   unsigned int i_flags ;
   struct posix_acl *i_acl ;
   struct posix_acl *i_default_acl ;
   struct inode_operations const *i_op ;
   struct super_block *i_sb ;
   struct address_space *i_mapping ;
   void *i_security ;
   unsigned long i_ino ;
   union __anonunion_ldv_15764_139 ldv_15764 ;
   dev_t i_rdev ;
   struct timespec i_atime ;
   struct timespec i_mtime ;
   struct timespec i_ctime ;
   spinlock_t i_lock ;
   unsigned short i_bytes ;
   blkcnt_t i_blocks ;
   loff_t i_size ;
   unsigned long i_state ;
   struct mutex i_mutex ;
   unsigned long dirtied_when ;
   struct hlist_node i_hash ;
   struct list_head i_wb_list ;
   struct list_head i_lru ;
   struct list_head i_sb_list ;
   union __anonunion_ldv_15783_140 ldv_15783 ;
   atomic_t i_count ;
   unsigned int i_blkbits ;
   u64 i_version ;
   atomic_t i_dio_count ;
   atomic_t i_writecount ;
   struct file_operations const *i_fop ;
   struct file_lock *i_flock ;
   struct address_space i_data ;
   struct dquot *i_dquot[2U] ;
   struct list_head i_devices ;
   union __anonunion_ldv_15801_141 ldv_15801 ;
   __u32 i_generation ;
   __u32 i_fsnotify_mask ;
   struct hlist_head i_fsnotify_marks ;
   atomic_t i_readcount ;
   void *i_private ;
};
struct fown_struct {
   rwlock_t lock ;
   struct pid *pid ;
   enum pid_type pid_type ;
   uid_t uid ;
   uid_t euid ;
   int signum ;
};
struct file_ra_state {
   unsigned long start ;
   unsigned int size ;
   unsigned int async_size ;
   unsigned int ra_pages ;
   unsigned int mmap_miss ;
   loff_t prev_pos ;
};
union __anonunion_f_u_142 {
   struct list_head fu_list ;
   struct rcu_head fu_rcuhead ;
};
struct file {
   union __anonunion_f_u_142 f_u ;
   struct path f_path ;
   struct file_operations const *f_op ;
   spinlock_t f_lock ;
   int f_sb_list_cpu ;
   atomic_long_t f_count ;
   unsigned int f_flags ;
   fmode_t f_mode ;
   loff_t f_pos ;
   struct fown_struct f_owner ;
   struct cred const *f_cred ;
   struct file_ra_state f_ra ;
   u64 f_version ;
   void *f_security ;
   void *private_data ;
   struct list_head f_ep_links ;
   struct list_head f_tfile_llink ;
   struct address_space *f_mapping ;
   unsigned long f_mnt_write_state ;
};
struct files_struct;
typedef struct files_struct *fl_owner_t;
struct file_lock_operations {
   void (*fl_copy_lock)(struct file_lock * , struct file_lock * ) ;
   void (*fl_release_private)(struct file_lock * ) ;
};
struct lock_manager_operations {
   int (*lm_compare_owner)(struct file_lock * , struct file_lock * ) ;
   void (*lm_notify)(struct file_lock * ) ;
   int (*lm_grant)(struct file_lock * , struct file_lock * , int ) ;
   void (*lm_release_private)(struct file_lock * ) ;
   void (*lm_break)(struct file_lock * ) ;
   int (*lm_change)(struct file_lock ** , int ) ;
};
struct nlm_lockowner;
struct nlm_lockowner;
struct nfs_lock_info {
   u32 state ;
   struct nlm_lockowner *owner ;
   struct list_head list ;
};
struct nfs4_lock_state;
struct nfs4_lock_state;
struct nfs4_lock_info {
   struct nfs4_lock_state *owner ;
};
struct fasync_struct;
struct __anonstruct_afs_144 {
   struct list_head link ;
   int state ;
};
union __anonunion_fl_u_143 {
   struct nfs_lock_info nfs_fl ;
   struct nfs4_lock_info nfs4_fl ;
   struct __anonstruct_afs_144 afs ;
};
struct file_lock {
   struct file_lock *fl_next ;
   struct list_head fl_link ;
   struct list_head fl_block ;
   fl_owner_t fl_owner ;
   unsigned int fl_flags ;
   unsigned char fl_type ;
   unsigned int fl_pid ;
   struct pid *fl_nspid ;
   wait_queue_head_t fl_wait ;
   struct file *fl_file ;
   loff_t fl_start ;
   loff_t fl_end ;
   struct fasync_struct *fl_fasync ;
   unsigned long fl_break_time ;
   unsigned long fl_downgrade_time ;
   struct file_lock_operations const *fl_ops ;
   struct lock_manager_operations const *fl_lmops ;
   union __anonunion_fl_u_143 fl_u ;
};
struct fasync_struct {
   spinlock_t fa_lock ;
   int magic ;
   int fa_fd ;
   struct fasync_struct *fa_next ;
   struct file *fa_file ;
   struct rcu_head fa_rcu ;
};
struct file_system_type;
struct super_operations;
struct xattr_handler;
struct mtd_info;
struct super_block {
   struct list_head s_list ;
   dev_t s_dev ;
   unsigned char s_dirt ;
   unsigned char s_blocksize_bits ;
   unsigned long s_blocksize ;
   loff_t s_maxbytes ;
   struct file_system_type *s_type ;
   struct super_operations const *s_op ;
   struct dquot_operations const *dq_op ;
   struct quotactl_ops const *s_qcop ;
   struct export_operations const *s_export_op ;
   unsigned long s_flags ;
   unsigned long s_magic ;
   struct dentry *s_root ;
   struct rw_semaphore s_umount ;
   struct mutex s_lock ;
   int s_count ;
   atomic_t s_active ;
   void *s_security ;
   struct xattr_handler const **s_xattr ;
   struct list_head s_inodes ;
   struct hlist_bl_head s_anon ;
   struct list_head *s_files ;
   struct list_head s_mounts ;
   struct list_head s_dentry_lru ;
   int s_nr_dentry_unused ;
   spinlock_t s_inode_lru_lock ;
   struct list_head s_inode_lru ;
   int s_nr_inodes_unused ;
   struct block_device *s_bdev ;
   struct backing_dev_info *s_bdi ;
   struct mtd_info *s_mtd ;
   struct hlist_node s_instances ;
   struct quota_info s_dquot ;
   int s_frozen ;
   wait_queue_head_t s_wait_unfrozen ;
   char s_id[32U] ;
   u8 s_uuid[16U] ;
   void *s_fs_info ;
   unsigned int s_max_links ;
   fmode_t s_mode ;
   u32 s_time_gran ;
   struct mutex s_vfs_rename_mutex ;
   char *s_subtype ;
   char *s_options ;
   struct dentry_operations const *s_d_op ;
   int cleancache_poolid ;
   struct shrinker s_shrink ;
   atomic_long_t s_remove_count ;
   int s_readonly_remount ;
};
struct fiemap_extent_info {
   unsigned int fi_flags ;
   unsigned int fi_extents_mapped ;
   unsigned int fi_extents_max ;
   struct fiemap_extent *fi_extents_start ;
};
struct file_operations {
   struct module *owner ;
   loff_t (*llseek)(struct file * , loff_t , int ) ;
   ssize_t (*read)(struct file * , char * , size_t , loff_t * ) ;
   ssize_t (*write)(struct file * , char const * , size_t , loff_t * ) ;
   ssize_t (*aio_read)(struct kiocb * , struct iovec const * , unsigned long ,
                       loff_t ) ;
   ssize_t (*aio_write)(struct kiocb * , struct iovec const * , unsigned long ,
                        loff_t ) ;
   int (*readdir)(struct file * , void * , int (*)(void * , char const * , int ,
                                                   loff_t , u64 , unsigned int ) ) ;
   unsigned int (*poll)(struct file * , struct poll_table_struct * ) ;
   long (*unlocked_ioctl)(struct file * , unsigned int , unsigned long ) ;
   long (*compat_ioctl)(struct file * , unsigned int , unsigned long ) ;
   int (*mmap)(struct file * , struct vm_area_struct * ) ;
   int (*open)(struct inode * , struct file * ) ;
   int (*flush)(struct file * , fl_owner_t ) ;
   int (*release)(struct inode * , struct file * ) ;
   int (*fsync)(struct file * , loff_t , loff_t , int ) ;
   int (*aio_fsync)(struct kiocb * , int ) ;
   int (*fasync)(int , struct file * , int ) ;
   int (*lock)(struct file * , int , struct file_lock * ) ;
   ssize_t (*sendpage)(struct file * , struct page * , int , size_t , loff_t * ,
                       int ) ;
   unsigned long (*get_unmapped_area)(struct file * , unsigned long , unsigned long ,
                                      unsigned long , unsigned long ) ;
   int (*check_flags)(int ) ;
   int (*flock)(struct file * , int , struct file_lock * ) ;
   ssize_t (*splice_write)(struct pipe_inode_info * , struct file * , loff_t * , size_t ,
                           unsigned int ) ;
   ssize_t (*splice_read)(struct file * , loff_t * , struct pipe_inode_info * , size_t ,
                          unsigned int ) ;
   int (*setlease)(struct file * , long , struct file_lock ** ) ;
   long (*fallocate)(struct file * , int , loff_t , loff_t ) ;
};
struct inode_operations {
   struct dentry *(*lookup)(struct inode * , struct dentry * , struct nameidata * ) ;
   void *(*follow_link)(struct dentry * , struct nameidata * ) ;
   int (*permission)(struct inode * , int ) ;
   struct posix_acl *(*get_acl)(struct inode * , int ) ;
   int (*readlink)(struct dentry * , char * , int ) ;
   void (*put_link)(struct dentry * , struct nameidata * , void * ) ;
   int (*create)(struct inode * , struct dentry * , umode_t , struct nameidata * ) ;
   int (*link)(struct dentry * , struct inode * , struct dentry * ) ;
   int (*unlink)(struct inode * , struct dentry * ) ;
   int (*symlink)(struct inode * , struct dentry * , char const * ) ;
   int (*mkdir)(struct inode * , struct dentry * , umode_t ) ;
   int (*rmdir)(struct inode * , struct dentry * ) ;
   int (*mknod)(struct inode * , struct dentry * , umode_t , dev_t ) ;
   int (*rename)(struct inode * , struct dentry * , struct inode * , struct dentry * ) ;
   void (*truncate)(struct inode * ) ;
   int (*setattr)(struct dentry * , struct iattr * ) ;
   int (*getattr)(struct vfsmount * , struct dentry * , struct kstat * ) ;
   int (*setxattr)(struct dentry * , char const * , void const * , size_t , int ) ;
   ssize_t (*getxattr)(struct dentry * , char const * , void * , size_t ) ;
   ssize_t (*listxattr)(struct dentry * , char * , size_t ) ;
   int (*removexattr)(struct dentry * , char const * ) ;
   void (*truncate_range)(struct inode * , loff_t , loff_t ) ;
   int (*fiemap)(struct inode * , struct fiemap_extent_info * , u64 , u64 ) ;
};
struct super_operations {
   struct inode *(*alloc_inode)(struct super_block * ) ;
   void (*destroy_inode)(struct inode * ) ;
   void (*dirty_inode)(struct inode * , int ) ;
   int (*write_inode)(struct inode * , struct writeback_control * ) ;
   int (*drop_inode)(struct inode * ) ;
   void (*evict_inode)(struct inode * ) ;
   void (*put_super)(struct super_block * ) ;
   void (*write_super)(struct super_block * ) ;
   int (*sync_fs)(struct super_block * , int ) ;
   int (*freeze_fs)(struct super_block * ) ;
   int (*unfreeze_fs)(struct super_block * ) ;
   int (*statfs)(struct dentry * , struct kstatfs * ) ;
   int (*remount_fs)(struct super_block * , int * , char * ) ;
   void (*umount_begin)(struct super_block * ) ;
   int (*show_options)(struct seq_file * , struct dentry * ) ;
   int (*show_devname)(struct seq_file * , struct dentry * ) ;
   int (*show_path)(struct seq_file * , struct dentry * ) ;
   int (*show_stats)(struct seq_file * , struct dentry * ) ;
   ssize_t (*quota_read)(struct super_block * , int , char * , size_t , loff_t ) ;
   ssize_t (*quota_write)(struct super_block * , int , char const * , size_t ,
                          loff_t ) ;
   int (*bdev_try_to_free_page)(struct super_block * , struct page * , gfp_t ) ;
   int (*nr_cached_objects)(struct super_block * ) ;
   void (*free_cached_objects)(struct super_block * , int ) ;
};
struct file_system_type {
   char const *name ;
   int fs_flags ;
   struct dentry *(*mount)(struct file_system_type * , int , char const * , void * ) ;
   void (*kill_sb)(struct super_block * ) ;
   struct module *owner ;
   struct file_system_type *next ;
   struct hlist_head fs_supers ;
   struct lock_class_key s_lock_key ;
   struct lock_class_key s_umount_key ;
   struct lock_class_key s_vfs_rename_key ;
   struct lock_class_key i_lock_key ;
   struct lock_class_key i_mutex_key ;
   struct lock_class_key i_mutex_dir_key ;
};
struct parport;
struct parport;
struct pardevice;
struct pardevice;
struct pc_parport_state {
   unsigned int ctr ;
   unsigned int ecr ;
};
struct ax_parport_state {
   unsigned int ctr ;
   unsigned int ecr ;
   unsigned int dcsr ;
};
struct amiga_parport_state {
   unsigned char data ;
   unsigned char datadir ;
   unsigned char status ;
   unsigned char statusdir ;
};
struct ax88796_parport_state {
   unsigned char cpr ;
};
struct ip32_parport_state {
   unsigned int dcr ;
   unsigned int ecr ;
};
union __anonunion_u_145 {
   struct pc_parport_state pc ;
   struct ax_parport_state ax ;
   struct amiga_parport_state amiga ;
   struct ax88796_parport_state ax88796 ;
   struct ip32_parport_state ip32 ;
   void *misc ;
};
struct parport_state {
   union __anonunion_u_145 u ;
};
struct parport_operations {
   void (*write_data)(struct parport * , unsigned char ) ;
   unsigned char (*read_data)(struct parport * ) ;
   void (*write_control)(struct parport * , unsigned char ) ;
   unsigned char (*read_control)(struct parport * ) ;
   unsigned char (*frob_control)(struct parport * , unsigned char , unsigned char ) ;
   unsigned char (*read_status)(struct parport * ) ;
   void (*enable_irq)(struct parport * ) ;
   void (*disable_irq)(struct parport * ) ;
   void (*data_forward)(struct parport * ) ;
   void (*data_reverse)(struct parport * ) ;
   void (*init_state)(struct pardevice * , struct parport_state * ) ;
   void (*save_state)(struct parport * , struct parport_state * ) ;
   void (*restore_state)(struct parport * , struct parport_state * ) ;
   size_t (*epp_write_data)(struct parport * , void const * , size_t , int ) ;
   size_t (*epp_read_data)(struct parport * , void * , size_t , int ) ;
   size_t (*epp_write_addr)(struct parport * , void const * , size_t , int ) ;
   size_t (*epp_read_addr)(struct parport * , void * , size_t , int ) ;
   size_t (*ecp_write_data)(struct parport * , void const * , size_t , int ) ;
   size_t (*ecp_read_data)(struct parport * , void * , size_t , int ) ;
   size_t (*ecp_write_addr)(struct parport * , void const * , size_t , int ) ;
   size_t (*compat_write_data)(struct parport * , void const * , size_t , int ) ;
   size_t (*nibble_read_data)(struct parport * , void * , size_t , int ) ;
   size_t (*byte_read_data)(struct parport * , void * , size_t , int ) ;
   struct module *owner ;
};
struct parport_device_info {
   parport_device_class class ;
   char const *class_name ;
   char const *mfr ;
   char const *model ;
   char const *cmdset ;
   char const *description ;
};
struct pardevice {
   char const *name ;
   struct parport *port ;
   int daisy ;
   int (*preempt)(void * ) ;
   void (*wakeup)(void * ) ;
   void *private ;
   void (*irq_func)(void * ) ;
   unsigned int flags ;
   struct pardevice *next ;
   struct pardevice *prev ;
   struct parport_state *state ;
   wait_queue_head_t wait_q ;
   unsigned long time ;
   unsigned long timeslice ;
   long volatile timeout ;
   unsigned long waiting ;
   struct pardevice *waitprev ;
   struct pardevice *waitnext ;
   void *sysctl_table ;
};
enum ieee1284_phase {
    IEEE1284_PH_FWD_DATA = 0,
    IEEE1284_PH_FWD_IDLE = 1,
    IEEE1284_PH_TERMINATE = 2,
    IEEE1284_PH_NEGOTIATION = 3,
    IEEE1284_PH_HBUSY_DNA = 4,
    IEEE1284_PH_REV_IDLE = 5,
    IEEE1284_PH_HBUSY_DAVAIL = 6,
    IEEE1284_PH_REV_DATA = 7,
    IEEE1284_PH_ECP_SETUP = 8,
    IEEE1284_PH_ECP_FWD_TO_REV = 9,
    IEEE1284_PH_ECP_REV_TO_FWD = 10,
    IEEE1284_PH_ECP_DIR_UNKNOWN = 11
} ;
struct ieee1284_info {
   int mode ;
   enum ieee1284_phase volatile phase ;
   struct semaphore irq ;
};
struct parport {
   unsigned long base ;
   unsigned long base_hi ;
   unsigned int size ;
   char const *name ;
   unsigned int modes ;
   int irq ;
   int dma ;
   int muxport ;
   int portnum ;
   struct device *dev ;
   struct parport *physport ;
   struct pardevice *devices ;
   struct pardevice *cad ;
   int daisy ;
   int muxsel ;
   struct pardevice *waithead ;
   struct pardevice *waittail ;
   struct list_head list ;
   unsigned int flags ;
   void *sysctl_table ;
   struct parport_device_info probe_info[5U] ;
   struct ieee1284_info ieee1284 ;
   struct parport_operations *ops ;
   void *private_data ;
   int number ;
   spinlock_t pardevice_lock ;
   spinlock_t waitlist_lock ;
   rwlock_t cad_lock ;
   int spintime ;
   atomic_t ref_count ;
   unsigned long devflags ;
   struct pardevice *proc_device ;
   struct list_head full_list ;
   struct parport *slaves[3U] ;
};
struct input_id {
   __u16 bustype ;
   __u16 vendor ;
   __u16 product ;
   __u16 version ;
};
struct input_absinfo {
   __s32 value ;
   __s32 minimum ;
   __s32 maximum ;
   __s32 fuzz ;
   __s32 flat ;
   __s32 resolution ;
};
struct input_keymap_entry {
   __u8 flags ;
   __u8 len ;
   __u16 index ;
   __u32 keycode ;
   __u8 scancode[32U] ;
};
struct ff_replay {
   __u16 length ;
   __u16 delay ;
};
struct ff_trigger {
   __u16 button ;
   __u16 interval ;
};
struct ff_envelope {
   __u16 attack_length ;
   __u16 attack_level ;
   __u16 fade_length ;
   __u16 fade_level ;
};
struct ff_constant_effect {
   __s16 level ;
   struct ff_envelope envelope ;
};
struct ff_ramp_effect {
   __s16 start_level ;
   __s16 end_level ;
   struct ff_envelope envelope ;
};
struct ff_condition_effect {
   __u16 right_saturation ;
   __u16 left_saturation ;
   __s16 right_coeff ;
   __s16 left_coeff ;
   __u16 deadband ;
   __s16 center ;
};
struct ff_periodic_effect {
   __u16 waveform ;
   __u16 period ;
   __s16 magnitude ;
   __s16 offset ;
   __u16 phase ;
   struct ff_envelope envelope ;
   __u32 custom_len ;
   __s16 *custom_data ;
};
struct ff_rumble_effect {
   __u16 strong_magnitude ;
   __u16 weak_magnitude ;
};
union __anonunion_u_146 {
   struct ff_constant_effect constant ;
   struct ff_ramp_effect ramp ;
   struct ff_periodic_effect periodic ;
   struct ff_condition_effect condition[2U] ;
   struct ff_rumble_effect rumble ;
};
struct ff_effect {
   __u16 type ;
   __s16 id ;
   __u16 direction ;
   struct ff_trigger trigger ;
   struct ff_replay replay ;
   union __anonunion_u_146 u ;
};
struct klist_node;
struct klist_node;
struct klist_node {
   void *n_klist ;
   struct list_head n_node ;
   struct kref n_ref ;
};
struct dma_map_ops;
struct dev_archdata {
   void *acpi_handle ;
   struct dma_map_ops *dma_ops ;
   void *iommu ;
};
struct device_private;
struct device_private;
struct device_driver;
struct device_driver;
struct driver_private;
struct driver_private;
struct class;
struct class;
struct subsys_private;
struct subsys_private;
struct bus_type;
struct bus_type;
struct device_node;
struct device_node;
struct iommu_ops;
struct iommu_ops;
struct bus_attribute {
   struct attribute attr ;
   ssize_t (*show)(struct bus_type * , char * ) ;
   ssize_t (*store)(struct bus_type * , char const * , size_t ) ;
};
struct device_attribute;
struct driver_attribute;
struct bus_type {
   char const *name ;
   char const *dev_name ;
   struct device *dev_root ;
   struct bus_attribute *bus_attrs ;
   struct device_attribute *dev_attrs ;
   struct driver_attribute *drv_attrs ;
   int (*match)(struct device * , struct device_driver * ) ;
   int (*uevent)(struct device * , struct kobj_uevent_env * ) ;
   int (*probe)(struct device * ) ;
   int (*remove)(struct device * ) ;
   void (*shutdown)(struct device * ) ;
   int (*suspend)(struct device * , pm_message_t ) ;
   int (*resume)(struct device * ) ;
   struct dev_pm_ops const *pm ;
   struct iommu_ops *iommu_ops ;
   struct subsys_private *p ;
};
struct device_type;
struct of_device_id;
struct device_driver {
   char const *name ;
   struct bus_type *bus ;
   struct module *owner ;
   char const *mod_name ;
   bool suppress_bind_attrs ;
   struct of_device_id const *of_match_table ;
   int (*probe)(struct device * ) ;
   int (*remove)(struct device * ) ;
   void (*shutdown)(struct device * ) ;
   int (*suspend)(struct device * , pm_message_t ) ;
   int (*resume)(struct device * ) ;
   struct attribute_group const **groups ;
   struct dev_pm_ops const *pm ;
   struct driver_private *p ;
};
struct driver_attribute {
   struct attribute attr ;
   ssize_t (*show)(struct device_driver * , char * ) ;
   ssize_t (*store)(struct device_driver * , char const * , size_t ) ;
};
struct class_attribute;
struct class {
   char const *name ;
   struct module *owner ;
   struct class_attribute *class_attrs ;
   struct device_attribute *dev_attrs ;
   struct bin_attribute *dev_bin_attrs ;
   struct kobject *dev_kobj ;
   int (*dev_uevent)(struct device * , struct kobj_uevent_env * ) ;
   char *(*devnode)(struct device * , umode_t * ) ;
   void (*class_release)(struct class * ) ;
   void (*dev_release)(struct device * ) ;
   int (*suspend)(struct device * , pm_message_t ) ;
   int (*resume)(struct device * ) ;
   struct kobj_ns_type_operations const *ns_type ;
   void const *(*namespace)(struct device * ) ;
   struct dev_pm_ops const *pm ;
   struct subsys_private *p ;
};
struct class_attribute {
   struct attribute attr ;
   ssize_t (*show)(struct class * , struct class_attribute * , char * ) ;
   ssize_t (*store)(struct class * , struct class_attribute * , char const * , size_t ) ;
   void const *(*namespace)(struct class * , struct class_attribute const * ) ;
};
struct device_type {
   char const *name ;
   struct attribute_group const **groups ;
   int (*uevent)(struct device * , struct kobj_uevent_env * ) ;
   char *(*devnode)(struct device * , umode_t * ) ;
   void (*release)(struct device * ) ;
   struct dev_pm_ops const *pm ;
};
struct device_attribute {
   struct attribute attr ;
   ssize_t (*show)(struct device * , struct device_attribute * , char * ) ;
   ssize_t (*store)(struct device * , struct device_attribute * , char const * ,
                    size_t ) ;
};
struct device_dma_parameters {
   unsigned int max_segment_size ;
   unsigned long segment_boundary_mask ;
};
struct dma_coherent_mem;
struct device {
   struct device *parent ;
   struct device_private *p ;
   struct kobject kobj ;
   char const *init_name ;
   struct device_type const *type ;
   struct mutex mutex ;
   struct bus_type *bus ;
   struct device_driver *driver ;
   void *platform_data ;
   struct dev_pm_info power ;
   struct dev_pm_domain *pm_domain ;
   int numa_node ;
   u64 *dma_mask ;
   u64 coherent_dma_mask ;
   struct device_dma_parameters *dma_parms ;
   struct list_head dma_pools ;
   struct dma_coherent_mem *dma_mem ;
   struct dev_archdata archdata ;
   struct device_node *of_node ;
   dev_t devt ;
   u32 id ;
   spinlock_t devres_lock ;
   struct list_head devres_head ;
   struct klist_node knode_class ;
   struct class *class ;
   struct attribute_group const **groups ;
   void (*release)(struct device * ) ;
};
struct wakeup_source {
   char const *name ;
   struct list_head entry ;
   spinlock_t lock ;
   struct timer_list timer ;
   unsigned long timer_expires ;
   ktime_t total_time ;
   ktime_t max_time ;
   ktime_t last_time ;
   unsigned long event_count ;
   unsigned long active_count ;
   unsigned long relax_count ;
   unsigned long hit_count ;
   unsigned char active : 1 ;
};
typedef unsigned long kernel_ulong_t;
struct of_device_id {
   char name[32U] ;
   char type[32U] ;
   char compatible[128U] ;
   void *data ;
};
struct input_device_id {
   kernel_ulong_t flags ;
   __u16 bustype ;
   __u16 vendor ;
   __u16 product ;
   __u16 version ;
   kernel_ulong_t evbit[1U] ;
   kernel_ulong_t keybit[12U] ;
   kernel_ulong_t relbit[1U] ;
   kernel_ulong_t absbit[1U] ;
   kernel_ulong_t mscbit[1U] ;
   kernel_ulong_t ledbit[1U] ;
   kernel_ulong_t sndbit[1U] ;
   kernel_ulong_t ffbit[2U] ;
   kernel_ulong_t swbit[1U] ;
   kernel_ulong_t driver_info ;
};
struct ff_device;
struct input_mt_slot;
struct input_handle;
struct input_dev {
   char const *name ;
   char const *phys ;
   char const *uniq ;
   struct input_id id ;
   unsigned long propbit[1U] ;
   unsigned long evbit[1U] ;
   unsigned long keybit[12U] ;
   unsigned long relbit[1U] ;
   unsigned long absbit[1U] ;
   unsigned long mscbit[1U] ;
   unsigned long ledbit[1U] ;
   unsigned long sndbit[1U] ;
   unsigned long ffbit[2U] ;
   unsigned long swbit[1U] ;
   unsigned int hint_events_per_packet ;
   unsigned int keycodemax ;
   unsigned int keycodesize ;
   void *keycode ;
   int (*setkeycode)(struct input_dev * , struct input_keymap_entry const * , unsigned int * ) ;
   int (*getkeycode)(struct input_dev * , struct input_keymap_entry * ) ;
   struct ff_device *ff ;
   unsigned int repeat_key ;
   struct timer_list timer ;
   int rep[2U] ;
   struct input_mt_slot *mt ;
   int mtsize ;
   int slot ;
   int trkid ;
   struct input_absinfo *absinfo ;
   unsigned long key[12U] ;
   unsigned long led[1U] ;
   unsigned long snd[1U] ;
   unsigned long sw[1U] ;
   int (*open)(struct input_dev * ) ;
   void (*close)(struct input_dev * ) ;
   int (*flush)(struct input_dev * , struct file * ) ;
   int (*event)(struct input_dev * , unsigned int , unsigned int , int ) ;
   struct input_handle *grab ;
   spinlock_t event_lock ;
   struct mutex mutex ;
   unsigned int users ;
   bool going_away ;
   bool sync ;
   struct device dev ;
   struct list_head h_list ;
   struct list_head node ;
};
struct input_handler {
   void *private ;
   void (*event)(struct input_handle * , unsigned int , unsigned int , int ) ;
   bool (*filter)(struct input_handle * , unsigned int , unsigned int , int ) ;
   bool (*match)(struct input_handler * , struct input_dev * ) ;
   int (*connect)(struct input_handler * , struct input_dev * , struct input_device_id const * ) ;
   void (*disconnect)(struct input_handle * ) ;
   void (*start)(struct input_handle * ) ;
   struct file_operations const *fops ;
   int minor ;
   char const *name ;
   struct input_device_id const *id_table ;
   struct list_head h_list ;
   struct list_head node ;
};
struct input_handle {
   void *private ;
   int open ;
   char const *name ;
   struct input_dev *dev ;
   struct input_handler *handler ;
   struct list_head d_node ;
   struct list_head h_node ;
};
struct ff_device {
   int (*upload)(struct input_dev * , struct ff_effect * , struct ff_effect * ) ;
   int (*erase)(struct input_dev * , int ) ;
   int (*playback)(struct input_dev * , int , int ) ;
   void (*set_gain)(struct input_dev * , u16 ) ;
   void (*set_autocenter)(struct input_dev * , u16 ) ;
   void (*destroy)(struct ff_device * ) ;
   void *private ;
   unsigned long ffbit[2U] ;
   struct mutex mutex ;
   int max_effects ;
   struct ff_effect *effects ;
   struct file *effect_owners[0U] ;
};
struct tgfx_config {
   int args[8U] ;
   unsigned int nargs ;
};
struct tgfx {
   struct pardevice *pd ;
   struct timer_list timer ;
   struct input_dev *dev[7U] ;
   char name[7U][64U] ;
   char phys[7U][32U] ;
   int sticks ;
   int used ;
   struct mutex sem ;
};
void ldv_spin_lock(void) ;
void ldv_spin_unlock(void) ;
int ldv_spin_trylock(void) ;
 static void set_bit(unsigned int nr , unsigned long volatile *addr )
{ long volatile *__cil_tmp3 ;
  {
  __cil_tmp3 = (long volatile *)addr;
  __asm__ volatile (".section .smp_locks,\"a\"\n.balign 4\n.long 671f - .\n.previous\n671:\n\tlock; bts %1,%0": "+m" (*__cil_tmp3): "Ir" (nr): "memory");
  return;
}
}
extern int printk(char const * , ...) ;
extern int snprintf(char * , size_t , char const * , ...) ;
 static void *ERR_PTR(long error )
{
  {
  return ((void *)error);
}
}
 static long PTR_ERR(void const *ptr )
{
  {
  return ((long )ptr);
}
}
 static long IS_ERR(void const *ptr )
{ long tmp ;
  unsigned long __cil_tmp3 ;
  int __cil_tmp4 ;
  long __cil_tmp5 ;
  {
  {
  __cil_tmp3 = (unsigned long )ptr;
  __cil_tmp4 = __cil_tmp3 > 0xfffffffffffff000UL;
  __cil_tmp5 = (long )__cil_tmp4;
  tmp = __builtin_expect(__cil_tmp5, 0L);
  }
  return (tmp);
}
}
extern void __mutex_init(struct mutex * , char const * , struct lock_class_key * ) ;
extern void mutex_lock_nested(struct mutex * , unsigned int ) ;
extern int mutex_lock_interruptible_nested(struct mutex * , unsigned int ) ;
extern void mutex_unlock(struct mutex * ) ;
extern unsigned long volatile jiffies ;
extern void init_timer_key(struct timer_list * , char const * , struct lock_class_key * ) ;
extern int mod_timer(struct timer_list * , unsigned long ) ;
extern int del_timer_sync(struct timer_list * ) ;
extern void kfree(void const * ) ;
extern void *kmem_cache_alloc(struct kmem_cache * , gfp_t ) ;
void *ldv_kmem_cache_alloc_16(struct kmem_cache *ldv_func_arg1 , gfp_t ldv_func_arg2 ) ;
 static void *kzalloc(size_t size , gfp_t flags ) ;
void ldv_check_alloc_flags(gfp_t flags ) ;
void ldv_check_alloc_nonatomic(void) ;
struct page *ldv_check_alloc_flags_and_return_some_page(gfp_t flags ) ;
extern struct parport *parport_find_number(int ) ;
extern void parport_put_port(struct parport * ) ;
extern struct pardevice *parport_register_device(struct parport * , char const * ,
                                                 int (*)(void * ) , void (*)(void * ) ,
                                                 void (*)(void * ) , int , void * ) ;
extern void parport_unregister_device(struct pardevice * ) ;
extern int parport_claim(struct pardevice * ) ;
extern void parport_release(struct pardevice * ) ;
extern void *dev_get_drvdata(struct device const * ) ;
extern int dev_set_drvdata(struct device * , void * ) ;
struct input_dev *input_allocate_device(void) {
       return kzalloc(sizeof(struct input_dev), 0x10u | 0x40u | 0x80u);
}
extern void input_free_device(struct input_dev * ) ;
 static void *input_get_drvdata(struct input_dev *dev )
{ void *tmp ;
  unsigned long __cil_tmp3 ;
  unsigned long __cil_tmp4 ;
  struct device *__cil_tmp5 ;
  struct device const *__cil_tmp6 ;
  {
  {
  __cil_tmp3 = (unsigned long )dev;
  __cil_tmp4 = __cil_tmp3 + 840;
  __cil_tmp5 = (struct device *)__cil_tmp4;
  __cil_tmp6 = (struct device const *)__cil_tmp5;
  tmp = dev_get_drvdata(__cil_tmp6);
  }
  return (tmp);
}
}
 static void input_set_drvdata(struct input_dev *dev , void *data )
{ unsigned long __cil_tmp3 ;
  unsigned long __cil_tmp4 ;
  struct device *__cil_tmp5 ;
  {
  {
  __cil_tmp3 = (unsigned long )dev;
  __cil_tmp4 = __cil_tmp3 + 840;
  __cil_tmp5 = (struct device *)__cil_tmp4;
  dev_set_drvdata(__cil_tmp5, data);
  }
  return;
}
}
extern int input_register_device(struct input_dev * ) ;
extern void input_unregister_device(struct input_dev * ) ;
extern void input_event(struct input_dev * , unsigned int , unsigned int , int ) ;
 static void input_report_key(struct input_dev *dev , unsigned int code ,
                                      int value )
{ int __cil_tmp4 ;
  {
  {
  __cil_tmp4 = value != 0;
  input_event(dev, 1U, code, __cil_tmp4);
  }
  return;
}
}
 static void input_report_abs(struct input_dev *dev , unsigned int code ,
                                      int value )
{
  {
  {
  input_event(dev, 3U, code, value);
  }
  return;
}
}
 static void input_sync(struct input_dev *dev )
{
  {
  {
  input_event(dev, 0U, 0U, 0);
  }
  return;
}
}
extern void input_set_abs_params(struct input_dev * , unsigned int , int , int ,
                                 int , int ) ;
static struct tgfx_config tgfx_cfg[3U] ;
static int tgfx_buttons[5U] = { 288, 289, 290, 291,
        292};
static struct tgfx *tgfx_base[3U] ;
static void tgfx_timer(unsigned long private )
{ struct tgfx *tgfx ;
  struct input_dev *dev ;
  int data1 ;
  int data2 ;
  int i ;
  unsigned char tmp ;
  unsigned char tmp___0 ;
  unsigned long __cil_tmp9 ;
  unsigned long __cil_tmp10 ;
  int __cil_tmp11 ;
  int __cil_tmp12 ;
  unsigned long __cil_tmp13 ;
  unsigned long __cil_tmp14 ;
  unsigned long __cil_tmp15 ;
  unsigned long __cil_tmp16 ;
  struct pardevice *__cil_tmp17 ;
  unsigned long __cil_tmp18 ;
  unsigned long __cil_tmp19 ;
  struct parport *__cil_tmp20 ;
  unsigned long __cil_tmp21 ;
  unsigned long __cil_tmp22 ;
  struct parport_operations *__cil_tmp23 ;
  void (*__cil_tmp24)(struct parport * , unsigned char ) ;
  struct pardevice *__cil_tmp25 ;
  unsigned long __cil_tmp26 ;
  unsigned long __cil_tmp27 ;
  struct parport *__cil_tmp28 ;
  int __cil_tmp29 ;
  unsigned char __cil_tmp30 ;
  int __cil_tmp31 ;
  int __cil_tmp32 ;
  unsigned char __cil_tmp33 ;
  struct pardevice *__cil_tmp34 ;
  unsigned long __cil_tmp35 ;
  unsigned long __cil_tmp36 ;
  struct parport *__cil_tmp37 ;
  unsigned long __cil_tmp38 ;
  unsigned long __cil_tmp39 ;
  struct parport_operations *__cil_tmp40 ;
  unsigned long __cil_tmp41 ;
  unsigned long __cil_tmp42 ;
  unsigned char (*__cil_tmp43)(struct parport * ) ;
  struct pardevice *__cil_tmp44 ;
  unsigned long __cil_tmp45 ;
  unsigned long __cil_tmp46 ;
  struct parport *__cil_tmp47 ;
  unsigned int __cil_tmp48 ;
  unsigned int __cil_tmp49 ;
  struct pardevice *__cil_tmp50 ;
  unsigned long __cil_tmp51 ;
  unsigned long __cil_tmp52 ;
  struct parport *__cil_tmp53 ;
  unsigned long __cil_tmp54 ;
  unsigned long __cil_tmp55 ;
  struct parport_operations *__cil_tmp56 ;
  unsigned long __cil_tmp57 ;
  unsigned long __cil_tmp58 ;
  unsigned char (*__cil_tmp59)(struct parport * ) ;
  struct pardevice *__cil_tmp60 ;
  unsigned long __cil_tmp61 ;
  unsigned long __cil_tmp62 ;
  struct parport *__cil_tmp63 ;
  unsigned int __cil_tmp64 ;
  unsigned int __cil_tmp65 ;
  int __cil_tmp66 ;
  int __cil_tmp67 ;
  int __cil_tmp68 ;
  int __cil_tmp69 ;
  int __cil_tmp70 ;
  int __cil_tmp71 ;
  int __cil_tmp72 ;
  int __cil_tmp73 ;
  int __cil_tmp74 ;
  int __cil_tmp75 ;
  int __cil_tmp76 ;
  int __cil_tmp77 ;
  int __cil_tmp78 ;
  int __cil_tmp79 ;
  int __cil_tmp80 ;
  unsigned long __cil_tmp81 ;
  unsigned long __cil_tmp82 ;
  struct timer_list *__cil_tmp83 ;
  unsigned long __cil_tmp84 ;
  unsigned long __cil_tmp85 ;
  {
  tgfx = (struct tgfx *)private;
  i = 0;
  goto ldv_19646;
  ldv_19645: ;
  {
  __cil_tmp9 = (unsigned long )tgfx;
  __cil_tmp10 = __cil_tmp9 + 864;
  __cil_tmp11 = *((int *)__cil_tmp10);
  __cil_tmp12 = __cil_tmp11 >> i;
  if (__cil_tmp12 & 1) {
    {
    __cil_tmp13 = i * 8UL;
    __cil_tmp14 = 136 + __cil_tmp13;
    __cil_tmp15 = (unsigned long )tgfx;
    __cil_tmp16 = __cil_tmp15 + __cil_tmp14;
    dev = *((struct input_dev **)__cil_tmp16);
    __cil_tmp17 = *((struct pardevice **)tgfx);
    __cil_tmp18 = (unsigned long )__cil_tmp17;
    __cil_tmp19 = __cil_tmp18 + 8;
    __cil_tmp20 = *((struct parport **)__cil_tmp19);
    __cil_tmp21 = (unsigned long )__cil_tmp20;
    __cil_tmp22 = __cil_tmp21 + 488;
    __cil_tmp23 = *((struct parport_operations **)__cil_tmp22);
    __cil_tmp24 = *((void (**)(struct parport * , unsigned char ))__cil_tmp23);
    __cil_tmp25 = *((struct pardevice **)tgfx);
    __cil_tmp26 = (unsigned long )__cil_tmp25;
    __cil_tmp27 = __cil_tmp26 + 8;
    __cil_tmp28 = *((struct parport **)__cil_tmp27);
    __cil_tmp29 = 1 << i;
    __cil_tmp30 = (unsigned char )__cil_tmp29;
    __cil_tmp31 = (int )__cil_tmp30;
    __cil_tmp32 = ~ __cil_tmp31;
    __cil_tmp33 = (unsigned char )__cil_tmp32;
    (*__cil_tmp24)(__cil_tmp28, __cil_tmp33);
    __cil_tmp34 = *((struct pardevice **)tgfx);
    __cil_tmp35 = (unsigned long )__cil_tmp34;
    __cil_tmp36 = __cil_tmp35 + 8;
    __cil_tmp37 = *((struct parport **)__cil_tmp36);
    __cil_tmp38 = (unsigned long )__cil_tmp37;
    __cil_tmp39 = __cil_tmp38 + 488;
    __cil_tmp40 = *((struct parport_operations **)__cil_tmp39);
    __cil_tmp41 = (unsigned long )__cil_tmp40;
    __cil_tmp42 = __cil_tmp41 + 40;
    __cil_tmp43 = *((unsigned char (**)(struct parport * ))__cil_tmp42);
    __cil_tmp44 = *((struct pardevice **)tgfx);
    __cil_tmp45 = (unsigned long )__cil_tmp44;
    __cil_tmp46 = __cil_tmp45 + 8;
    __cil_tmp47 = *((struct parport **)__cil_tmp46);
    tmp = (*__cil_tmp43)(__cil_tmp47);
    __cil_tmp48 = (unsigned int )tmp;
    __cil_tmp49 = __cil_tmp48 ^ 127U;
    data1 = (int )__cil_tmp49;
    __cil_tmp50 = *((struct pardevice **)tgfx);
    __cil_tmp51 = (unsigned long )__cil_tmp50;
    __cil_tmp52 = __cil_tmp51 + 8;
    __cil_tmp53 = *((struct parport **)__cil_tmp52);
    __cil_tmp54 = (unsigned long )__cil_tmp53;
    __cil_tmp55 = __cil_tmp54 + 488;
    __cil_tmp56 = *((struct parport_operations **)__cil_tmp55);
    __cil_tmp57 = (unsigned long )__cil_tmp56;
    __cil_tmp58 = __cil_tmp57 + 24;
    __cil_tmp59 = *((unsigned char (**)(struct parport * ))__cil_tmp58);
    __cil_tmp60 = *((struct pardevice **)tgfx);
    __cil_tmp61 = (unsigned long )__cil_tmp60;
    __cil_tmp62 = __cil_tmp61 + 8;
    __cil_tmp63 = *((struct parport **)__cil_tmp62);
    tmp___0 = (*__cil_tmp59)(__cil_tmp63);
    __cil_tmp64 = (unsigned int )tmp___0;
    __cil_tmp65 = __cil_tmp64 ^ 4U;
    data2 = (int )__cil_tmp65;
    __cil_tmp66 = data1 & 64;
    __cil_tmp67 = __cil_tmp66 != 0;
    __cil_tmp68 = data1 & 128;
    __cil_tmp69 = __cil_tmp68 != 0;
    __cil_tmp70 = __cil_tmp69 - __cil_tmp67;
    input_report_abs(dev, 0U, __cil_tmp70);
    __cil_tmp71 = data1 & 16;
    __cil_tmp72 = __cil_tmp71 != 0;
    __cil_tmp73 = data1 & 32;
    __cil_tmp74 = __cil_tmp73 != 0;
    __cil_tmp75 = __cil_tmp74 - __cil_tmp72;
    input_report_abs(dev, 1U, __cil_tmp75);
    __cil_tmp76 = data1 & 8;
    input_report_key(dev, 288U, __cil_tmp76);
    __cil_tmp77 = data2 & 2;
    input_report_key(dev, 289U, __cil_tmp77);
    __cil_tmp78 = data2 & 4;
    input_report_key(dev, 290U, __cil_tmp78);
    __cil_tmp79 = data2 & 1;
    input_report_key(dev, 291U, __cil_tmp79);
    __cil_tmp80 = data2 & 8;
    input_report_key(dev, 292U, __cil_tmp80);
    input_sync(dev);
    }
  } else {
  }
  }
  i = i + 1;
  ldv_19646: ;
  if (i <= 6) {
    goto ldv_19645;
  } else {
    goto ldv_19647;
  }
  ldv_19647:
  {
  __cil_tmp81 = (unsigned long )tgfx;
  __cil_tmp82 = __cil_tmp81 + 8;
  __cil_tmp83 = (struct timer_list *)__cil_tmp82;
  __cil_tmp84 = (unsigned long )jiffies;
  __cil_tmp85 = __cil_tmp84 + 2UL;
  mod_timer(__cil_tmp83, __cil_tmp85);
  }
  return;
}
}
static int tgfx_open(struct input_dev *dev )
{ struct tgfx *tgfx ;
  void *tmp ;
  int err ;
  int tmp___0 ;
  unsigned long __cil_tmp6 ;
  unsigned long __cil_tmp7 ;
  struct mutex *__cil_tmp8 ;
  unsigned long __cil_tmp9 ;
  unsigned long __cil_tmp10 ;
  unsigned long __cil_tmp11 ;
  unsigned long __cil_tmp12 ;
  unsigned long __cil_tmp13 ;
  unsigned long __cil_tmp14 ;
  int __cil_tmp15 ;
  struct pardevice *__cil_tmp16 ;
  struct pardevice *__cil_tmp17 ;
  unsigned long __cil_tmp18 ;
  unsigned long __cil_tmp19 ;
  struct parport *__cil_tmp20 ;
  unsigned long __cil_tmp21 ;
  unsigned long __cil_tmp22 ;
  struct parport_operations *__cil_tmp23 ;
  unsigned long __cil_tmp24 ;
  unsigned long __cil_tmp25 ;
  void (*__cil_tmp26)(struct parport * , unsigned char ) ;
  struct pardevice *__cil_tmp27 ;
  unsigned long __cil_tmp28 ;
  unsigned long __cil_tmp29 ;
  struct parport *__cil_tmp30 ;
  unsigned long __cil_tmp31 ;
  unsigned long __cil_tmp32 ;
  struct timer_list *__cil_tmp33 ;
  unsigned long __cil_tmp34 ;
  unsigned long __cil_tmp35 ;
  unsigned long __cil_tmp36 ;
  unsigned long __cil_tmp37 ;
  struct mutex *__cil_tmp38 ;
  {
  {
  tmp = input_get_drvdata(dev);
  tgfx = (struct tgfx *)tmp;
  __cil_tmp6 = (unsigned long )tgfx;
  __cil_tmp7 = __cil_tmp6 + 872;
  __cil_tmp8 = (struct mutex *)__cil_tmp7;
  err = mutex_lock_interruptible_nested(__cil_tmp8, 0U);
  }
  if (err != 0) {
    return (err);
  } else {
  }
  __cil_tmp9 = (unsigned long )tgfx;
  __cil_tmp10 = __cil_tmp9 + 868;
  tmp___0 = *((int *)__cil_tmp10);
  __cil_tmp11 = (unsigned long )tgfx;
  __cil_tmp12 = __cil_tmp11 + 868;
  __cil_tmp13 = (unsigned long )tgfx;
  __cil_tmp14 = __cil_tmp13 + 868;
  __cil_tmp15 = *((int *)__cil_tmp14);
  *((int *)__cil_tmp12) = __cil_tmp15 + 1;
  if (tmp___0 == 0) {
    {
    __cil_tmp16 = *((struct pardevice **)tgfx);
    parport_claim(__cil_tmp16);
    __cil_tmp17 = *((struct pardevice **)tgfx);
    __cil_tmp18 = (unsigned long )__cil_tmp17;
    __cil_tmp19 = __cil_tmp18 + 8;
    __cil_tmp20 = *((struct parport **)__cil_tmp19);
    __cil_tmp21 = (unsigned long )__cil_tmp20;
    __cil_tmp22 = __cil_tmp21 + 488;
    __cil_tmp23 = *((struct parport_operations **)__cil_tmp22);
    __cil_tmp24 = (unsigned long )__cil_tmp23;
    __cil_tmp25 = __cil_tmp24 + 16;
    __cil_tmp26 = *((void (**)(struct parport * , unsigned char ))__cil_tmp25);
    __cil_tmp27 = *((struct pardevice **)tgfx);
    __cil_tmp28 = (unsigned long )__cil_tmp27;
    __cil_tmp29 = __cil_tmp28 + 8;
    __cil_tmp30 = *((struct parport **)__cil_tmp29);
    (*__cil_tmp26)(__cil_tmp30, (unsigned char)4);
    __cil_tmp31 = (unsigned long )tgfx;
    __cil_tmp32 = __cil_tmp31 + 8;
    __cil_tmp33 = (struct timer_list *)__cil_tmp32;
    __cil_tmp34 = (unsigned long )jiffies;
    __cil_tmp35 = __cil_tmp34 + 2UL;
    mod_timer(__cil_tmp33, __cil_tmp35);
    }
  } else {
  }
  {
  __cil_tmp36 = (unsigned long )tgfx;
  __cil_tmp37 = __cil_tmp36 + 872;
  __cil_tmp38 = (struct mutex *)__cil_tmp37;
  mutex_unlock(__cil_tmp38);
  }
  return (0);
}
}
static void tgfx_close(struct input_dev *dev )
{ struct tgfx *tgfx ;
  void *tmp ;
  unsigned long __cil_tmp4 ;
  unsigned long __cil_tmp5 ;
  struct mutex *__cil_tmp6 ;
  unsigned long __cil_tmp7 ;
  unsigned long __cil_tmp8 ;
  unsigned long __cil_tmp9 ;
  unsigned long __cil_tmp10 ;
  int __cil_tmp11 ;
  unsigned long __cil_tmp12 ;
  unsigned long __cil_tmp13 ;
  int __cil_tmp14 ;
  unsigned long __cil_tmp15 ;
  unsigned long __cil_tmp16 ;
  struct timer_list *__cil_tmp17 ;
  struct pardevice *__cil_tmp18 ;
  unsigned long __cil_tmp19 ;
  unsigned long __cil_tmp20 ;
  struct parport *__cil_tmp21 ;
  unsigned long __cil_tmp22 ;
  unsigned long __cil_tmp23 ;
  struct parport_operations *__cil_tmp24 ;
  unsigned long __cil_tmp25 ;
  unsigned long __cil_tmp26 ;
  void (*__cil_tmp27)(struct parport * , unsigned char ) ;
  struct pardevice *__cil_tmp28 ;
  unsigned long __cil_tmp29 ;
  unsigned long __cil_tmp30 ;
  struct parport *__cil_tmp31 ;
  struct pardevice *__cil_tmp32 ;
  unsigned long __cil_tmp33 ;
  unsigned long __cil_tmp34 ;
  struct mutex *__cil_tmp35 ;
  {
  {
  tmp = input_get_drvdata(dev);
  tgfx = (struct tgfx *)tmp;
  __cil_tmp4 = (unsigned long )tgfx;
  __cil_tmp5 = __cil_tmp4 + 872;
  __cil_tmp6 = (struct mutex *)__cil_tmp5;
  mutex_lock_nested(__cil_tmp6, 0U);
  __cil_tmp7 = (unsigned long )tgfx;
  __cil_tmp8 = __cil_tmp7 + 868;
  __cil_tmp9 = (unsigned long )tgfx;
  __cil_tmp10 = __cil_tmp9 + 868;
  __cil_tmp11 = *((int *)__cil_tmp10);
  *((int *)__cil_tmp8) = __cil_tmp11 - 1;
  }
  {
  __cil_tmp12 = (unsigned long )tgfx;
  __cil_tmp13 = __cil_tmp12 + 868;
  __cil_tmp14 = *((int *)__cil_tmp13);
  if (__cil_tmp14 == 0) {
    {
    __cil_tmp15 = (unsigned long )tgfx;
    __cil_tmp16 = __cil_tmp15 + 8;
    __cil_tmp17 = (struct timer_list *)__cil_tmp16;
    del_timer_sync(__cil_tmp17);
    __cil_tmp18 = *((struct pardevice **)tgfx);
    __cil_tmp19 = (unsigned long )__cil_tmp18;
    __cil_tmp20 = __cil_tmp19 + 8;
    __cil_tmp21 = *((struct parport **)__cil_tmp20);
    __cil_tmp22 = (unsigned long )__cil_tmp21;
    __cil_tmp23 = __cil_tmp22 + 488;
    __cil_tmp24 = *((struct parport_operations **)__cil_tmp23);
    __cil_tmp25 = (unsigned long )__cil_tmp24;
    __cil_tmp26 = __cil_tmp25 + 16;
    __cil_tmp27 = *((void (**)(struct parport * , unsigned char ))__cil_tmp26);
    __cil_tmp28 = *((struct pardevice **)tgfx);
    __cil_tmp29 = (unsigned long )__cil_tmp28;
    __cil_tmp30 = __cil_tmp29 + 8;
    __cil_tmp31 = *((struct parport **)__cil_tmp30);
    (*__cil_tmp27)(__cil_tmp31, (unsigned char)0);
    __cil_tmp32 = *((struct pardevice **)tgfx);
    parport_release(__cil_tmp32);
    }
  } else {
  }
  }
  {
  __cil_tmp33 = (unsigned long )tgfx;
  __cil_tmp34 = __cil_tmp33 + 872;
  __cil_tmp35 = (struct mutex *)__cil_tmp34;
  mutex_unlock(__cil_tmp35);
  }
  return;
}
}
static struct tgfx *tgfx_probe(int parport , int *n_buttons , int n_devs )
{ struct tgfx *tgfx ;
  struct input_dev *input_dev ;
  struct parport *pp ;
  struct pardevice *pd ;
  int i ;
  int j ;
  int err ;
  void *tmp ;
  struct lock_class_key __key ;
  struct lock_class_key __key___0 ;
  void *tmp___0 ;
  struct parport *__cil_tmp15 ;
  unsigned long __cil_tmp16 ;
  unsigned long __cil_tmp17 ;
  int (*__cil_tmp18)(void * ) ;
  void (*__cil_tmp19)(void * ) ;
  void (*__cil_tmp20)(void * ) ;
  void *__cil_tmp21 ;
  struct pardevice *__cil_tmp22 ;
  unsigned long __cil_tmp23 ;
  unsigned long __cil_tmp24 ;
  struct tgfx *__cil_tmp25 ;
  unsigned long __cil_tmp26 ;
  unsigned long __cil_tmp27 ;
  unsigned long __cil_tmp28 ;
  unsigned long __cil_tmp29 ;
  struct mutex *__cil_tmp30 ;
  unsigned long __cil_tmp31 ;
  unsigned long __cil_tmp32 ;
  struct timer_list *__cil_tmp33 ;
  unsigned long __cil_tmp34 ;
  unsigned long __cil_tmp35 ;
  unsigned long __cil_tmp36 ;
  unsigned long __cil_tmp37 ;
  unsigned long __cil_tmp38 ;
  unsigned long __cil_tmp39 ;
  unsigned long __cil_tmp40 ;
  int *__cil_tmp41 ;
  int __cil_tmp42 ;
  unsigned long __cil_tmp43 ;
  int *__cil_tmp44 ;
  int __cil_tmp45 ;
  unsigned long __cil_tmp46 ;
  int *__cil_tmp47 ;
  int __cil_tmp48 ;
  unsigned long __cil_tmp49 ;
  unsigned long __cil_tmp50 ;
  unsigned long __cil_tmp51 ;
  unsigned long __cil_tmp52 ;
  struct input_dev *__cil_tmp53 ;
  unsigned long __cil_tmp54 ;
  unsigned long __cil_tmp55 ;
  unsigned long __cil_tmp56 ;
  unsigned long __cil_tmp57 ;
  int __cil_tmp58 ;
  unsigned long __cil_tmp59 ;
  unsigned long __cil_tmp60 ;
  int __cil_tmp61 ;
  unsigned long __cil_tmp62 ;
  unsigned long __cil_tmp63 ;
  unsigned long __cil_tmp64 ;
  char (*__cil_tmp65)[7U][64U] ;
  char *__cil_tmp66 ;
  char *__cil_tmp67 ;
  unsigned long __cil_tmp68 ;
  int *__cil_tmp69 ;
  int __cil_tmp70 ;
  unsigned long __cil_tmp71 ;
  unsigned long __cil_tmp72 ;
  unsigned long __cil_tmp73 ;
  char (*__cil_tmp74)[7U][32U] ;
  char *__cil_tmp75 ;
  char *__cil_tmp76 ;
  struct pardevice *__cil_tmp77 ;
  unsigned long __cil_tmp78 ;
  unsigned long __cil_tmp79 ;
  struct parport *__cil_tmp80 ;
  unsigned long __cil_tmp81 ;
  unsigned long __cil_tmp82 ;
  char const *__cil_tmp83 ;
  unsigned long __cil_tmp84 ;
  unsigned long __cil_tmp85 ;
  unsigned long __cil_tmp86 ;
  char (*__cil_tmp87)[7U][64U] ;
  char const *__cil_tmp88 ;
  unsigned long __cil_tmp89 ;
  unsigned long __cil_tmp90 ;
  unsigned long __cil_tmp91 ;
  unsigned long __cil_tmp92 ;
  unsigned long __cil_tmp93 ;
  char (*__cil_tmp94)[7U][32U] ;
  char const *__cil_tmp95 ;
  unsigned long __cil_tmp96 ;
  unsigned long __cil_tmp97 ;
  unsigned long __cil_tmp98 ;
  unsigned long __cil_tmp99 ;
  unsigned long __cil_tmp100 ;
  unsigned long __cil_tmp101 ;
  unsigned long __cil_tmp102 ;
  unsigned long __cil_tmp103 ;
  unsigned long __cil_tmp104 ;
  int *__cil_tmp105 ;
  int __cil_tmp106 ;
  unsigned long __cil_tmp107 ;
  unsigned long __cil_tmp108 ;
  unsigned long __cil_tmp109 ;
  void *__cil_tmp110 ;
  unsigned long __cil_tmp111 ;
  unsigned long __cil_tmp112 ;
  unsigned long __cil_tmp113 ;
  unsigned long __cil_tmp114 ;
  unsigned long __cil_tmp115 ;
  unsigned long __cil_tmp116 ;
  unsigned long __cil_tmp117 ;
  unsigned long __cil_tmp118 ;
  unsigned long __cil_tmp119 ;
  unsigned long __cil_tmp120 ;
  int __cil_tmp121 ;
  unsigned int __cil_tmp122 ;
  unsigned long __cil_tmp123 ;
  unsigned long __cil_tmp124 ;
  unsigned long (*__cil_tmp125)[12U] ;
  unsigned long volatile *__cil_tmp126 ;
  unsigned long __cil_tmp127 ;
  int *__cil_tmp128 ;
  int __cil_tmp129 ;
  unsigned long __cil_tmp130 ;
  unsigned long __cil_tmp131 ;
  unsigned long __cil_tmp132 ;
  unsigned long __cil_tmp133 ;
  struct input_dev *__cil_tmp134 ;
  unsigned long __cil_tmp135 ;
  unsigned long __cil_tmp136 ;
  int __cil_tmp137 ;
  unsigned long __cil_tmp138 ;
  unsigned long __cil_tmp139 ;
  unsigned long __cil_tmp140 ;
  unsigned long __cil_tmp141 ;
  struct input_dev *__cil_tmp142 ;
  struct input_dev *__cil_tmp143 ;
  unsigned long __cil_tmp144 ;
  unsigned long __cil_tmp145 ;
  unsigned long __cil_tmp146 ;
  unsigned long __cil_tmp147 ;
  unsigned long __cil_tmp148 ;
  struct input_dev *__cil_tmp149 ;
  unsigned long __cil_tmp150 ;
  unsigned long __cil_tmp151 ;
  unsigned long __cil_tmp152 ;
  unsigned long __cil_tmp153 ;
  unsigned long __cil_tmp154 ;
  struct input_dev *__cil_tmp155 ;
  void const *__cil_tmp156 ;
  long __cil_tmp157 ;
  {
  {
  pp = parport_find_number(parport);
  }
  {
  __cil_tmp15 = (struct parport *)0;
  __cil_tmp16 = (unsigned long )__cil_tmp15;
  __cil_tmp17 = (unsigned long )pp;
  if (__cil_tmp17 == __cil_tmp16) {
    {
    printk("<3>turbografx.c: no such parport\n");
    err = -22;
    }
    goto err_out;
  } else {
  }
  }
  {
  __cil_tmp18 = (int (*)(void * ))0;
  __cil_tmp19 = (void (*)(void * ))0;
  __cil_tmp20 = (void (*)(void * ))0;
  __cil_tmp21 = (void *)0;
  pd = parport_register_device(pp, "turbografx", __cil_tmp18, __cil_tmp19, __cil_tmp20,
                               2, __cil_tmp21);
  }
  {
  __cil_tmp22 = (struct pardevice *)0;
  __cil_tmp23 = (unsigned long )__cil_tmp22;
  __cil_tmp24 = (unsigned long )pd;
  if (__cil_tmp24 == __cil_tmp23) {
    {
    printk("<3>turbografx.c: parport busy already - lp.o loaded?\n");
    err = -16;
    }
    goto err_put_pp;
  } else {
  }
  }
  {
  tmp = kzalloc(1040UL, 208U);
  tgfx = (struct tgfx *)tmp;
  }
  {
  __cil_tmp25 = (struct tgfx *)0;
  __cil_tmp26 = (unsigned long )__cil_tmp25;
  __cil_tmp27 = (unsigned long )tgfx;
  if (__cil_tmp27 == __cil_tmp26) {
    {
    printk("<3>turbografx.c: Not enough memory\n");
    err = -12;
    }
    goto err_unreg_pardev;
  } else {
  }
  }
  {
  __cil_tmp28 = (unsigned long )tgfx;
  __cil_tmp29 = __cil_tmp28 + 872;
  __cil_tmp30 = (struct mutex *)__cil_tmp29;
  __mutex_init(__cil_tmp30, "&tgfx->sem", & __key);
  *((struct pardevice **)tgfx) = pd;
  __cil_tmp31 = (unsigned long )tgfx;
  __cil_tmp32 = __cil_tmp31 + 8;
  __cil_tmp33 = (struct timer_list *)__cil_tmp32;
  init_timer_key(__cil_tmp33, "&tgfx->timer", & __key___0);
  __cil_tmp34 = 8 + 40;
  __cil_tmp35 = (unsigned long )tgfx;
  __cil_tmp36 = __cil_tmp35 + __cil_tmp34;
  *((unsigned long *)__cil_tmp36) = (unsigned long )tgfx;
  __cil_tmp37 = 8 + 32;
  __cil_tmp38 = (unsigned long )tgfx;
  __cil_tmp39 = __cil_tmp38 + __cil_tmp37;
  *((void (**)(unsigned long ))__cil_tmp39) = & tgfx_timer;
  i = 0;
  }
  goto ldv_19681;
  ldv_19680: ;
  {
  __cil_tmp40 = (unsigned long )i;
  __cil_tmp41 = n_buttons + __cil_tmp40;
  __cil_tmp42 = *__cil_tmp41;
  if (__cil_tmp42 <= 0) {
    goto ldv_19674;
  } else {
  }
  }
  {
  __cil_tmp43 = (unsigned long )i;
  __cil_tmp44 = n_buttons + __cil_tmp43;
  __cil_tmp45 = *__cil_tmp44;
  if (__cil_tmp45 > 6) {
    {
    __cil_tmp46 = (unsigned long )i;
    __cil_tmp47 = n_buttons + __cil_tmp46;
    __cil_tmp48 = *__cil_tmp47;
    printk("<3>turbografx.c: Invalid number of buttons %d\n", __cil_tmp48);
    err = -22;
    }
    goto err_unreg_devs;
  } else {
  }
  }
  {
  input_dev = input_allocate_device();
  __cil_tmp49 = i * 8UL;
  __cil_tmp50 = 136 + __cil_tmp49;
  __cil_tmp51 = (unsigned long )tgfx;
  __cil_tmp52 = __cil_tmp51 + __cil_tmp50;
  *((struct input_dev **)__cil_tmp52) = input_dev;
  }
  {
  __cil_tmp53 = (struct input_dev *)0;
  __cil_tmp54 = (unsigned long )__cil_tmp53;
  __cil_tmp55 = (unsigned long )input_dev;
  if (__cil_tmp55 == __cil_tmp54) {
    {
    printk("<3>turbografx.c: Not enough memory for input device\n");
    err = -12;
    }
    goto err_unreg_devs;
  } else {
  }
  }
  {
  __cil_tmp56 = (unsigned long )tgfx;
  __cil_tmp57 = __cil_tmp56 + 864;
  __cil_tmp58 = 1 << i;
  __cil_tmp59 = (unsigned long )tgfx;
  __cil_tmp60 = __cil_tmp59 + 864;
  __cil_tmp61 = *((int *)__cil_tmp60);
  *((int *)__cil_tmp57) = __cil_tmp61 | __cil_tmp58;
  __cil_tmp62 = (unsigned long )i;
  __cil_tmp63 = (unsigned long )tgfx;
  __cil_tmp64 = __cil_tmp63 + 192;
  __cil_tmp65 = (char (*)[7U][64U])__cil_tmp64;
  __cil_tmp66 = (char *)__cil_tmp65;
  __cil_tmp67 = __cil_tmp66 + __cil_tmp62;
  __cil_tmp68 = (unsigned long )i;
  __cil_tmp69 = n_buttons + __cil_tmp68;
  __cil_tmp70 = *__cil_tmp69;
  snprintf(__cil_tmp67, 64UL, "TurboGraFX %d-button Multisystem joystick", __cil_tmp70);
  __cil_tmp71 = (unsigned long )i;
  __cil_tmp72 = (unsigned long )tgfx;
  __cil_tmp73 = __cil_tmp72 + 640;
  __cil_tmp74 = (char (*)[7U][32U])__cil_tmp73;
  __cil_tmp75 = (char *)__cil_tmp74;
  __cil_tmp76 = __cil_tmp75 + __cil_tmp71;
  __cil_tmp77 = *((struct pardevice **)tgfx);
  __cil_tmp78 = (unsigned long )__cil_tmp77;
  __cil_tmp79 = __cil_tmp78 + 8;
  __cil_tmp80 = *((struct parport **)__cil_tmp79);
  __cil_tmp81 = (unsigned long )__cil_tmp80;
  __cil_tmp82 = __cil_tmp81 + 24;
  __cil_tmp83 = *((char const **)__cil_tmp82);
  snprintf(__cil_tmp76, 32UL, "%s/input%d", __cil_tmp83, i);
  __cil_tmp84 = (unsigned long )i;
  __cil_tmp85 = (unsigned long )tgfx;
  __cil_tmp86 = __cil_tmp85 + 192;
  __cil_tmp87 = (char (*)[7U][64U])__cil_tmp86;
  __cil_tmp88 = (char const *)__cil_tmp87;
  *((char const **)input_dev) = __cil_tmp88 + __cil_tmp84;
  __cil_tmp89 = (unsigned long )input_dev;
  __cil_tmp90 = __cil_tmp89 + 8;
  __cil_tmp91 = (unsigned long )i;
  __cil_tmp92 = (unsigned long )tgfx;
  __cil_tmp93 = __cil_tmp92 + 640;
  __cil_tmp94 = (char (*)[7U][32U])__cil_tmp93;
  __cil_tmp95 = (char const *)__cil_tmp94;
  *((char const **)__cil_tmp90) = __cil_tmp95 + __cil_tmp91;
  __cil_tmp96 = (unsigned long )input_dev;
  __cil_tmp97 = __cil_tmp96 + 24;
  *((__u16 *)__cil_tmp97) = (__u16 )21U;
  __cil_tmp98 = 24 + 2;
  __cil_tmp99 = (unsigned long )input_dev;
  __cil_tmp100 = __cil_tmp99 + __cil_tmp98;
  *((__u16 *)__cil_tmp100) = (__u16 )3U;
  __cil_tmp101 = 24 + 4;
  __cil_tmp102 = (unsigned long )input_dev;
  __cil_tmp103 = __cil_tmp102 + __cil_tmp101;
  __cil_tmp104 = (unsigned long )i;
  __cil_tmp105 = n_buttons + __cil_tmp104;
  __cil_tmp106 = *__cil_tmp105;
  *((__u16 *)__cil_tmp103) = (__u16 )__cil_tmp106;
  __cil_tmp107 = 24 + 6;
  __cil_tmp108 = (unsigned long )input_dev;
  __cil_tmp109 = __cil_tmp108 + __cil_tmp107;
  *((__u16 *)__cil_tmp109) = (__u16 )256U;
  __cil_tmp110 = (void *)tgfx;
  input_set_drvdata(input_dev, __cil_tmp110);
  __cil_tmp111 = (unsigned long )input_dev;
  __cil_tmp112 = __cil_tmp111 + 552;
  *((int (**)(struct input_dev * ))__cil_tmp112) = & tgfx_open;
  __cil_tmp113 = (unsigned long )input_dev;
  __cil_tmp114 = __cil_tmp113 + 560;
  *((void (**)(struct input_dev * ))__cil_tmp114) = & tgfx_close;
  __cil_tmp115 = 0 * 8UL;
  __cil_tmp116 = 40 + __cil_tmp115;
  __cil_tmp117 = (unsigned long )input_dev;
  __cil_tmp118 = __cil_tmp117 + __cil_tmp116;
  *((unsigned long *)__cil_tmp118) = 10UL;
  input_set_abs_params(input_dev, 0U, -1, 1, 0, 0);
  input_set_abs_params(input_dev, 1U, -1, 1, 0, 0);
  j = 0;
  }
  goto ldv_19677;
  ldv_19676:
  {
  __cil_tmp119 = j * 4UL;
  __cil_tmp120 = (unsigned long )(tgfx_buttons) + __cil_tmp119;
  __cil_tmp121 = *((int *)__cil_tmp120);
  __cil_tmp122 = (unsigned int )__cil_tmp121;
  __cil_tmp123 = (unsigned long )input_dev;
  __cil_tmp124 = __cil_tmp123 + 48;
  __cil_tmp125 = (unsigned long (*)[12U])__cil_tmp124;
  __cil_tmp126 = (unsigned long volatile *)__cil_tmp125;
  set_bit(__cil_tmp122, __cil_tmp126);
  j = j + 1;
  }
  ldv_19677: ;
  {
  __cil_tmp127 = (unsigned long )i;
  __cil_tmp128 = n_buttons + __cil_tmp127;
  __cil_tmp129 = *__cil_tmp128;
  if (__cil_tmp129 > j) {
    goto ldv_19676;
  } else {
    goto ldv_19678;
  }
  }
  ldv_19678:
  {
  __cil_tmp130 = i * 8UL;
  __cil_tmp131 = 136 + __cil_tmp130;
  __cil_tmp132 = (unsigned long )tgfx;
  __cil_tmp133 = __cil_tmp132 + __cil_tmp131;
  __cil_tmp134 = *((struct input_dev **)__cil_tmp133);
  err = input_register_device(__cil_tmp134);
  }
  if (err != 0) {
    goto err_free_dev;
  } else {
  }
  ldv_19674:
  i = i + 1;
  ldv_19681: ;
  if (i < n_devs) {
    goto ldv_19680;
  } else {
    goto ldv_19682;
  }
  ldv_19682: ;
  {
  __cil_tmp135 = (unsigned long )tgfx;
  __cil_tmp136 = __cil_tmp135 + 864;
  __cil_tmp137 = *((int *)__cil_tmp136);
  if (__cil_tmp137 == 0) {
    {
    printk("<3>turbografx.c: No valid devices specified\n");
    err = -22;
    }
    goto err_free_tgfx;
  } else {
  }
  }
  {
  parport_put_port(pp);
  }
  return (tgfx);
  err_free_dev:
  {
  __cil_tmp138 = i * 8UL;
  __cil_tmp139 = 136 + __cil_tmp138;
  __cil_tmp140 = (unsigned long )tgfx;
  __cil_tmp141 = __cil_tmp140 + __cil_tmp139;
  __cil_tmp142 = *((struct input_dev **)__cil_tmp141);
  input_free_device(__cil_tmp142);
  }
  err_unreg_devs: ;
  goto ldv_19685;
  ldv_19684: ;
  {
  __cil_tmp143 = (struct input_dev *)0;
  __cil_tmp144 = (unsigned long )__cil_tmp143;
  __cil_tmp145 = i * 8UL;
  __cil_tmp146 = 136 + __cil_tmp145;
  __cil_tmp147 = (unsigned long )tgfx;
  __cil_tmp148 = __cil_tmp147 + __cil_tmp146;
  __cil_tmp149 = *((struct input_dev **)__cil_tmp148);
  __cil_tmp150 = (unsigned long )__cil_tmp149;
  if (__cil_tmp150 != __cil_tmp144) {
    {
    __cil_tmp151 = i * 8UL;
    __cil_tmp152 = 136 + __cil_tmp151;
    __cil_tmp153 = (unsigned long )tgfx;
    __cil_tmp154 = __cil_tmp153 + __cil_tmp152;
    __cil_tmp155 = *((struct input_dev **)__cil_tmp154);
    input_unregister_device(__cil_tmp155);
    }
  } else {
  }
  }
  ldv_19685:
  i = i - 1;
  if (i >= 0) {
    goto ldv_19684;
  } else {
    goto ldv_19686;
  }
  ldv_19686: ;
  err_free_tgfx:
  {
  __cil_tmp156 = (void const *)tgfx;
  kfree(__cil_tmp156);
  }
  err_unreg_pardev:
  {
  parport_unregister_device(pd);
  }
  err_put_pp:
  {
  parport_put_port(pp);
  }
  err_out:
  {
  __cil_tmp157 = (long )err;
  tmp___0 = ERR_PTR(__cil_tmp157);
  }
  return ((struct tgfx *)tmp___0);
}
}
static void tgfx_remove(struct tgfx *tgfx )
{ int i ;
  struct input_dev *__cil_tmp3 ;
  unsigned long __cil_tmp4 ;
  unsigned long __cil_tmp5 ;
  unsigned long __cil_tmp6 ;
  unsigned long __cil_tmp7 ;
  unsigned long __cil_tmp8 ;
  struct input_dev *__cil_tmp9 ;
  unsigned long __cil_tmp10 ;
  unsigned long __cil_tmp11 ;
  unsigned long __cil_tmp12 ;
  unsigned long __cil_tmp13 ;
  unsigned long __cil_tmp14 ;
  struct input_dev *__cil_tmp15 ;
  struct pardevice *__cil_tmp16 ;
  void const *__cil_tmp17 ;
  {
  i = 0;
  goto ldv_19692;
  ldv_19691: ;
  {
  __cil_tmp3 = (struct input_dev *)0;
  __cil_tmp4 = (unsigned long )__cil_tmp3;
  __cil_tmp5 = i * 8UL;
  __cil_tmp6 = 136 + __cil_tmp5;
  __cil_tmp7 = (unsigned long )tgfx;
  __cil_tmp8 = __cil_tmp7 + __cil_tmp6;
  __cil_tmp9 = *((struct input_dev **)__cil_tmp8);
  __cil_tmp10 = (unsigned long )__cil_tmp9;
  if (__cil_tmp10 != __cil_tmp4) {
    {
    __cil_tmp11 = i * 8UL;
    __cil_tmp12 = 136 + __cil_tmp11;
    __cil_tmp13 = (unsigned long )tgfx;
    __cil_tmp14 = __cil_tmp13 + __cil_tmp12;
    __cil_tmp15 = *((struct input_dev **)__cil_tmp14);
    input_unregister_device(__cil_tmp15);
    }
  } else {
  }
  }
  i = i + 1;
  ldv_19692: ;
  if (i <= 6) {
    goto ldv_19691;
  } else {
    goto ldv_19693;
  }
  ldv_19693:
  {
  __cil_tmp16 = *((struct pardevice **)tgfx);
  parport_unregister_device(__cil_tmp16);
  __cil_tmp17 = (void const *)tgfx;
  kfree(__cil_tmp17);
  }
  return;
}
}
static int tgfx_init(void)
{ int i ;
  int have_dev ;
  int err ;
  long tmp ;
  long tmp___0 ;
  int tmp___1 ;
  unsigned long __cil_tmp7 ;
  unsigned long __cil_tmp8 ;
  unsigned long __cil_tmp9 ;
  unsigned int __cil_tmp10 ;
  unsigned long __cil_tmp11 ;
  unsigned long __cil_tmp12 ;
  unsigned long __cil_tmp13 ;
  unsigned long __cil_tmp14 ;
  unsigned long __cil_tmp15 ;
  int __cil_tmp16 ;
  unsigned long __cil_tmp17 ;
  unsigned long __cil_tmp18 ;
  unsigned long __cil_tmp19 ;
  unsigned int __cil_tmp20 ;
  unsigned long __cil_tmp21 ;
  unsigned long __cil_tmp22 ;
  unsigned long __cil_tmp23 ;
  unsigned long __cil_tmp24 ;
  unsigned long __cil_tmp25 ;
  unsigned long __cil_tmp26 ;
  unsigned long __cil_tmp27 ;
  int __cil_tmp28 ;
  unsigned long __cil_tmp29 ;
  unsigned long __cil_tmp30 ;
  int (*__cil_tmp31)[8U] ;
  int *__cil_tmp32 ;
  int *__cil_tmp33 ;
  unsigned long __cil_tmp34 ;
  unsigned long __cil_tmp35 ;
  unsigned long __cil_tmp36 ;
  unsigned int __cil_tmp37 ;
  unsigned int __cil_tmp38 ;
  int __cil_tmp39 ;
  unsigned long __cil_tmp40 ;
  unsigned long __cil_tmp41 ;
  struct tgfx *__cil_tmp42 ;
  void const *__cil_tmp43 ;
  unsigned long __cil_tmp44 ;
  unsigned long __cil_tmp45 ;
  struct tgfx *__cil_tmp46 ;
  void const *__cil_tmp47 ;
  struct tgfx *__cil_tmp48 ;
  unsigned long __cil_tmp49 ;
  unsigned long __cil_tmp50 ;
  unsigned long __cil_tmp51 ;
  struct tgfx *__cil_tmp52 ;
  unsigned long __cil_tmp53 ;
  unsigned long __cil_tmp54 ;
  unsigned long __cil_tmp55 ;
  struct tgfx *__cil_tmp56 ;
  {
  have_dev = 0;
  err = 0;
  i = 0;
  goto ldv_19703;
  ldv_19702: ;
  {
  __cil_tmp7 = i * 36UL;
  __cil_tmp8 = __cil_tmp7 + 32;
  __cil_tmp9 = (unsigned long )(tgfx_cfg) + __cil_tmp8;
  __cil_tmp10 = *((unsigned int *)__cil_tmp9);
  if (__cil_tmp10 == 0U) {
    goto ldv_19700;
  } else {
    {
    __cil_tmp11 = 0 * 4UL;
    __cil_tmp12 = 0 + __cil_tmp11;
    __cil_tmp13 = i * 36UL;
    __cil_tmp14 = __cil_tmp13 + __cil_tmp12;
    __cil_tmp15 = (unsigned long )(tgfx_cfg) + __cil_tmp14;
    __cil_tmp16 = *((int *)__cil_tmp15);
    if (__cil_tmp16 < 0) {
      goto ldv_19700;
    } else {
    }
    }
  }
  }
  {
  __cil_tmp17 = i * 36UL;
  __cil_tmp18 = __cil_tmp17 + 32;
  __cil_tmp19 = (unsigned long )(tgfx_cfg) + __cil_tmp18;
  __cil_tmp20 = *((unsigned int *)__cil_tmp19);
  if (__cil_tmp20 <= 1U) {
    {
    printk("<3>turbografx.c: at least one joystick must be specified\n");
    err = -22;
    }
    goto ldv_19701;
  } else {
  }
  }
  {
  __cil_tmp21 = i * 8UL;
  __cil_tmp22 = (unsigned long )(tgfx_base) + __cil_tmp21;
  __cil_tmp23 = 0 * 4UL;
  __cil_tmp24 = 0 + __cil_tmp23;
  __cil_tmp25 = i * 36UL;
  __cil_tmp26 = __cil_tmp25 + __cil_tmp24;
  __cil_tmp27 = (unsigned long )(tgfx_cfg) + __cil_tmp26;
  __cil_tmp28 = *((int *)__cil_tmp27);
  __cil_tmp29 = i * 36UL;
  __cil_tmp30 = (unsigned long )(tgfx_cfg) + __cil_tmp29;
  __cil_tmp31 = (int (*)[8U])__cil_tmp30;
  __cil_tmp32 = (int *)__cil_tmp31;
  __cil_tmp33 = __cil_tmp32 + 1UL;
  __cil_tmp34 = i * 36UL;
  __cil_tmp35 = __cil_tmp34 + 32;
  __cil_tmp36 = (unsigned long )(tgfx_cfg) + __cil_tmp35;
  __cil_tmp37 = *((unsigned int *)__cil_tmp36);
  __cil_tmp38 = __cil_tmp37 - 1U;
  __cil_tmp39 = (int )__cil_tmp38;
  *((struct tgfx **)__cil_tmp22) = tgfx_probe(__cil_tmp28, __cil_tmp33, __cil_tmp39);
  __cil_tmp40 = i * 8UL;
  __cil_tmp41 = (unsigned long )(tgfx_base) + __cil_tmp40;
  __cil_tmp42 = *((struct tgfx **)__cil_tmp41);
  __cil_tmp43 = (void const *)__cil_tmp42;
  tmp___0 = IS_ERR(__cil_tmp43);
  }
  if (tmp___0 != 0L) {
    {
    __cil_tmp44 = i * 8UL;
    __cil_tmp45 = (unsigned long )(tgfx_base) + __cil_tmp44;
    __cil_tmp46 = *((struct tgfx **)__cil_tmp45);
    __cil_tmp47 = (void const *)__cil_tmp46;
    tmp = PTR_ERR(__cil_tmp47);
    err = (int )tmp;
    }
    goto ldv_19701;
  } else {
  }
  have_dev = 1;
  ldv_19700:
  i = i + 1;
  ldv_19703: ;
  if (i <= 2) {
    goto ldv_19702;
  } else {
    goto ldv_19701;
  }
  ldv_19701: ;
  if (err != 0) {
    goto ldv_19705;
    ldv_19704: ;
    {
    __cil_tmp48 = (struct tgfx *)0;
    __cil_tmp49 = (unsigned long )__cil_tmp48;
    __cil_tmp50 = i * 8UL;
    __cil_tmp51 = (unsigned long )(tgfx_base) + __cil_tmp50;
    __cil_tmp52 = *((struct tgfx **)__cil_tmp51);
    __cil_tmp53 = (unsigned long )__cil_tmp52;
    if (__cil_tmp53 != __cil_tmp49) {
      {
      __cil_tmp54 = i * 8UL;
      __cil_tmp55 = (unsigned long )(tgfx_base) + __cil_tmp54;
      __cil_tmp56 = *((struct tgfx **)__cil_tmp55);
      tgfx_remove(__cil_tmp56);
      }
    } else {
    }
    }
    ldv_19705:
    i = i - 1;
    if (i >= 0) {
      goto ldv_19704;
    } else {
      goto ldv_19706;
    }
    ldv_19706: ;
    return (err);
  } else {
  }
  if (have_dev != 0) {
    tmp___1 = 0;
  } else {
    tmp___1 = -19;
  }
  return (tmp___1);
}
}
static void tgfx_exit(void)
{ int i ;
  struct tgfx *__cil_tmp2 ;
  unsigned long __cil_tmp3 ;
  unsigned long __cil_tmp4 ;
  unsigned long __cil_tmp5 ;
  struct tgfx *__cil_tmp6 ;
  unsigned long __cil_tmp7 ;
  unsigned long __cil_tmp8 ;
  unsigned long __cil_tmp9 ;
  struct tgfx *__cil_tmp10 ;
  {
  i = 0;
  goto ldv_19712;
  ldv_19711: ;
  {
  __cil_tmp2 = (struct tgfx *)0;
  __cil_tmp3 = (unsigned long )__cil_tmp2;
  __cil_tmp4 = i * 8UL;
  __cil_tmp5 = (unsigned long )(tgfx_base) + __cil_tmp4;
  __cil_tmp6 = *((struct tgfx **)__cil_tmp5);
  __cil_tmp7 = (unsigned long )__cil_tmp6;
  if (__cil_tmp7 != __cil_tmp3) {
    {
    __cil_tmp8 = i * 8UL;
    __cil_tmp9 = (unsigned long )(tgfx_base) + __cil_tmp8;
    __cil_tmp10 = *((struct tgfx **)__cil_tmp9);
    tgfx_remove(__cil_tmp10);
    }
  } else {
  }
  }
  i = i + 1;
  ldv_19712: ;
  if (i <= 2) {
    goto ldv_19711;
  } else {
    goto ldv_19713;
  }
  ldv_19713: ;
  return;
}
}
extern void ldv_check_final_state(void) ;
extern void ldv_initialize(void) ;
extern int __VERIFIER_nondet_int(void) ;
int LDV_IN_INTERRUPT ;
void main(void)
{ unsigned long var_tgfx_timer_0_p0 ;
  int tmp ;
  int tmp___0 ;
  int tmp___1 ;
  {
  {
  LDV_IN_INTERRUPT = 1;
  ldv_initialize();
  tmp = tgfx_init();
  }
  if (tmp != 0) {
    goto ldv_final;
  } else {
  }
  goto ldv_19742;
  ldv_19741:
  {
  tmp___0 = __VERIFIER_nondet_int();
  }
  if (tmp___0 == 0) {
    goto case_0;
  } else {
    {
    goto switch_default;
    if (0) {
      case_0:
      {
      tgfx_timer(var_tgfx_timer_0_p0);
      }
      goto ldv_19739;
      switch_default: ;
      goto ldv_19739;
    } else {
      switch_break: ;
    }
    }
  }
  ldv_19739: ;
  ldv_19742:
  {
  tmp___1 = __VERIFIER_nondet_int();
  }
  if (tmp___1 != 0) {
    goto ldv_19741;
  } else {
    goto ldv_19743;
  }
  ldv_19743: ;
  {
  tgfx_exit();
  }
  ldv_final:
  {
  ldv_check_final_state();
  }
  return;
}
}
void ldv_blast_assert(void)
{
  {
  ERROR: {reach_error();abort();}
}
}
extern int __VERIFIER_nondet_int(void) ;
int ldv_spin = 0;
void ldv_check_alloc_flags(gfp_t flags )
{
  {
  if (ldv_spin != 0) {
    if (flags != 32U) {
      {
      ldv_blast_assert();
      }
    } else {
    }
  } else {
  }
  return;
}
}
extern struct page *ldv_some_page(void) ;
struct page *ldv_check_alloc_flags_and_return_some_page(gfp_t flags )
{ struct page *tmp ;
  {
  if (ldv_spin != 0) {
    if (flags != 32U) {
      {
      ldv_blast_assert();
      }
    } else {
    }
  } else {
  }
  {
  tmp = ldv_some_page();
  }
  return (tmp);
}
}
void ldv_check_alloc_nonatomic(void)
{
  {
  if (ldv_spin != 0) {
    {
    ldv_blast_assert();
    }
  } else {
  }
  return;
}
}
void ldv_spin_lock(void)
{
  {
  ldv_spin = 1;
  return;
}
}
void ldv_spin_unlock(void)
{
  {
  ldv_spin = 0;
  return;
}
}
int ldv_spin_trylock(void)
{ int is_lock ;
  {
  {
  is_lock = __VERIFIER_nondet_int();
  }
  if (is_lock != 0) {
    return (0);
  } else {
    ldv_spin = 1;
    return (1);
  }
}
}
void *ldv_kmem_cache_alloc_16(struct kmem_cache *ldv_func_arg1 , gfp_t ldv_func_arg2 )
{
  {
  {
  ldv_check_alloc_flags(ldv_func_arg2);
  kmem_cache_alloc(ldv_func_arg1, ldv_func_arg2);
  }
  return ((void *)0);
}
}
void *ldv_zalloc(size_t size ) ;
extern _Bool __VERIFIER_nondet_bool(void) ;
extern void *calloc(size_t, size_t) ;
extern void abort(void);
void assume_abort_if_not(int cond) {
  if(!cond) {abort();}
}
void *ldv_zalloc(size_t size )
{
  if(__VERIFIER_nondet_bool()) return 0;
  void *p = calloc(1UL, size);
  assume_abort_if_not(IS_ERR(p) == 0);
  return p;
}
 static void *kzalloc(size_t size , gfp_t flags )
{ void *tmp ;
  {
  {
  ldv_check_alloc_flags(flags);
  tmp = ldv_zalloc(size);
  }
  return (tmp);
}
}
void __mutex_init(struct mutex *arg0, const char *arg1, struct lock_class_key *arg2) {
  return;
}
int __VERIFIER_nondet_int(void);
int del_timer_sync(struct timer_list *arg0) {
  return __VERIFIER_nondet_int();
}
extern _Bool __VERIFIER_nondet_bool(void) ;
extern void *malloc(size_t) ;
void *ldv_malloc(size_t size )
{
  if(__VERIFIER_nondet_bool()) return 0;
  void *p = malloc(size);
  assume_abort_if_not(IS_ERR(p) == 0);
  return p;
}
void *dev_get_drvdata(const struct device *arg0) {
  return ldv_malloc(0UL);
}
int __VERIFIER_nondet_int(void);
int dev_set_drvdata(struct device *arg0, void *arg1) {
  return __VERIFIER_nondet_int();
}
void init_timer_key(struct timer_list *arg0, const char *arg1, struct lock_class_key *arg2) {
  return;
}
void input_event(struct input_dev *arg0, unsigned int arg1, unsigned int arg2, int arg3) {
  return;
}
void input_free_device(struct input_dev *arg0) {
  return;
}
int __VERIFIER_nondet_int(void);
int input_register_device(struct input_dev *arg0) {
  return __VERIFIER_nondet_int();
}
void input_set_abs_params(struct input_dev *arg0, unsigned int arg1, int arg2, int arg3, int arg4, int arg5) {
  return;
}
void input_unregister_device(struct input_dev *arg0) {
  return;
}
void *kmem_cache_alloc(struct kmem_cache *arg0, gfp_t arg1) {
  return ldv_malloc(0UL);
}
void ldv_check_final_state() {
  return;
}
void ldv_initialize() {
  return;
}
struct page *ldv_some_page() {
  return ldv_malloc(0UL);
}
int __VERIFIER_nondet_int(void);
int mod_timer(struct timer_list *arg0, unsigned long arg1) {
  return __VERIFIER_nondet_int();
}
int __VERIFIER_nondet_int(void);
int mutex_lock_interruptible_nested(struct mutex *arg0, unsigned int arg1) {
  return __VERIFIER_nondet_int();
}
void mutex_lock_nested(struct mutex *arg0, unsigned int arg1) {
  return;
}
void mutex_unlock(struct mutex *arg0) {
  return;
}
int __VERIFIER_nondet_int(void);
int parport_claim(struct pardevice *arg0) {
  return __VERIFIER_nondet_int();
}
struct parport *parport_find_number(int arg0) {
  return ldv_malloc(sizeof(struct parport));
}
void parport_put_port(struct parport *arg0) {
  return;
}
struct pardevice *parport_register_device(struct parport *arg0, const char *arg1, int (*arg2)(void *), void (*arg3)(void *), void (*arg4)(void *), int arg5, void *arg6) {
  return ldv_malloc(sizeof(struct pardevice));
}
void parport_release(struct pardevice *arg0) {
  return;
}
void parport_unregister_device(struct pardevice *arg0) {
  return;
}
int __VERIFIER_nondet_int(void);
int printk(const char *arg0, ...) {
  return __VERIFIER_nondet_int();
}
void free(void *);
void kfree(void const *p) {
  free((void *)p);
}
