extern void abort(void);

extern void __assert_fail (const char *__assertion, const char *__file,
      unsigned int __line, const char *__function)
     __attribute__ ((__nothrow__ , __leaf__)) __attribute__ ((__noreturn__));
extern void __assert_perror_fail (int __errnum, const char *__file,
      unsigned int __line, const char *__function)
     __attribute__ ((__nothrow__ , __leaf__)) __attribute__ ((__noreturn__));
extern void __assert (const char *__assertion, const char *__file, int __line)
     __attribute__ ((__nothrow__ , __leaf__)) __attribute__ ((__noreturn__));

void reach_error() { ((void) sizeof ((0) ? 1 : 0), __extension__ ({ if (0) ; else __assert_fail ("0", "43_1a_cilled_ok_nondet_linux-43_1a-drivers--media--video--videobuf-vmalloc.ko-ldv_main0_sequence_infinite_withcheck_stateful.cil.out.c", 3, __extension__ __PRETTY_FUNCTION__); })); }
typedef signed char __s8;
typedef short __s16;
typedef unsigned short __u16;
typedef int __s32;
typedef unsigned int __u32;
typedef unsigned long long __u64;
typedef unsigned char u8;
typedef short s16;
typedef unsigned short u16;
typedef int s32;
typedef unsigned int u32;
typedef long long s64;
typedef unsigned long long u64;
typedef long __kernel_long_t;
typedef unsigned long __kernel_ulong_t;
typedef __kernel_long_t __kernel_suseconds_t;
typedef unsigned int __kernel_uid32_t;
typedef unsigned int __kernel_gid32_t;
typedef __kernel_ulong_t __kernel_size_t;
typedef __kernel_long_t __kernel_ssize_t;
typedef long long __kernel_loff_t;
typedef __kernel_long_t __kernel_time_t;
typedef __u32 __kernel_dev_t;
typedef __kernel_dev_t dev_t;
typedef unsigned short umode_t;
typedef _Bool bool;
typedef __kernel_uid32_t uid_t;
typedef __kernel_gid32_t gid_t;
typedef __kernel_loff_t loff_t;
typedef __kernel_size_t size_t;
typedef __kernel_ssize_t ssize_t;
typedef __kernel_time_t time_t;
typedef unsigned long sector_t;
typedef unsigned long blkcnt_t;
typedef u64 dma_addr_t;
typedef unsigned int gfp_t;
typedef unsigned int fmode_t;
struct __anonstruct_atomic_t_6 {
   int counter ;
};
typedef struct __anonstruct_atomic_t_6 atomic_t;
struct __anonstruct_atomic64_t_7 {
   long counter ;
};
typedef struct __anonstruct_atomic64_t_7 atomic64_t;
struct list_head {
   struct list_head *next ;
   struct list_head *prev ;
};
struct hlist_node;
struct hlist_head {
   struct hlist_node *first ;
};
struct hlist_node {
   struct hlist_node *next ;
   struct hlist_node **pprev ;
};
struct rcu_head {
   struct rcu_head *next ;
   void (*func)(struct rcu_head * ) ;
};
struct module;
struct module;
typedef void (*ctor_fn_t)(void);
struct device;
struct device;
struct completion;
struct completion;
struct pid;
struct pid;
struct timespec;
struct timespec;
struct page;
struct page;
struct task_struct;
struct task_struct;
struct mm_struct;
struct mm_struct;
typedef unsigned long pgdval_t;
typedef unsigned long pgprotval_t;
struct pgprot {
   pgprotval_t pgprot ;
};
typedef struct pgprot pgprot_t;
struct __anonstruct_pgd_t_16 {
   pgdval_t pgd ;
};
typedef struct __anonstruct_pgd_t_16 pgd_t;
typedef struct page *pgtable_t;
struct file;
struct file;
struct seq_file;
struct seq_file;
struct cpumask;
struct cpumask;
struct arch_spinlock;
struct arch_spinlock;
struct bug_entry {
   int bug_addr_disp ;
   int file_disp ;
   unsigned short line ;
   unsigned short flags ;
};
struct cpumask {
   unsigned long bits[64U] ;
};
typedef struct cpumask *cpumask_var_t;
struct static_key;
struct static_key;
struct kmem_cache;
typedef atomic64_t atomic_long_t;
typedef u16 __ticket_t;
typedef u32 __ticketpair_t;
struct __raw_tickets {
   __ticket_t head ;
   __ticket_t tail ;
};
union __anonunion_ldv_5907_29 {
   __ticketpair_t head_tail ;
   struct __raw_tickets tickets ;
};
struct arch_spinlock {
   union __anonunion_ldv_5907_29 ldv_5907 ;
};
typedef struct arch_spinlock arch_spinlock_t;
struct __anonstruct_ldv_5914_31 {
   u32 read ;
   s32 write ;
};
union __anonunion_arch_rwlock_t_30 {
   s64 lock ;
   struct __anonstruct_ldv_5914_31 ldv_5914 ;
};
typedef union __anonunion_arch_rwlock_t_30 arch_rwlock_t;
struct lockdep_map;
struct lockdep_map;
struct stack_trace {
   unsigned int nr_entries ;
   unsigned int max_entries ;
   unsigned long *entries ;
   int skip ;
};
struct lockdep_subclass_key {
   char __one_byte ;
};
struct lock_class_key {
   struct lockdep_subclass_key subkeys[8U] ;
};
struct lock_class {
   struct list_head hash_entry ;
   struct list_head lock_entry ;
   struct lockdep_subclass_key *key ;
   unsigned int subclass ;
   unsigned int dep_gen_id ;
   unsigned long usage_mask ;
   struct stack_trace usage_traces[13U] ;
   struct list_head locks_after ;
   struct list_head locks_before ;
   unsigned int version ;
   unsigned long ops ;
   char const *name ;
   int name_version ;
   unsigned long contention_point[4U] ;
   unsigned long contending_point[4U] ;
};
struct lockdep_map {
   struct lock_class_key *key ;
   struct lock_class *class_cache[2U] ;
   char const *name ;
   int cpu ;
   unsigned long ip ;
};
struct raw_spinlock {
   arch_spinlock_t raw_lock ;
   unsigned int magic ;
   unsigned int owner_cpu ;
   void *owner ;
   struct lockdep_map dep_map ;
};
typedef struct raw_spinlock raw_spinlock_t;
struct __anonstruct_ldv_6122_33 {
   u8 __padding[24U] ;
   struct lockdep_map dep_map ;
};
union __anonunion_ldv_6123_32 {
   struct raw_spinlock rlock ;
   struct __anonstruct_ldv_6122_33 ldv_6122 ;
};
struct spinlock {
   union __anonunion_ldv_6123_32 ldv_6123 ;
};
typedef struct spinlock spinlock_t;
struct __anonstruct_rwlock_t_34 {
   arch_rwlock_t raw_lock ;
   unsigned int magic ;
   unsigned int owner_cpu ;
   void *owner ;
   struct lockdep_map dep_map ;
};
typedef struct __anonstruct_rwlock_t_34 rwlock_t;
struct seqcount {
   unsigned int sequence ;
};
typedef struct seqcount seqcount_t;
struct timespec {
   __kernel_time_t tv_sec ;
   long tv_nsec ;
};
struct timeval {
   __kernel_time_t tv_sec ;
   __kernel_suseconds_t tv_usec ;
};
struct kstat {
   u64 ino ;
   dev_t dev ;
   umode_t mode ;
   unsigned int nlink ;
   uid_t uid ;
   gid_t gid ;
   dev_t rdev ;
   loff_t size ;
   struct timespec atime ;
   struct timespec mtime ;
   struct timespec ctime ;
   unsigned long blksize ;
   unsigned long long blocks ;
};
struct __wait_queue_head {
   spinlock_t lock ;
   struct list_head task_list ;
};
typedef struct __wait_queue_head wait_queue_head_t;
struct __anonstruct_nodemask_t_36 {
   unsigned long bits[16U] ;
};
typedef struct __anonstruct_nodemask_t_36 nodemask_t;
struct mutex {
   atomic_t count ;
   spinlock_t wait_lock ;
   struct list_head wait_list ;
   struct task_struct *owner ;
   char const *name ;
   void *magic ;
   struct lockdep_map dep_map ;
};
struct rw_semaphore;
struct rw_semaphore;
struct rw_semaphore {
   long count ;
   raw_spinlock_t wait_lock ;
   struct list_head wait_list ;
   struct lockdep_map dep_map ;
};
struct completion {
   unsigned int done ;
   wait_queue_head_t wait ;
};
union ktime {
   s64 tv64 ;
};
typedef union ktime ktime_t;
struct tvec_base;
struct tvec_base;
struct timer_list {
   struct list_head entry ;
   unsigned long expires ;
   struct tvec_base *base ;
   void (*function)(unsigned long ) ;
   unsigned long data ;
   int slack ;
   int start_pid ;
   void *start_site ;
   char start_comm[16U] ;
   struct lockdep_map lockdep_map ;
};
struct work_struct;
struct work_struct;
struct work_struct {
   atomic_long_t data ;
   struct list_head entry ;
   void (*func)(struct work_struct * ) ;
   struct lockdep_map lockdep_map ;
};
struct pm_message {
   int event ;
};
typedef struct pm_message pm_message_t;
struct dev_pm_ops {
   int (*prepare)(struct device * ) ;
   void (*complete)(struct device * ) ;
   int (*suspend)(struct device * ) ;
   int (*resume)(struct device * ) ;
   int (*freeze)(struct device * ) ;
   int (*thaw)(struct device * ) ;
   int (*poweroff)(struct device * ) ;
   int (*restore)(struct device * ) ;
   int (*suspend_late)(struct device * ) ;
   int (*resume_early)(struct device * ) ;
   int (*freeze_late)(struct device * ) ;
   int (*thaw_early)(struct device * ) ;
   int (*poweroff_late)(struct device * ) ;
   int (*restore_early)(struct device * ) ;
   int (*suspend_noirq)(struct device * ) ;
   int (*resume_noirq)(struct device * ) ;
   int (*freeze_noirq)(struct device * ) ;
   int (*thaw_noirq)(struct device * ) ;
   int (*poweroff_noirq)(struct device * ) ;
   int (*restore_noirq)(struct device * ) ;
   int (*runtime_suspend)(struct device * ) ;
   int (*runtime_resume)(struct device * ) ;
   int (*runtime_idle)(struct device * ) ;
};
enum rpm_status {
    RPM_ACTIVE = 0,
    RPM_RESUMING = 1,
    RPM_SUSPENDED = 2,
    RPM_SUSPENDING = 3
} ;
enum rpm_request {
    RPM_REQ_NONE = 0,
    RPM_REQ_IDLE = 1,
    RPM_REQ_SUSPEND = 2,
    RPM_REQ_AUTOSUSPEND = 3,
    RPM_REQ_RESUME = 4
} ;
struct wakeup_source;
struct wakeup_source;
struct pm_subsys_data {
   spinlock_t lock ;
   unsigned int refcount ;
};
struct dev_pm_qos_request;
struct pm_qos_constraints;
struct dev_pm_info {
   pm_message_t power_state ;
   unsigned char can_wakeup : 1 ;
   unsigned char async_suspend : 1 ;
   bool is_prepared ;
   bool is_suspended ;
   bool ignore_children ;
   spinlock_t lock ;
   struct list_head entry ;
   struct completion completion ;
   struct wakeup_source *wakeup ;
   bool wakeup_path ;
   struct timer_list suspend_timer ;
   unsigned long timer_expires ;
   struct work_struct work ;
   wait_queue_head_t wait_queue ;
   atomic_t usage_count ;
   atomic_t child_count ;
   unsigned char disable_depth : 3 ;
   unsigned char idle_notification : 1 ;
   unsigned char request_pending : 1 ;
   unsigned char deferred_resume : 1 ;
   unsigned char run_wake : 1 ;
   unsigned char runtime_auto : 1 ;
   unsigned char no_callbacks : 1 ;
   unsigned char irq_safe : 1 ;
   unsigned char use_autosuspend : 1 ;
   unsigned char timer_autosuspends : 1 ;
   enum rpm_request request ;
   enum rpm_status runtime_status ;
   int runtime_error ;
   int autosuspend_delay ;
   unsigned long last_busy ;
   unsigned long active_jiffies ;
   unsigned long suspended_jiffies ;
   unsigned long accounting_timestamp ;
   ktime_t suspend_time ;
   s64 max_time_suspended_ns ;
   struct dev_pm_qos_request *pq_req ;
   struct pm_subsys_data *subsys_data ;
   struct pm_qos_constraints *constraints ;
};
struct dev_pm_domain {
   struct dev_pm_ops ops ;
};
struct __anonstruct_mm_context_t_101 {
   void *ldt ;
   int size ;
   unsigned short ia32_compat ;
   struct mutex lock ;
   void *vdso ;
};
typedef struct __anonstruct_mm_context_t_101 mm_context_t;
struct vm_area_struct;
struct vm_area_struct;
struct rb_node {
   unsigned long rb_parent_color ;
   struct rb_node *rb_right ;
   struct rb_node *rb_left ;
};
struct rb_root {
   struct rb_node *rb_node ;
};
struct cred;
struct cred;
typedef __u64 Elf64_Addr;
typedef __u16 Elf64_Half;
typedef __u32 Elf64_Word;
typedef __u64 Elf64_Xword;
struct elf64_sym {
   Elf64_Word st_name ;
   unsigned char st_info ;
   unsigned char st_other ;
   Elf64_Half st_shndx ;
   Elf64_Addr st_value ;
   Elf64_Xword st_size ;
};
typedef struct elf64_sym Elf64_Sym;
struct sock;
struct sock;
struct kobject;
struct kobject;
enum kobj_ns_type {
    KOBJ_NS_TYPE_NONE = 0,
    KOBJ_NS_TYPE_NET = 1,
    KOBJ_NS_TYPES = 2
} ;
struct kobj_ns_type_operations {
   enum kobj_ns_type type ;
   void *(*grab_current_ns)(void) ;
   void const *(*netlink_ns)(struct sock * ) ;
   void const *(*initial_ns)(void) ;
   void (*drop_ns)(void * ) ;
};
struct attribute {
   char const *name ;
   umode_t mode ;
   struct lock_class_key *key ;
   struct lock_class_key skey ;
};
struct attribute_group {
   char const *name ;
   umode_t (*is_visible)(struct kobject * , struct attribute * , int ) ;
   struct attribute **attrs ;
};
struct bin_attribute {
   struct attribute attr ;
   size_t size ;
   void *private ;
   ssize_t (*read)(struct file * , struct kobject * , struct bin_attribute * , char * ,
                   loff_t , size_t ) ;
   ssize_t (*write)(struct file * , struct kobject * , struct bin_attribute * , char * ,
                    loff_t , size_t ) ;
   int (*mmap)(struct file * , struct kobject * , struct bin_attribute * , struct vm_area_struct * ) ;
};
struct sysfs_ops {
   ssize_t (*show)(struct kobject * , struct attribute * , char * ) ;
   ssize_t (*store)(struct kobject * , struct attribute * , char const * , size_t ) ;
   void const *(*namespace)(struct kobject * , struct attribute const * ) ;
};
struct sysfs_dirent;
struct sysfs_dirent;
struct kref {
   atomic_t refcount ;
};
struct kset;
struct kobj_type;
struct kobject {
   char const *name ;
   struct list_head entry ;
   struct kobject *parent ;
   struct kset *kset ;
   struct kobj_type *ktype ;
   struct sysfs_dirent *sd ;
   struct kref kref ;
   unsigned char state_initialized : 1 ;
   unsigned char state_in_sysfs : 1 ;
   unsigned char state_add_uevent_sent : 1 ;
   unsigned char state_remove_uevent_sent : 1 ;
   unsigned char uevent_suppress : 1 ;
};
struct kobj_type {
   void (*release)(struct kobject * ) ;
   struct sysfs_ops const *sysfs_ops ;
   struct attribute **default_attrs ;
   struct kobj_ns_type_operations const *(*child_ns_type)(struct kobject * ) ;
   void const *(*namespace)(struct kobject * ) ;
};
struct kobj_uevent_env {
   char *envp[32U] ;
   int envp_idx ;
   char buf[2048U] ;
   int buflen ;
};
struct kset_uevent_ops {
   int (* const filter)(struct kset * , struct kobject * ) ;
   char const *(* const name)(struct kset * , struct kobject * ) ;
   int (* const uevent)(struct kset * , struct kobject * , struct kobj_uevent_env * ) ;
};
struct kset {
   struct list_head list ;
   spinlock_t list_lock ;
   struct kobject kobj ;
   struct kset_uevent_ops const *uevent_ops ;
};
struct kernel_param;
struct kernel_param;
struct kernel_param_ops {
   int (*set)(char const * , struct kernel_param const * ) ;
   int (*get)(char * , struct kernel_param const * ) ;
   void (*free)(void * ) ;
};
struct kparam_string;
struct kparam_array;
union __anonunion_ldv_13371_134 {
   void *arg ;
   struct kparam_string const *str ;
   struct kparam_array const *arr ;
};
struct kernel_param {
   char const *name ;
   struct kernel_param_ops const *ops ;
   u16 perm ;
   s16 level ;
   union __anonunion_ldv_13371_134 ldv_13371 ;
};
struct kparam_string {
   unsigned int maxlen ;
   char *string ;
};
struct kparam_array {
   unsigned int max ;
   unsigned int elemsize ;
   unsigned int *num ;
   struct kernel_param_ops const *ops ;
   void *elem ;
};
struct static_key {
   atomic_t enabled ;
};
struct tracepoint;
struct tracepoint;
struct tracepoint_func {
   void *func ;
   void *data ;
};
struct tracepoint {
   char const *name ;
   struct static_key key ;
   void (*regfunc)(void) ;
   void (*unregfunc)(void) ;
   struct tracepoint_func *funcs ;
};
struct kernel_symbol {
   unsigned long value ;
   char const *name ;
};
struct mod_arch_specific {
};
struct module_param_attrs;
struct module_kobject {
   struct kobject kobj ;
   struct module *mod ;
   struct kobject *drivers_dir ;
   struct module_param_attrs *mp ;
};
struct module_attribute {
   struct attribute attr ;
   ssize_t (*show)(struct module_attribute * , struct module_kobject * , char * ) ;
   ssize_t (*store)(struct module_attribute * , struct module_kobject * , char const * ,
                    size_t ) ;
   void (*setup)(struct module * , char const * ) ;
   int (*test)(struct module * ) ;
   void (*free)(struct module * ) ;
};
struct exception_table_entry;
struct exception_table_entry;
enum module_state {
    MODULE_STATE_LIVE = 0,
    MODULE_STATE_COMING = 1,
    MODULE_STATE_GOING = 2
} ;
struct module_ref {
   unsigned long incs ;
   unsigned long decs ;
};
struct module_sect_attrs;
struct module_notes_attrs;
struct ftrace_event_call;
struct module {
   enum module_state state ;
   struct list_head list ;
   char name[56U] ;
   struct module_kobject mkobj ;
   struct module_attribute *modinfo_attrs ;
   char const *version ;
   char const *srcversion ;
   struct kobject *holders_dir ;
   struct kernel_symbol const *syms ;
   unsigned long const *crcs ;
   unsigned int num_syms ;
   struct kernel_param *kp ;
   unsigned int num_kp ;
   unsigned int num_gpl_syms ;
   struct kernel_symbol const *gpl_syms ;
   unsigned long const *gpl_crcs ;
   struct kernel_symbol const *unused_syms ;
   unsigned long const *unused_crcs ;
   unsigned int num_unused_syms ;
   unsigned int num_unused_gpl_syms ;
   struct kernel_symbol const *unused_gpl_syms ;
   unsigned long const *unused_gpl_crcs ;
   struct kernel_symbol const *gpl_future_syms ;
   unsigned long const *gpl_future_crcs ;
   unsigned int num_gpl_future_syms ;
   unsigned int num_exentries ;
   struct exception_table_entry *extable ;
   int (*init)(void) ;
   void *module_init ;
   void *module_core ;
   unsigned int init_size ;
   unsigned int core_size ;
   unsigned int init_text_size ;
   unsigned int core_text_size ;
   unsigned int init_ro_size ;
   unsigned int core_ro_size ;
   struct mod_arch_specific arch ;
   unsigned int taints ;
   unsigned int num_bugs ;
   struct list_head bug_list ;
   struct bug_entry *bug_table ;
   Elf64_Sym *symtab ;
   Elf64_Sym *core_symtab ;
   unsigned int num_symtab ;
   unsigned int core_num_syms ;
   char *strtab ;
   char *core_strtab ;
   struct module_sect_attrs *sect_attrs ;
   struct module_notes_attrs *notes_attrs ;
   char *args ;
   void *percpu ;
   unsigned int percpu_size ;
   unsigned int num_tracepoints ;
   struct tracepoint * const *tracepoints_ptrs ;
   unsigned int num_trace_bprintk_fmt ;
   char const **trace_bprintk_fmt_start ;
   struct ftrace_event_call **trace_events ;
   unsigned int num_trace_events ;
   struct list_head source_list ;
   struct list_head target_list ;
   struct task_struct *waiter ;
   void (*exit)(void) ;
   struct module_ref *refptr ;
   ctor_fn_t (**ctors)(void) ;
   unsigned int num_ctors ;
};
struct kmem_cache_cpu {
   void **freelist ;
   unsigned long tid ;
   struct page *page ;
   struct page *partial ;
   int node ;
   unsigned int stat[26U] ;
};
struct kmem_cache_node {
   spinlock_t list_lock ;
   unsigned long nr_partial ;
   struct list_head partial ;
   atomic_long_t nr_slabs ;
   atomic_long_t total_objects ;
   struct list_head full ;
};
struct kmem_cache_order_objects {
   unsigned long x ;
};
struct kmem_cache {
   struct kmem_cache_cpu *cpu_slab ;
   unsigned long flags ;
   unsigned long min_partial ;
   int size ;
   int objsize ;
   int offset ;
   int cpu_partial ;
   struct kmem_cache_order_objects oo ;
   struct kmem_cache_order_objects max ;
   struct kmem_cache_order_objects min ;
   gfp_t allocflags ;
   int refcount ;
   void (*ctor)(void * ) ;
   int inuse ;
   int align ;
   int reserved ;
   char const *name ;
   struct list_head list ;
   struct kobject kobj ;
   int remote_node_defrag_ratio ;
   struct kmem_cache_node *node[1024U] ;
};
struct exception_table_entry {
   unsigned long insn ;
   unsigned long fixup ;
};
struct of_device_id {
   char name[32U] ;
   char type[32U] ;
   char compatible[128U] ;
   void *data ;
};
struct klist_node;
struct klist_node;
struct klist_node {
   void *n_klist ;
   struct list_head n_node ;
   struct kref n_ref ;
};
struct dma_map_ops;
struct dev_archdata {
   void *acpi_handle ;
   struct dma_map_ops *dma_ops ;
   void *iommu ;
};
struct device_private;
struct device_private;
struct device_driver;
struct device_driver;
struct driver_private;
struct driver_private;
struct class;
struct class;
struct subsys_private;
struct subsys_private;
struct bus_type;
struct bus_type;
struct device_node;
struct device_node;
struct iommu_ops;
struct iommu_ops;
struct bus_attribute {
   struct attribute attr ;
   ssize_t (*show)(struct bus_type * , char * ) ;
   ssize_t (*store)(struct bus_type * , char const * , size_t ) ;
};
struct device_attribute;
struct driver_attribute;
struct bus_type {
   char const *name ;
   char const *dev_name ;
   struct device *dev_root ;
   struct bus_attribute *bus_attrs ;
   struct device_attribute *dev_attrs ;
   struct driver_attribute *drv_attrs ;
   int (*match)(struct device * , struct device_driver * ) ;
   int (*uevent)(struct device * , struct kobj_uevent_env * ) ;
   int (*probe)(struct device * ) ;
   int (*remove)(struct device * ) ;
   void (*shutdown)(struct device * ) ;
   int (*suspend)(struct device * , pm_message_t ) ;
   int (*resume)(struct device * ) ;
   struct dev_pm_ops const *pm ;
   struct iommu_ops *iommu_ops ;
   struct subsys_private *p ;
};
struct device_type;
struct device_driver {
   char const *name ;
   struct bus_type *bus ;
   struct module *owner ;
   char const *mod_name ;
   bool suppress_bind_attrs ;
   struct of_device_id const *of_match_table ;
   int (*probe)(struct device * ) ;
   int (*remove)(struct device * ) ;
   void (*shutdown)(struct device * ) ;
   int (*suspend)(struct device * , pm_message_t ) ;
   int (*resume)(struct device * ) ;
   struct attribute_group const **groups ;
   struct dev_pm_ops const *pm ;
   struct driver_private *p ;
};
struct driver_attribute {
   struct attribute attr ;
   ssize_t (*show)(struct device_driver * , char * ) ;
   ssize_t (*store)(struct device_driver * , char const * , size_t ) ;
};
struct class_attribute;
struct class {
   char const *name ;
   struct module *owner ;
   struct class_attribute *class_attrs ;
   struct device_attribute *dev_attrs ;
   struct bin_attribute *dev_bin_attrs ;
   struct kobject *dev_kobj ;
   int (*dev_uevent)(struct device * , struct kobj_uevent_env * ) ;
   char *(*devnode)(struct device * , umode_t * ) ;
   void (*class_release)(struct class * ) ;
   void (*dev_release)(struct device * ) ;
   int (*suspend)(struct device * , pm_message_t ) ;
   int (*resume)(struct device * ) ;
   struct kobj_ns_type_operations const *ns_type ;
   void const *(*namespace)(struct device * ) ;
   struct dev_pm_ops const *pm ;
   struct subsys_private *p ;
};
struct class_attribute {
   struct attribute attr ;
   ssize_t (*show)(struct class * , struct class_attribute * , char * ) ;
   ssize_t (*store)(struct class * , struct class_attribute * , char const * , size_t ) ;
   void const *(*namespace)(struct class * , struct class_attribute const * ) ;
};
struct device_type {
   char const *name ;
   struct attribute_group const **groups ;
   int (*uevent)(struct device * , struct kobj_uevent_env * ) ;
   char *(*devnode)(struct device * , umode_t * ) ;
   void (*release)(struct device * ) ;
   struct dev_pm_ops const *pm ;
};
struct device_attribute {
   struct attribute attr ;
   ssize_t (*show)(struct device * , struct device_attribute * , char * ) ;
   ssize_t (*store)(struct device * , struct device_attribute * , char const * ,
                    size_t ) ;
};
struct device_dma_parameters {
   unsigned int max_segment_size ;
   unsigned long segment_boundary_mask ;
};
struct dma_coherent_mem;
struct device {
   struct device *parent ;
   struct device_private *p ;
   struct kobject kobj ;
   char const *init_name ;
   struct device_type const *type ;
   struct mutex mutex ;
   struct bus_type *bus ;
   struct device_driver *driver ;
   void *platform_data ;
   struct dev_pm_info power ;
   struct dev_pm_domain *pm_domain ;
   int numa_node ;
   u64 *dma_mask ;
   u64 coherent_dma_mask ;
   struct device_dma_parameters *dma_parms ;
   struct list_head dma_pools ;
   struct dma_coherent_mem *dma_mem ;
   struct dev_archdata archdata ;
   struct device_node *of_node ;
   dev_t devt ;
   u32 id ;
   spinlock_t devres_lock ;
   struct list_head devres_head ;
   struct klist_node knode_class ;
   struct class *class ;
   struct attribute_group const **groups ;
   void (*release)(struct device * ) ;
};
struct wakeup_source {
   char const *name ;
   struct list_head entry ;
   spinlock_t lock ;
   struct timer_list timer ;
   unsigned long timer_expires ;
   ktime_t total_time ;
   ktime_t max_time ;
   ktime_t last_time ;
   unsigned long event_count ;
   unsigned long active_count ;
   unsigned long relax_count ;
   unsigned long hit_count ;
   unsigned char active : 1 ;
};
struct scatterlist {
   unsigned long sg_magic ;
   unsigned long page_link ;
   unsigned int offset ;
   unsigned int length ;
   dma_addr_t dma_address ;
   unsigned int dma_length ;
};
struct prio_tree_node;
struct raw_prio_tree_node {
   struct prio_tree_node *left ;
   struct prio_tree_node *right ;
   struct prio_tree_node *parent ;
};
struct prio_tree_node {
   struct prio_tree_node *left ;
   struct prio_tree_node *right ;
   struct prio_tree_node *parent ;
   unsigned long start ;
   unsigned long last ;
};
struct prio_tree_root {
   struct prio_tree_node *prio_tree_node ;
   unsigned short index_bits ;
   unsigned short raw ;
};
struct address_space;
struct address_space;
union __anonunion_ldv_17786_139 {
   unsigned long index ;
   void *freelist ;
};
struct __anonstruct_ldv_17796_143 {
   unsigned short inuse ;
   unsigned short objects : 15 ;
   unsigned char frozen : 1 ;
};
union __anonunion_ldv_17797_142 {
   atomic_t _mapcount ;
   struct __anonstruct_ldv_17796_143 ldv_17796 ;
};
struct __anonstruct_ldv_17799_141 {
   union __anonunion_ldv_17797_142 ldv_17797 ;
   atomic_t _count ;
};
union __anonunion_ldv_17800_140 {
   unsigned long counters ;
   struct __anonstruct_ldv_17799_141 ldv_17799 ;
};
struct __anonstruct_ldv_17801_138 {
   union __anonunion_ldv_17786_139 ldv_17786 ;
   union __anonunion_ldv_17800_140 ldv_17800 ;
};
struct __anonstruct_ldv_17808_145 {
   struct page *next ;
   int pages ;
   int pobjects ;
};
union __anonunion_ldv_17809_144 {
   struct list_head lru ;
   struct __anonstruct_ldv_17808_145 ldv_17808 ;
};
union __anonunion_ldv_17814_146 {
   unsigned long private ;
   struct kmem_cache *slab ;
   struct page *first_page ;
};
struct page {
   unsigned long flags ;
   struct address_space *mapping ;
   struct __anonstruct_ldv_17801_138 ldv_17801 ;
   union __anonunion_ldv_17809_144 ldv_17809 ;
   union __anonunion_ldv_17814_146 ldv_17814 ;
   unsigned long debug_flags ;
};
struct __anonstruct_vm_set_148 {
   struct list_head list ;
   void *parent ;
   struct vm_area_struct *head ;
};
union __anonunion_shared_147 {
   struct __anonstruct_vm_set_148 vm_set ;
   struct raw_prio_tree_node prio_tree_node ;
};
struct anon_vma;
struct vm_operations_struct;
struct mempolicy;
struct vm_area_struct {
   struct mm_struct *vm_mm ;
   unsigned long vm_start ;
   unsigned long vm_end ;
   struct vm_area_struct *vm_next ;
   struct vm_area_struct *vm_prev ;
   pgprot_t vm_page_prot ;
   unsigned long vm_flags ;
   struct rb_node vm_rb ;
   union __anonunion_shared_147 shared ;
   struct list_head anon_vma_chain ;
   struct anon_vma *anon_vma ;
   struct vm_operations_struct const *vm_ops ;
   unsigned long vm_pgoff ;
   struct file *vm_file ;
   void *vm_private_data ;
   struct mempolicy *vm_policy ;
};
struct core_thread {
   struct task_struct *task ;
   struct core_thread *next ;
};
struct core_state {
   atomic_t nr_threads ;
   struct core_thread dumper ;
   struct completion startup ;
};
struct mm_rss_stat {
   atomic_long_t count[3U] ;
};
struct linux_binfmt;
struct mmu_notifier_mm;
struct mm_struct {
   struct vm_area_struct *mmap ;
   struct rb_root mm_rb ;
   struct vm_area_struct *mmap_cache ;
   unsigned long (*get_unmapped_area)(struct file * , unsigned long , unsigned long ,
                                      unsigned long , unsigned long ) ;
   void (*unmap_area)(struct mm_struct * , unsigned long ) ;
   unsigned long mmap_base ;
   unsigned long task_size ;
   unsigned long cached_hole_size ;
   unsigned long free_area_cache ;
   pgd_t *pgd ;
   atomic_t mm_users ;
   atomic_t mm_count ;
   int map_count ;
   spinlock_t page_table_lock ;
   struct rw_semaphore mmap_sem ;
   struct list_head mmlist ;
   unsigned long hiwater_rss ;
   unsigned long hiwater_vm ;
   unsigned long total_vm ;
   unsigned long locked_vm ;
   unsigned long pinned_vm ;
   unsigned long shared_vm ;
   unsigned long exec_vm ;
   unsigned long stack_vm ;
   unsigned long reserved_vm ;
   unsigned long def_flags ;
   unsigned long nr_ptes ;
   unsigned long start_code ;
   unsigned long end_code ;
   unsigned long start_data ;
   unsigned long end_data ;
   unsigned long start_brk ;
   unsigned long brk ;
   unsigned long start_stack ;
   unsigned long arg_start ;
   unsigned long arg_end ;
   unsigned long env_start ;
   unsigned long env_end ;
   unsigned long saved_auxv[44U] ;
   struct mm_rss_stat rss_stat ;
   struct linux_binfmt *binfmt ;
   cpumask_var_t cpu_vm_mask_var ;
   mm_context_t context ;
   unsigned int faultstamp ;
   unsigned int token_priority ;
   unsigned int last_interval ;
   unsigned long flags ;
   struct core_state *core_state ;
   spinlock_t ioctx_lock ;
   struct hlist_head ioctx_list ;
   struct task_struct *owner ;
   struct file *exe_file ;
   unsigned long num_exe_file_vmas ;
   struct mmu_notifier_mm *mmu_notifier_mm ;
   pgtable_t pmd_huge_pte ;
   struct cpumask cpumask_allocation ;
};
struct shrink_control {
   gfp_t gfp_mask ;
   unsigned long nr_to_scan ;
};
struct shrinker {
   int (*shrink)(struct shrinker * , struct shrink_control * ) ;
   int seeks ;
   long batch ;
   struct list_head list ;
   atomic_long_t nr_in_batch ;
};
struct file_ra_state;
struct file_ra_state;
struct writeback_control;
struct writeback_control;
struct vm_fault {
   unsigned int flags ;
   unsigned long pgoff ;
   void *virtual_address ;
   struct page *page ;
};
struct vm_operations_struct {
   void (*open)(struct vm_area_struct * ) ;
   void (*close)(struct vm_area_struct * ) ;
   int (*fault)(struct vm_area_struct * , struct vm_fault * ) ;
   int (*page_mkwrite)(struct vm_area_struct * , struct vm_fault * ) ;
   int (*access)(struct vm_area_struct * , unsigned long , void * , int , int ) ;
   int (*set_policy)(struct vm_area_struct * , struct mempolicy * ) ;
   struct mempolicy *(*get_policy)(struct vm_area_struct * , unsigned long ) ;
   int (*migrate)(struct vm_area_struct * , nodemask_t const * , nodemask_t const * ,
                  unsigned long ) ;
};
struct inode;
struct inode;
struct dma_attrs {
   unsigned long flags[1U] ;
};
enum dma_data_direction {
    DMA_BIDIRECTIONAL = 0,
    DMA_TO_DEVICE = 1,
    DMA_FROM_DEVICE = 2,
    DMA_NONE = 3
} ;
struct dma_map_ops {
   void *(*alloc)(struct device * , size_t , dma_addr_t * , gfp_t , struct dma_attrs * ) ;
   void (*free)(struct device * , size_t , void * , dma_addr_t , struct dma_attrs * ) ;
   int (*mmap)(struct device * , struct vm_area_struct * , void * , dma_addr_t ,
               size_t , struct dma_attrs * ) ;
   dma_addr_t (*map_page)(struct device * , struct page * , unsigned long , size_t ,
                          enum dma_data_direction , struct dma_attrs * ) ;
   void (*unmap_page)(struct device * , dma_addr_t , size_t , enum dma_data_direction ,
                      struct dma_attrs * ) ;
   int (*map_sg)(struct device * , struct scatterlist * , int , enum dma_data_direction ,
                 struct dma_attrs * ) ;
   void (*unmap_sg)(struct device * , struct scatterlist * , int , enum dma_data_direction ,
                    struct dma_attrs * ) ;
   void (*sync_single_for_cpu)(struct device * , dma_addr_t , size_t , enum dma_data_direction ) ;
   void (*sync_single_for_device)(struct device * , dma_addr_t , size_t , enum dma_data_direction ) ;
   void (*sync_sg_for_cpu)(struct device * , struct scatterlist * , int , enum dma_data_direction ) ;
   void (*sync_sg_for_device)(struct device * , struct scatterlist * , int , enum dma_data_direction ) ;
   int (*mapping_error)(struct device * , dma_addr_t ) ;
   int (*dma_supported)(struct device * , u64 ) ;
   int (*set_dma_mask)(struct device * , u64 ) ;
   int is_phys ;
};
struct block_device;
struct block_device;
struct hlist_bl_node;
struct hlist_bl_head {
   struct hlist_bl_node *first ;
};
struct hlist_bl_node {
   struct hlist_bl_node *next ;
   struct hlist_bl_node **pprev ;
};
struct nameidata;
struct nameidata;
struct path;
struct path;
struct vfsmount;
struct vfsmount;
struct qstr {
   unsigned int hash ;
   unsigned int len ;
   unsigned char const *name ;
};
struct dentry_operations;
struct super_block;
union __anonunion_d_u_149 {
   struct list_head d_child ;
   struct rcu_head d_rcu ;
};
struct dentry {
   unsigned int d_flags ;
   seqcount_t d_seq ;
   struct hlist_bl_node d_hash ;
   struct dentry *d_parent ;
   struct qstr d_name ;
   struct inode *d_inode ;
   unsigned char d_iname[32U] ;
   unsigned int d_count ;
   spinlock_t d_lock ;
   struct dentry_operations const *d_op ;
   struct super_block *d_sb ;
   unsigned long d_time ;
   void *d_fsdata ;
   struct list_head d_lru ;
   union __anonunion_d_u_149 d_u ;
   struct list_head d_subdirs ;
   struct list_head d_alias ;
};
struct dentry_operations {
   int (*d_revalidate)(struct dentry * , struct nameidata * ) ;
   int (*d_hash)(struct dentry const * , struct inode const * , struct qstr * ) ;
   int (*d_compare)(struct dentry const * , struct inode const * , struct dentry const * ,
                    struct inode const * , unsigned int , char const * , struct qstr const * ) ;
   int (*d_delete)(struct dentry const * ) ;
   void (*d_release)(struct dentry * ) ;
   void (*d_prune)(struct dentry * ) ;
   void (*d_iput)(struct dentry * , struct inode * ) ;
   char *(*d_dname)(struct dentry * , char * , int ) ;
   struct vfsmount *(*d_automount)(struct path * ) ;
   int (*d_manage)(struct dentry * , bool ) ;
};
struct path {
   struct vfsmount *mnt ;
   struct dentry *dentry ;
};
struct radix_tree_node;
struct radix_tree_root {
   unsigned int height ;
   gfp_t gfp_mask ;
   struct radix_tree_node *rnode ;
};
enum pid_type {
    PIDTYPE_PID = 0,
    PIDTYPE_PGID = 1,
    PIDTYPE_SID = 2,
    PIDTYPE_MAX = 3
} ;
struct pid_namespace;
struct upid {
   int nr ;
   struct pid_namespace *ns ;
   struct hlist_node pid_chain ;
};
struct pid {
   atomic_t count ;
   unsigned int level ;
   struct hlist_head tasks[3U] ;
   struct rcu_head rcu ;
   struct upid numbers[1U] ;
};
struct fiemap_extent {
   __u64 fe_logical ;
   __u64 fe_physical ;
   __u64 fe_length ;
   __u64 fe_reserved64[2U] ;
   __u32 fe_flags ;
   __u32 fe_reserved[3U] ;
};
enum migrate_mode {
    MIGRATE_ASYNC = 0,
    MIGRATE_SYNC_LIGHT = 1,
    MIGRATE_SYNC = 2
} ;
struct export_operations;
struct export_operations;
struct iovec;
struct iovec;
struct kiocb;
struct kiocb;
struct pipe_inode_info;
struct pipe_inode_info;
struct poll_table_struct;
struct poll_table_struct;
struct kstatfs;
struct kstatfs;
struct iattr {
   unsigned int ia_valid ;
   umode_t ia_mode ;
   uid_t ia_uid ;
   gid_t ia_gid ;
   loff_t ia_size ;
   struct timespec ia_atime ;
   struct timespec ia_mtime ;
   struct timespec ia_ctime ;
   struct file *ia_file ;
};
struct if_dqinfo {
   __u64 dqi_bgrace ;
   __u64 dqi_igrace ;
   __u32 dqi_flags ;
   __u32 dqi_valid ;
};
struct fs_disk_quota {
   __s8 d_version ;
   __s8 d_flags ;
   __u16 d_fieldmask ;
   __u32 d_id ;
   __u64 d_blk_hardlimit ;
   __u64 d_blk_softlimit ;
   __u64 d_ino_hardlimit ;
   __u64 d_ino_softlimit ;
   __u64 d_bcount ;
   __u64 d_icount ;
   __s32 d_itimer ;
   __s32 d_btimer ;
   __u16 d_iwarns ;
   __u16 d_bwarns ;
   __s32 d_padding2 ;
   __u64 d_rtb_hardlimit ;
   __u64 d_rtb_softlimit ;
   __u64 d_rtbcount ;
   __s32 d_rtbtimer ;
   __u16 d_rtbwarns ;
   __s16 d_padding3 ;
   char d_padding4[8U] ;
};
struct fs_qfilestat {
   __u64 qfs_ino ;
   __u64 qfs_nblks ;
   __u32 qfs_nextents ;
};
typedef struct fs_qfilestat fs_qfilestat_t;
struct fs_quota_stat {
   __s8 qs_version ;
   __u16 qs_flags ;
   __s8 qs_pad ;
   fs_qfilestat_t qs_uquota ;
   fs_qfilestat_t qs_gquota ;
   __u32 qs_incoredqs ;
   __s32 qs_btimelimit ;
   __s32 qs_itimelimit ;
   __s32 qs_rtbtimelimit ;
   __u16 qs_bwarnlimit ;
   __u16 qs_iwarnlimit ;
};
struct dquot;
struct dquot;
typedef __kernel_uid32_t qid_t;
typedef long long qsize_t;
struct mem_dqblk {
   qsize_t dqb_bhardlimit ;
   qsize_t dqb_bsoftlimit ;
   qsize_t dqb_curspace ;
   qsize_t dqb_rsvspace ;
   qsize_t dqb_ihardlimit ;
   qsize_t dqb_isoftlimit ;
   qsize_t dqb_curinodes ;
   time_t dqb_btime ;
   time_t dqb_itime ;
};
struct quota_format_type;
struct quota_format_type;
struct mem_dqinfo {
   struct quota_format_type *dqi_format ;
   int dqi_fmt_id ;
   struct list_head dqi_dirty_list ;
   unsigned long dqi_flags ;
   unsigned int dqi_bgrace ;
   unsigned int dqi_igrace ;
   qsize_t dqi_maxblimit ;
   qsize_t dqi_maxilimit ;
   void *dqi_priv ;
};
struct dquot {
   struct hlist_node dq_hash ;
   struct list_head dq_inuse ;
   struct list_head dq_free ;
   struct list_head dq_dirty ;
   struct mutex dq_lock ;
   atomic_t dq_count ;
   wait_queue_head_t dq_wait_unused ;
   struct super_block *dq_sb ;
   unsigned int dq_id ;
   loff_t dq_off ;
   unsigned long dq_flags ;
   short dq_type ;
   struct mem_dqblk dq_dqb ;
};
struct quota_format_ops {
   int (*check_quota_file)(struct super_block * , int ) ;
   int (*read_file_info)(struct super_block * , int ) ;
   int (*write_file_info)(struct super_block * , int ) ;
   int (*free_file_info)(struct super_block * , int ) ;
   int (*read_dqblk)(struct dquot * ) ;
   int (*commit_dqblk)(struct dquot * ) ;
   int (*release_dqblk)(struct dquot * ) ;
};
struct dquot_operations {
   int (*write_dquot)(struct dquot * ) ;
   struct dquot *(*alloc_dquot)(struct super_block * , int ) ;
   void (*destroy_dquot)(struct dquot * ) ;
   int (*acquire_dquot)(struct dquot * ) ;
   int (*release_dquot)(struct dquot * ) ;
   int (*mark_dirty)(struct dquot * ) ;
   int (*write_info)(struct super_block * , int ) ;
   qsize_t *(*get_reserved_space)(struct inode * ) ;
};
struct quotactl_ops {
   int (*quota_on)(struct super_block * , int , int , struct path * ) ;
   int (*quota_on_meta)(struct super_block * , int , int ) ;
   int (*quota_off)(struct super_block * , int ) ;
   int (*quota_sync)(struct super_block * , int , int ) ;
   int (*get_info)(struct super_block * , int , struct if_dqinfo * ) ;
   int (*set_info)(struct super_block * , int , struct if_dqinfo * ) ;
   int (*get_dqblk)(struct super_block * , int , qid_t , struct fs_disk_quota * ) ;
   int (*set_dqblk)(struct super_block * , int , qid_t , struct fs_disk_quota * ) ;
   int (*get_xstate)(struct super_block * , struct fs_quota_stat * ) ;
   int (*set_xstate)(struct super_block * , unsigned int , int ) ;
};
struct quota_format_type {
   int qf_fmt_id ;
   struct quota_format_ops const *qf_ops ;
   struct module *qf_owner ;
   struct quota_format_type *qf_next ;
};
struct quota_info {
   unsigned int flags ;
   struct mutex dqio_mutex ;
   struct mutex dqonoff_mutex ;
   struct rw_semaphore dqptr_sem ;
   struct inode *files[2U] ;
   struct mem_dqinfo info[2U] ;
   struct quota_format_ops const *ops[2U] ;
};
union __anonunion_arg_152 {
   char *buf ;
   void *data ;
};
struct __anonstruct_read_descriptor_t_151 {
   size_t written ;
   size_t count ;
   union __anonunion_arg_152 arg ;
   int error ;
};
typedef struct __anonstruct_read_descriptor_t_151 read_descriptor_t;
struct address_space_operations {
   int (*writepage)(struct page * , struct writeback_control * ) ;
   int (*readpage)(struct file * , struct page * ) ;
   int (*writepages)(struct address_space * , struct writeback_control * ) ;
   int (*set_page_dirty)(struct page * ) ;
   int (*readpages)(struct file * , struct address_space * , struct list_head * ,
                    unsigned int ) ;
   int (*write_begin)(struct file * , struct address_space * , loff_t , unsigned int ,
                      unsigned int , struct page ** , void ** ) ;
   int (*write_end)(struct file * , struct address_space * , loff_t , unsigned int ,
                    unsigned int , struct page * , void * ) ;
   sector_t (*bmap)(struct address_space * , sector_t ) ;
   void (*invalidatepage)(struct page * , unsigned long ) ;
   int (*releasepage)(struct page * , gfp_t ) ;
   void (*freepage)(struct page * ) ;
   ssize_t (*direct_IO)(int , struct kiocb * , struct iovec const * , loff_t ,
                        unsigned long ) ;
   int (*get_xip_mem)(struct address_space * , unsigned long , int , void ** , unsigned long * ) ;
   int (*migratepage)(struct address_space * , struct page * , struct page * , enum migrate_mode ) ;
   int (*launder_page)(struct page * ) ;
   int (*is_partially_uptodate)(struct page * , read_descriptor_t * , unsigned long ) ;
   int (*error_remove_page)(struct address_space * , struct page * ) ;
};
struct backing_dev_info;
struct backing_dev_info;
struct address_space {
   struct inode *host ;
   struct radix_tree_root page_tree ;
   spinlock_t tree_lock ;
   unsigned int i_mmap_writable ;
   struct prio_tree_root i_mmap ;
   struct list_head i_mmap_nonlinear ;
   struct mutex i_mmap_mutex ;
   unsigned long nrpages ;
   unsigned long writeback_index ;
   struct address_space_operations const *a_ops ;
   unsigned long flags ;
   struct backing_dev_info *backing_dev_info ;
   spinlock_t private_lock ;
   struct list_head private_list ;
   struct address_space *assoc_mapping ;
};
struct request_queue;
struct request_queue;
struct hd_struct;
struct gendisk;
struct block_device {
   dev_t bd_dev ;
   int bd_openers ;
   struct inode *bd_inode ;
   struct super_block *bd_super ;
   struct mutex bd_mutex ;
   struct list_head bd_inodes ;
   void *bd_claiming ;
   void *bd_holder ;
   int bd_holders ;
   bool bd_write_holder ;
   struct list_head bd_holder_disks ;
   struct block_device *bd_contains ;
   unsigned int bd_block_size ;
   struct hd_struct *bd_part ;
   unsigned int bd_part_count ;
   int bd_invalidated ;
   struct gendisk *bd_disk ;
   struct request_queue *bd_queue ;
   struct list_head bd_list ;
   unsigned long bd_private ;
   int bd_fsfreeze_count ;
   struct mutex bd_fsfreeze_mutex ;
};
struct posix_acl;
struct posix_acl;
struct inode_operations;
union __anonunion_ldv_22935_153 {
   unsigned int const i_nlink ;
   unsigned int __i_nlink ;
};
union __anonunion_ldv_22954_154 {
   struct list_head i_dentry ;
   struct rcu_head i_rcu ;
};
struct file_operations;
struct file_lock;
struct cdev;
union __anonunion_ldv_22972_155 {
   struct pipe_inode_info *i_pipe ;
   struct block_device *i_bdev ;
   struct cdev *i_cdev ;
};
struct inode {
   umode_t i_mode ;
   unsigned short i_opflags ;
   uid_t i_uid ;
   gid_t i_gid ;
   unsigned int i_flags ;
   struct posix_acl *i_acl ;
   struct posix_acl *i_default_acl ;
   struct inode_operations const *i_op ;
   struct super_block *i_sb ;
   struct address_space *i_mapping ;
   void *i_security ;
   unsigned long i_ino ;
   union __anonunion_ldv_22935_153 ldv_22935 ;
   dev_t i_rdev ;
   struct timespec i_atime ;
   struct timespec i_mtime ;
   struct timespec i_ctime ;
   spinlock_t i_lock ;
   unsigned short i_bytes ;
   blkcnt_t i_blocks ;
   loff_t i_size ;
   unsigned long i_state ;
   struct mutex i_mutex ;
   unsigned long dirtied_when ;
   struct hlist_node i_hash ;
   struct list_head i_wb_list ;
   struct list_head i_lru ;
   struct list_head i_sb_list ;
   union __anonunion_ldv_22954_154 ldv_22954 ;
   atomic_t i_count ;
   unsigned int i_blkbits ;
   u64 i_version ;
   atomic_t i_dio_count ;
   atomic_t i_writecount ;
   struct file_operations const *i_fop ;
   struct file_lock *i_flock ;
   struct address_space i_data ;
   struct dquot *i_dquot[2U] ;
   struct list_head i_devices ;
   union __anonunion_ldv_22972_155 ldv_22972 ;
   __u32 i_generation ;
   __u32 i_fsnotify_mask ;
   struct hlist_head i_fsnotify_marks ;
   atomic_t i_readcount ;
   void *i_private ;
};
struct fown_struct {
   rwlock_t lock ;
   struct pid *pid ;
   enum pid_type pid_type ;
   uid_t uid ;
   uid_t euid ;
   int signum ;
};
struct file_ra_state {
   unsigned long start ;
   unsigned int size ;
   unsigned int async_size ;
   unsigned int ra_pages ;
   unsigned int mmap_miss ;
   loff_t prev_pos ;
};
union __anonunion_f_u_156 {
   struct list_head fu_list ;
   struct rcu_head fu_rcuhead ;
};
struct file {
   union __anonunion_f_u_156 f_u ;
   struct path f_path ;
   struct file_operations const *f_op ;
   spinlock_t f_lock ;
   int f_sb_list_cpu ;
   atomic_long_t f_count ;
   unsigned int f_flags ;
   fmode_t f_mode ;
   loff_t f_pos ;
   struct fown_struct f_owner ;
   struct cred const *f_cred ;
   struct file_ra_state f_ra ;
   u64 f_version ;
   void *f_security ;
   void *private_data ;
   struct list_head f_ep_links ;
   struct list_head f_tfile_llink ;
   struct address_space *f_mapping ;
   unsigned long f_mnt_write_state ;
};
struct files_struct;
typedef struct files_struct *fl_owner_t;
struct file_lock_operations {
   void (*fl_copy_lock)(struct file_lock * , struct file_lock * ) ;
   void (*fl_release_private)(struct file_lock * ) ;
};
struct lock_manager_operations {
   int (*lm_compare_owner)(struct file_lock * , struct file_lock * ) ;
   void (*lm_notify)(struct file_lock * ) ;
   int (*lm_grant)(struct file_lock * , struct file_lock * , int ) ;
   void (*lm_release_private)(struct file_lock * ) ;
   void (*lm_break)(struct file_lock * ) ;
   int (*lm_change)(struct file_lock ** , int ) ;
};
struct nlm_lockowner;
struct nlm_lockowner;
struct nfs_lock_info {
   u32 state ;
   struct nlm_lockowner *owner ;
   struct list_head list ;
};
struct nfs4_lock_state;
struct nfs4_lock_state;
struct nfs4_lock_info {
   struct nfs4_lock_state *owner ;
};
struct fasync_struct;
struct __anonstruct_afs_158 {
   struct list_head link ;
   int state ;
};
union __anonunion_fl_u_157 {
   struct nfs_lock_info nfs_fl ;
   struct nfs4_lock_info nfs4_fl ;
   struct __anonstruct_afs_158 afs ;
};
struct file_lock {
   struct file_lock *fl_next ;
   struct list_head fl_link ;
   struct list_head fl_block ;
   fl_owner_t fl_owner ;
   unsigned int fl_flags ;
   unsigned char fl_type ;
   unsigned int fl_pid ;
   struct pid *fl_nspid ;
   wait_queue_head_t fl_wait ;
   struct file *fl_file ;
   loff_t fl_start ;
   loff_t fl_end ;
   struct fasync_struct *fl_fasync ;
   unsigned long fl_break_time ;
   unsigned long fl_downgrade_time ;
   struct file_lock_operations const *fl_ops ;
   struct lock_manager_operations const *fl_lmops ;
   union __anonunion_fl_u_157 fl_u ;
};
struct fasync_struct {
   spinlock_t fa_lock ;
   int magic ;
   int fa_fd ;
   struct fasync_struct *fa_next ;
   struct file *fa_file ;
   struct rcu_head fa_rcu ;
};
struct file_system_type;
struct super_operations;
struct xattr_handler;
struct mtd_info;
struct super_block {
   struct list_head s_list ;
   dev_t s_dev ;
   unsigned char s_dirt ;
   unsigned char s_blocksize_bits ;
   unsigned long s_blocksize ;
   loff_t s_maxbytes ;
   struct file_system_type *s_type ;
   struct super_operations const *s_op ;
   struct dquot_operations const *dq_op ;
   struct quotactl_ops const *s_qcop ;
   struct export_operations const *s_export_op ;
   unsigned long s_flags ;
   unsigned long s_magic ;
   struct dentry *s_root ;
   struct rw_semaphore s_umount ;
   struct mutex s_lock ;
   int s_count ;
   atomic_t s_active ;
   void *s_security ;
   struct xattr_handler const **s_xattr ;
   struct list_head s_inodes ;
   struct hlist_bl_head s_anon ;
   struct list_head *s_files ;
   struct list_head s_mounts ;
   struct list_head s_dentry_lru ;
   int s_nr_dentry_unused ;
   spinlock_t s_inode_lru_lock ;
   struct list_head s_inode_lru ;
   int s_nr_inodes_unused ;
   struct block_device *s_bdev ;
   struct backing_dev_info *s_bdi ;
   struct mtd_info *s_mtd ;
   struct hlist_node s_instances ;
   struct quota_info s_dquot ;
   int s_frozen ;
   wait_queue_head_t s_wait_unfrozen ;
   char s_id[32U] ;
   u8 s_uuid[16U] ;
   void *s_fs_info ;
   unsigned int s_max_links ;
   fmode_t s_mode ;
   u32 s_time_gran ;
   struct mutex s_vfs_rename_mutex ;
   char *s_subtype ;
   char *s_options ;
   struct dentry_operations const *s_d_op ;
   int cleancache_poolid ;
   struct shrinker s_shrink ;
   atomic_long_t s_remove_count ;
   int s_readonly_remount ;
};
struct fiemap_extent_info {
   unsigned int fi_flags ;
   unsigned int fi_extents_mapped ;
   unsigned int fi_extents_max ;
   struct fiemap_extent *fi_extents_start ;
};
struct file_operations {
   struct module *owner ;
   loff_t (*llseek)(struct file * , loff_t , int ) ;
   ssize_t (*read)(struct file * , char * , size_t , loff_t * ) ;
   ssize_t (*write)(struct file * , char const * , size_t , loff_t * ) ;
   ssize_t (*aio_read)(struct kiocb * , struct iovec const * , unsigned long ,
                       loff_t ) ;
   ssize_t (*aio_write)(struct kiocb * , struct iovec const * , unsigned long ,
                        loff_t ) ;
   int (*readdir)(struct file * , void * , int (*)(void * , char const * , int ,
                                                   loff_t , u64 , unsigned int ) ) ;
   unsigned int (*poll)(struct file * , struct poll_table_struct * ) ;
   long (*unlocked_ioctl)(struct file * , unsigned int , unsigned long ) ;
   long (*compat_ioctl)(struct file * , unsigned int , unsigned long ) ;
   int (*mmap)(struct file * , struct vm_area_struct * ) ;
   int (*open)(struct inode * , struct file * ) ;
   int (*flush)(struct file * , fl_owner_t ) ;
   int (*release)(struct inode * , struct file * ) ;
   int (*fsync)(struct file * , loff_t , loff_t , int ) ;
   int (*aio_fsync)(struct kiocb * , int ) ;
   int (*fasync)(int , struct file * , int ) ;
   int (*lock)(struct file * , int , struct file_lock * ) ;
   ssize_t (*sendpage)(struct file * , struct page * , int , size_t , loff_t * ,
                       int ) ;
   unsigned long (*get_unmapped_area)(struct file * , unsigned long , unsigned long ,
                                      unsigned long , unsigned long ) ;
   int (*check_flags)(int ) ;
   int (*flock)(struct file * , int , struct file_lock * ) ;
   ssize_t (*splice_write)(struct pipe_inode_info * , struct file * , loff_t * , size_t ,
                           unsigned int ) ;
   ssize_t (*splice_read)(struct file * , loff_t * , struct pipe_inode_info * , size_t ,
                          unsigned int ) ;
   int (*setlease)(struct file * , long , struct file_lock ** ) ;
   long (*fallocate)(struct file * , int , loff_t , loff_t ) ;
};
struct inode_operations {
   struct dentry *(*lookup)(struct inode * , struct dentry * , struct nameidata * ) ;
   void *(*follow_link)(struct dentry * , struct nameidata * ) ;
   int (*permission)(struct inode * , int ) ;
   struct posix_acl *(*get_acl)(struct inode * , int ) ;
   int (*readlink)(struct dentry * , char * , int ) ;
   void (*put_link)(struct dentry * , struct nameidata * , void * ) ;
   int (*create)(struct inode * , struct dentry * , umode_t , struct nameidata * ) ;
   int (*link)(struct dentry * , struct inode * , struct dentry * ) ;
   int (*unlink)(struct inode * , struct dentry * ) ;
   int (*symlink)(struct inode * , struct dentry * , char const * ) ;
   int (*mkdir)(struct inode * , struct dentry * , umode_t ) ;
   int (*rmdir)(struct inode * , struct dentry * ) ;
   int (*mknod)(struct inode * , struct dentry * , umode_t , dev_t ) ;
   int (*rename)(struct inode * , struct dentry * , struct inode * , struct dentry * ) ;
   void (*truncate)(struct inode * ) ;
   int (*setattr)(struct dentry * , struct iattr * ) ;
   int (*getattr)(struct vfsmount * , struct dentry * , struct kstat * ) ;
   int (*setxattr)(struct dentry * , char const * , void const * , size_t , int ) ;
   ssize_t (*getxattr)(struct dentry * , char const * , void * , size_t ) ;
   ssize_t (*listxattr)(struct dentry * , char * , size_t ) ;
   int (*removexattr)(struct dentry * , char const * ) ;
   void (*truncate_range)(struct inode * , loff_t , loff_t ) ;
   int (*fiemap)(struct inode * , struct fiemap_extent_info * , u64 , u64 ) ;
};
struct super_operations {
   struct inode *(*alloc_inode)(struct super_block * ) ;
   void (*destroy_inode)(struct inode * ) ;
   void (*dirty_inode)(struct inode * , int ) ;
   int (*write_inode)(struct inode * , struct writeback_control * ) ;
   int (*drop_inode)(struct inode * ) ;
   void (*evict_inode)(struct inode * ) ;
   void (*put_super)(struct super_block * ) ;
   void (*write_super)(struct super_block * ) ;
   int (*sync_fs)(struct super_block * , int ) ;
   int (*freeze_fs)(struct super_block * ) ;
   int (*unfreeze_fs)(struct super_block * ) ;
   int (*statfs)(struct dentry * , struct kstatfs * ) ;
   int (*remount_fs)(struct super_block * , int * , char * ) ;
   void (*umount_begin)(struct super_block * ) ;
   int (*show_options)(struct seq_file * , struct dentry * ) ;
   int (*show_devname)(struct seq_file * , struct dentry * ) ;
   int (*show_path)(struct seq_file * , struct dentry * ) ;
   int (*show_stats)(struct seq_file * , struct dentry * ) ;
   ssize_t (*quota_read)(struct super_block * , int , char * , size_t , loff_t ) ;
   ssize_t (*quota_write)(struct super_block * , int , char const * , size_t ,
                          loff_t ) ;
   int (*bdev_try_to_free_page)(struct super_block * , struct page * , gfp_t ) ;
   int (*nr_cached_objects)(struct super_block * ) ;
   void (*free_cached_objects)(struct super_block * , int ) ;
};
struct file_system_type {
   char const *name ;
   int fs_flags ;
   struct dentry *(*mount)(struct file_system_type * , int , char const * , void * ) ;
   void (*kill_sb)(struct super_block * ) ;
   struct module *owner ;
   struct file_system_type *next ;
   struct hlist_head fs_supers ;
   struct lock_class_key s_lock_key ;
   struct lock_class_key s_umount_key ;
   struct lock_class_key s_vfs_rename_key ;
   struct lock_class_key i_lock_key ;
   struct lock_class_key i_mutex_key ;
   struct lock_class_key i_mutex_dir_key ;
};
struct poll_table_struct {
   void (*_qproc)(struct file * , wait_queue_head_t * , struct poll_table_struct * ) ;
   unsigned long _key ;
};
enum v4l2_field {
    V4L2_FIELD_ANY = 0,
    V4L2_FIELD_NONE = 1,
    V4L2_FIELD_TOP = 2,
    V4L2_FIELD_BOTTOM = 3,
    V4L2_FIELD_INTERLACED = 4,
    V4L2_FIELD_SEQ_TB = 5,
    V4L2_FIELD_SEQ_BT = 6,
    V4L2_FIELD_ALTERNATE = 7,
    V4L2_FIELD_INTERLACED_TB = 8,
    V4L2_FIELD_INTERLACED_BT = 9
} ;
enum v4l2_buf_type {
    V4L2_BUF_TYPE_VIDEO_CAPTURE = 1,
    V4L2_BUF_TYPE_VIDEO_OUTPUT = 2,
    V4L2_BUF_TYPE_VIDEO_OVERLAY = 3,
    V4L2_BUF_TYPE_VBI_CAPTURE = 4,
    V4L2_BUF_TYPE_VBI_OUTPUT = 5,
    V4L2_BUF_TYPE_SLICED_VBI_CAPTURE = 6,
    V4L2_BUF_TYPE_SLICED_VBI_OUTPUT = 7,
    V4L2_BUF_TYPE_VIDEO_OUTPUT_OVERLAY = 8,
    V4L2_BUF_TYPE_VIDEO_CAPTURE_MPLANE = 9,
    V4L2_BUF_TYPE_VIDEO_OUTPUT_MPLANE = 10,
    V4L2_BUF_TYPE_PRIVATE = 128
} ;
enum v4l2_memory {
    V4L2_MEMORY_MMAP = 1,
    V4L2_MEMORY_USERPTR = 2,
    V4L2_MEMORY_OVERLAY = 3
} ;
enum v4l2_colorspace {
    V4L2_COLORSPACE_SMPTE170M = 1,
    V4L2_COLORSPACE_SMPTE240M = 2,
    V4L2_COLORSPACE_REC709 = 3,
    V4L2_COLORSPACE_BT878 = 4,
    V4L2_COLORSPACE_470_SYSTEM_M = 5,
    V4L2_COLORSPACE_470_SYSTEM_BG = 6,
    V4L2_COLORSPACE_JPEG = 7,
    V4L2_COLORSPACE_SRGB = 8
} ;
struct v4l2_pix_format {
   __u32 width ;
   __u32 height ;
   __u32 pixelformat ;
   enum v4l2_field field ;
   __u32 bytesperline ;
   __u32 sizeimage ;
   enum v4l2_colorspace colorspace ;
   __u32 priv ;
};
struct v4l2_framebuffer {
   __u32 capability ;
   __u32 flags ;
   void *base ;
   struct v4l2_pix_format fmt ;
};
struct videobuf_buffer;
struct videobuf_buffer;
struct videobuf_queue;
struct videobuf_queue;
struct videobuf_mapping {
   unsigned int count ;
   struct videobuf_queue *q ;
};
enum videobuf_state {
    VIDEOBUF_NEEDS_INIT = 0,
    VIDEOBUF_PREPARED = 1,
    VIDEOBUF_QUEUED = 2,
    VIDEOBUF_ACTIVE = 3,
    VIDEOBUF_DONE = 4,
    VIDEOBUF_ERROR = 5,
    VIDEOBUF_IDLE = 6
} ;
struct videobuf_buffer {
   unsigned int i ;
   u32 magic ;
   unsigned int width ;
   unsigned int height ;
   unsigned int bytesperline ;
   unsigned long size ;
   unsigned int input ;
   enum v4l2_field field ;
   enum videobuf_state state ;
   struct list_head stream ;
   struct list_head queue ;
   wait_queue_head_t done ;
   unsigned int field_count ;
   struct timeval ts ;
   enum v4l2_memory memory ;
   size_t bsize ;
   size_t boff ;
   unsigned long baddr ;
   struct videobuf_mapping *map ;
   int privsize ;
   void *priv ;
};
struct videobuf_queue_ops {
   int (*buf_setup)(struct videobuf_queue * , unsigned int * , unsigned int * ) ;
   int (*buf_prepare)(struct videobuf_queue * , struct videobuf_buffer * , enum v4l2_field ) ;
   void (*buf_queue)(struct videobuf_queue * , struct videobuf_buffer * ) ;
   void (*buf_release)(struct videobuf_queue * , struct videobuf_buffer * ) ;
};
struct videobuf_qtype_ops {
   u32 magic ;
   struct videobuf_buffer *(*alloc_vb)(size_t ) ;
   void *(*vaddr)(struct videobuf_buffer * ) ;
   int (*iolock)(struct videobuf_queue * , struct videobuf_buffer * , struct v4l2_framebuffer * ) ;
   int (*sync)(struct videobuf_queue * , struct videobuf_buffer * ) ;
   int (*mmap_mapper)(struct videobuf_queue * , struct videobuf_buffer * , struct vm_area_struct * ) ;
};
struct videobuf_queue {
   struct mutex vb_lock ;
   struct mutex *ext_lock ;
   spinlock_t *irqlock ;
   struct device *dev ;
   wait_queue_head_t wait ;
   enum v4l2_buf_type type ;
   unsigned int inputs ;
   unsigned int msize ;
   enum v4l2_field field ;
   enum v4l2_field last ;
   struct videobuf_buffer *bufs[32U] ;
   struct videobuf_queue_ops const *ops ;
   struct videobuf_qtype_ops *int_ops ;
   unsigned char streaming : 1 ;
   unsigned char reading : 1 ;
   struct list_head stream ;
   unsigned int read_off ;
   struct videobuf_buffer *read_buf ;
   void *priv_data ;
};
struct videobuf_vmalloc_memory {
   u32 magic ;
   void *vaddr ;
   struct vm_area_struct *vma ;
};
void ldv_spin_lock(void) ;
void ldv_spin_unlock(void) ;
int ldv_spin_trylock(void) ;
extern int printk(char const * , ...) ;
extern void mutex_lock_nested(struct mutex * , unsigned int ) ;
extern void mutex_unlock(struct mutex * ) ;
extern void *vmalloc_user(unsigned long ) ;
void *ldv_vmalloc_user_19(unsigned long ldv_func_arg1 ) ;
void *ldv_vmalloc_user_20(unsigned long ldv_func_arg1 ) ;
extern void vfree(void const * ) ;
extern int remap_vmalloc_range(struct vm_area_struct * , void * , unsigned long ) ;
extern void kfree(void const * ) ;
extern void *kmem_cache_alloc(struct kmem_cache * , gfp_t ) ;
void *ldv_kmem_cache_alloc_16(struct kmem_cache *ldv_func_arg1 , gfp_t ldv_func_arg2 ) ;
 static void *kzalloc(size_t size , gfp_t flags ) ;
void ldv_check_alloc_flags(gfp_t flags ) ;
void ldv_check_alloc_nonatomic(void) ;
struct page *ldv_check_alloc_flags_and_return_some_page(gfp_t flags ) ;
 static void videobuf_queue_lock(struct videobuf_queue *q )
{ struct mutex *__cil_tmp2 ;
  unsigned long __cil_tmp3 ;
  unsigned long __cil_tmp4 ;
  unsigned long __cil_tmp5 ;
  struct mutex *__cil_tmp6 ;
  unsigned long __cil_tmp7 ;
  struct mutex *__cil_tmp8 ;
  {
  {
  __cil_tmp2 = (struct mutex *)0;
  __cil_tmp3 = (unsigned long )__cil_tmp2;
  __cil_tmp4 = (unsigned long )q;
  __cil_tmp5 = __cil_tmp4 + 168;
  __cil_tmp6 = *((struct mutex **)__cil_tmp5);
  __cil_tmp7 = (unsigned long )__cil_tmp6;
  if (__cil_tmp7 == __cil_tmp3) {
    {
    __cil_tmp8 = (struct mutex *)q;
    mutex_lock_nested(__cil_tmp8, 0U);
    }
  } else {
  }
  }
  return;
}
}
 static void videobuf_queue_unlock(struct videobuf_queue *q )
{ struct mutex *__cil_tmp2 ;
  unsigned long __cil_tmp3 ;
  unsigned long __cil_tmp4 ;
  unsigned long __cil_tmp5 ;
  struct mutex *__cil_tmp6 ;
  unsigned long __cil_tmp7 ;
  struct mutex *__cil_tmp8 ;
  {
  {
  __cil_tmp2 = (struct mutex *)0;
  __cil_tmp3 = (unsigned long )__cil_tmp2;
  __cil_tmp4 = (unsigned long )q;
  __cil_tmp5 = __cil_tmp4 + 168;
  __cil_tmp6 = *((struct mutex **)__cil_tmp5);
  __cil_tmp7 = (unsigned long )__cil_tmp6;
  if (__cil_tmp7 == __cil_tmp3) {
    {
    __cil_tmp8 = (struct mutex *)q;
    mutex_unlock(__cil_tmp8);
    }
  } else {
  }
  }
  return;
}
}
extern void videobuf_queue_core_init(struct videobuf_queue * , struct videobuf_queue_ops const * ,
                                     struct device * , spinlock_t * , enum v4l2_buf_type ,
                                     enum v4l2_field , unsigned int , void * , struct videobuf_qtype_ops * ,
                                     struct mutex * ) ;
extern void videobuf_queue_cancel(struct videobuf_queue * ) ;
void videobuf_queue_vmalloc_init(struct videobuf_queue *q , struct videobuf_queue_ops const *ops ,
                                 struct device *dev , spinlock_t *irqlock , enum v4l2_buf_type type ,
                                 enum v4l2_field field , unsigned int msize , void *priv ,
                                 struct mutex *ext_lock ) ;
void *videobuf_to_vmalloc(struct videobuf_buffer *buf ) ;
void videobuf_vmalloc_free(struct videobuf_buffer *buf ) ;
static int debug ;
static void videobuf_vm_open(struct vm_area_struct *vma )
{ struct videobuf_mapping *map ;
  unsigned long __cil_tmp3 ;
  unsigned long __cil_tmp4 ;
  void *__cil_tmp5 ;
  int *__cil_tmp6 ;
  int __cil_tmp7 ;
  unsigned int __cil_tmp8 ;
  unsigned long __cil_tmp9 ;
  unsigned long __cil_tmp10 ;
  unsigned long __cil_tmp11 ;
  unsigned long __cil_tmp12 ;
  unsigned long __cil_tmp13 ;
  unsigned long __cil_tmp14 ;
  unsigned int __cil_tmp15 ;
  {
  __cil_tmp3 = (unsigned long )vma;
  __cil_tmp4 = __cil_tmp3 + 160;
  __cil_tmp5 = *((void **)__cil_tmp4);
  map = (struct videobuf_mapping *)__cil_tmp5;
  {
  __cil_tmp6 = & debug;
  __cil_tmp7 = *__cil_tmp6;
  if (__cil_tmp7 > 1) {
    {
    __cil_tmp8 = *((unsigned int *)map);
    __cil_tmp9 = (unsigned long )vma;
    __cil_tmp10 = __cil_tmp9 + 8;
    __cil_tmp11 = *((unsigned long *)__cil_tmp10);
    __cil_tmp12 = (unsigned long )vma;
    __cil_tmp13 = __cil_tmp12 + 16;
    __cil_tmp14 = *((unsigned long *)__cil_tmp13);
    printk("<7>vbuf-vmalloc: vm_open %p [count=%u,vma=%08lx-%08lx]\n", map, __cil_tmp8,
           __cil_tmp11, __cil_tmp14);
    }
  } else {
  }
  }
  __cil_tmp15 = *((unsigned int *)map);
  *((unsigned int *)map) = __cil_tmp15 + 1U;
  return;
}
}
static void videobuf_vm_close(struct vm_area_struct *vma )
{ struct videobuf_mapping *map ;
  struct videobuf_queue *q ;
  int i ;
  struct videobuf_vmalloc_memory *mem ;
  long tmp ;
  unsigned long __cil_tmp7 ;
  unsigned long __cil_tmp8 ;
  void *__cil_tmp9 ;
  unsigned long __cil_tmp10 ;
  unsigned long __cil_tmp11 ;
  int *__cil_tmp12 ;
  int __cil_tmp13 ;
  unsigned int __cil_tmp14 ;
  unsigned long __cil_tmp15 ;
  unsigned long __cil_tmp16 ;
  unsigned long __cil_tmp17 ;
  unsigned long __cil_tmp18 ;
  unsigned long __cil_tmp19 ;
  unsigned long __cil_tmp20 ;
  unsigned int __cil_tmp21 ;
  unsigned int __cil_tmp22 ;
  int *__cil_tmp23 ;
  int __cil_tmp24 ;
  unsigned char *__cil_tmp25 ;
  unsigned char *__cil_tmp26 ;
  unsigned char __cil_tmp27 ;
  unsigned int __cil_tmp28 ;
  struct videobuf_buffer *__cil_tmp29 ;
  unsigned long __cil_tmp30 ;
  unsigned long __cil_tmp31 ;
  unsigned long __cil_tmp32 ;
  unsigned long __cil_tmp33 ;
  unsigned long __cil_tmp34 ;
  struct videobuf_buffer *__cil_tmp35 ;
  unsigned long __cil_tmp36 ;
  unsigned long __cil_tmp37 ;
  unsigned long __cil_tmp38 ;
  unsigned long __cil_tmp39 ;
  unsigned long __cil_tmp40 ;
  unsigned long __cil_tmp41 ;
  struct videobuf_buffer *__cil_tmp42 ;
  unsigned long __cil_tmp43 ;
  unsigned long __cil_tmp44 ;
  struct videobuf_mapping *__cil_tmp45 ;
  unsigned long __cil_tmp46 ;
  unsigned long __cil_tmp47 ;
  unsigned long __cil_tmp48 ;
  unsigned long __cil_tmp49 ;
  unsigned long __cil_tmp50 ;
  struct videobuf_buffer *__cil_tmp51 ;
  unsigned long __cil_tmp52 ;
  unsigned long __cil_tmp53 ;
  void *__cil_tmp54 ;
  struct videobuf_vmalloc_memory *__cil_tmp55 ;
  unsigned long __cil_tmp56 ;
  unsigned long __cil_tmp57 ;
  u32 __cil_tmp58 ;
  int __cil_tmp59 ;
  long __cil_tmp60 ;
  u32 __cil_tmp61 ;
  int *__cil_tmp62 ;
  int __cil_tmp63 ;
  unsigned long __cil_tmp64 ;
  unsigned long __cil_tmp65 ;
  void *__cil_tmp66 ;
  unsigned long __cil_tmp67 ;
  unsigned long __cil_tmp68 ;
  void *__cil_tmp69 ;
  void const *__cil_tmp70 ;
  unsigned long __cil_tmp71 ;
  unsigned long __cil_tmp72 ;
  unsigned long __cil_tmp73 ;
  unsigned long __cil_tmp74 ;
  unsigned long __cil_tmp75 ;
  unsigned long __cil_tmp76 ;
  struct videobuf_buffer *__cil_tmp77 ;
  unsigned long __cil_tmp78 ;
  unsigned long __cil_tmp79 ;
  unsigned long __cil_tmp80 ;
  unsigned long __cil_tmp81 ;
  unsigned long __cil_tmp82 ;
  unsigned long __cil_tmp83 ;
  struct videobuf_buffer *__cil_tmp84 ;
  unsigned long __cil_tmp85 ;
  unsigned long __cil_tmp86 ;
  void const *__cil_tmp87 ;
  {
  __cil_tmp7 = (unsigned long )vma;
  __cil_tmp8 = __cil_tmp7 + 160;
  __cil_tmp9 = *((void **)__cil_tmp8);
  map = (struct videobuf_mapping *)__cil_tmp9;
  __cil_tmp10 = (unsigned long )map;
  __cil_tmp11 = __cil_tmp10 + 8;
  q = *((struct videobuf_queue **)__cil_tmp11);
  {
  __cil_tmp12 = & debug;
  __cil_tmp13 = *__cil_tmp12;
  if (__cil_tmp13 > 1) {
    {
    __cil_tmp14 = *((unsigned int *)map);
    __cil_tmp15 = (unsigned long )vma;
    __cil_tmp16 = __cil_tmp15 + 8;
    __cil_tmp17 = *((unsigned long *)__cil_tmp16);
    __cil_tmp18 = (unsigned long )vma;
    __cil_tmp19 = __cil_tmp18 + 16;
    __cil_tmp20 = *((unsigned long *)__cil_tmp19);
    printk("<7>vbuf-vmalloc: vm_close %p [count=%u,vma=%08lx-%08lx]\n", map, __cil_tmp14,
           __cil_tmp17, __cil_tmp20);
    }
  } else {
  }
  }
  __cil_tmp21 = *((unsigned int *)map);
  *((unsigned int *)map) = __cil_tmp21 - 1U;
  {
  __cil_tmp22 = *((unsigned int *)map);
  if (__cil_tmp22 == 0U) {
    {
    __cil_tmp23 = & debug;
    __cil_tmp24 = *__cil_tmp23;
    if (__cil_tmp24 > 0) {
      {
      printk("<7>vbuf-vmalloc: munmap %p q=%p\n", map, q);
      }
    } else {
    }
    }
    {
    videobuf_queue_lock(q);
    }
    {
    __cil_tmp25 = (unsigned char *)q;
    __cil_tmp26 = __cil_tmp25 + 576UL;
    __cil_tmp27 = *__cil_tmp26;
    __cil_tmp28 = (unsigned int )__cil_tmp27;
    if (__cil_tmp28 != 0U) {
      {
      videobuf_queue_cancel(q);
      }
    } else {
    }
    }
    i = 0;
    goto ldv_26466;
    ldv_26465: ;
    {
    __cil_tmp29 = (struct videobuf_buffer *)0;
    __cil_tmp30 = (unsigned long )__cil_tmp29;
    __cil_tmp31 = i * 8UL;
    __cil_tmp32 = 304 + __cil_tmp31;
    __cil_tmp33 = (unsigned long )q;
    __cil_tmp34 = __cil_tmp33 + __cil_tmp32;
    __cil_tmp35 = *((struct videobuf_buffer **)__cil_tmp34);
    __cil_tmp36 = (unsigned long )__cil_tmp35;
    if (__cil_tmp36 == __cil_tmp30) {
      goto ldv_26462;
    } else {
    }
    }
    {
    __cil_tmp37 = (unsigned long )map;
    __cil_tmp38 = i * 8UL;
    __cil_tmp39 = 304 + __cil_tmp38;
    __cil_tmp40 = (unsigned long )q;
    __cil_tmp41 = __cil_tmp40 + __cil_tmp39;
    __cil_tmp42 = *((struct videobuf_buffer **)__cil_tmp41);
    __cil_tmp43 = (unsigned long )__cil_tmp42;
    __cil_tmp44 = __cil_tmp43 + 224;
    __cil_tmp45 = *((struct videobuf_mapping **)__cil_tmp44);
    __cil_tmp46 = (unsigned long )__cil_tmp45;
    if (__cil_tmp46 != __cil_tmp37) {
      goto ldv_26462;
    } else {
    }
    }
    __cil_tmp47 = i * 8UL;
    __cil_tmp48 = 304 + __cil_tmp47;
    __cil_tmp49 = (unsigned long )q;
    __cil_tmp50 = __cil_tmp49 + __cil_tmp48;
    __cil_tmp51 = *((struct videobuf_buffer **)__cil_tmp50);
    __cil_tmp52 = (unsigned long )__cil_tmp51;
    __cil_tmp53 = __cil_tmp52 + 240;
    __cil_tmp54 = *((void **)__cil_tmp53);
    mem = (struct videobuf_vmalloc_memory *)__cil_tmp54;
    {
    __cil_tmp55 = (struct videobuf_vmalloc_memory *)0;
    __cil_tmp56 = (unsigned long )__cil_tmp55;
    __cil_tmp57 = (unsigned long )mem;
    if (__cil_tmp57 != __cil_tmp56) {
      {
      __cil_tmp58 = *((u32 *)mem);
      __cil_tmp59 = __cil_tmp58 != 404886051U;
      __cil_tmp60 = (long )__cil_tmp59;
      tmp = __builtin_expect(__cil_tmp60, 0L);
      }
      if (tmp != 0L) {
        {
        __cil_tmp61 = *((u32 *)mem);
        printk("<3>magic mismatch: %x (expected %x)\n", __cil_tmp61, 404886051);
        __asm__ volatile ("1:\tud2\n.pushsection __bug_table,\"a\"\n2:\t.long 1b - 2b, %c0 - 2b\n\t.word %c1, 0\n\t.org 2b+%c2\n.popsection": : "i" ((char *)"/home/zakharov/launch/work/current--X--drivers/--X--defaultlinux-3.4--X--43_1a--X--cpachecker/linux-3.4/csd_deg_dscv/8228/dscv_tempdir/dscv/ri/43_1a/drivers/media/video/videobuf-vmalloc.c.p"),
                             "i" (114), "i" (12UL));
        }
        ldv_26463: ;
        goto ldv_26463;
      } else {
      }
      {
      __cil_tmp62 = & debug;
      __cil_tmp63 = *__cil_tmp62;
      if (__cil_tmp63 > 0) {
        {
        __cil_tmp64 = (unsigned long )mem;
        __cil_tmp65 = __cil_tmp64 + 8;
        __cil_tmp66 = *((void **)__cil_tmp65);
        printk("<7>vbuf-vmalloc: %s: buf[%d] freeing (%p)\n", "videobuf_vm_close",
               i, __cil_tmp66);
        }
      } else {
      }
      }
      {
      __cil_tmp67 = (unsigned long )mem;
      __cil_tmp68 = __cil_tmp67 + 8;
      __cil_tmp69 = *((void **)__cil_tmp68);
      __cil_tmp70 = (void const *)__cil_tmp69;
      vfree(__cil_tmp70);
      __cil_tmp71 = (unsigned long )mem;
      __cil_tmp72 = __cil_tmp71 + 8;
      *((void **)__cil_tmp72) = (void *)0;
      }
    } else {
    }
    }
    __cil_tmp73 = i * 8UL;
    __cil_tmp74 = 304 + __cil_tmp73;
    __cil_tmp75 = (unsigned long )q;
    __cil_tmp76 = __cil_tmp75 + __cil_tmp74;
    __cil_tmp77 = *((struct videobuf_buffer **)__cil_tmp76);
    __cil_tmp78 = (unsigned long )__cil_tmp77;
    __cil_tmp79 = __cil_tmp78 + 224;
    *((struct videobuf_mapping **)__cil_tmp79) = (struct videobuf_mapping *)0;
    __cil_tmp80 = i * 8UL;
    __cil_tmp81 = 304 + __cil_tmp80;
    __cil_tmp82 = (unsigned long )q;
    __cil_tmp83 = __cil_tmp82 + __cil_tmp81;
    __cil_tmp84 = *((struct videobuf_buffer **)__cil_tmp83);
    __cil_tmp85 = (unsigned long )__cil_tmp84;
    __cil_tmp86 = __cil_tmp85 + 216;
    *((unsigned long *)__cil_tmp86) = 0UL;
    ldv_26462:
    i = i + 1;
    ldv_26466: ;
    if (i <= 31) {
      goto ldv_26465;
    } else {
      goto ldv_26467;
    }
    ldv_26467:
    {
    __cil_tmp87 = (void const *)map;
    kfree(__cil_tmp87);
    videobuf_queue_unlock(q);
    }
  } else {
  }
  }
  return;
}
}
static struct vm_operations_struct const videobuf_vm_ops =
     {& videobuf_vm_open, & videobuf_vm_close, (int (*)(struct vm_area_struct * , struct vm_fault * ))0,
    (int (*)(struct vm_area_struct * , struct vm_fault * ))0, (int (*)(struct vm_area_struct * ,
                                                                       unsigned long ,
                                                                       void * , int ,
                                                                       int ))0, (int (*)(struct vm_area_struct * ,
                                                                                          struct mempolicy * ))0,
    (struct mempolicy *(*)(struct vm_area_struct * , unsigned long ))0, (int (*)(struct vm_area_struct * ,
                                                                                  nodemask_t const * ,
                                                                                  nodemask_t const * ,
                                                                                  unsigned long ))0};
static struct videobuf_buffer *__videobuf_alloc_vb(size_t size )
{ struct videobuf_vmalloc_memory *mem ;
  struct videobuf_buffer *vb ;
  void *tmp ;
  void *tmp___0 ;
  unsigned long __cil_tmp6 ;
  struct videobuf_buffer *__cil_tmp7 ;
  unsigned long __cil_tmp8 ;
  unsigned long __cil_tmp9 ;
  void *__cil_tmp10 ;
  unsigned long __cil_tmp11 ;
  unsigned long __cil_tmp12 ;
  int *__cil_tmp13 ;
  int __cil_tmp14 ;
  unsigned long __cil_tmp15 ;
  {
  {
  __cil_tmp6 = size + 24UL;
  tmp = kzalloc(__cil_tmp6, 208U);
  vb = (struct videobuf_buffer *)tmp;
  }
  {
  __cil_tmp7 = (struct videobuf_buffer *)0;
  __cil_tmp8 = (unsigned long )__cil_tmp7;
  __cil_tmp9 = (unsigned long )vb;
  if (__cil_tmp9 == __cil_tmp8) {
    return (vb);
  } else {
  }
  }
  __cil_tmp10 = (void *)vb;
  tmp___0 = __cil_tmp10 + size;
  __cil_tmp11 = (unsigned long )vb;
  __cil_tmp12 = __cil_tmp11 + 240;
  *((void **)__cil_tmp12) = tmp___0;
  mem = (struct videobuf_vmalloc_memory *)tmp___0;
  *((u32 *)mem) = 404886051U;
  {
  __cil_tmp13 = & debug;
  __cil_tmp14 = *__cil_tmp13;
  if (__cil_tmp14 > 0) {
    {
    __cil_tmp15 = size - 248UL;
    printk("<7>vbuf-vmalloc: %s: allocated at %p(%ld+%ld) & %p(%ld)\n", "__videobuf_alloc_vb",
           vb, 248L, __cil_tmp15, mem, 24L);
    }
  } else {
  }
  }
  return (vb);
}
}
static int __videobuf_iolock(struct videobuf_queue *q , struct videobuf_buffer *vb ,
                             struct v4l2_framebuffer *fbuf )
{ struct videobuf_vmalloc_memory *mem ;
  int pages ;
  long tmp ;
  long tmp___0 ;
  unsigned long __cil_tmp8 ;
  unsigned long __cil_tmp9 ;
  void *__cil_tmp10 ;
  struct videobuf_vmalloc_memory *__cil_tmp11 ;
  unsigned long __cil_tmp12 ;
  unsigned long __cil_tmp13 ;
  int __cil_tmp14 ;
  long __cil_tmp15 ;
  u32 __cil_tmp16 ;
  int __cil_tmp17 ;
  long __cil_tmp18 ;
  u32 __cil_tmp19 ;
  unsigned long __cil_tmp20 ;
  unsigned long __cil_tmp21 ;
  enum v4l2_memory __cil_tmp22 ;
  unsigned int __cil_tmp23 ;
  int *__cil_tmp24 ;
  int __cil_tmp25 ;
  void *__cil_tmp26 ;
  unsigned long __cil_tmp27 ;
  unsigned long __cil_tmp28 ;
  unsigned long __cil_tmp29 ;
  void *__cil_tmp30 ;
  unsigned long __cil_tmp31 ;
  unsigned long __cil_tmp32 ;
  unsigned long __cil_tmp33 ;
  unsigned long __cil_tmp34 ;
  unsigned int __cil_tmp35 ;
  unsigned int __cil_tmp36 ;
  int __cil_tmp37 ;
  int *__cil_tmp38 ;
  int __cil_tmp39 ;
  unsigned long __cil_tmp40 ;
  unsigned long __cil_tmp41 ;
  unsigned long __cil_tmp42 ;
  unsigned long __cil_tmp43 ;
  unsigned long __cil_tmp44 ;
  unsigned long __cil_tmp45 ;
  void *__cil_tmp46 ;
  unsigned long __cil_tmp47 ;
  unsigned long __cil_tmp48 ;
  unsigned long __cil_tmp49 ;
  void *__cil_tmp50 ;
  unsigned long __cil_tmp51 ;
  int *__cil_tmp52 ;
  int __cil_tmp53 ;
  unsigned long __cil_tmp54 ;
  unsigned long __cil_tmp55 ;
  void *__cil_tmp56 ;
  int *__cil_tmp57 ;
  int __cil_tmp58 ;
  {
  {
  __cil_tmp8 = (unsigned long )vb;
  __cil_tmp9 = __cil_tmp8 + 240;
  __cil_tmp10 = *((void **)__cil_tmp9);
  mem = (struct videobuf_vmalloc_memory *)__cil_tmp10;
  __cil_tmp11 = (struct videobuf_vmalloc_memory *)0;
  __cil_tmp12 = (unsigned long )__cil_tmp11;
  __cil_tmp13 = (unsigned long )mem;
  __cil_tmp14 = __cil_tmp13 == __cil_tmp12;
  __cil_tmp15 = (long )__cil_tmp14;
  tmp = __builtin_expect(__cil_tmp15, 0L);
  }
  if (tmp != 0L) {
    __asm__ volatile ("1:\tud2\n.pushsection __bug_table,\"a\"\n2:\t.long 1b - 2b, %c0 - 2b\n\t.word %c1, 0\n\t.org 2b+%c2\n.popsection": : "i" ((char *)"/home/zakharov/launch/work/current--X--drivers/--X--defaultlinux-3.4--X--43_1a--X--cpachecker/linux-3.4/csd_deg_dscv/8228/dscv_tempdir/dscv/ri/43_1a/drivers/media/video/videobuf-vmalloc.c.p"),
                         "i" (179), "i" (12UL));
    ldv_26482: ;
    goto ldv_26482;
  } else {
  }
  {
  __cil_tmp16 = *((u32 *)mem);
  __cil_tmp17 = __cil_tmp16 != 404886051U;
  __cil_tmp18 = (long )__cil_tmp17;
  tmp___0 = __builtin_expect(__cil_tmp18, 0L);
  }
  if (tmp___0 != 0L) {
    {
    __cil_tmp19 = *((u32 *)mem);
    printk("<3>magic mismatch: %x (expected %x)\n", __cil_tmp19, 404886051);
    __asm__ volatile ("1:\tud2\n.pushsection __bug_table,\"a\"\n2:\t.long 1b - 2b, %c0 - 2b\n\t.word %c1, 0\n\t.org 2b+%c2\n.popsection": : "i" ((char *)"/home/zakharov/launch/work/current--X--drivers/--X--defaultlinux-3.4--X--43_1a--X--cpachecker/linux-3.4/csd_deg_dscv/8228/dscv_tempdir/dscv/ri/43_1a/drivers/media/video/videobuf-vmalloc.c.p"),
                         "i" (181), "i" (12UL));
    }
    ldv_26483: ;
    goto ldv_26483;
  } else {
  }
  {
  __cil_tmp20 = (unsigned long )vb;
  __cil_tmp21 = __cil_tmp20 + 192;
  __cil_tmp22 = *((enum v4l2_memory *)__cil_tmp21);
  __cil_tmp23 = (unsigned int )__cil_tmp22;
  if ((int )__cil_tmp23 == 1) {
    goto case_1;
  } else
  if ((int )__cil_tmp23 == 2) {
    goto case_2;
  } else
  if ((int )__cil_tmp23 == 3) {
    goto case_3;
  } else {
    {
    goto switch_default;
    if (0) {
      case_1: ;
      {
      __cil_tmp24 = & debug;
      __cil_tmp25 = *__cil_tmp24;
      if (__cil_tmp25 > 0) {
        {
        printk("<7>vbuf-vmalloc: %s memory method MMAP\n", "__videobuf_iolock");
        }
      } else {
      }
      }
      {
      __cil_tmp26 = (void *)0;
      __cil_tmp27 = (unsigned long )__cil_tmp26;
      __cil_tmp28 = (unsigned long )mem;
      __cil_tmp29 = __cil_tmp28 + 8;
      __cil_tmp30 = *((void **)__cil_tmp29);
      __cil_tmp31 = (unsigned long )__cil_tmp30;
      if (__cil_tmp31 == __cil_tmp27) {
        {
        printk("<3>memory is not alloced/mmapped.\n");
        }
        return (-22);
      } else {
      }
      }
      goto ldv_26486;
      case_2:
      __cil_tmp32 = (unsigned long )vb;
      __cil_tmp33 = __cil_tmp32 + 24;
      __cil_tmp34 = *((unsigned long *)__cil_tmp33);
      __cil_tmp35 = (unsigned int )__cil_tmp34;
      __cil_tmp36 = __cil_tmp35 + 4095U;
      __cil_tmp37 = (int )__cil_tmp36;
      pages = __cil_tmp37 & -4096;
      {
      __cil_tmp38 = & debug;
      __cil_tmp39 = *__cil_tmp38;
      if (__cil_tmp39 > 0) {
        {
        printk("<7>vbuf-vmalloc: %s memory method USERPTR\n", "__videobuf_iolock");
        }
      } else {
      }
      }
      {
      __cil_tmp40 = (unsigned long )vb;
      __cil_tmp41 = __cil_tmp40 + 216;
      __cil_tmp42 = *((unsigned long *)__cil_tmp41);
      if (__cil_tmp42 != 0UL) {
        {
        printk("<3>USERPTR is currently not supported\n");
        }
        return (-22);
      } else {
      }
      }
      {
      __cil_tmp43 = (unsigned long )mem;
      __cil_tmp44 = __cil_tmp43 + 8;
      __cil_tmp45 = (unsigned long )pages;
      *((void **)__cil_tmp44) = ldv_vmalloc_user_19(__cil_tmp45);
      }
      {
      __cil_tmp46 = (void *)0;
      __cil_tmp47 = (unsigned long )__cil_tmp46;
      __cil_tmp48 = (unsigned long )mem;
      __cil_tmp49 = __cil_tmp48 + 8;
      __cil_tmp50 = *((void **)__cil_tmp49);
      __cil_tmp51 = (unsigned long )__cil_tmp50;
      if (__cil_tmp51 == __cil_tmp47) {
        {
        printk("<3>vmalloc (%d pages) failed\n", pages);
        }
        return (-12);
      } else {
      }
      }
      {
      __cil_tmp52 = & debug;
      __cil_tmp53 = *__cil_tmp52;
      if (__cil_tmp53 > 0) {
        {
        __cil_tmp54 = (unsigned long )mem;
        __cil_tmp55 = __cil_tmp54 + 8;
        __cil_tmp56 = *((void **)__cil_tmp55);
        printk("<7>vbuf-vmalloc: vmalloc is at addr %p (%d pages)\n", __cil_tmp56,
               pages);
        }
      } else {
      }
      }
      goto ldv_26486;
      case_3: ;
      switch_default: ;
      {
      __cil_tmp57 = & debug;
      __cil_tmp58 = *__cil_tmp57;
      if (__cil_tmp58 > 0) {
        {
        printk("<7>vbuf-vmalloc: %s memory method OVERLAY/unknown\n", "__videobuf_iolock");
        }
      } else {
      }
      }
      {
      printk("<3>Memory method currently unsupported.\n");
      }
      return (-22);
    } else {
      switch_break: ;
    }
    }
  }
  }
  ldv_26486: ;
  return (0);
}
}
static int __videobuf_mmap_mapper(struct videobuf_queue *q , struct videobuf_buffer *buf ,
                                  struct vm_area_struct *vma )
{ struct videobuf_vmalloc_memory *mem ;
  struct videobuf_mapping *map ;
  int retval ;
  int pages ;
  void *tmp ;
  long tmp___0 ;
  long tmp___1 ;
  int *__cil_tmp11 ;
  int __cil_tmp12 ;
  struct videobuf_mapping *__cil_tmp13 ;
  unsigned long __cil_tmp14 ;
  unsigned long __cil_tmp15 ;
  unsigned long __cil_tmp16 ;
  unsigned long __cil_tmp17 ;
  unsigned long __cil_tmp18 ;
  unsigned long __cil_tmp19 ;
  unsigned long __cil_tmp20 ;
  unsigned long __cil_tmp21 ;
  unsigned long __cil_tmp22 ;
  unsigned long __cil_tmp23 ;
  unsigned long __cil_tmp24 ;
  unsigned long __cil_tmp25 ;
  void *__cil_tmp26 ;
  struct videobuf_vmalloc_memory *__cil_tmp27 ;
  unsigned long __cil_tmp28 ;
  unsigned long __cil_tmp29 ;
  int __cil_tmp30 ;
  long __cil_tmp31 ;
  u32 __cil_tmp32 ;
  int __cil_tmp33 ;
  long __cil_tmp34 ;
  u32 __cil_tmp35 ;
  unsigned long __cil_tmp36 ;
  unsigned long __cil_tmp37 ;
  unsigned long __cil_tmp38 ;
  unsigned int __cil_tmp39 ;
  unsigned long __cil_tmp40 ;
  unsigned long __cil_tmp41 ;
  unsigned long __cil_tmp42 ;
  unsigned int __cil_tmp43 ;
  unsigned int __cil_tmp44 ;
  unsigned int __cil_tmp45 ;
  int __cil_tmp46 ;
  unsigned long __cil_tmp47 ;
  unsigned long __cil_tmp48 ;
  unsigned long __cil_tmp49 ;
  void *__cil_tmp50 ;
  unsigned long __cil_tmp51 ;
  unsigned long __cil_tmp52 ;
  unsigned long __cil_tmp53 ;
  void *__cil_tmp54 ;
  unsigned long __cil_tmp55 ;
  int *__cil_tmp56 ;
  int __cil_tmp57 ;
  unsigned long __cil_tmp58 ;
  unsigned long __cil_tmp59 ;
  void *__cil_tmp60 ;
  unsigned long __cil_tmp61 ;
  unsigned long __cil_tmp62 ;
  void *__cil_tmp63 ;
  unsigned long __cil_tmp64 ;
  unsigned long __cil_tmp65 ;
  void *__cil_tmp66 ;
  void const *__cil_tmp67 ;
  unsigned long __cil_tmp68 ;
  unsigned long __cil_tmp69 ;
  unsigned long __cil_tmp70 ;
  unsigned long __cil_tmp71 ;
  unsigned long __cil_tmp72 ;
  unsigned long __cil_tmp73 ;
  unsigned long __cil_tmp74 ;
  unsigned long __cil_tmp75 ;
  unsigned long __cil_tmp76 ;
  int *__cil_tmp77 ;
  int __cil_tmp78 ;
  unsigned long __cil_tmp79 ;
  unsigned long __cil_tmp80 ;
  unsigned long __cil_tmp81 ;
  unsigned long __cil_tmp82 ;
  unsigned long __cil_tmp83 ;
  unsigned long __cil_tmp84 ;
  unsigned long __cil_tmp85 ;
  unsigned long __cil_tmp86 ;
  size_t __cil_tmp87 ;
  long __cil_tmp88 ;
  unsigned long __cil_tmp89 ;
  unsigned long __cil_tmp90 ;
  unsigned long __cil_tmp91 ;
  unsigned int __cil_tmp92 ;
  void const *__cil_tmp93 ;
  {
  {
  __cil_tmp11 = & debug;
  __cil_tmp12 = *__cil_tmp11;
  if (__cil_tmp12 > 0) {
    {
    printk("<7>vbuf-vmalloc: %s\n", "__videobuf_mmap_mapper");
    }
  } else {
  }
  }
  {
  tmp = kzalloc(16UL, 208U);
  map = (struct videobuf_mapping *)tmp;
  }
  {
  __cil_tmp13 = (struct videobuf_mapping *)0;
  __cil_tmp14 = (unsigned long )__cil_tmp13;
  __cil_tmp15 = (unsigned long )map;
  if (__cil_tmp15 == __cil_tmp14) {
    return (-12);
  } else {
  }
  }
  {
  __cil_tmp16 = (unsigned long )buf;
  __cil_tmp17 = __cil_tmp16 + 224;
  *((struct videobuf_mapping **)__cil_tmp17) = map;
  __cil_tmp18 = (unsigned long )map;
  __cil_tmp19 = __cil_tmp18 + 8;
  *((struct videobuf_queue **)__cil_tmp19) = q;
  __cil_tmp20 = (unsigned long )buf;
  __cil_tmp21 = __cil_tmp20 + 216;
  __cil_tmp22 = (unsigned long )vma;
  __cil_tmp23 = __cil_tmp22 + 8;
  *((unsigned long *)__cil_tmp21) = *((unsigned long *)__cil_tmp23);
  __cil_tmp24 = (unsigned long )buf;
  __cil_tmp25 = __cil_tmp24 + 240;
  __cil_tmp26 = *((void **)__cil_tmp25);
  mem = (struct videobuf_vmalloc_memory *)__cil_tmp26;
  __cil_tmp27 = (struct videobuf_vmalloc_memory *)0;
  __cil_tmp28 = (unsigned long )__cil_tmp27;
  __cil_tmp29 = (unsigned long )mem;
  __cil_tmp30 = __cil_tmp29 == __cil_tmp28;
  __cil_tmp31 = (long )__cil_tmp30;
  tmp___0 = __builtin_expect(__cil_tmp31, 0L);
  }
  if (tmp___0 != 0L) {
    __asm__ volatile ("1:\tud2\n.pushsection __bug_table,\"a\"\n2:\t.long 1b - 2b, %c0 - 2b\n\t.word %c1, 0\n\t.org 2b+%c2\n.popsection": : "i" ((char *)"/home/zakharov/launch/work/current--X--drivers/--X--defaultlinux-3.4--X--43_1a--X--cpachecker/linux-3.4/csd_deg_dscv/8228/dscv_tempdir/dscv/ri/43_1a/drivers/media/video/videobuf-vmalloc.c.p"),
                         "i" (268), "i" (12UL));
    ldv_26500: ;
    goto ldv_26500;
  } else {
  }
  {
  __cil_tmp32 = *((u32 *)mem);
  __cil_tmp33 = __cil_tmp32 != 404886051U;
  __cil_tmp34 = (long )__cil_tmp33;
  tmp___1 = __builtin_expect(__cil_tmp34, 0L);
  }
  if (tmp___1 != 0L) {
    {
    __cil_tmp35 = *((u32 *)mem);
    printk("<3>magic mismatch: %x (expected %x)\n", __cil_tmp35, 404886051);
    __asm__ volatile ("1:\tud2\n.pushsection __bug_table,\"a\"\n2:\t.long 1b - 2b, %c0 - 2b\n\t.word %c1, 0\n\t.org 2b+%c2\n.popsection": : "i" ((char *)"/home/zakharov/launch/work/current--X--drivers/--X--defaultlinux-3.4--X--43_1a--X--cpachecker/linux-3.4/csd_deg_dscv/8228/dscv_tempdir/dscv/ri/43_1a/drivers/media/video/videobuf-vmalloc.c.p"),
                         "i" (269), "i" (12UL));
    }
    ldv_26501: ;
    goto ldv_26501;
  } else {
  }
  {
  __cil_tmp36 = (unsigned long )vma;
  __cil_tmp37 = __cil_tmp36 + 8;
  __cil_tmp38 = *((unsigned long *)__cil_tmp37);
  __cil_tmp39 = (unsigned int )__cil_tmp38;
  __cil_tmp40 = (unsigned long )vma;
  __cil_tmp41 = __cil_tmp40 + 16;
  __cil_tmp42 = *((unsigned long *)__cil_tmp41);
  __cil_tmp43 = (unsigned int )__cil_tmp42;
  __cil_tmp44 = __cil_tmp43 - __cil_tmp39;
  __cil_tmp45 = __cil_tmp44 + 4095U;
  __cil_tmp46 = (int )__cil_tmp45;
  pages = __cil_tmp46 & -4096;
  __cil_tmp47 = (unsigned long )mem;
  __cil_tmp48 = __cil_tmp47 + 8;
  __cil_tmp49 = (unsigned long )pages;
  *((void **)__cil_tmp48) = ldv_vmalloc_user_20(__cil_tmp49);
  }
  {
  __cil_tmp50 = (void *)0;
  __cil_tmp51 = (unsigned long )__cil_tmp50;
  __cil_tmp52 = (unsigned long )mem;
  __cil_tmp53 = __cil_tmp52 + 8;
  __cil_tmp54 = *((void **)__cil_tmp53);
  __cil_tmp55 = (unsigned long )__cil_tmp54;
  if (__cil_tmp55 == __cil_tmp51) {
    {
    printk("<3>vmalloc (%d pages) failed\n", pages);
    }
    goto error;
  } else {
  }
  }
  {
  __cil_tmp56 = & debug;
  __cil_tmp57 = *__cil_tmp56;
  if (__cil_tmp57 > 0) {
    {
    __cil_tmp58 = (unsigned long )mem;
    __cil_tmp59 = __cil_tmp58 + 8;
    __cil_tmp60 = *((void **)__cil_tmp59);
    printk("<7>vbuf-vmalloc: vmalloc is at addr %p (%d pages)\n", __cil_tmp60, pages);
    }
  } else {
  }
  }
  {
  __cil_tmp61 = (unsigned long )mem;
  __cil_tmp62 = __cil_tmp61 + 8;
  __cil_tmp63 = *((void **)__cil_tmp62);
  retval = remap_vmalloc_range(vma, __cil_tmp63, 0UL);
  }
  if (retval < 0) {
    {
    printk("<3>mmap: remap failed with error %d. ", retval);
    __cil_tmp64 = (unsigned long )mem;
    __cil_tmp65 = __cil_tmp64 + 8;
    __cil_tmp66 = *((void **)__cil_tmp65);
    __cil_tmp67 = (void const *)__cil_tmp66;
    vfree(__cil_tmp67);
    }
    goto error;
  } else {
  }
  __cil_tmp68 = (unsigned long )vma;
  __cil_tmp69 = __cil_tmp68 + 136;
  *((struct vm_operations_struct const **)__cil_tmp69) = & videobuf_vm_ops;
  __cil_tmp70 = (unsigned long )vma;
  __cil_tmp71 = __cil_tmp70 + 48;
  __cil_tmp72 = (unsigned long )vma;
  __cil_tmp73 = __cil_tmp72 + 48;
  __cil_tmp74 = *((unsigned long *)__cil_tmp73);
  *((unsigned long *)__cil_tmp71) = __cil_tmp74 | 786432UL;
  __cil_tmp75 = (unsigned long )vma;
  __cil_tmp76 = __cil_tmp75 + 160;
  *((void **)__cil_tmp76) = (void *)map;
  {
  __cil_tmp77 = & debug;
  __cil_tmp78 = *__cil_tmp77;
  if (__cil_tmp78 > 0) {
    {
    __cil_tmp79 = (unsigned long )vma;
    __cil_tmp80 = __cil_tmp79 + 8;
    __cil_tmp81 = *((unsigned long *)__cil_tmp80);
    __cil_tmp82 = (unsigned long )vma;
    __cil_tmp83 = __cil_tmp82 + 16;
    __cil_tmp84 = *((unsigned long *)__cil_tmp83);
    __cil_tmp85 = (unsigned long )buf;
    __cil_tmp86 = __cil_tmp85 + 200;
    __cil_tmp87 = *((size_t *)__cil_tmp86);
    __cil_tmp88 = (long )__cil_tmp87;
    __cil_tmp89 = (unsigned long )vma;
    __cil_tmp90 = __cil_tmp89 + 144;
    __cil_tmp91 = *((unsigned long *)__cil_tmp90);
    __cil_tmp92 = *((unsigned int *)buf);
    printk("<7>vbuf-vmalloc: mmap %p: q=%p %08lx-%08lx (%lx) pgoff %08lx buf %d\n",
           map, q, __cil_tmp81, __cil_tmp84, __cil_tmp88, __cil_tmp91, __cil_tmp92);
    }
  } else {
  }
  }
  {
  videobuf_vm_open(vma);
  }
  return (0);
  error:
  {
  mem = (struct videobuf_vmalloc_memory *)0;
  __cil_tmp93 = (void const *)map;
  kfree(__cil_tmp93);
  }
  return (-12);
}
}
static struct videobuf_qtype_ops qops = {304484355U, & __videobuf_alloc_vb, & videobuf_to_vmalloc, & __videobuf_iolock,
    (int (*)(struct videobuf_queue * , struct videobuf_buffer * ))0, & __videobuf_mmap_mapper};
void videobuf_queue_vmalloc_init(struct videobuf_queue *q , struct videobuf_queue_ops const *ops ,
                                 struct device *dev , spinlock_t *irqlock , enum v4l2_buf_type type ,
                                 enum v4l2_field field , unsigned int msize , void *priv ,
                                 struct mutex *ext_lock )
{
  {
  {
  videobuf_queue_core_init(q, ops, dev, irqlock, type, field, msize, priv, & qops,
                           ext_lock);
  }
  return;
}
}
void *videobuf_to_vmalloc(struct videobuf_buffer *buf )
{ struct videobuf_vmalloc_memory *mem ;
  long tmp ;
  long tmp___0 ;
  unsigned long __cil_tmp5 ;
  unsigned long __cil_tmp6 ;
  void *__cil_tmp7 ;
  struct videobuf_vmalloc_memory *__cil_tmp8 ;
  unsigned long __cil_tmp9 ;
  unsigned long __cil_tmp10 ;
  int __cil_tmp11 ;
  long __cil_tmp12 ;
  u32 __cil_tmp13 ;
  int __cil_tmp14 ;
  long __cil_tmp15 ;
  u32 __cil_tmp16 ;
  unsigned long __cil_tmp17 ;
  unsigned long __cil_tmp18 ;
  {
  {
  __cil_tmp5 = (unsigned long )buf;
  __cil_tmp6 = __cil_tmp5 + 240;
  __cil_tmp7 = *((void **)__cil_tmp6);
  mem = (struct videobuf_vmalloc_memory *)__cil_tmp7;
  __cil_tmp8 = (struct videobuf_vmalloc_memory *)0;
  __cil_tmp9 = (unsigned long )__cil_tmp8;
  __cil_tmp10 = (unsigned long )mem;
  __cil_tmp11 = __cil_tmp10 == __cil_tmp9;
  __cil_tmp12 = (long )__cil_tmp11;
  tmp = __builtin_expect(__cil_tmp12, 0L);
  }
  if (tmp != 0L) {
    __asm__ volatile ("1:\tud2\n.pushsection __bug_table,\"a\"\n2:\t.long 1b - 2b, %c0 - 2b\n\t.word %c1, 0\n\t.org 2b+%c2\n.popsection": : "i" ((char *)"/home/zakharov/launch/work/current--X--drivers/--X--defaultlinux-3.4--X--43_1a--X--cpachecker/linux-3.4/csd_deg_dscv/8228/dscv_tempdir/dscv/ri/43_1a/drivers/media/video/videobuf-vmalloc.c.p"),
                         "i" (333), "i" (12UL));
    ldv_26533: ;
    goto ldv_26533;
  } else {
  }
  {
  __cil_tmp13 = *((u32 *)mem);
  __cil_tmp14 = __cil_tmp13 != 404886051U;
  __cil_tmp15 = (long )__cil_tmp14;
  tmp___0 = __builtin_expect(__cil_tmp15, 0L);
  }
  if (tmp___0 != 0L) {
    {
    __cil_tmp16 = *((u32 *)mem);
    printk("<3>magic mismatch: %x (expected %x)\n", __cil_tmp16, 404886051);
    __asm__ volatile ("1:\tud2\n.pushsection __bug_table,\"a\"\n2:\t.long 1b - 2b, %c0 - 2b\n\t.word %c1, 0\n\t.org 2b+%c2\n.popsection": : "i" ((char *)"/home/zakharov/launch/work/current--X--drivers/--X--defaultlinux-3.4--X--43_1a--X--cpachecker/linux-3.4/csd_deg_dscv/8228/dscv_tempdir/dscv/ri/43_1a/drivers/media/video/videobuf-vmalloc.c.p"),
                         "i" (334), "i" (12UL));
    }
    ldv_26534: ;
    goto ldv_26534;
  } else {
  }
  {
  __cil_tmp17 = (unsigned long )mem;
  __cil_tmp18 = __cil_tmp17 + 8;
  return (*((void **)__cil_tmp18));
  }
}
}
void videobuf_vmalloc_free(struct videobuf_buffer *buf )
{ struct videobuf_vmalloc_memory *mem ;
  long tmp ;
  unsigned long __cil_tmp4 ;
  unsigned long __cil_tmp5 ;
  void *__cil_tmp6 ;
  unsigned long __cil_tmp7 ;
  unsigned long __cil_tmp8 ;
  enum v4l2_memory __cil_tmp9 ;
  unsigned int __cil_tmp10 ;
  unsigned long __cil_tmp11 ;
  unsigned long __cil_tmp12 ;
  unsigned long __cil_tmp13 ;
  struct videobuf_vmalloc_memory *__cil_tmp14 ;
  unsigned long __cil_tmp15 ;
  unsigned long __cil_tmp16 ;
  u32 __cil_tmp17 ;
  int __cil_tmp18 ;
  long __cil_tmp19 ;
  u32 __cil_tmp20 ;
  unsigned long __cil_tmp21 ;
  unsigned long __cil_tmp22 ;
  void *__cil_tmp23 ;
  void const *__cil_tmp24 ;
  unsigned long __cil_tmp25 ;
  unsigned long __cil_tmp26 ;
  {
  __cil_tmp4 = (unsigned long )buf;
  __cil_tmp5 = __cil_tmp4 + 240;
  __cil_tmp6 = *((void **)__cil_tmp5);
  mem = (struct videobuf_vmalloc_memory *)__cil_tmp6;
  {
  __cil_tmp7 = (unsigned long )buf;
  __cil_tmp8 = __cil_tmp7 + 192;
  __cil_tmp9 = *((enum v4l2_memory *)__cil_tmp8);
  __cil_tmp10 = (unsigned int )__cil_tmp9;
  if (__cil_tmp10 != 2U) {
    return;
  } else {
    {
    __cil_tmp11 = (unsigned long )buf;
    __cil_tmp12 = __cil_tmp11 + 216;
    __cil_tmp13 = *((unsigned long *)__cil_tmp12);
    if (__cil_tmp13 != 0UL) {
      return;
    } else {
    }
    }
  }
  }
  {
  __cil_tmp14 = (struct videobuf_vmalloc_memory *)0;
  __cil_tmp15 = (unsigned long )__cil_tmp14;
  __cil_tmp16 = (unsigned long )mem;
  if (__cil_tmp16 == __cil_tmp15) {
    return;
  } else {
  }
  }
  {
  __cil_tmp17 = *((u32 *)mem);
  __cil_tmp18 = __cil_tmp17 != 404886051U;
  __cil_tmp19 = (long )__cil_tmp18;
  tmp = __builtin_expect(__cil_tmp19, 0L);
  }
  if (tmp != 0L) {
    {
    __cil_tmp20 = *((u32 *)mem);
    printk("<3>magic mismatch: %x (expected %x)\n", __cil_tmp20, 404886051);
    __asm__ volatile ("1:\tud2\n.pushsection __bug_table,\"a\"\n2:\t.long 1b - 2b, %c0 - 2b\n\t.word %c1, 0\n\t.org 2b+%c2\n.popsection": : "i" ((char *)"/home/zakharov/launch/work/current--X--drivers/--X--defaultlinux-3.4--X--43_1a--X--cpachecker/linux-3.4/csd_deg_dscv/8228/dscv_tempdir/dscv/ri/43_1a/drivers/media/video/videobuf-vmalloc.c.p"),
                         "i" (356), "i" (12UL));
    }
    ldv_26545: ;
    goto ldv_26545;
  } else {
  }
  {
  __cil_tmp21 = (unsigned long )mem;
  __cil_tmp22 = __cil_tmp21 + 8;
  __cil_tmp23 = *((void **)__cil_tmp22);
  __cil_tmp24 = (void const *)__cil_tmp23;
  vfree(__cil_tmp24);
  __cil_tmp25 = (unsigned long )mem;
  __cil_tmp26 = __cil_tmp25 + 8;
  *((void **)__cil_tmp26) = (void *)0;
  }
  return;
}
}
extern void ldv_check_final_state(void) ;
extern void ldv_initialize(void) ;
extern int __VERIFIER_nondet_int(void) ;
int LDV_IN_INTERRUPT ;
void main(void)
{ struct vm_area_struct *var_group1 ;
  size_t var___videobuf_alloc_vb_2_p0 ;
  struct videobuf_queue *var_group2 ;
  struct videobuf_buffer *var_group3 ;
  struct v4l2_framebuffer *var___videobuf_iolock_3_p2 ;
  struct vm_area_struct *var___videobuf_mmap_mapper_4_p2 ;
  int ldv_s_videobuf_vm_ops_vm_operations_struct ;
  int tmp ;
  int tmp___0 ;
  {
  {
  ldv_s_videobuf_vm_ops_vm_operations_struct = 0;
  LDV_IN_INTERRUPT = 1;
  ldv_initialize();
  }
  goto ldv_26580;
  ldv_26579:
  {
  tmp = __VERIFIER_nondet_int();
  }
  if (tmp == 0) {
    goto case_0;
  } else
  if (tmp == 1) {
    goto case_1;
  } else
  if (tmp == 2) {
    goto case_2;
  } else
  if (tmp == 3) {
    goto case_3;
  } else
  if (tmp == 4) {
    goto case_4;
  } else
  if (tmp == 5) {
    goto case_5;
  } else {
    {
    goto switch_default;
    if (0) {
      case_0: ;
      if (ldv_s_videobuf_vm_ops_vm_operations_struct == 0) {
        {
        videobuf_vm_open(var_group1);
        ldv_s_videobuf_vm_ops_vm_operations_struct = ldv_s_videobuf_vm_ops_vm_operations_struct + 1;
        }
      } else {
      }
      goto ldv_26572;
      case_1: ;
      if (ldv_s_videobuf_vm_ops_vm_operations_struct == 1) {
        {
        videobuf_vm_close(var_group1);
        ldv_s_videobuf_vm_ops_vm_operations_struct = 0;
        }
      } else {
      }
      goto ldv_26572;
      case_2:
      {
      __videobuf_alloc_vb(var___videobuf_alloc_vb_2_p0);
      }
      goto ldv_26572;
      case_3:
      {
      __videobuf_iolock(var_group2, var_group3, var___videobuf_iolock_3_p2);
      }
      goto ldv_26572;
      case_4:
      {
      __videobuf_mmap_mapper(var_group2, var_group3, var___videobuf_mmap_mapper_4_p2);
      }
      goto ldv_26572;
      case_5:
      {
      videobuf_to_vmalloc(var_group3);
      }
      goto ldv_26572;
      switch_default: ;
      goto ldv_26572;
    } else {
      switch_break: ;
    }
    }
  }
  ldv_26572: ;
  ldv_26580:
  {
  tmp___0 = __VERIFIER_nondet_int();
  }
  if (tmp___0 != 0) {
    goto ldv_26579;
  } else
  if (ldv_s_videobuf_vm_ops_vm_operations_struct != 0) {
    goto ldv_26579;
  } else {
    goto ldv_26581;
  }
  ldv_26581: ;
  {
  ldv_check_final_state();
  }
  return;
}
}
void ldv_blast_assert(void)
{
  {
  ERROR: {reach_error();abort();}
}
}
extern int __VERIFIER_nondet_int(void) ;
int ldv_spin = 0;
void ldv_check_alloc_flags(gfp_t flags )
{
  {
  if (ldv_spin != 0) {
    if (flags != 32U) {
      {
      ldv_blast_assert();
      }
    } else {
    }
  } else {
  }
  return;
}
}
extern struct page *ldv_some_page(void) ;
struct page *ldv_check_alloc_flags_and_return_some_page(gfp_t flags )
{ struct page *tmp ;
  {
  if (ldv_spin != 0) {
    if (flags != 32U) {
      {
      ldv_blast_assert();
      }
    } else {
    }
  } else {
  }
  {
  tmp = ldv_some_page();
  }
  return (tmp);
}
}
void ldv_check_alloc_nonatomic(void)
{
  {
  if (ldv_spin != 0) {
    {
    ldv_blast_assert();
    }
  } else {
  }
  return;
}
}
void ldv_spin_lock(void)
{
  {
  ldv_spin = 1;
  return;
}
}
void ldv_spin_unlock(void)
{
  {
  ldv_spin = 0;
  return;
}
}
int ldv_spin_trylock(void)
{ int is_lock ;
  {
  {
  is_lock = __VERIFIER_nondet_int();
  }
  if (is_lock != 0) {
    return (0);
  } else {
    ldv_spin = 1;
    return (1);
  }
}
}
void *ldv_kmem_cache_alloc_16(struct kmem_cache *ldv_func_arg1 , gfp_t ldv_func_arg2 )
{
  {
  {
  ldv_check_alloc_flags(ldv_func_arg2);
  kmem_cache_alloc(ldv_func_arg1, ldv_func_arg2);
  }
  return ((void *)0);
}
}
void *ldv_zalloc(size_t size ) ;
extern _Bool __VERIFIER_nondet_bool(void) ;
extern void *calloc(size_t, size_t) ;
void *ldv_zalloc(size_t size )
{
  if(__VERIFIER_nondet_bool()) return 0;
  return calloc(1UL, size);
}
 static void *kzalloc(size_t size , gfp_t flags )
{ void *tmp ;
  {
  {
  ldv_check_alloc_flags(flags);
  tmp = ldv_zalloc(size);
  }
  return (tmp);
}
}
void *ldv_vmalloc_user_19(unsigned long ldv_func_arg1 )
{
  {
  {
  ldv_check_alloc_nonatomic();
  vmalloc_user(ldv_func_arg1);
  }
  return ((void *)0);
}
}
void *ldv_vmalloc_user_20(unsigned long ldv_func_arg1 )
{
  {
  {
  ldv_check_alloc_nonatomic();
  vmalloc_user(ldv_func_arg1);
  }
  return ((void *)0);
}
}
extern _Bool __VERIFIER_nondet_bool(void) ;
extern void *malloc(size_t) ;
void *ldv_malloc(size_t size )
{
  if(__VERIFIER_nondet_bool()) return 0;
  return malloc(size);
}
void *kmem_cache_alloc(struct kmem_cache *arg0, gfp_t arg1) {
  return ldv_malloc(0UL);
}
void ldv_check_final_state() {
  return;
}
void ldv_initialize() {
  return;
}
struct page *ldv_some_page() {
  return ldv_malloc(sizeof(struct page));
}
void mutex_lock_nested(struct mutex *arg0, unsigned int arg1) {
  return;
}
void mutex_unlock(struct mutex *arg0) {
  return;
}
int __VERIFIER_nondet_int(void);
int printk(const char *arg0, ...) {
  return __VERIFIER_nondet_int();
}
int __VERIFIER_nondet_int(void);
int remap_vmalloc_range(struct vm_area_struct *arg0, void *arg1, unsigned long arg2) {
  return __VERIFIER_nondet_int();
}
void vfree(const void *arg0) {
  return;
}
void videobuf_queue_cancel(struct videobuf_queue *arg0) {
  return;
}
void videobuf_queue_core_init(struct videobuf_queue *arg0, const struct videobuf_queue_ops *arg1, struct device *arg2, spinlock_t *arg3, enum v4l2_buf_type arg4, enum v4l2_field arg5, unsigned int arg6, void *arg7, struct videobuf_qtype_ops *arg8, struct mutex *arg9) {
  return;
}
void *vmalloc_user(unsigned long arg0) {
  return ldv_malloc(0UL);
}
void free(void *);
void kfree(void const *p) {
  free((void *)p);
}
