extern void abort(void);

extern void __assert_fail (const char *__assertion, const char *__file,
      unsigned int __line, const char *__function)
     __attribute__ ((__nothrow__ , __leaf__)) __attribute__ ((__noreturn__));
extern void __assert_perror_fail (int __errnum, const char *__file,
      unsigned int __line, const char *__function)
     __attribute__ ((__nothrow__ , __leaf__)) __attribute__ ((__noreturn__));
extern void __assert (const char *__assertion, const char *__file, int __line)
     __attribute__ ((__nothrow__ , __leaf__)) __attribute__ ((__noreturn__));

void reach_error() { ((void) sizeof ((0) ? 1 : 0), __extension__ ({ if (0) ; else __assert_fail ("0", "43_1a_cilled_ok_nondet_linux-43_1a-drivers--char--hw_random--virtio-rng.ko-ldv_main0_sequence_infinite_withcheck_stateful.cil.out.c", 3, __extension__ __PRETTY_FUNCTION__); })); }
typedef unsigned short __u16;
typedef unsigned int __u32;
typedef unsigned long long __u64;
typedef unsigned char u8;
typedef short s16;
typedef unsigned short u16;
typedef unsigned int u32;
typedef long long s64;
typedef unsigned long long u64;
typedef long __kernel_long_t;
typedef unsigned long __kernel_ulong_t;
typedef __kernel_ulong_t __kernel_size_t;
typedef __kernel_long_t __kernel_ssize_t;
typedef long long __kernel_loff_t;
typedef __u32 __kernel_dev_t;
typedef __kernel_dev_t dev_t;
typedef unsigned short umode_t;
typedef _Bool bool;
typedef __kernel_loff_t loff_t;
typedef __kernel_size_t size_t;
typedef __kernel_ssize_t ssize_t;
typedef u64 dma_addr_t;
typedef unsigned int gfp_t;
struct __anonstruct_atomic_t_6 {
   int counter ;
};
typedef struct __anonstruct_atomic_t_6 atomic_t;
struct __anonstruct_atomic64_t_7 {
   long counter ;
};
typedef struct __anonstruct_atomic64_t_7 atomic64_t;
struct list_head {
   struct list_head *next ;
   struct list_head *prev ;
};
struct hlist_node;
struct hlist_head {
   struct hlist_node *first ;
};
struct hlist_node {
   struct hlist_node *next ;
   struct hlist_node **pprev ;
};
struct module;
struct module;
typedef void (*ctor_fn_t)(void);
struct device;
struct device;
struct completion;
struct completion;
struct page;
struct page;
struct task_struct;
struct task_struct;
struct mm_struct;
struct mm_struct;
typedef unsigned long pgdval_t;
typedef unsigned long pgprotval_t;
struct pgprot {
   pgprotval_t pgprot ;
};
typedef struct pgprot pgprot_t;
struct __anonstruct_pgd_t_16 {
   pgdval_t pgd ;
};
typedef struct __anonstruct_pgd_t_16 pgd_t;
typedef struct page *pgtable_t;
struct file;
struct file;
struct cpumask;
struct cpumask;
struct arch_spinlock;
struct arch_spinlock;
struct bug_entry {
   int bug_addr_disp ;
   int file_disp ;
   unsigned short line ;
   unsigned short flags ;
};
struct cpumask {
   unsigned long bits[64U] ;
};
typedef struct cpumask *cpumask_var_t;
struct static_key;
struct static_key;
struct kmem_cache;
typedef atomic64_t atomic_long_t;
typedef u16 __ticket_t;
typedef u32 __ticketpair_t;
struct __raw_tickets {
   __ticket_t head ;
   __ticket_t tail ;
};
union __anonunion_ldv_5907_29 {
   __ticketpair_t head_tail ;
   struct __raw_tickets tickets ;
};
struct arch_spinlock {
   union __anonunion_ldv_5907_29 ldv_5907 ;
};
typedef struct arch_spinlock arch_spinlock_t;
struct lockdep_map;
struct lockdep_map;
struct stack_trace {
   unsigned int nr_entries ;
   unsigned int max_entries ;
   unsigned long *entries ;
   int skip ;
};
struct lockdep_subclass_key {
   char __one_byte ;
};
struct lock_class_key {
   struct lockdep_subclass_key subkeys[8U] ;
};
struct lock_class {
   struct list_head hash_entry ;
   struct list_head lock_entry ;
   struct lockdep_subclass_key *key ;
   unsigned int subclass ;
   unsigned int dep_gen_id ;
   unsigned long usage_mask ;
   struct stack_trace usage_traces[13U] ;
   struct list_head locks_after ;
   struct list_head locks_before ;
   unsigned int version ;
   unsigned long ops ;
   char const *name ;
   int name_version ;
   unsigned long contention_point[4U] ;
   unsigned long contending_point[4U] ;
};
struct lockdep_map {
   struct lock_class_key *key ;
   struct lock_class *class_cache[2U] ;
   char const *name ;
   int cpu ;
   unsigned long ip ;
};
struct raw_spinlock {
   arch_spinlock_t raw_lock ;
   unsigned int magic ;
   unsigned int owner_cpu ;
   void *owner ;
   struct lockdep_map dep_map ;
};
typedef struct raw_spinlock raw_spinlock_t;
struct __anonstruct_ldv_6122_33 {
   u8 __padding[24U] ;
   struct lockdep_map dep_map ;
};
union __anonunion_ldv_6123_32 {
   struct raw_spinlock rlock ;
   struct __anonstruct_ldv_6122_33 ldv_6122 ;
};
struct spinlock {
   union __anonunion_ldv_6123_32 ldv_6123 ;
};
typedef struct spinlock spinlock_t;
struct __wait_queue_head {
   spinlock_t lock ;
   struct list_head task_list ;
};
typedef struct __wait_queue_head wait_queue_head_t;
struct __anonstruct_nodemask_t_36 {
   unsigned long bits[16U] ;
};
typedef struct __anonstruct_nodemask_t_36 nodemask_t;
struct mutex {
   atomic_t count ;
   spinlock_t wait_lock ;
   struct list_head wait_list ;
   struct task_struct *owner ;
   char const *name ;
   void *magic ;
   struct lockdep_map dep_map ;
};
struct rw_semaphore;
struct rw_semaphore;
struct rw_semaphore {
   long count ;
   raw_spinlock_t wait_lock ;
   struct list_head wait_list ;
   struct lockdep_map dep_map ;
};
struct completion {
   unsigned int done ;
   wait_queue_head_t wait ;
};
union ktime {
   s64 tv64 ;
};
typedef union ktime ktime_t;
struct tvec_base;
struct tvec_base;
struct timer_list {
   struct list_head entry ;
   unsigned long expires ;
   struct tvec_base *base ;
   void (*function)(unsigned long ) ;
   unsigned long data ;
   int slack ;
   int start_pid ;
   void *start_site ;
   char start_comm[16U] ;
   struct lockdep_map lockdep_map ;
};
struct work_struct;
struct work_struct;
struct work_struct {
   atomic_long_t data ;
   struct list_head entry ;
   void (*func)(struct work_struct * ) ;
   struct lockdep_map lockdep_map ;
};
struct pm_message {
   int event ;
};
typedef struct pm_message pm_message_t;
struct dev_pm_ops {
   int (*prepare)(struct device * ) ;
   void (*complete)(struct device * ) ;
   int (*suspend)(struct device * ) ;
   int (*resume)(struct device * ) ;
   int (*freeze)(struct device * ) ;
   int (*thaw)(struct device * ) ;
   int (*poweroff)(struct device * ) ;
   int (*restore)(struct device * ) ;
   int (*suspend_late)(struct device * ) ;
   int (*resume_early)(struct device * ) ;
   int (*freeze_late)(struct device * ) ;
   int (*thaw_early)(struct device * ) ;
   int (*poweroff_late)(struct device * ) ;
   int (*restore_early)(struct device * ) ;
   int (*suspend_noirq)(struct device * ) ;
   int (*resume_noirq)(struct device * ) ;
   int (*freeze_noirq)(struct device * ) ;
   int (*thaw_noirq)(struct device * ) ;
   int (*poweroff_noirq)(struct device * ) ;
   int (*restore_noirq)(struct device * ) ;
   int (*runtime_suspend)(struct device * ) ;
   int (*runtime_resume)(struct device * ) ;
   int (*runtime_idle)(struct device * ) ;
};
enum rpm_status {
    RPM_ACTIVE = 0,
    RPM_RESUMING = 1,
    RPM_SUSPENDED = 2,
    RPM_SUSPENDING = 3
} ;
enum rpm_request {
    RPM_REQ_NONE = 0,
    RPM_REQ_IDLE = 1,
    RPM_REQ_SUSPEND = 2,
    RPM_REQ_AUTOSUSPEND = 3,
    RPM_REQ_RESUME = 4
} ;
struct wakeup_source;
struct wakeup_source;
struct pm_subsys_data {
   spinlock_t lock ;
   unsigned int refcount ;
};
struct dev_pm_qos_request;
struct pm_qos_constraints;
struct dev_pm_info {
   pm_message_t power_state ;
   unsigned char can_wakeup : 1 ;
   unsigned char async_suspend : 1 ;
   bool is_prepared ;
   bool is_suspended ;
   bool ignore_children ;
   spinlock_t lock ;
   struct list_head entry ;
   struct completion completion ;
   struct wakeup_source *wakeup ;
   bool wakeup_path ;
   struct timer_list suspend_timer ;
   unsigned long timer_expires ;
   struct work_struct work ;
   wait_queue_head_t wait_queue ;
   atomic_t usage_count ;
   atomic_t child_count ;
   unsigned char disable_depth : 3 ;
   unsigned char idle_notification : 1 ;
   unsigned char request_pending : 1 ;
   unsigned char deferred_resume : 1 ;
   unsigned char run_wake : 1 ;
   unsigned char runtime_auto : 1 ;
   unsigned char no_callbacks : 1 ;
   unsigned char irq_safe : 1 ;
   unsigned char use_autosuspend : 1 ;
   unsigned char timer_autosuspends : 1 ;
   enum rpm_request request ;
   enum rpm_status runtime_status ;
   int runtime_error ;
   int autosuspend_delay ;
   unsigned long last_busy ;
   unsigned long active_jiffies ;
   unsigned long suspended_jiffies ;
   unsigned long accounting_timestamp ;
   ktime_t suspend_time ;
   s64 max_time_suspended_ns ;
   struct dev_pm_qos_request *pq_req ;
   struct pm_subsys_data *subsys_data ;
   struct pm_qos_constraints *constraints ;
};
struct dev_pm_domain {
   struct dev_pm_ops ops ;
};
struct __anonstruct_mm_context_t_101 {
   void *ldt ;
   int size ;
   unsigned short ia32_compat ;
   struct mutex lock ;
   void *vdso ;
};
typedef struct __anonstruct_mm_context_t_101 mm_context_t;
struct vm_area_struct;
struct vm_area_struct;
struct rb_node {
   unsigned long rb_parent_color ;
   struct rb_node *rb_right ;
   struct rb_node *rb_left ;
};
struct rb_root {
   struct rb_node *rb_node ;
};
typedef __u64 Elf64_Addr;
typedef __u16 Elf64_Half;
typedef __u32 Elf64_Word;
typedef __u64 Elf64_Xword;
struct elf64_sym {
   Elf64_Word st_name ;
   unsigned char st_info ;
   unsigned char st_other ;
   Elf64_Half st_shndx ;
   Elf64_Addr st_value ;
   Elf64_Xword st_size ;
};
typedef struct elf64_sym Elf64_Sym;
struct sock;
struct sock;
struct kobject;
struct kobject;
enum kobj_ns_type {
    KOBJ_NS_TYPE_NONE = 0,
    KOBJ_NS_TYPE_NET = 1,
    KOBJ_NS_TYPES = 2
} ;
struct kobj_ns_type_operations {
   enum kobj_ns_type type ;
   void *(*grab_current_ns)(void) ;
   void const *(*netlink_ns)(struct sock * ) ;
   void const *(*initial_ns)(void) ;
   void (*drop_ns)(void * ) ;
};
struct attribute {
   char const *name ;
   umode_t mode ;
   struct lock_class_key *key ;
   struct lock_class_key skey ;
};
struct attribute_group {
   char const *name ;
   umode_t (*is_visible)(struct kobject * , struct attribute * , int ) ;
   struct attribute **attrs ;
};
struct bin_attribute {
   struct attribute attr ;
   size_t size ;
   void *private ;
   ssize_t (*read)(struct file * , struct kobject * , struct bin_attribute * , char * ,
                   loff_t , size_t ) ;
   ssize_t (*write)(struct file * , struct kobject * , struct bin_attribute * , char * ,
                    loff_t , size_t ) ;
   int (*mmap)(struct file * , struct kobject * , struct bin_attribute * , struct vm_area_struct * ) ;
};
struct sysfs_ops {
   ssize_t (*show)(struct kobject * , struct attribute * , char * ) ;
   ssize_t (*store)(struct kobject * , struct attribute * , char const * , size_t ) ;
   void const *(*namespace)(struct kobject * , struct attribute const * ) ;
};
struct sysfs_dirent;
struct sysfs_dirent;
struct kref {
   atomic_t refcount ;
};
struct kset;
struct kobj_type;
struct kobject {
   char const *name ;
   struct list_head entry ;
   struct kobject *parent ;
   struct kset *kset ;
   struct kobj_type *ktype ;
   struct sysfs_dirent *sd ;
   struct kref kref ;
   unsigned char state_initialized : 1 ;
   unsigned char state_in_sysfs : 1 ;
   unsigned char state_add_uevent_sent : 1 ;
   unsigned char state_remove_uevent_sent : 1 ;
   unsigned char uevent_suppress : 1 ;
};
struct kobj_type {
   void (*release)(struct kobject * ) ;
   struct sysfs_ops const *sysfs_ops ;
   struct attribute **default_attrs ;
   struct kobj_ns_type_operations const *(*child_ns_type)(struct kobject * ) ;
   void const *(*namespace)(struct kobject * ) ;
};
struct kobj_uevent_env {
   char *envp[32U] ;
   int envp_idx ;
   char buf[2048U] ;
   int buflen ;
};
struct kset_uevent_ops {
   int (* const filter)(struct kset * , struct kobject * ) ;
   char const *(* const name)(struct kset * , struct kobject * ) ;
   int (* const uevent)(struct kset * , struct kobject * , struct kobj_uevent_env * ) ;
};
struct kset {
   struct list_head list ;
   spinlock_t list_lock ;
   struct kobject kobj ;
   struct kset_uevent_ops const *uevent_ops ;
};
struct kernel_param;
struct kernel_param;
struct kernel_param_ops {
   int (*set)(char const * , struct kernel_param const * ) ;
   int (*get)(char * , struct kernel_param const * ) ;
   void (*free)(void * ) ;
};
struct kparam_string;
struct kparam_array;
union __anonunion_ldv_13363_134 {
   void *arg ;
   struct kparam_string const *str ;
   struct kparam_array const *arr ;
};
struct kernel_param {
   char const *name ;
   struct kernel_param_ops const *ops ;
   u16 perm ;
   s16 level ;
   union __anonunion_ldv_13363_134 ldv_13363 ;
};
struct kparam_string {
   unsigned int maxlen ;
   char *string ;
};
struct kparam_array {
   unsigned int max ;
   unsigned int elemsize ;
   unsigned int *num ;
   struct kernel_param_ops const *ops ;
   void *elem ;
};
struct static_key {
   atomic_t enabled ;
};
struct tracepoint;
struct tracepoint;
struct tracepoint_func {
   void *func ;
   void *data ;
};
struct tracepoint {
   char const *name ;
   struct static_key key ;
   void (*regfunc)(void) ;
   void (*unregfunc)(void) ;
   struct tracepoint_func *funcs ;
};
struct kernel_symbol {
   unsigned long value ;
   char const *name ;
};
struct mod_arch_specific {
};
struct module_param_attrs;
struct module_kobject {
   struct kobject kobj ;
   struct module *mod ;
   struct kobject *drivers_dir ;
   struct module_param_attrs *mp ;
};
struct module_attribute {
   struct attribute attr ;
   ssize_t (*show)(struct module_attribute * , struct module_kobject * , char * ) ;
   ssize_t (*store)(struct module_attribute * , struct module_kobject * , char const * ,
                    size_t ) ;
   void (*setup)(struct module * , char const * ) ;
   int (*test)(struct module * ) ;
   void (*free)(struct module * ) ;
};
struct exception_table_entry;
struct exception_table_entry;
enum module_state {
    MODULE_STATE_LIVE = 0,
    MODULE_STATE_COMING = 1,
    MODULE_STATE_GOING = 2
} ;
struct module_ref {
   unsigned long incs ;
   unsigned long decs ;
};
struct module_sect_attrs;
struct module_notes_attrs;
struct ftrace_event_call;
struct module {
   enum module_state state ;
   struct list_head list ;
   char name[56U] ;
   struct module_kobject mkobj ;
   struct module_attribute *modinfo_attrs ;
   char const *version ;
   char const *srcversion ;
   struct kobject *holders_dir ;
   struct kernel_symbol const *syms ;
   unsigned long const *crcs ;
   unsigned int num_syms ;
   struct kernel_param *kp ;
   unsigned int num_kp ;
   unsigned int num_gpl_syms ;
   struct kernel_symbol const *gpl_syms ;
   unsigned long const *gpl_crcs ;
   struct kernel_symbol const *unused_syms ;
   unsigned long const *unused_crcs ;
   unsigned int num_unused_syms ;
   unsigned int num_unused_gpl_syms ;
   struct kernel_symbol const *unused_gpl_syms ;
   unsigned long const *unused_gpl_crcs ;
   struct kernel_symbol const *gpl_future_syms ;
   unsigned long const *gpl_future_crcs ;
   unsigned int num_gpl_future_syms ;
   unsigned int num_exentries ;
   struct exception_table_entry *extable ;
   int (*init)(void) ;
   void *module_init ;
   void *module_core ;
   unsigned int init_size ;
   unsigned int core_size ;
   unsigned int init_text_size ;
   unsigned int core_text_size ;
   unsigned int init_ro_size ;
   unsigned int core_ro_size ;
   struct mod_arch_specific arch ;
   unsigned int taints ;
   unsigned int num_bugs ;
   struct list_head bug_list ;
   struct bug_entry *bug_table ;
   Elf64_Sym *symtab ;
   Elf64_Sym *core_symtab ;
   unsigned int num_symtab ;
   unsigned int core_num_syms ;
   char *strtab ;
   char *core_strtab ;
   struct module_sect_attrs *sect_attrs ;
   struct module_notes_attrs *notes_attrs ;
   char *args ;
   void *percpu ;
   unsigned int percpu_size ;
   unsigned int num_tracepoints ;
   struct tracepoint * const *tracepoints_ptrs ;
   unsigned int num_trace_bprintk_fmt ;
   char const **trace_bprintk_fmt_start ;
   struct ftrace_event_call **trace_events ;
   unsigned int num_trace_events ;
   struct list_head source_list ;
   struct list_head target_list ;
   struct task_struct *waiter ;
   void (*exit)(void) ;
   struct module_ref *refptr ;
   ctor_fn_t (**ctors)(void) ;
   unsigned int num_ctors ;
};
struct kmem_cache_cpu {
   void **freelist ;
   unsigned long tid ;
   struct page *page ;
   struct page *partial ;
   int node ;
   unsigned int stat[26U] ;
};
struct kmem_cache_node {
   spinlock_t list_lock ;
   unsigned long nr_partial ;
   struct list_head partial ;
   atomic_long_t nr_slabs ;
   atomic_long_t total_objects ;
   struct list_head full ;
};
struct kmem_cache_order_objects {
   unsigned long x ;
};
struct kmem_cache {
   struct kmem_cache_cpu *cpu_slab ;
   unsigned long flags ;
   unsigned long min_partial ;
   int size ;
   int objsize ;
   int offset ;
   int cpu_partial ;
   struct kmem_cache_order_objects oo ;
   struct kmem_cache_order_objects max ;
   struct kmem_cache_order_objects min ;
   gfp_t allocflags ;
   int refcount ;
   void (*ctor)(void * ) ;
   int inuse ;
   int align ;
   int reserved ;
   char const *name ;
   struct list_head list ;
   struct kobject kobj ;
   int remote_node_defrag_ratio ;
   struct kmem_cache_node *node[1024U] ;
};
struct hwrng {
   char const *name ;
   int (*init)(struct hwrng * ) ;
   void (*cleanup)(struct hwrng * ) ;
   int (*data_present)(struct hwrng * , int ) ;
   int (*data_read)(struct hwrng * , u32 * ) ;
   int (*read)(struct hwrng * , void * , size_t , bool ) ;
   unsigned long priv ;
   struct list_head list ;
};
struct prio_tree_node;
struct raw_prio_tree_node {
   struct prio_tree_node *left ;
   struct prio_tree_node *right ;
   struct prio_tree_node *parent ;
};
struct prio_tree_node {
   struct prio_tree_node *left ;
   struct prio_tree_node *right ;
   struct prio_tree_node *parent ;
   unsigned long start ;
   unsigned long last ;
};
struct address_space;
struct address_space;
union __anonunion_ldv_14239_136 {
   unsigned long index ;
   void *freelist ;
};
struct __anonstruct_ldv_14249_140 {
   unsigned short inuse ;
   unsigned short objects : 15 ;
   unsigned char frozen : 1 ;
};
union __anonunion_ldv_14250_139 {
   atomic_t _mapcount ;
   struct __anonstruct_ldv_14249_140 ldv_14249 ;
};
struct __anonstruct_ldv_14252_138 {
   union __anonunion_ldv_14250_139 ldv_14250 ;
   atomic_t _count ;
};
union __anonunion_ldv_14253_137 {
   unsigned long counters ;
   struct __anonstruct_ldv_14252_138 ldv_14252 ;
};
struct __anonstruct_ldv_14254_135 {
   union __anonunion_ldv_14239_136 ldv_14239 ;
   union __anonunion_ldv_14253_137 ldv_14253 ;
};
struct __anonstruct_ldv_14261_142 {
   struct page *next ;
   int pages ;
   int pobjects ;
};
union __anonunion_ldv_14262_141 {
   struct list_head lru ;
   struct __anonstruct_ldv_14261_142 ldv_14261 ;
};
union __anonunion_ldv_14267_143 {
   unsigned long private ;
   struct kmem_cache *slab ;
   struct page *first_page ;
};
struct page {
   unsigned long flags ;
   struct address_space *mapping ;
   struct __anonstruct_ldv_14254_135 ldv_14254 ;
   union __anonunion_ldv_14262_141 ldv_14262 ;
   union __anonunion_ldv_14267_143 ldv_14267 ;
   unsigned long debug_flags ;
};
struct __anonstruct_vm_set_145 {
   struct list_head list ;
   void *parent ;
   struct vm_area_struct *head ;
};
union __anonunion_shared_144 {
   struct __anonstruct_vm_set_145 vm_set ;
   struct raw_prio_tree_node prio_tree_node ;
};
struct anon_vma;
struct vm_operations_struct;
struct mempolicy;
struct vm_area_struct {
   struct mm_struct *vm_mm ;
   unsigned long vm_start ;
   unsigned long vm_end ;
   struct vm_area_struct *vm_next ;
   struct vm_area_struct *vm_prev ;
   pgprot_t vm_page_prot ;
   unsigned long vm_flags ;
   struct rb_node vm_rb ;
   union __anonunion_shared_144 shared ;
   struct list_head anon_vma_chain ;
   struct anon_vma *anon_vma ;
   struct vm_operations_struct const *vm_ops ;
   unsigned long vm_pgoff ;
   struct file *vm_file ;
   void *vm_private_data ;
   struct mempolicy *vm_policy ;
};
struct core_thread {
   struct task_struct *task ;
   struct core_thread *next ;
};
struct core_state {
   atomic_t nr_threads ;
   struct core_thread dumper ;
   struct completion startup ;
};
struct mm_rss_stat {
   atomic_long_t count[3U] ;
};
struct linux_binfmt;
struct mmu_notifier_mm;
struct mm_struct {
   struct vm_area_struct *mmap ;
   struct rb_root mm_rb ;
   struct vm_area_struct *mmap_cache ;
   unsigned long (*get_unmapped_area)(struct file * , unsigned long , unsigned long ,
                                      unsigned long , unsigned long ) ;
   void (*unmap_area)(struct mm_struct * , unsigned long ) ;
   unsigned long mmap_base ;
   unsigned long task_size ;
   unsigned long cached_hole_size ;
   unsigned long free_area_cache ;
   pgd_t *pgd ;
   atomic_t mm_users ;
   atomic_t mm_count ;
   int map_count ;
   spinlock_t page_table_lock ;
   struct rw_semaphore mmap_sem ;
   struct list_head mmlist ;
   unsigned long hiwater_rss ;
   unsigned long hiwater_vm ;
   unsigned long total_vm ;
   unsigned long locked_vm ;
   unsigned long pinned_vm ;
   unsigned long shared_vm ;
   unsigned long exec_vm ;
   unsigned long stack_vm ;
   unsigned long reserved_vm ;
   unsigned long def_flags ;
   unsigned long nr_ptes ;
   unsigned long start_code ;
   unsigned long end_code ;
   unsigned long start_data ;
   unsigned long end_data ;
   unsigned long start_brk ;
   unsigned long brk ;
   unsigned long start_stack ;
   unsigned long arg_start ;
   unsigned long arg_end ;
   unsigned long env_start ;
   unsigned long env_end ;
   unsigned long saved_auxv[44U] ;
   struct mm_rss_stat rss_stat ;
   struct linux_binfmt *binfmt ;
   cpumask_var_t cpu_vm_mask_var ;
   mm_context_t context ;
   unsigned int faultstamp ;
   unsigned int token_priority ;
   unsigned int last_interval ;
   unsigned long flags ;
   struct core_state *core_state ;
   spinlock_t ioctx_lock ;
   struct hlist_head ioctx_list ;
   struct task_struct *owner ;
   struct file *exe_file ;
   unsigned long num_exe_file_vmas ;
   struct mmu_notifier_mm *mmu_notifier_mm ;
   pgtable_t pmd_huge_pte ;
   struct cpumask cpumask_allocation ;
};
struct vm_fault {
   unsigned int flags ;
   unsigned long pgoff ;
   void *virtual_address ;
   struct page *page ;
};
struct vm_operations_struct {
   void (*open)(struct vm_area_struct * ) ;
   void (*close)(struct vm_area_struct * ) ;
   int (*fault)(struct vm_area_struct * , struct vm_fault * ) ;
   int (*page_mkwrite)(struct vm_area_struct * , struct vm_fault * ) ;
   int (*access)(struct vm_area_struct * , unsigned long , void * , int , int ) ;
   int (*set_policy)(struct vm_area_struct * , struct mempolicy * ) ;
   struct mempolicy *(*get_policy)(struct vm_area_struct * , unsigned long ) ;
   int (*migrate)(struct vm_area_struct * , nodemask_t const * , nodemask_t const * ,
                  unsigned long ) ;
};
struct scatterlist {
   unsigned long sg_magic ;
   unsigned long page_link ;
   unsigned int offset ;
   unsigned int length ;
   dma_addr_t dma_address ;
   unsigned int dma_length ;
};
struct klist_node;
struct klist_node;
struct klist_node {
   void *n_klist ;
   struct list_head n_node ;
   struct kref n_ref ;
};
struct dma_map_ops;
struct dev_archdata {
   void *acpi_handle ;
   struct dma_map_ops *dma_ops ;
   void *iommu ;
};
struct device_private;
struct device_private;
struct device_driver;
struct device_driver;
struct driver_private;
struct driver_private;
struct class;
struct class;
struct subsys_private;
struct subsys_private;
struct bus_type;
struct bus_type;
struct device_node;
struct device_node;
struct iommu_ops;
struct iommu_ops;
struct bus_attribute {
   struct attribute attr ;
   ssize_t (*show)(struct bus_type * , char * ) ;
   ssize_t (*store)(struct bus_type * , char const * , size_t ) ;
};
struct device_attribute;
struct driver_attribute;
struct bus_type {
   char const *name ;
   char const *dev_name ;
   struct device *dev_root ;
   struct bus_attribute *bus_attrs ;
   struct device_attribute *dev_attrs ;
   struct driver_attribute *drv_attrs ;
   int (*match)(struct device * , struct device_driver * ) ;
   int (*uevent)(struct device * , struct kobj_uevent_env * ) ;
   int (*probe)(struct device * ) ;
   int (*remove)(struct device * ) ;
   void (*shutdown)(struct device * ) ;
   int (*suspend)(struct device * , pm_message_t ) ;
   int (*resume)(struct device * ) ;
   struct dev_pm_ops const *pm ;
   struct iommu_ops *iommu_ops ;
   struct subsys_private *p ;
};
struct device_type;
struct of_device_id;
struct device_driver {
   char const *name ;
   struct bus_type *bus ;
   struct module *owner ;
   char const *mod_name ;
   bool suppress_bind_attrs ;
   struct of_device_id const *of_match_table ;
   int (*probe)(struct device * ) ;
   int (*remove)(struct device * ) ;
   void (*shutdown)(struct device * ) ;
   int (*suspend)(struct device * , pm_message_t ) ;
   int (*resume)(struct device * ) ;
   struct attribute_group const **groups ;
   struct dev_pm_ops const *pm ;
   struct driver_private *p ;
};
struct driver_attribute {
   struct attribute attr ;
   ssize_t (*show)(struct device_driver * , char * ) ;
   ssize_t (*store)(struct device_driver * , char const * , size_t ) ;
};
struct class_attribute;
struct class {
   char const *name ;
   struct module *owner ;
   struct class_attribute *class_attrs ;
   struct device_attribute *dev_attrs ;
   struct bin_attribute *dev_bin_attrs ;
   struct kobject *dev_kobj ;
   int (*dev_uevent)(struct device * , struct kobj_uevent_env * ) ;
   char *(*devnode)(struct device * , umode_t * ) ;
   void (*class_release)(struct class * ) ;
   void (*dev_release)(struct device * ) ;
   int (*suspend)(struct device * , pm_message_t ) ;
   int (*resume)(struct device * ) ;
   struct kobj_ns_type_operations const *ns_type ;
   void const *(*namespace)(struct device * ) ;
   struct dev_pm_ops const *pm ;
   struct subsys_private *p ;
};
struct class_attribute {
   struct attribute attr ;
   ssize_t (*show)(struct class * , struct class_attribute * , char * ) ;
   ssize_t (*store)(struct class * , struct class_attribute * , char const * , size_t ) ;
   void const *(*namespace)(struct class * , struct class_attribute const * ) ;
};
struct device_type {
   char const *name ;
   struct attribute_group const **groups ;
   int (*uevent)(struct device * , struct kobj_uevent_env * ) ;
   char *(*devnode)(struct device * , umode_t * ) ;
   void (*release)(struct device * ) ;
   struct dev_pm_ops const *pm ;
};
struct device_attribute {
   struct attribute attr ;
   ssize_t (*show)(struct device * , struct device_attribute * , char * ) ;
   ssize_t (*store)(struct device * , struct device_attribute * , char const * ,
                    size_t ) ;
};
struct device_dma_parameters {
   unsigned int max_segment_size ;
   unsigned long segment_boundary_mask ;
};
struct dma_coherent_mem;
struct device {
   struct device *parent ;
   struct device_private *p ;
   struct kobject kobj ;
   char const *init_name ;
   struct device_type const *type ;
   struct mutex mutex ;
   struct bus_type *bus ;
   struct device_driver *driver ;
   void *platform_data ;
   struct dev_pm_info power ;
   struct dev_pm_domain *pm_domain ;
   int numa_node ;
   u64 *dma_mask ;
   u64 coherent_dma_mask ;
   struct device_dma_parameters *dma_parms ;
   struct list_head dma_pools ;
   struct dma_coherent_mem *dma_mem ;
   struct dev_archdata archdata ;
   struct device_node *of_node ;
   dev_t devt ;
   u32 id ;
   spinlock_t devres_lock ;
   struct list_head devres_head ;
   struct klist_node knode_class ;
   struct class *class ;
   struct attribute_group const **groups ;
   void (*release)(struct device * ) ;
};
struct wakeup_source {
   char const *name ;
   struct list_head entry ;
   spinlock_t lock ;
   struct timer_list timer ;
   unsigned long timer_expires ;
   ktime_t total_time ;
   ktime_t max_time ;
   ktime_t last_time ;
   unsigned long event_count ;
   unsigned long active_count ;
   unsigned long relax_count ;
   unsigned long hit_count ;
   unsigned char active : 1 ;
};
struct of_device_id {
   char name[32U] ;
   char type[32U] ;
   char compatible[128U] ;
   void *data ;
};
struct virtio_device_id {
   __u32 device ;
   __u32 vendor ;
};
struct virtio_device;
struct virtqueue {
   struct list_head list ;
   void (*callback)(struct virtqueue * ) ;
   char const *name ;
   struct virtio_device *vdev ;
   void *priv ;
};
struct virtio_config_ops;
struct virtio_device {
   int index ;
   struct device dev ;
   struct virtio_device_id id ;
   struct virtio_config_ops *config ;
   struct list_head vqs ;
   unsigned long features[1U] ;
   void *priv ;
};
struct virtio_driver {
   struct device_driver driver ;
   struct virtio_device_id const *id_table ;
   unsigned int const *feature_table ;
   unsigned int feature_table_size ;
   int (*probe)(struct virtio_device * ) ;
   void (*remove)(struct virtio_device * ) ;
   void (*config_changed)(struct virtio_device * ) ;
   int (*freeze)(struct virtio_device * ) ;
   int (*restore)(struct virtio_device * ) ;
};
typedef void vq_callback_t(struct virtqueue * );
struct virtio_config_ops {
   void (*get)(struct virtio_device * , unsigned int , void * , unsigned int ) ;
   void (*set)(struct virtio_device * , unsigned int , void const * , unsigned int ) ;
   u8 (*get_status)(struct virtio_device * ) ;
   void (*set_status)(struct virtio_device * , u8 ) ;
   void (*reset)(struct virtio_device * ) ;
   int (*find_vqs)(struct virtio_device * , unsigned int , struct virtqueue ** ,
                   vq_callback_t ** , char const ** ) ;
   void (*del_vqs)(struct virtio_device * ) ;
   u32 (*get_features)(struct virtio_device * ) ;
   void (*finalize_features)(struct virtio_device * ) ;
   char const *(*bus_name)(struct virtio_device * ) ;
};
void ldv_spin_lock(void) ;
void ldv_spin_unlock(void) ;
int ldv_spin_trylock(void) ;
 static void *ERR_PTR(long error )
{
  {
  return ((void *)error);
}
}
 static long PTR_ERR(void const *ptr )
{
  {
  return ((long )ptr);
}
}
 static long IS_ERR(void const *ptr )
{ long tmp ;
  unsigned long __cil_tmp3 ;
  int __cil_tmp4 ;
  long __cil_tmp5 ;
  {
  {
  __cil_tmp3 = (unsigned long )ptr;
  __cil_tmp4 = __cil_tmp3 > 0xfffffffffffff000UL;
  __cil_tmp5 = (long )__cil_tmp4;
  tmp = __builtin_expect(__cil_tmp5, 0L);
  }
  return (tmp);
}
}
extern void __init_waitqueue_head(wait_queue_head_t * , char const * , struct lock_class_key * ) ;
 static void init_completion(struct completion *x )
{ struct lock_class_key __key ;
  unsigned long __cil_tmp3 ;
  unsigned long __cil_tmp4 ;
  wait_queue_head_t *__cil_tmp5 ;
  {
  {
  *((unsigned int *)x) = 0U;
  __cil_tmp3 = (unsigned long )x;
  __cil_tmp4 = __cil_tmp3 + 8;
  __cil_tmp5 = (wait_queue_head_t *)__cil_tmp4;
  __init_waitqueue_head(__cil_tmp5, "&x->wait", & __key);
  }
  return;
}
}
extern void wait_for_completion(struct completion * ) ;
extern void complete(struct completion * ) ;
extern struct module __this_module ;
extern void *kmem_cache_alloc(struct kmem_cache * , gfp_t ) ;
void *ldv_kmem_cache_alloc_16(struct kmem_cache *ldv_func_arg1 , gfp_t ldv_func_arg2 ) ;
void ldv_check_alloc_flags(gfp_t flags ) ;
void ldv_check_alloc_nonatomic(void) ;
struct page *ldv_check_alloc_flags_and_return_some_page(gfp_t flags ) ;
extern int hwrng_register(struct hwrng * ) ;
extern void hwrng_unregister(struct hwrng * ) ;
extern void sg_init_one(struct scatterlist * , void const * , unsigned int ) ;
extern int virtqueue_add_buf(struct virtqueue * , struct scatterlist * , unsigned int ,
                             unsigned int , void * , gfp_t ) ;
extern void virtqueue_kick(struct virtqueue * ) ;
extern void *virtqueue_get_buf(struct virtqueue * , unsigned int * ) ;
extern int register_virtio_driver(struct virtio_driver * ) ;
extern void unregister_virtio_driver(struct virtio_driver * ) ;
 static struct virtqueue *virtio_find_single_vq(struct virtio_device *vdev ,
                                                        vq_callback_t *c , char const *n )
{ vq_callback_t *callbacks[1U] ;
  char const *names[1U] ;
  struct virtqueue *vq ;
  int err ;
  int tmp ;
  void *tmp___0 ;
  unsigned long __cil_tmp10 ;
  unsigned long __cil_tmp11 ;
  unsigned long __cil_tmp12 ;
  unsigned long __cil_tmp13 ;
  unsigned long __cil_tmp14 ;
  unsigned long __cil_tmp15 ;
  struct virtio_config_ops *__cil_tmp16 ;
  unsigned long __cil_tmp17 ;
  unsigned long __cil_tmp18 ;
  int (*__cil_tmp19)(struct virtio_device * , unsigned int , struct virtqueue ** ,
                     vq_callback_t ** , char const ** ) ;
  vq_callback_t **__cil_tmp20 ;
  char const **__cil_tmp21 ;
  long __cil_tmp22 ;
  struct virtqueue **__cil_tmp23 ;
  {
  {
  __cil_tmp10 = 0 * 8UL;
  __cil_tmp11 = (unsigned long )(callbacks) + __cil_tmp10;
  *((vq_callback_t **)__cil_tmp11) = c;
  __cil_tmp12 = 0 * 8UL;
  __cil_tmp13 = (unsigned long )(names) + __cil_tmp12;
  *((char const **)__cil_tmp13) = n;
  __cil_tmp14 = (unsigned long )vdev;
  __cil_tmp15 = __cil_tmp14 + 1168;
  __cil_tmp16 = *((struct virtio_config_ops **)__cil_tmp15);
  __cil_tmp17 = (unsigned long )__cil_tmp16;
  __cil_tmp18 = __cil_tmp17 + 40;
  __cil_tmp19 = *((int (**)(struct virtio_device * , unsigned int , struct virtqueue ** ,
                            vq_callback_t ** , char const ** ))__cil_tmp18);
  __cil_tmp20 = (vq_callback_t **)(& callbacks);
  __cil_tmp21 = (char const **)(& names);
  tmp = (*__cil_tmp19)(vdev, 1U, & vq, __cil_tmp20, __cil_tmp21);
  err = tmp;
  }
  if (err < 0) {
    {
    __cil_tmp22 = (long )err;
    tmp___0 = ERR_PTR(__cil_tmp22);
    }
    return ((struct virtqueue *)tmp___0);
  } else {
  }
  {
  __cil_tmp23 = & vq;
  return (*__cil_tmp23);
  }
}
}
static struct virtqueue *vq ;
static unsigned int data_avail ;
static struct completion have_data = {0U, {{{{{{0U}}, 3735899821U, 4294967295U, (void *)0xffffffffffffffffUL, {(struct lock_class_key *)0,
                                                                             {(struct lock_class *)0,
                                                                              (struct lock_class *)0},
                                                                             "(have_data).wait.lock",
                                                                             0, 0UL}}}},
         {& have_data.wait.task_list, & have_data.wait.task_list}}};
static bool busy ;
static void random_recv_done(struct virtqueue *vq___0 )
{ void *tmp ;
  void *__cil_tmp3 ;
  unsigned long __cil_tmp4 ;
  unsigned long __cil_tmp5 ;
  {
  {
  tmp = virtqueue_get_buf(vq___0, & data_avail);
  }
  {
  __cil_tmp3 = (void *)0;
  __cil_tmp4 = (unsigned long )__cil_tmp3;
  __cil_tmp5 = (unsigned long )tmp;
  if (__cil_tmp5 == __cil_tmp4) {
    return;
  } else {
  }
  }
  {
  complete(& have_data);
  }
  return;
}
}
static void register_buffer(u8 *buf , size_t size )
{ struct scatterlist sg ;
  int tmp ;
  void const *__cil_tmp5 ;
  unsigned int __cil_tmp6 ;
  void *__cil_tmp7 ;
  {
  {
  __cil_tmp5 = (void const *)buf;
  __cil_tmp6 = (unsigned int )size;
  sg_init_one(& sg, __cil_tmp5, __cil_tmp6);
  __cil_tmp7 = (void *)buf;
  tmp = virtqueue_add_buf(vq, & sg, 0U, 1U, __cil_tmp7, 208U);
  }
  if (tmp < 0) {
    __asm__ volatile ("1:\tud2\n.pushsection __bug_table,\"a\"\n2:\t.long 1b - 2b, %c0 - 2b\n\t.word %c1, 0\n\t.org 2b+%c2\n.popsection": : "i" ((char *)"/home/zakharov/launch/work/current--X--drivers/--X--defaultlinux-3.4--X--43_1a--X--cpachecker/linux-3.4/csd_deg_dscv/11244/dscv_tempdir/dscv/ri/43_1a/drivers/char/hw_random/virtio-rng.c.p"),
                         "i" (66), "i" (12UL));
    ldv_18007: ;
    goto ldv_18007;
  } else {
  }
  {
  virtqueue_kick(vq);
  }
  return;
}
}
static int virtio_read(struct hwrng *rng , void *buf , size_t size , bool wait )
{ u8 *__cil_tmp5 ;
  unsigned int *__cil_tmp6 ;
  unsigned int __cil_tmp7 ;
  {
  if (! busy) {
    {
    busy = (bool )1;
    init_completion(& have_data);
    __cil_tmp5 = (u8 *)buf;
    register_buffer(__cil_tmp5, size);
    }
  } else {
  }
  if (! wait) {
    return (0);
  } else {
  }
  {
  wait_for_completion(& have_data);
  busy = (bool )0;
  }
  {
  __cil_tmp6 = & data_avail;
  __cil_tmp7 = *__cil_tmp6;
  return ((int )__cil_tmp7);
  }
}
}
static void virtio_cleanup(struct hwrng *rng )
{
  {
  if ((int )busy) {
    {
    wait_for_completion(& have_data);
    }
  } else {
  }
  return;
}
}
static struct hwrng virtio_hwrng =
     {"virtio", (int (*)(struct hwrng * ))0, & virtio_cleanup, (int (*)(struct hwrng * ,
                                                                      int ))0, (int (*)(struct hwrng * ,
                                                                                         u32 * ))0,
    & virtio_read, 0UL, {(struct list_head *)0, (struct list_head *)0}};
static int virtrng_probe(struct virtio_device *vdev )
{ int err ;
  long tmp ;
  long tmp___0 ;
  void const *__cil_tmp5 ;
  void const *__cil_tmp6 ;
  unsigned long __cil_tmp7 ;
  unsigned long __cil_tmp8 ;
  struct virtio_config_ops *__cil_tmp9 ;
  unsigned long __cil_tmp10 ;
  unsigned long __cil_tmp11 ;
  void (*__cil_tmp12)(struct virtio_device * ) ;
  {
  {
  vq = virtio_find_single_vq(vdev, & random_recv_done, "input");
  __cil_tmp5 = (void const *)vq;
  tmp___0 = IS_ERR(__cil_tmp5);
  }
  if (tmp___0 != 0L) {
    {
    __cil_tmp6 = (void const *)vq;
    tmp = PTR_ERR(__cil_tmp6);
    }
    return ((int )tmp);
  } else {
  }
  {
  err = hwrng_register(& virtio_hwrng);
  }
  if (err != 0) {
    {
    __cil_tmp7 = (unsigned long )vdev;
    __cil_tmp8 = __cil_tmp7 + 1168;
    __cil_tmp9 = *((struct virtio_config_ops **)__cil_tmp8);
    __cil_tmp10 = (unsigned long )__cil_tmp9;
    __cil_tmp11 = __cil_tmp10 + 48;
    __cil_tmp12 = *((void (**)(struct virtio_device * ))__cil_tmp11);
    (*__cil_tmp12)(vdev);
    }
    return (err);
  } else {
  }
  return (0);
}
}
static void virtrng_remove(struct virtio_device *vdev )
{ unsigned long __cil_tmp2 ;
  unsigned long __cil_tmp3 ;
  struct virtio_config_ops *__cil_tmp4 ;
  unsigned long __cil_tmp5 ;
  unsigned long __cil_tmp6 ;
  void (*__cil_tmp7)(struct virtio_device * ) ;
  unsigned long __cil_tmp8 ;
  unsigned long __cil_tmp9 ;
  struct virtio_config_ops *__cil_tmp10 ;
  unsigned long __cil_tmp11 ;
  unsigned long __cil_tmp12 ;
  void (*__cil_tmp13)(struct virtio_device * ) ;
  {
  {
  __cil_tmp2 = (unsigned long )vdev;
  __cil_tmp3 = __cil_tmp2 + 1168;
  __cil_tmp4 = *((struct virtio_config_ops **)__cil_tmp3);
  __cil_tmp5 = (unsigned long )__cil_tmp4;
  __cil_tmp6 = __cil_tmp5 + 32;
  __cil_tmp7 = *((void (**)(struct virtio_device * ))__cil_tmp6);
  (*__cil_tmp7)(vdev);
  hwrng_unregister(& virtio_hwrng);
  __cil_tmp8 = (unsigned long )vdev;
  __cil_tmp9 = __cil_tmp8 + 1168;
  __cil_tmp10 = *((struct virtio_config_ops **)__cil_tmp9);
  __cil_tmp11 = (unsigned long )__cil_tmp10;
  __cil_tmp12 = __cil_tmp11 + 48;
  __cil_tmp13 = *((void (**)(struct virtio_device * ))__cil_tmp12);
  (*__cil_tmp13)(vdev);
  }
  return;
}
}
static struct virtio_device_id id_table[2U] = { {4U, 4294967295U},
        {0U, 0U}};
static struct virtio_driver virtio_rng_driver =
     {{"virtio_rng", (struct bus_type *)0, & __this_module, (char const *)0, (_Bool)0,
     (struct of_device_id const *)0, (int (*)(struct device * ))0, (int (*)(struct device * ))0,
     (void (*)(struct device * ))0, (int (*)(struct device * , pm_message_t ))0,
     (int (*)(struct device * ))0, (struct attribute_group const **)0, (struct dev_pm_ops const *)0,
     (struct driver_private *)0}, (struct virtio_device_id const *)(& id_table),
    (unsigned int const *)0, 0U, & virtrng_probe, & virtrng_remove, (void (*)(struct virtio_device * ))0,
    (int (*)(struct virtio_device * ))0, (int (*)(struct virtio_device * ))0};
static int init(void)
{ int tmp ;
  {
  {
  tmp = register_virtio_driver(& virtio_rng_driver);
  }
  return (tmp);
}
}
static void fini(void)
{
  {
  {
  unregister_virtio_driver(& virtio_rng_driver);
  }
  return;
}
}
struct virtio_device_id const __mod_virtio_device_table ;
extern void ldv_check_final_state(void) ;
extern void ldv_check_return_value(int ) ;
extern void ldv_initialize(void) ;
extern int __VERIFIER_nondet_int(void) ;
int LDV_IN_INTERRUPT ;
void main(void)
{ struct hwrng *var_group1 ;
  void *var_virtio_read_2_p1 ;
  size_t var_virtio_read_2_p2 ;
  bool var_virtio_read_2_p3 ;
  struct virtio_device *var_group2 ;
  int res_virtrng_probe_4 ;
  int ldv_s_virtio_rng_driver_virtio_driver ;
  int tmp ;
  int tmp___0 ;
  int tmp___1 ;
  int __cil_tmp11 ;
  bool __cil_tmp12 ;
  {
  {
  ldv_s_virtio_rng_driver_virtio_driver = 0;
  LDV_IN_INTERRUPT = 1;
  ldv_initialize();
  tmp = init();
  }
  if (tmp != 0) {
    goto ldv_final;
  } else {
  }
  goto ldv_18073;
  ldv_18072:
  {
  tmp___0 = __VERIFIER_nondet_int();
  }
  if (tmp___0 == 0) {
    goto case_0;
  } else
  if (tmp___0 == 1) {
    goto case_1;
  } else
  if (tmp___0 == 2) {
    goto case_2;
  } else {
    {
    goto switch_default;
    if (0) {
      case_0:
      {
      virtio_cleanup(var_group1);
      }
      goto ldv_18067;
      case_1:
      {
      __cil_tmp11 = (int )var_virtio_read_2_p3;
      __cil_tmp12 = (bool )__cil_tmp11;
      virtio_read(var_group1, var_virtio_read_2_p1, var_virtio_read_2_p2, __cil_tmp12);
      }
      goto ldv_18067;
      case_2: ;
      if (ldv_s_virtio_rng_driver_virtio_driver == 0) {
        {
        res_virtrng_probe_4 = virtrng_probe(var_group2);
        ldv_check_return_value(res_virtrng_probe_4);
        }
        if (res_virtrng_probe_4 != 0) {
          goto ldv_module_exit;
        } else {
        }
        ldv_s_virtio_rng_driver_virtio_driver = 0;
      } else {
      }
      goto ldv_18067;
      switch_default: ;
      goto ldv_18067;
    } else {
      switch_break: ;
    }
    }
  }
  ldv_18067: ;
  ldv_18073:
  {
  tmp___1 = __VERIFIER_nondet_int();
  }
  if (tmp___1 != 0) {
    goto ldv_18072;
  } else
  if (ldv_s_virtio_rng_driver_virtio_driver != 0) {
    goto ldv_18072;
  } else {
    goto ldv_18074;
  }
  ldv_18074: ;
  ldv_module_exit:
  {
  fini();
  }
  ldv_final:
  {
  ldv_check_final_state();
  }
  return;
}
}
void ldv_blast_assert(void)
{
  {
  ERROR: {reach_error();abort();}
}
}
extern int __VERIFIER_nondet_int(void) ;
int ldv_spin = 0;
void ldv_check_alloc_flags(gfp_t flags )
{
  {
  if (ldv_spin != 0) {
    if (flags != 32U) {
      {
      ldv_blast_assert();
      }
    } else {
    }
  } else {
  }
  return;
}
}
extern struct page *ldv_some_page(void) ;
struct page *ldv_check_alloc_flags_and_return_some_page(gfp_t flags )
{ struct page *tmp ;
  {
  if (ldv_spin != 0) {
    if (flags != 32U) {
      {
      ldv_blast_assert();
      }
    } else {
    }
  } else {
  }
  {
  tmp = ldv_some_page();
  }
  return (tmp);
}
}
void ldv_check_alloc_nonatomic(void)
{
  {
  if (ldv_spin != 0) {
    {
    ldv_blast_assert();
    }
  } else {
  }
  return;
}
}
void ldv_spin_lock(void)
{
  {
  ldv_spin = 1;
  return;
}
}
void ldv_spin_unlock(void)
{
  {
  ldv_spin = 0;
  return;
}
}
int ldv_spin_trylock(void)
{ int is_lock ;
  {
  {
  is_lock = __VERIFIER_nondet_int();
  }
  if (is_lock != 0) {
    return (0);
  } else {
    ldv_spin = 1;
    return (1);
  }
}
}
void *ldv_kmem_cache_alloc_16(struct kmem_cache *ldv_func_arg1 , gfp_t ldv_func_arg2 )
{
  {
  {
  ldv_check_alloc_flags(ldv_func_arg2);
  kmem_cache_alloc(ldv_func_arg1, ldv_func_arg2);
  }
  return ((void *)0);
}
}
void __init_waitqueue_head(wait_queue_head_t *arg0, const char *arg1, struct lock_class_key *arg2) {
  return;
}
void complete(struct completion *arg0) {
  return;
}
int __VERIFIER_nondet_int(void);
int hwrng_register(struct hwrng *arg0) {
  return __VERIFIER_nondet_int();
}
void hwrng_unregister(struct hwrng *arg0) {
  return;
}
extern _Bool __VERIFIER_nondet_bool(void) ;
extern void *malloc(size_t) ;
extern void abort(void);
void assume_abort_if_not(int cond) {
  if(!cond) {abort();}
}
void *ldv_malloc(size_t size )
{
  if(__VERIFIER_nondet_bool()) return 0;
  void *p = malloc(size);
  assume_abort_if_not(IS_ERR(p) == 0);
  return p;
}
void *kmem_cache_alloc(struct kmem_cache *arg0, gfp_t arg1) {
  return ldv_malloc(0UL);
}
void ldv_check_final_state() {
  return;
}
void ldv_check_return_value(int arg0) {
  return;
}
void ldv_initialize() {
  return;
}
struct page *ldv_some_page() {
  return ldv_malloc(sizeof(struct page));
}
int __VERIFIER_nondet_int(void);
int register_virtio_driver(struct virtio_driver *arg0) {
  return __VERIFIER_nondet_int();
}
void sg_init_one(struct scatterlist *arg0, const void *arg1, unsigned int arg2) {
  return;
}
void unregister_virtio_driver(struct virtio_driver *arg0) {
  return;
}
int __VERIFIER_nondet_int(void);
int virtqueue_add_buf(struct virtqueue *arg0, struct scatterlist *arg1, unsigned int arg2, unsigned int arg3, void *arg4, gfp_t arg5) {
  return __VERIFIER_nondet_int();
}
void *virtqueue_get_buf(struct virtqueue *arg0, unsigned int *arg1) {
  return ldv_malloc(0UL);
}
void virtqueue_kick(struct virtqueue *arg0) {
  return;
}
void wait_for_completion(struct completion *arg0) {
  return;
}
void free(void *);
void kfree(void const *p) {
  free((void *)p);
}
