extern void abort(void);

extern void __assert_fail (const char *__assertion, const char *__file,
      unsigned int __line, const char *__function)
     __attribute__ ((__nothrow__ , __leaf__)) __attribute__ ((__noreturn__));
extern void __assert_perror_fail (int __errnum, const char *__file,
      unsigned int __line, const char *__function)
     __attribute__ ((__nothrow__ , __leaf__)) __attribute__ ((__noreturn__));
extern void __assert (const char *__assertion, const char *__file, int __line)
     __attribute__ ((__nothrow__ , __leaf__)) __attribute__ ((__noreturn__));

void reach_error() { ((void) sizeof ((0) ? 1 : 0), __extension__ ({ if (0) ; else __assert_fail ("0", "linux-4.2-rc1.tar.xz-08_1a-drivers--iio--trigger--iio-trig-interrupt.ko-entry_point.cil.out.c", 3, __extension__ __PRETTY_FUNCTION__); })); }
typedef unsigned char __u8;
typedef unsigned short __u16;
typedef int __s32;
typedef unsigned int __u32;
typedef unsigned long long __u64;
typedef signed char s8;
typedef unsigned char u8;
typedef unsigned short u16;
typedef int s32;
typedef unsigned int u32;
typedef long long s64;
typedef unsigned long long u64;
typedef long __kernel_long_t;
typedef unsigned long __kernel_ulong_t;
typedef int __kernel_pid_t;
typedef unsigned int __kernel_uid32_t;
typedef unsigned int __kernel_gid32_t;
typedef __kernel_ulong_t __kernel_size_t;
typedef __kernel_long_t __kernel_ssize_t;
typedef long long __kernel_loff_t;
typedef __kernel_long_t __kernel_time_t;
typedef __kernel_long_t __kernel_clock_t;
typedef int __kernel_timer_t;
typedef int __kernel_clockid_t;
struct kernel_symbol {
   unsigned long value ;
   char const *name ;
};
struct module;
typedef __u32 __kernel_dev_t;
typedef __kernel_dev_t dev_t;
typedef unsigned short umode_t;
typedef __kernel_pid_t pid_t;
typedef __kernel_clockid_t clockid_t;
typedef _Bool bool;
typedef __kernel_uid32_t uid_t;
typedef __kernel_gid32_t gid_t;
typedef unsigned long uintptr_t;
typedef __kernel_loff_t loff_t;
typedef __kernel_size_t size_t;
typedef __kernel_ssize_t ssize_t;
typedef __kernel_time_t time_t;
typedef __s32 int32_t;
typedef __u32 uint32_t;
typedef unsigned int gfp_t;
typedef unsigned int oom_flags_t;
typedef u64 phys_addr_t;
typedef phys_addr_t resource_size_t;
struct __anonstruct_atomic_t_6 {
   int counter ;
};
typedef struct __anonstruct_atomic_t_6 atomic_t;
struct __anonstruct_atomic64_t_7 {
   long counter ;
};
typedef struct __anonstruct_atomic64_t_7 atomic64_t;
struct list_head {
   struct list_head *next ;
   struct list_head *prev ;
};
struct hlist_node;
struct hlist_head {
   struct hlist_node *first ;
};
struct hlist_node {
   struct hlist_node *next ;
   struct hlist_node **pprev ;
};
struct callback_head {
   struct callback_head *next ;
   void (*func)(struct callback_head * ) ;
};
struct pt_regs {
   unsigned long r15 ;
   unsigned long r14 ;
   unsigned long r13 ;
   unsigned long r12 ;
   unsigned long bp ;
   unsigned long bx ;
   unsigned long r11 ;
   unsigned long r10 ;
   unsigned long r9 ;
   unsigned long r8 ;
   unsigned long ax ;
   unsigned long cx ;
   unsigned long dx ;
   unsigned long si ;
   unsigned long di ;
   unsigned long orig_ax ;
   unsigned long ip ;
   unsigned long cs ;
   unsigned long flags ;
   unsigned long sp ;
   unsigned long ss ;
};
struct __anonstruct____missing_field_name_9 {
   unsigned int a ;
   unsigned int b ;
};
struct __anonstruct____missing_field_name_10 {
   u16 limit0 ;
   u16 base0 ;
   unsigned char base1 ;
   unsigned char type : 4 ;
   unsigned char s : 1 ;
   unsigned char dpl : 2 ;
   unsigned char p : 1 ;
   unsigned char limit : 4 ;
   unsigned char avl : 1 ;
   unsigned char l : 1 ;
   unsigned char d : 1 ;
   unsigned char g : 1 ;
   unsigned char base2 ;
};
union __anonunion____missing_field_name_8 {
   struct __anonstruct____missing_field_name_9 __annonCompField4 ;
   struct __anonstruct____missing_field_name_10 __annonCompField5 ;
};
struct desc_struct {
   union __anonunion____missing_field_name_8 __annonCompField6 ;
};
typedef unsigned long pgdval_t;
typedef unsigned long pgprotval_t;
struct pgprot {
   pgprotval_t pgprot ;
};
typedef struct pgprot pgprot_t;
struct __anonstruct_pgd_t_12 {
   pgdval_t pgd ;
};
typedef struct __anonstruct_pgd_t_12 pgd_t;
struct page;
typedef struct page *pgtable_t;
struct file;
struct seq_file;
struct thread_struct;
struct mm_struct;
struct task_struct;
struct cpumask;
struct qspinlock {
   atomic_t val ;
};
typedef struct qspinlock arch_spinlock_t;
typedef void (*ctor_fn_t)(void);
struct device;
struct file_operations;
struct completion;
struct bug_entry {
   int bug_addr_disp ;
   int file_disp ;
   unsigned short line ;
   unsigned short flags ;
};
struct timespec;
struct compat_timespec;
struct __anonstruct_futex_16 {
   u32 *uaddr ;
   u32 val ;
   u32 flags ;
   u32 bitset ;
   u64 time ;
   u32 *uaddr2 ;
};
struct __anonstruct_nanosleep_17 {
   clockid_t clockid ;
   struct timespec *rmtp ;
   struct compat_timespec *compat_rmtp ;
   u64 expires ;
};
struct pollfd;
struct __anonstruct_poll_18 {
   struct pollfd *ufds ;
   int nfds ;
   int has_timeout ;
   unsigned long tv_sec ;
   unsigned long tv_nsec ;
};
union __anonunion____missing_field_name_15 {
   struct __anonstruct_futex_16 futex ;
   struct __anonstruct_nanosleep_17 nanosleep ;
   struct __anonstruct_poll_18 poll ;
};
struct restart_block {
   long (*fn)(struct restart_block * ) ;
   union __anonunion____missing_field_name_15 __annonCompField7 ;
};
struct kernel_vm86_regs {
   struct pt_regs pt ;
   unsigned short es ;
   unsigned short __esh ;
   unsigned short ds ;
   unsigned short __dsh ;
   unsigned short fs ;
   unsigned short __fsh ;
   unsigned short gs ;
   unsigned short __gsh ;
};
union __anonunion____missing_field_name_19 {
   struct pt_regs *regs ;
   struct kernel_vm86_regs *vm86 ;
};
struct math_emu_info {
   long ___orig_eip ;
   union __anonunion____missing_field_name_19 __annonCompField8 ;
};
struct cpumask {
   unsigned long bits[128U] ;
};
typedef struct cpumask cpumask_t;
typedef struct cpumask *cpumask_var_t;
struct fregs_state {
   u32 cwd ;
   u32 swd ;
   u32 twd ;
   u32 fip ;
   u32 fcs ;
   u32 foo ;
   u32 fos ;
   u32 st_space[20U] ;
   u32 status ;
};
struct __anonstruct____missing_field_name_29 {
   u64 rip ;
   u64 rdp ;
};
struct __anonstruct____missing_field_name_30 {
   u32 fip ;
   u32 fcs ;
   u32 foo ;
   u32 fos ;
};
union __anonunion____missing_field_name_28 {
   struct __anonstruct____missing_field_name_29 __annonCompField12 ;
   struct __anonstruct____missing_field_name_30 __annonCompField13 ;
};
union __anonunion____missing_field_name_31 {
   u32 padding1[12U] ;
   u32 sw_reserved[12U] ;
};
struct fxregs_state {
   u16 cwd ;
   u16 swd ;
   u16 twd ;
   u16 fop ;
   union __anonunion____missing_field_name_28 __annonCompField14 ;
   u32 mxcsr ;
   u32 mxcsr_mask ;
   u32 st_space[32U] ;
   u32 xmm_space[64U] ;
   u32 padding[12U] ;
   union __anonunion____missing_field_name_31 __annonCompField15 ;
};
struct swregs_state {
   u32 cwd ;
   u32 swd ;
   u32 twd ;
   u32 fip ;
   u32 fcs ;
   u32 foo ;
   u32 fos ;
   u32 st_space[20U] ;
   u8 ftop ;
   u8 changed ;
   u8 lookahead ;
   u8 no_update ;
   u8 rm ;
   u8 alimit ;
   struct math_emu_info *info ;
   u32 entry_eip ;
};
struct xstate_header {
   u64 xfeatures ;
   u64 xcomp_bv ;
   u64 reserved[6U] ;
};
struct xregs_state {
   struct fxregs_state i387 ;
   struct xstate_header header ;
   u8 __reserved[464U] ;
};
union fpregs_state {
   struct fregs_state fsave ;
   struct fxregs_state fxsave ;
   struct swregs_state soft ;
   struct xregs_state xsave ;
};
struct fpu {
   union fpregs_state state ;
   unsigned int last_cpu ;
   unsigned char fpstate_active ;
   unsigned char fpregs_active ;
   unsigned char counter ;
};
struct seq_operations;
struct perf_event;
struct thread_struct {
   struct desc_struct tls_array[3U] ;
   unsigned long sp0 ;
   unsigned long sp ;
   unsigned short es ;
   unsigned short ds ;
   unsigned short fsindex ;
   unsigned short gsindex ;
   unsigned long fs ;
   unsigned long gs ;
   struct fpu fpu ;
   struct perf_event *ptrace_bps[4U] ;
   unsigned long debugreg6 ;
   unsigned long ptrace_dr7 ;
   unsigned long cr2 ;
   unsigned long trap_nr ;
   unsigned long error_code ;
   unsigned long *io_bitmap_ptr ;
   unsigned long iopl ;
   unsigned int io_bitmap_max ;
};
typedef atomic64_t atomic_long_t;
struct lockdep_map;
struct stack_trace {
   unsigned int nr_entries ;
   unsigned int max_entries ;
   unsigned long *entries ;
   int skip ;
};
struct lockdep_subclass_key {
   char __one_byte ;
};
struct lock_class_key {
   struct lockdep_subclass_key subkeys[8U] ;
};
struct lock_class {
   struct list_head hash_entry ;
   struct list_head lock_entry ;
   struct lockdep_subclass_key *key ;
   unsigned int subclass ;
   unsigned int dep_gen_id ;
   unsigned long usage_mask ;
   struct stack_trace usage_traces[13U] ;
   struct list_head locks_after ;
   struct list_head locks_before ;
   unsigned int version ;
   unsigned long ops ;
   char const *name ;
   int name_version ;
   unsigned long contention_point[4U] ;
   unsigned long contending_point[4U] ;
};
struct lockdep_map {
   struct lock_class_key *key ;
   struct lock_class *class_cache[2U] ;
   char const *name ;
   int cpu ;
   unsigned long ip ;
};
struct held_lock {
   u64 prev_chain_key ;
   unsigned long acquire_ip ;
   struct lockdep_map *instance ;
   struct lockdep_map *nest_lock ;
   u64 waittime_stamp ;
   u64 holdtime_stamp ;
   unsigned short class_idx : 13 ;
   unsigned char irq_context : 2 ;
   unsigned char trylock : 1 ;
   unsigned char read : 2 ;
   unsigned char check : 1 ;
   unsigned char hardirqs_off : 1 ;
   unsigned short references : 12 ;
   unsigned int pin_count ;
};
struct raw_spinlock {
   arch_spinlock_t raw_lock ;
   unsigned int magic ;
   unsigned int owner_cpu ;
   void *owner ;
   struct lockdep_map dep_map ;
};
typedef struct raw_spinlock raw_spinlock_t;
struct __anonstruct____missing_field_name_35 {
   u8 __padding[24U] ;
   struct lockdep_map dep_map ;
};
union __anonunion____missing_field_name_34 {
   struct raw_spinlock rlock ;
   struct __anonstruct____missing_field_name_35 __annonCompField17 ;
};
struct spinlock {
   union __anonunion____missing_field_name_34 __annonCompField18 ;
};
typedef struct spinlock spinlock_t;
struct seqcount {
   unsigned int sequence ;
   struct lockdep_map dep_map ;
};
typedef struct seqcount seqcount_t;
struct __anonstruct_seqlock_t_45 {
   struct seqcount seqcount ;
   spinlock_t lock ;
};
typedef struct __anonstruct_seqlock_t_45 seqlock_t;
struct timespec {
   __kernel_time_t tv_sec ;
   long tv_nsec ;
};
struct user_namespace;
struct __anonstruct_kuid_t_46 {
   uid_t val ;
};
typedef struct __anonstruct_kuid_t_46 kuid_t;
struct __anonstruct_kgid_t_47 {
   gid_t val ;
};
typedef struct __anonstruct_kgid_t_47 kgid_t;
struct vm_area_struct;
struct __wait_queue_head {
   spinlock_t lock ;
   struct list_head task_list ;
};
typedef struct __wait_queue_head wait_queue_head_t;
struct __anonstruct_nodemask_t_48 {
   unsigned long bits[16U] ;
};
typedef struct __anonstruct_nodemask_t_48 nodemask_t;
struct optimistic_spin_queue {
   atomic_t tail ;
};
struct mutex {
   atomic_t count ;
   spinlock_t wait_lock ;
   struct list_head wait_list ;
   struct task_struct *owner ;
   void *magic ;
   struct lockdep_map dep_map ;
};
struct mutex_waiter {
   struct list_head list ;
   struct task_struct *task ;
   void *magic ;
};
struct rw_semaphore;
struct rw_semaphore {
   long count ;
   struct list_head wait_list ;
   raw_spinlock_t wait_lock ;
   struct optimistic_spin_queue osq ;
   struct task_struct *owner ;
   struct lockdep_map dep_map ;
};
struct completion {
   unsigned int done ;
   wait_queue_head_t wait ;
};
union ktime {
   s64 tv64 ;
};
typedef union ktime ktime_t;
struct timer_list {
   struct hlist_node entry ;
   unsigned long expires ;
   void (*function)(unsigned long ) ;
   unsigned long data ;
   u32 flags ;
   int slack ;
   int start_pid ;
   void *start_site ;
   char start_comm[16U] ;
   struct lockdep_map lockdep_map ;
};
struct hrtimer;
enum hrtimer_restart;
struct rb_node {
   unsigned long __rb_parent_color ;
   struct rb_node *rb_right ;
   struct rb_node *rb_left ;
};
struct rb_root {
   struct rb_node *rb_node ;
};
struct nsproxy;
struct workqueue_struct;
struct work_struct;
struct work_struct {
   atomic_long_t data ;
   struct list_head entry ;
   void (*func)(struct work_struct * ) ;
   struct lockdep_map lockdep_map ;
};
struct delayed_work {
   struct work_struct work ;
   struct timer_list timer ;
   struct workqueue_struct *wq ;
   int cpu ;
};
struct resource {
   resource_size_t start ;
   resource_size_t end ;
   char const *name ;
   unsigned long flags ;
   struct resource *parent ;
   struct resource *sibling ;
   struct resource *child ;
};
struct pm_message {
   int event ;
};
typedef struct pm_message pm_message_t;
struct dev_pm_ops {
   int (*prepare)(struct device * ) ;
   void (*complete)(struct device * ) ;
   int (*suspend)(struct device * ) ;
   int (*resume)(struct device * ) ;
   int (*freeze)(struct device * ) ;
   int (*thaw)(struct device * ) ;
   int (*poweroff)(struct device * ) ;
   int (*restore)(struct device * ) ;
   int (*suspend_late)(struct device * ) ;
   int (*resume_early)(struct device * ) ;
   int (*freeze_late)(struct device * ) ;
   int (*thaw_early)(struct device * ) ;
   int (*poweroff_late)(struct device * ) ;
   int (*restore_early)(struct device * ) ;
   int (*suspend_noirq)(struct device * ) ;
   int (*resume_noirq)(struct device * ) ;
   int (*freeze_noirq)(struct device * ) ;
   int (*thaw_noirq)(struct device * ) ;
   int (*poweroff_noirq)(struct device * ) ;
   int (*restore_noirq)(struct device * ) ;
   int (*runtime_suspend)(struct device * ) ;
   int (*runtime_resume)(struct device * ) ;
   int (*runtime_idle)(struct device * ) ;
};
enum rpm_status {
    RPM_ACTIVE = 0,
    RPM_RESUMING = 1,
    RPM_SUSPENDED = 2,
    RPM_SUSPENDING = 3
} ;
enum rpm_request {
    RPM_REQ_NONE = 0,
    RPM_REQ_IDLE = 1,
    RPM_REQ_SUSPEND = 2,
    RPM_REQ_AUTOSUSPEND = 3,
    RPM_REQ_RESUME = 4
} ;
struct wakeup_source;
struct wake_irq;
struct pm_subsys_data {
   spinlock_t lock ;
   unsigned int refcount ;
   struct list_head clock_list ;
};
struct dev_pm_qos;
struct dev_pm_info {
   pm_message_t power_state ;
   unsigned char can_wakeup : 1 ;
   unsigned char async_suspend : 1 ;
   bool is_prepared ;
   bool is_suspended ;
   bool is_noirq_suspended ;
   bool is_late_suspended ;
   bool ignore_children ;
   bool early_init ;
   bool direct_complete ;
   spinlock_t lock ;
   struct list_head entry ;
   struct completion completion ;
   struct wakeup_source *wakeup ;
   bool wakeup_path ;
   bool syscore ;
   struct timer_list suspend_timer ;
   unsigned long timer_expires ;
   struct work_struct work ;
   wait_queue_head_t wait_queue ;
   struct wake_irq *wakeirq ;
   atomic_t usage_count ;
   atomic_t child_count ;
   unsigned char disable_depth : 3 ;
   unsigned char idle_notification : 1 ;
   unsigned char request_pending : 1 ;
   unsigned char deferred_resume : 1 ;
   unsigned char run_wake : 1 ;
   unsigned char runtime_auto : 1 ;
   unsigned char no_callbacks : 1 ;
   unsigned char irq_safe : 1 ;
   unsigned char use_autosuspend : 1 ;
   unsigned char timer_autosuspends : 1 ;
   unsigned char memalloc_noio : 1 ;
   enum rpm_request request ;
   enum rpm_status runtime_status ;
   int runtime_error ;
   int autosuspend_delay ;
   unsigned long last_busy ;
   unsigned long active_jiffies ;
   unsigned long suspended_jiffies ;
   unsigned long accounting_timestamp ;
   struct pm_subsys_data *subsys_data ;
   void (*set_latency_tolerance)(struct device * , s32 ) ;
   struct dev_pm_qos *qos ;
};
struct dev_pm_domain {
   struct dev_pm_ops ops ;
   void (*detach)(struct device * , bool ) ;
   int (*activate)(struct device * ) ;
   void (*sync)(struct device * ) ;
   void (*dismiss)(struct device * ) ;
};
struct __anonstruct_mm_context_t_115 {
   void *ldt ;
   int size ;
   unsigned short ia32_compat ;
   struct mutex lock ;
   void *vdso ;
   atomic_t perf_rdpmc_allowed ;
};
typedef struct __anonstruct_mm_context_t_115 mm_context_t;
struct llist_node;
struct llist_node {
   struct llist_node *next ;
};
struct cred;
struct arch_uprobe_task {
   unsigned long saved_scratch_register ;
   unsigned int saved_trap_nr ;
   unsigned int saved_tf ;
};
enum uprobe_task_state {
    UTASK_RUNNING = 0,
    UTASK_SSTEP = 1,
    UTASK_SSTEP_ACK = 2,
    UTASK_SSTEP_TRAPPED = 3
} ;
struct __anonstruct____missing_field_name_148 {
   struct arch_uprobe_task autask ;
   unsigned long vaddr ;
};
struct __anonstruct____missing_field_name_149 {
   struct callback_head dup_xol_work ;
   unsigned long dup_xol_addr ;
};
union __anonunion____missing_field_name_147 {
   struct __anonstruct____missing_field_name_148 __annonCompField33 ;
   struct __anonstruct____missing_field_name_149 __annonCompField34 ;
};
struct uprobe;
struct return_instance;
struct uprobe_task {
   enum uprobe_task_state state ;
   union __anonunion____missing_field_name_147 __annonCompField35 ;
   struct uprobe *active_uprobe ;
   unsigned long xol_vaddr ;
   struct return_instance *return_instances ;
   unsigned int depth ;
};
struct xol_area;
struct uprobes_state {
   struct xol_area *xol_area ;
};
struct address_space;
struct mem_cgroup;
typedef void compound_page_dtor(struct page * );
union __anonunion____missing_field_name_150 {
   struct address_space *mapping ;
   void *s_mem ;
};
union __anonunion____missing_field_name_152 {
   unsigned long index ;
   void *freelist ;
   bool pfmemalloc ;
};
struct __anonstruct____missing_field_name_156 {
   unsigned short inuse ;
   unsigned short objects : 15 ;
   unsigned char frozen : 1 ;
};
union __anonunion____missing_field_name_155 {
   atomic_t _mapcount ;
   struct __anonstruct____missing_field_name_156 __annonCompField38 ;
   int units ;
};
struct __anonstruct____missing_field_name_154 {
   union __anonunion____missing_field_name_155 __annonCompField39 ;
   atomic_t _count ;
};
union __anonunion____missing_field_name_153 {
   unsigned long counters ;
   struct __anonstruct____missing_field_name_154 __annonCompField40 ;
   unsigned int active ;
};
struct __anonstruct____missing_field_name_151 {
   union __anonunion____missing_field_name_152 __annonCompField37 ;
   union __anonunion____missing_field_name_153 __annonCompField41 ;
};
struct __anonstruct____missing_field_name_158 {
   struct page *next ;
   int pages ;
   int pobjects ;
};
struct slab;
struct __anonstruct____missing_field_name_159 {
   compound_page_dtor *compound_dtor ;
   unsigned long compound_order ;
};
union __anonunion____missing_field_name_157 {
   struct list_head lru ;
   struct __anonstruct____missing_field_name_158 __annonCompField43 ;
   struct slab *slab_page ;
   struct callback_head callback_head ;
   struct __anonstruct____missing_field_name_159 __annonCompField44 ;
   pgtable_t pmd_huge_pte ;
};
struct kmem_cache;
union __anonunion____missing_field_name_160 {
   unsigned long private ;
   spinlock_t *ptl ;
   struct kmem_cache *slab_cache ;
   struct page *first_page ;
};
struct page {
   unsigned long flags ;
   union __anonunion____missing_field_name_150 __annonCompField36 ;
   struct __anonstruct____missing_field_name_151 __annonCompField42 ;
   union __anonunion____missing_field_name_157 __annonCompField45 ;
   union __anonunion____missing_field_name_160 __annonCompField46 ;
   struct mem_cgroup *mem_cgroup ;
};
struct page_frag {
   struct page *page ;
   __u32 offset ;
   __u32 size ;
};
struct __anonstruct_shared_161 {
   struct rb_node rb ;
   unsigned long rb_subtree_last ;
};
struct anon_vma;
struct vm_operations_struct;
struct mempolicy;
struct vm_area_struct {
   unsigned long vm_start ;
   unsigned long vm_end ;
   struct vm_area_struct *vm_next ;
   struct vm_area_struct *vm_prev ;
   struct rb_node vm_rb ;
   unsigned long rb_subtree_gap ;
   struct mm_struct *vm_mm ;
   pgprot_t vm_page_prot ;
   unsigned long vm_flags ;
   struct __anonstruct_shared_161 shared ;
   struct list_head anon_vma_chain ;
   struct anon_vma *anon_vma ;
   struct vm_operations_struct const *vm_ops ;
   unsigned long vm_pgoff ;
   struct file *vm_file ;
   void *vm_private_data ;
   struct mempolicy *vm_policy ;
};
struct core_thread {
   struct task_struct *task ;
   struct core_thread *next ;
};
struct core_state {
   atomic_t nr_threads ;
   struct core_thread dumper ;
   struct completion startup ;
};
struct task_rss_stat {
   int events ;
   int count[3U] ;
};
struct mm_rss_stat {
   atomic_long_t count[3U] ;
};
struct kioctx_table;
struct linux_binfmt;
struct mmu_notifier_mm;
struct mm_struct {
   struct vm_area_struct *mmap ;
   struct rb_root mm_rb ;
   u32 vmacache_seqnum ;
   unsigned long (*get_unmapped_area)(struct file * , unsigned long , unsigned long ,
                                      unsigned long , unsigned long ) ;
   unsigned long mmap_base ;
   unsigned long mmap_legacy_base ;
   unsigned long task_size ;
   unsigned long highest_vm_end ;
   pgd_t *pgd ;
   atomic_t mm_users ;
   atomic_t mm_count ;
   atomic_long_t nr_ptes ;
   atomic_long_t nr_pmds ;
   int map_count ;
   spinlock_t page_table_lock ;
   struct rw_semaphore mmap_sem ;
   struct list_head mmlist ;
   unsigned long hiwater_rss ;
   unsigned long hiwater_vm ;
   unsigned long total_vm ;
   unsigned long locked_vm ;
   unsigned long pinned_vm ;
   unsigned long shared_vm ;
   unsigned long exec_vm ;
   unsigned long stack_vm ;
   unsigned long def_flags ;
   unsigned long start_code ;
   unsigned long end_code ;
   unsigned long start_data ;
   unsigned long end_data ;
   unsigned long start_brk ;
   unsigned long brk ;
   unsigned long start_stack ;
   unsigned long arg_start ;
   unsigned long arg_end ;
   unsigned long env_start ;
   unsigned long env_end ;
   unsigned long saved_auxv[46U] ;
   struct mm_rss_stat rss_stat ;
   struct linux_binfmt *binfmt ;
   cpumask_var_t cpu_vm_mask_var ;
   mm_context_t context ;
   unsigned long flags ;
   struct core_state *core_state ;
   spinlock_t ioctx_lock ;
   struct kioctx_table *ioctx_table ;
   struct task_struct *owner ;
   struct file *exe_file ;
   struct mmu_notifier_mm *mmu_notifier_mm ;
   struct cpumask cpumask_allocation ;
   unsigned long numa_next_scan ;
   unsigned long numa_scan_offset ;
   int numa_scan_seq ;
   bool tlb_flush_pending ;
   struct uprobes_state uprobes_state ;
   void *bd_addr ;
};
typedef __u64 Elf64_Addr;
typedef __u16 Elf64_Half;
typedef __u32 Elf64_Word;
typedef __u64 Elf64_Xword;
struct elf64_sym {
   Elf64_Word st_name ;
   unsigned char st_info ;
   unsigned char st_other ;
   Elf64_Half st_shndx ;
   Elf64_Addr st_value ;
   Elf64_Xword st_size ;
};
typedef struct elf64_sym Elf64_Sym;
union __anonunion____missing_field_name_166 {
   unsigned long bitmap[4U] ;
   struct callback_head callback_head ;
};
struct idr_layer {
   int prefix ;
   int layer ;
   struct idr_layer *ary[256U] ;
   int count ;
   union __anonunion____missing_field_name_166 __annonCompField47 ;
};
struct idr {
   struct idr_layer *hint ;
   struct idr_layer *top ;
   int layers ;
   int cur ;
   spinlock_t lock ;
   int id_free_cnt ;
   struct idr_layer *id_free ;
};
struct ida_bitmap {
   long nr_busy ;
   unsigned long bitmap[15U] ;
};
struct ida {
   struct idr idr ;
   struct ida_bitmap *free_bitmap ;
};
struct dentry;
struct kernfs_open_node;
struct kernfs_iattrs;
struct kernfs_root;
struct kernfs_elem_dir {
   unsigned long subdirs ;
   struct rb_root children ;
   struct kernfs_root *root ;
};
struct kernfs_node;
struct kernfs_elem_symlink {
   struct kernfs_node *target_kn ;
};
struct kernfs_ops;
struct kernfs_elem_attr {
   struct kernfs_ops const *ops ;
   struct kernfs_open_node *open ;
   loff_t size ;
   struct kernfs_node *notify_next ;
};
union __anonunion____missing_field_name_171 {
   struct kernfs_elem_dir dir ;
   struct kernfs_elem_symlink symlink ;
   struct kernfs_elem_attr attr ;
};
struct kernfs_node {
   atomic_t count ;
   atomic_t active ;
   struct lockdep_map dep_map ;
   struct kernfs_node *parent ;
   char const *name ;
   struct rb_node rb ;
   void const *ns ;
   unsigned int hash ;
   union __anonunion____missing_field_name_171 __annonCompField48 ;
   void *priv ;
   unsigned short flags ;
   umode_t mode ;
   unsigned int ino ;
   struct kernfs_iattrs *iattr ;
};
struct kernfs_syscall_ops {
   int (*remount_fs)(struct kernfs_root * , int * , char * ) ;
   int (*show_options)(struct seq_file * , struct kernfs_root * ) ;
   int (*mkdir)(struct kernfs_node * , char const * , umode_t ) ;
   int (*rmdir)(struct kernfs_node * ) ;
   int (*rename)(struct kernfs_node * , struct kernfs_node * , char const * ) ;
};
struct kernfs_root {
   struct kernfs_node *kn ;
   unsigned int flags ;
   struct ida ino_ida ;
   struct kernfs_syscall_ops *syscall_ops ;
   struct list_head supers ;
   wait_queue_head_t deactivate_waitq ;
};
struct kernfs_open_file {
   struct kernfs_node *kn ;
   struct file *file ;
   void *priv ;
   struct mutex mutex ;
   int event ;
   struct list_head list ;
   char *prealloc_buf ;
   size_t atomic_write_len ;
   bool mmapped ;
   struct vm_operations_struct const *vm_ops ;
};
struct kernfs_ops {
   int (*seq_show)(struct seq_file * , void * ) ;
   void *(*seq_start)(struct seq_file * , loff_t * ) ;
   void *(*seq_next)(struct seq_file * , void * , loff_t * ) ;
   void (*seq_stop)(struct seq_file * , void * ) ;
   ssize_t (*read)(struct kernfs_open_file * , char * , size_t , loff_t ) ;
   size_t atomic_write_len ;
   bool prealloc ;
   ssize_t (*write)(struct kernfs_open_file * , char * , size_t , loff_t ) ;
   int (*mmap)(struct kernfs_open_file * , struct vm_area_struct * ) ;
   struct lock_class_key lockdep_key ;
};
struct sock;
struct kobject;
enum kobj_ns_type {
    KOBJ_NS_TYPE_NONE = 0,
    KOBJ_NS_TYPE_NET = 1,
    KOBJ_NS_TYPES = 2
} ;
struct kobj_ns_type_operations {
   enum kobj_ns_type type ;
   bool (*current_may_mount)(void) ;
   void *(*grab_current_ns)(void) ;
   void const *(*netlink_ns)(struct sock * ) ;
   void const *(*initial_ns)(void) ;
   void (*drop_ns)(void * ) ;
};
struct bin_attribute;
struct attribute {
   char const *name ;
   umode_t mode ;
   bool ignore_lockdep ;
   struct lock_class_key *key ;
   struct lock_class_key skey ;
};
struct attribute_group {
   char const *name ;
   umode_t (*is_visible)(struct kobject * , struct attribute * , int ) ;
   struct attribute **attrs ;
   struct bin_attribute **bin_attrs ;
};
struct bin_attribute {
   struct attribute attr ;
   size_t size ;
   void *private ;
   ssize_t (*read)(struct file * , struct kobject * , struct bin_attribute * , char * ,
                   loff_t , size_t ) ;
   ssize_t (*write)(struct file * , struct kobject * , struct bin_attribute * , char * ,
                    loff_t , size_t ) ;
   int (*mmap)(struct file * , struct kobject * , struct bin_attribute * , struct vm_area_struct * ) ;
};
struct sysfs_ops {
   ssize_t (*show)(struct kobject * , struct attribute * , char * ) ;
   ssize_t (*store)(struct kobject * , struct attribute * , char const * , size_t ) ;
};
struct kref {
   atomic_t refcount ;
};
struct kset;
struct kobj_type;
struct kobject {
   char const *name ;
   struct list_head entry ;
   struct kobject *parent ;
   struct kset *kset ;
   struct kobj_type *ktype ;
   struct kernfs_node *sd ;
   struct kref kref ;
   struct delayed_work release ;
   unsigned char state_initialized : 1 ;
   unsigned char state_in_sysfs : 1 ;
   unsigned char state_add_uevent_sent : 1 ;
   unsigned char state_remove_uevent_sent : 1 ;
   unsigned char uevent_suppress : 1 ;
};
struct kobj_type {
   void (*release)(struct kobject * ) ;
   struct sysfs_ops const *sysfs_ops ;
   struct attribute **default_attrs ;
   struct kobj_ns_type_operations const *(*child_ns_type)(struct kobject * ) ;
   void const *(*namespace)(struct kobject * ) ;
};
struct kobj_uevent_env {
   char *argv[3U] ;
   char *envp[32U] ;
   int envp_idx ;
   char buf[2048U] ;
   int buflen ;
};
struct kset_uevent_ops {
   int (* const filter)(struct kset * , struct kobject * ) ;
   char const *(* const name)(struct kset * , struct kobject * ) ;
   int (* const uevent)(struct kset * , struct kobject * , struct kobj_uevent_env * ) ;
};
struct kset {
   struct list_head list ;
   spinlock_t list_lock ;
   struct kobject kobj ;
   struct kset_uevent_ops const *uevent_ops ;
};
struct kernel_param;
struct kernel_param_ops {
   unsigned int flags ;
   int (*set)(char const * , struct kernel_param const * ) ;
   int (*get)(char * , struct kernel_param const * ) ;
   void (*free)(void * ) ;
};
struct kparam_string;
struct kparam_array;
union __anonunion____missing_field_name_172 {
   void *arg ;
   struct kparam_string const *str ;
   struct kparam_array const *arr ;
};
struct kernel_param {
   char const *name ;
   struct module *mod ;
   struct kernel_param_ops const *ops ;
   u16 const perm ;
   s8 level ;
   u8 flags ;
   union __anonunion____missing_field_name_172 __annonCompField49 ;
};
struct kparam_string {
   unsigned int maxlen ;
   char *string ;
};
struct kparam_array {
   unsigned int max ;
   unsigned int elemsize ;
   unsigned int *num ;
   struct kernel_param_ops const *ops ;
   void *elem ;
};
struct latch_tree_node {
   struct rb_node node[2U] ;
};
struct mod_arch_specific {
};
struct module_param_attrs;
struct module_kobject {
   struct kobject kobj ;
   struct module *mod ;
   struct kobject *drivers_dir ;
   struct module_param_attrs *mp ;
   struct completion *kobj_completion ;
};
struct module_attribute {
   struct attribute attr ;
   ssize_t (*show)(struct module_attribute * , struct module_kobject * , char * ) ;
   ssize_t (*store)(struct module_attribute * , struct module_kobject * , char const * ,
                    size_t ) ;
   void (*setup)(struct module * , char const * ) ;
   int (*test)(struct module * ) ;
   void (*free)(struct module * ) ;
};
struct exception_table_entry;
enum module_state {
    MODULE_STATE_LIVE = 0,
    MODULE_STATE_COMING = 1,
    MODULE_STATE_GOING = 2,
    MODULE_STATE_UNFORMED = 3
} ;
struct mod_tree_node {
   struct module *mod ;
   struct latch_tree_node node ;
};
struct module_sect_attrs;
struct module_notes_attrs;
struct tracepoint;
struct trace_event_call;
struct trace_enum_map;
struct module {
   enum module_state state ;
   struct list_head list ;
   char name[56U] ;
   struct module_kobject mkobj ;
   struct module_attribute *modinfo_attrs ;
   char const *version ;
   char const *srcversion ;
   struct kobject *holders_dir ;
   struct kernel_symbol const *syms ;
   unsigned long const *crcs ;
   unsigned int num_syms ;
   struct mutex param_lock ;
   struct kernel_param *kp ;
   unsigned int num_kp ;
   unsigned int num_gpl_syms ;
   struct kernel_symbol const *gpl_syms ;
   unsigned long const *gpl_crcs ;
   struct kernel_symbol const *unused_syms ;
   unsigned long const *unused_crcs ;
   unsigned int num_unused_syms ;
   unsigned int num_unused_gpl_syms ;
   struct kernel_symbol const *unused_gpl_syms ;
   unsigned long const *unused_gpl_crcs ;
   bool sig_ok ;
   bool async_probe_requested ;
   struct kernel_symbol const *gpl_future_syms ;
   unsigned long const *gpl_future_crcs ;
   unsigned int num_gpl_future_syms ;
   unsigned int num_exentries ;
   struct exception_table_entry *extable ;
   int (*init)(void) ;
   void *module_init ;
   void *module_core ;
   unsigned int init_size ;
   unsigned int core_size ;
   unsigned int init_text_size ;
   unsigned int core_text_size ;
   struct mod_tree_node mtn_core ;
   struct mod_tree_node mtn_init ;
   unsigned int init_ro_size ;
   unsigned int core_ro_size ;
   struct mod_arch_specific arch ;
   unsigned int taints ;
   unsigned int num_bugs ;
   struct list_head bug_list ;
   struct bug_entry *bug_table ;
   Elf64_Sym *symtab ;
   Elf64_Sym *core_symtab ;
   unsigned int num_symtab ;
   unsigned int core_num_syms ;
   char *strtab ;
   char *core_strtab ;
   struct module_sect_attrs *sect_attrs ;
   struct module_notes_attrs *notes_attrs ;
   char *args ;
   void *percpu ;
   unsigned int percpu_size ;
   unsigned int num_tracepoints ;
   struct tracepoint * const *tracepoints_ptrs ;
   unsigned int num_trace_bprintk_fmt ;
   char const **trace_bprintk_fmt_start ;
   struct trace_event_call **trace_events ;
   unsigned int num_trace_events ;
   struct trace_enum_map **trace_enums ;
   unsigned int num_trace_enums ;
   unsigned int num_ftrace_callsites ;
   unsigned long *ftrace_callsites ;
   bool klp_alive ;
   struct list_head source_list ;
   struct list_head target_list ;
   void (*exit)(void) ;
   atomic_t refcnt ;
   ctor_fn_t (**ctors)(void) ;
   unsigned int num_ctors ;
};
struct kernel_cap_struct {
   __u32 cap[2U] ;
};
typedef struct kernel_cap_struct kernel_cap_t;
struct plist_node {
   int prio ;
   struct list_head prio_list ;
   struct list_head node_list ;
};
typedef unsigned long cputime_t;
struct sem_undo_list;
struct sysv_sem {
   struct sem_undo_list *undo_list ;
};
struct user_struct;
struct sysv_shm {
   struct list_head shm_clist ;
};
struct __anonstruct_sigset_t_180 {
   unsigned long sig[1U] ;
};
typedef struct __anonstruct_sigset_t_180 sigset_t;
struct siginfo;
typedef void __signalfn_t(int );
typedef __signalfn_t *__sighandler_t;
typedef void __restorefn_t(void);
typedef __restorefn_t *__sigrestore_t;
union sigval {
   int sival_int ;
   void *sival_ptr ;
};
typedef union sigval sigval_t;
struct __anonstruct__kill_182 {
   __kernel_pid_t _pid ;
   __kernel_uid32_t _uid ;
};
struct __anonstruct__timer_183 {
   __kernel_timer_t _tid ;
   int _overrun ;
   char _pad[0U] ;
   sigval_t _sigval ;
   int _sys_private ;
};
struct __anonstruct__rt_184 {
   __kernel_pid_t _pid ;
   __kernel_uid32_t _uid ;
   sigval_t _sigval ;
};
struct __anonstruct__sigchld_185 {
   __kernel_pid_t _pid ;
   __kernel_uid32_t _uid ;
   int _status ;
   __kernel_clock_t _utime ;
   __kernel_clock_t _stime ;
};
struct __anonstruct__addr_bnd_187 {
   void *_lower ;
   void *_upper ;
};
struct __anonstruct__sigfault_186 {
   void *_addr ;
   short _addr_lsb ;
   struct __anonstruct__addr_bnd_187 _addr_bnd ;
};
struct __anonstruct__sigpoll_188 {
   long _band ;
   int _fd ;
};
struct __anonstruct__sigsys_189 {
   void *_call_addr ;
   int _syscall ;
   unsigned int _arch ;
};
union __anonunion__sifields_181 {
   int _pad[28U] ;
   struct __anonstruct__kill_182 _kill ;
   struct __anonstruct__timer_183 _timer ;
   struct __anonstruct__rt_184 _rt ;
   struct __anonstruct__sigchld_185 _sigchld ;
   struct __anonstruct__sigfault_186 _sigfault ;
   struct __anonstruct__sigpoll_188 _sigpoll ;
   struct __anonstruct__sigsys_189 _sigsys ;
};
struct siginfo {
   int si_signo ;
   int si_errno ;
   int si_code ;
   union __anonunion__sifields_181 _sifields ;
};
typedef struct siginfo siginfo_t;
struct sigpending {
   struct list_head list ;
   sigset_t signal ;
};
struct sigaction {
   __sighandler_t sa_handler ;
   unsigned long sa_flags ;
   __sigrestore_t sa_restorer ;
   sigset_t sa_mask ;
};
struct k_sigaction {
   struct sigaction sa ;
};
struct pid_namespace;
struct upid {
   int nr ;
   struct pid_namespace *ns ;
   struct hlist_node pid_chain ;
};
struct pid {
   atomic_t count ;
   unsigned int level ;
   struct hlist_head tasks[3U] ;
   struct callback_head rcu ;
   struct upid numbers[1U] ;
};
struct pid_link {
   struct hlist_node node ;
   struct pid *pid ;
};
struct seccomp_filter;
struct seccomp {
   int mode ;
   struct seccomp_filter *filter ;
};
struct rt_mutex_waiter;
struct rlimit {
   __kernel_ulong_t rlim_cur ;
   __kernel_ulong_t rlim_max ;
};
struct timerqueue_node {
   struct rb_node node ;
   ktime_t expires ;
};
struct timerqueue_head {
   struct rb_root head ;
   struct timerqueue_node *next ;
};
struct hrtimer_clock_base;
struct hrtimer_cpu_base;
enum hrtimer_restart {
    HRTIMER_NORESTART = 0,
    HRTIMER_RESTART = 1
} ;
struct hrtimer {
   struct timerqueue_node node ;
   ktime_t _softexpires ;
   enum hrtimer_restart (*function)(struct hrtimer * ) ;
   struct hrtimer_clock_base *base ;
   unsigned long state ;
   int start_pid ;
   void *start_site ;
   char start_comm[16U] ;
};
struct hrtimer_clock_base {
   struct hrtimer_cpu_base *cpu_base ;
   int index ;
   clockid_t clockid ;
   struct timerqueue_head active ;
   ktime_t (*get_time)(void) ;
   ktime_t offset ;
};
struct hrtimer_cpu_base {
   raw_spinlock_t lock ;
   seqcount_t seq ;
   struct hrtimer *running ;
   unsigned int cpu ;
   unsigned int active_bases ;
   unsigned int clock_was_set_seq ;
   bool migration_enabled ;
   bool nohz_active ;
   unsigned char in_hrtirq : 1 ;
   unsigned char hres_active : 1 ;
   unsigned char hang_detected : 1 ;
   ktime_t expires_next ;
   struct hrtimer *next_timer ;
   unsigned int nr_events ;
   unsigned int nr_retries ;
   unsigned int nr_hangs ;
   unsigned int max_hang_time ;
   struct hrtimer_clock_base clock_base[4U] ;
};
struct task_io_accounting {
   u64 rchar ;
   u64 wchar ;
   u64 syscr ;
   u64 syscw ;
   u64 read_bytes ;
   u64 write_bytes ;
   u64 cancelled_write_bytes ;
};
struct latency_record {
   unsigned long backtrace[12U] ;
   unsigned int count ;
   unsigned long time ;
   unsigned long max ;
};
struct assoc_array_ptr;
struct assoc_array {
   struct assoc_array_ptr *root ;
   unsigned long nr_leaves_on_tree ;
};
typedef int32_t key_serial_t;
typedef uint32_t key_perm_t;
struct key;
struct signal_struct;
struct key_type;
struct keyring_index_key {
   struct key_type *type ;
   char const *description ;
   size_t desc_len ;
};
union __anonunion____missing_field_name_196 {
   struct list_head graveyard_link ;
   struct rb_node serial_node ;
};
struct key_user;
union __anonunion____missing_field_name_197 {
   time_t expiry ;
   time_t revoked_at ;
};
struct __anonstruct____missing_field_name_199 {
   struct key_type *type ;
   char *description ;
};
union __anonunion____missing_field_name_198 {
   struct keyring_index_key index_key ;
   struct __anonstruct____missing_field_name_199 __annonCompField52 ;
};
union __anonunion_type_data_200 {
   struct list_head link ;
   unsigned long x[2U] ;
   void *p[2U] ;
   int reject_error ;
};
union __anonunion_payload_202 {
   unsigned long value ;
   void *rcudata ;
   void *data ;
   void *data2[2U] ;
};
union __anonunion____missing_field_name_201 {
   union __anonunion_payload_202 payload ;
   struct assoc_array keys ;
};
struct key {
   atomic_t usage ;
   key_serial_t serial ;
   union __anonunion____missing_field_name_196 __annonCompField50 ;
   struct rw_semaphore sem ;
   struct key_user *user ;
   void *security ;
   union __anonunion____missing_field_name_197 __annonCompField51 ;
   time_t last_used_at ;
   kuid_t uid ;
   kgid_t gid ;
   key_perm_t perm ;
   unsigned short quotalen ;
   unsigned short datalen ;
   unsigned long flags ;
   union __anonunion____missing_field_name_198 __annonCompField53 ;
   union __anonunion_type_data_200 type_data ;
   union __anonunion____missing_field_name_201 __annonCompField54 ;
};
struct audit_context;
struct group_info {
   atomic_t usage ;
   int ngroups ;
   int nblocks ;
   kgid_t small_block[32U] ;
   kgid_t *blocks[0U] ;
};
struct cred {
   atomic_t usage ;
   atomic_t subscribers ;
   void *put_addr ;
   unsigned int magic ;
   kuid_t uid ;
   kgid_t gid ;
   kuid_t suid ;
   kgid_t sgid ;
   kuid_t euid ;
   kgid_t egid ;
   kuid_t fsuid ;
   kgid_t fsgid ;
   unsigned int securebits ;
   kernel_cap_t cap_inheritable ;
   kernel_cap_t cap_permitted ;
   kernel_cap_t cap_effective ;
   kernel_cap_t cap_bset ;
   unsigned char jit_keyring ;
   struct key *session_keyring ;
   struct key *process_keyring ;
   struct key *thread_keyring ;
   struct key *request_key_auth ;
   void *security ;
   struct user_struct *user ;
   struct user_namespace *user_ns ;
   struct group_info *group_info ;
   struct callback_head rcu ;
};
struct percpu_ref;
typedef void percpu_ref_func_t(struct percpu_ref * );
struct percpu_ref {
   atomic_long_t count ;
   unsigned long percpu_count_ptr ;
   percpu_ref_func_t *release ;
   percpu_ref_func_t *confirm_switch ;
   bool force_atomic ;
   struct callback_head rcu ;
};
struct cgroup;
struct cgroup_root;
struct cgroup_subsys;
struct cgroup_taskset;
struct cgroup_subsys_state {
   struct cgroup *cgroup ;
   struct cgroup_subsys *ss ;
   struct percpu_ref refcnt ;
   struct cgroup_subsys_state *parent ;
   struct list_head sibling ;
   struct list_head children ;
   int id ;
   unsigned int flags ;
   u64 serial_nr ;
   struct callback_head callback_head ;
   struct work_struct destroy_work ;
};
struct css_set {
   atomic_t refcount ;
   struct hlist_node hlist ;
   struct list_head tasks ;
   struct list_head mg_tasks ;
   struct list_head cgrp_links ;
   struct cgroup *dfl_cgrp ;
   struct cgroup_subsys_state *subsys[12U] ;
   struct list_head mg_preload_node ;
   struct list_head mg_node ;
   struct cgroup *mg_src_cgrp ;
   struct css_set *mg_dst_cset ;
   struct list_head e_cset_node[12U] ;
   struct callback_head callback_head ;
};
struct cgroup {
   struct cgroup_subsys_state self ;
   unsigned long flags ;
   int id ;
   int populated_cnt ;
   struct kernfs_node *kn ;
   struct kernfs_node *procs_kn ;
   struct kernfs_node *populated_kn ;
   unsigned int subtree_control ;
   unsigned int child_subsys_mask ;
   struct cgroup_subsys_state *subsys[12U] ;
   struct cgroup_root *root ;
   struct list_head cset_links ;
   struct list_head e_csets[12U] ;
   struct list_head pidlists ;
   struct mutex pidlist_mutex ;
   wait_queue_head_t offline_waitq ;
   struct work_struct release_agent_work ;
};
struct cgroup_root {
   struct kernfs_root *kf_root ;
   unsigned int subsys_mask ;
   int hierarchy_id ;
   struct cgroup cgrp ;
   atomic_t nr_cgrps ;
   struct list_head root_list ;
   unsigned int flags ;
   struct idr cgroup_idr ;
   char release_agent_path[4096U] ;
   char name[64U] ;
};
struct cftype {
   char name[64U] ;
   int private ;
   umode_t mode ;
   size_t max_write_len ;
   unsigned int flags ;
   struct cgroup_subsys *ss ;
   struct list_head node ;
   struct kernfs_ops *kf_ops ;
   u64 (*read_u64)(struct cgroup_subsys_state * , struct cftype * ) ;
   s64 (*read_s64)(struct cgroup_subsys_state * , struct cftype * ) ;
   int (*seq_show)(struct seq_file * , void * ) ;
   void *(*seq_start)(struct seq_file * , loff_t * ) ;
   void *(*seq_next)(struct seq_file * , void * , loff_t * ) ;
   void (*seq_stop)(struct seq_file * , void * ) ;
   int (*write_u64)(struct cgroup_subsys_state * , struct cftype * , u64 ) ;
   int (*write_s64)(struct cgroup_subsys_state * , struct cftype * , s64 ) ;
   ssize_t (*write)(struct kernfs_open_file * , char * , size_t , loff_t ) ;
   struct lock_class_key lockdep_key ;
};
struct cgroup_subsys {
   struct cgroup_subsys_state *(*css_alloc)(struct cgroup_subsys_state * ) ;
   int (*css_online)(struct cgroup_subsys_state * ) ;
   void (*css_offline)(struct cgroup_subsys_state * ) ;
   void (*css_released)(struct cgroup_subsys_state * ) ;
   void (*css_free)(struct cgroup_subsys_state * ) ;
   void (*css_reset)(struct cgroup_subsys_state * ) ;
   void (*css_e_css_changed)(struct cgroup_subsys_state * ) ;
   int (*can_attach)(struct cgroup_subsys_state * , struct cgroup_taskset * ) ;
   void (*cancel_attach)(struct cgroup_subsys_state * , struct cgroup_taskset * ) ;
   void (*attach)(struct cgroup_subsys_state * , struct cgroup_taskset * ) ;
   void (*fork)(struct task_struct * ) ;
   void (*exit)(struct cgroup_subsys_state * , struct cgroup_subsys_state * , struct task_struct * ) ;
   void (*bind)(struct cgroup_subsys_state * ) ;
   int disabled ;
   int early_init ;
   bool broken_hierarchy ;
   bool warned_broken_hierarchy ;
   int id ;
   char const *name ;
   struct cgroup_root *root ;
   struct idr css_idr ;
   struct list_head cfts ;
   struct cftype *dfl_cftypes ;
   struct cftype *legacy_cftypes ;
   unsigned int depends_on ;
};
struct futex_pi_state;
struct robust_list_head;
struct bio_list;
struct fs_struct;
struct perf_event_context;
struct blk_plug;
struct nameidata;
struct cfs_rq;
struct task_group;
struct sighand_struct {
   atomic_t count ;
   struct k_sigaction action[64U] ;
   spinlock_t siglock ;
   wait_queue_head_t signalfd_wqh ;
};
struct pacct_struct {
   int ac_flag ;
   long ac_exitcode ;
   unsigned long ac_mem ;
   cputime_t ac_utime ;
   cputime_t ac_stime ;
   unsigned long ac_minflt ;
   unsigned long ac_majflt ;
};
struct cpu_itimer {
   cputime_t expires ;
   cputime_t incr ;
   u32 error ;
   u32 incr_error ;
};
struct cputime {
   cputime_t utime ;
   cputime_t stime ;
};
struct task_cputime {
   cputime_t utime ;
   cputime_t stime ;
   unsigned long long sum_exec_runtime ;
};
struct task_cputime_atomic {
   atomic64_t utime ;
   atomic64_t stime ;
   atomic64_t sum_exec_runtime ;
};
struct thread_group_cputimer {
   struct task_cputime_atomic cputime_atomic ;
   int running ;
};
struct autogroup;
struct tty_struct;
struct taskstats;
struct tty_audit_buf;
struct signal_struct {
   atomic_t sigcnt ;
   atomic_t live ;
   int nr_threads ;
   struct list_head thread_head ;
   wait_queue_head_t wait_chldexit ;
   struct task_struct *curr_target ;
   struct sigpending shared_pending ;
   int group_exit_code ;
   int notify_count ;
   struct task_struct *group_exit_task ;
   int group_stop_count ;
   unsigned int flags ;
   unsigned char is_child_subreaper : 1 ;
   unsigned char has_child_subreaper : 1 ;
   int posix_timer_id ;
   struct list_head posix_timers ;
   struct hrtimer real_timer ;
   struct pid *leader_pid ;
   ktime_t it_real_incr ;
   struct cpu_itimer it[2U] ;
   struct thread_group_cputimer cputimer ;
   struct task_cputime cputime_expires ;
   struct list_head cpu_timers[3U] ;
   struct pid *tty_old_pgrp ;
   int leader ;
   struct tty_struct *tty ;
   struct autogroup *autogroup ;
   seqlock_t stats_lock ;
   cputime_t utime ;
   cputime_t stime ;
   cputime_t cutime ;
   cputime_t cstime ;
   cputime_t gtime ;
   cputime_t cgtime ;
   struct cputime prev_cputime ;
   unsigned long nvcsw ;
   unsigned long nivcsw ;
   unsigned long cnvcsw ;
   unsigned long cnivcsw ;
   unsigned long min_flt ;
   unsigned long maj_flt ;
   unsigned long cmin_flt ;
   unsigned long cmaj_flt ;
   unsigned long inblock ;
   unsigned long oublock ;
   unsigned long cinblock ;
   unsigned long coublock ;
   unsigned long maxrss ;
   unsigned long cmaxrss ;
   struct task_io_accounting ioac ;
   unsigned long long sum_sched_runtime ;
   struct rlimit rlim[16U] ;
   struct pacct_struct pacct ;
   struct taskstats *stats ;
   unsigned int audit_tty ;
   unsigned int audit_tty_log_passwd ;
   struct tty_audit_buf *tty_audit_buf ;
   oom_flags_t oom_flags ;
   short oom_score_adj ;
   short oom_score_adj_min ;
   struct mutex cred_guard_mutex ;
};
struct user_struct {
   atomic_t __count ;
   atomic_t processes ;
   atomic_t sigpending ;
   atomic_t inotify_watches ;
   atomic_t inotify_devs ;
   atomic_t fanotify_listeners ;
   atomic_long_t epoll_watches ;
   unsigned long mq_bytes ;
   unsigned long locked_shm ;
   struct key *uid_keyring ;
   struct key *session_keyring ;
   struct hlist_node uidhash_node ;
   kuid_t uid ;
   atomic_long_t locked_vm ;
};
struct backing_dev_info;
struct reclaim_state;
struct sched_info {
   unsigned long pcount ;
   unsigned long long run_delay ;
   unsigned long long last_arrival ;
   unsigned long long last_queued ;
};
struct task_delay_info {
   spinlock_t lock ;
   unsigned int flags ;
   u64 blkio_start ;
   u64 blkio_delay ;
   u64 swapin_delay ;
   u32 blkio_count ;
   u32 swapin_count ;
   u64 freepages_start ;
   u64 freepages_delay ;
   u32 freepages_count ;
};
struct wake_q_node {
   struct wake_q_node *next ;
};
struct io_context;
struct pipe_inode_info;
struct load_weight {
   unsigned long weight ;
   u32 inv_weight ;
};
struct sched_avg {
   u64 last_runnable_update ;
   s64 decay_count ;
   unsigned long load_avg_contrib ;
   unsigned long utilization_avg_contrib ;
   u32 runnable_avg_sum ;
   u32 avg_period ;
   u32 running_avg_sum ;
};
struct sched_statistics {
   u64 wait_start ;
   u64 wait_max ;
   u64 wait_count ;
   u64 wait_sum ;
   u64 iowait_count ;
   u64 iowait_sum ;
   u64 sleep_start ;
   u64 sleep_max ;
   s64 sum_sleep_runtime ;
   u64 block_start ;
   u64 block_max ;
   u64 exec_max ;
   u64 slice_max ;
   u64 nr_migrations_cold ;
   u64 nr_failed_migrations_affine ;
   u64 nr_failed_migrations_running ;
   u64 nr_failed_migrations_hot ;
   u64 nr_forced_migrations ;
   u64 nr_wakeups ;
   u64 nr_wakeups_sync ;
   u64 nr_wakeups_migrate ;
   u64 nr_wakeups_local ;
   u64 nr_wakeups_remote ;
   u64 nr_wakeups_affine ;
   u64 nr_wakeups_affine_attempts ;
   u64 nr_wakeups_passive ;
   u64 nr_wakeups_idle ;
};
struct sched_entity {
   struct load_weight load ;
   struct rb_node run_node ;
   struct list_head group_node ;
   unsigned int on_rq ;
   u64 exec_start ;
   u64 sum_exec_runtime ;
   u64 vruntime ;
   u64 prev_sum_exec_runtime ;
   u64 nr_migrations ;
   struct sched_statistics statistics ;
   int depth ;
   struct sched_entity *parent ;
   struct cfs_rq *cfs_rq ;
   struct cfs_rq *my_q ;
   struct sched_avg avg ;
};
struct rt_rq;
struct sched_rt_entity {
   struct list_head run_list ;
   unsigned long timeout ;
   unsigned long watchdog_stamp ;
   unsigned int time_slice ;
   struct sched_rt_entity *back ;
   struct sched_rt_entity *parent ;
   struct rt_rq *rt_rq ;
   struct rt_rq *my_q ;
};
struct sched_dl_entity {
   struct rb_node rb_node ;
   u64 dl_runtime ;
   u64 dl_deadline ;
   u64 dl_period ;
   u64 dl_bw ;
   s64 runtime ;
   u64 deadline ;
   unsigned int flags ;
   int dl_throttled ;
   int dl_new ;
   int dl_boosted ;
   int dl_yielded ;
   struct hrtimer dl_timer ;
};
struct memcg_oom_info {
   struct mem_cgroup *memcg ;
   gfp_t gfp_mask ;
   int order ;
   unsigned char may_oom : 1 ;
};
struct sched_class;
struct files_struct;
struct compat_robust_list_head;
struct numa_group;
struct ftrace_ret_stack;
struct task_struct {
   long volatile state ;
   void *stack ;
   atomic_t usage ;
   unsigned int flags ;
   unsigned int ptrace ;
   struct llist_node wake_entry ;
   int on_cpu ;
   struct task_struct *last_wakee ;
   unsigned long wakee_flips ;
   unsigned long wakee_flip_decay_ts ;
   int wake_cpu ;
   int on_rq ;
   int prio ;
   int static_prio ;
   int normal_prio ;
   unsigned int rt_priority ;
   struct sched_class const *sched_class ;
   struct sched_entity se ;
   struct sched_rt_entity rt ;
   struct task_group *sched_task_group ;
   struct sched_dl_entity dl ;
   struct hlist_head preempt_notifiers ;
   unsigned int btrace_seq ;
   unsigned int policy ;
   int nr_cpus_allowed ;
   cpumask_t cpus_allowed ;
   unsigned long rcu_tasks_nvcsw ;
   bool rcu_tasks_holdout ;
   struct list_head rcu_tasks_holdout_list ;
   int rcu_tasks_idle_cpu ;
   struct sched_info sched_info ;
   struct list_head tasks ;
   struct plist_node pushable_tasks ;
   struct rb_node pushable_dl_tasks ;
   struct mm_struct *mm ;
   struct mm_struct *active_mm ;
   u32 vmacache_seqnum ;
   struct vm_area_struct *vmacache[4U] ;
   struct task_rss_stat rss_stat ;
   int exit_state ;
   int exit_code ;
   int exit_signal ;
   int pdeath_signal ;
   unsigned long jobctl ;
   unsigned int personality ;
   unsigned char in_execve : 1 ;
   unsigned char in_iowait : 1 ;
   unsigned char sched_reset_on_fork : 1 ;
   unsigned char sched_contributes_to_load : 1 ;
   unsigned char sched_migrated : 1 ;
   unsigned char memcg_kmem_skip_account : 1 ;
   unsigned char brk_randomized : 1 ;
   unsigned long atomic_flags ;
   struct restart_block restart_block ;
   pid_t pid ;
   pid_t tgid ;
   struct task_struct *real_parent ;
   struct task_struct *parent ;
   struct list_head children ;
   struct list_head sibling ;
   struct task_struct *group_leader ;
   struct list_head ptraced ;
   struct list_head ptrace_entry ;
   struct pid_link pids[3U] ;
   struct list_head thread_group ;
   struct list_head thread_node ;
   struct completion *vfork_done ;
   int *set_child_tid ;
   int *clear_child_tid ;
   cputime_t utime ;
   cputime_t stime ;
   cputime_t utimescaled ;
   cputime_t stimescaled ;
   cputime_t gtime ;
   struct cputime prev_cputime ;
   unsigned long nvcsw ;
   unsigned long nivcsw ;
   u64 start_time ;
   u64 real_start_time ;
   unsigned long min_flt ;
   unsigned long maj_flt ;
   struct task_cputime cputime_expires ;
   struct list_head cpu_timers[3U] ;
   struct cred const *real_cred ;
   struct cred const *cred ;
   char comm[16U] ;
   struct nameidata *nameidata ;
   struct sysv_sem sysvsem ;
   struct sysv_shm sysvshm ;
   unsigned long last_switch_count ;
   struct thread_struct thread ;
   struct fs_struct *fs ;
   struct files_struct *files ;
   struct nsproxy *nsproxy ;
   struct signal_struct *signal ;
   struct sighand_struct *sighand ;
   sigset_t blocked ;
   sigset_t real_blocked ;
   sigset_t saved_sigmask ;
   struct sigpending pending ;
   unsigned long sas_ss_sp ;
   size_t sas_ss_size ;
   int (*notifier)(void * ) ;
   void *notifier_data ;
   sigset_t *notifier_mask ;
   struct callback_head *task_works ;
   struct audit_context *audit_context ;
   kuid_t loginuid ;
   unsigned int sessionid ;
   struct seccomp seccomp ;
   u32 parent_exec_id ;
   u32 self_exec_id ;
   spinlock_t alloc_lock ;
   raw_spinlock_t pi_lock ;
   struct wake_q_node wake_q ;
   struct rb_root pi_waiters ;
   struct rb_node *pi_waiters_leftmost ;
   struct rt_mutex_waiter *pi_blocked_on ;
   struct mutex_waiter *blocked_on ;
   unsigned int irq_events ;
   unsigned long hardirq_enable_ip ;
   unsigned long hardirq_disable_ip ;
   unsigned int hardirq_enable_event ;
   unsigned int hardirq_disable_event ;
   int hardirqs_enabled ;
   int hardirq_context ;
   unsigned long softirq_disable_ip ;
   unsigned long softirq_enable_ip ;
   unsigned int softirq_disable_event ;
   unsigned int softirq_enable_event ;
   int softirqs_enabled ;
   int softirq_context ;
   u64 curr_chain_key ;
   int lockdep_depth ;
   unsigned int lockdep_recursion ;
   struct held_lock held_locks[48U] ;
   gfp_t lockdep_reclaim_gfp ;
   void *journal_info ;
   struct bio_list *bio_list ;
   struct blk_plug *plug ;
   struct reclaim_state *reclaim_state ;
   struct backing_dev_info *backing_dev_info ;
   struct io_context *io_context ;
   unsigned long ptrace_message ;
   siginfo_t *last_siginfo ;
   struct task_io_accounting ioac ;
   u64 acct_rss_mem1 ;
   u64 acct_vm_mem1 ;
   cputime_t acct_timexpd ;
   nodemask_t mems_allowed ;
   seqcount_t mems_allowed_seq ;
   int cpuset_mem_spread_rotor ;
   int cpuset_slab_spread_rotor ;
   struct css_set *cgroups ;
   struct list_head cg_list ;
   struct robust_list_head *robust_list ;
   struct compat_robust_list_head *compat_robust_list ;
   struct list_head pi_state_list ;
   struct futex_pi_state *pi_state_cache ;
   struct perf_event_context *perf_event_ctxp[2U] ;
   struct mutex perf_event_mutex ;
   struct list_head perf_event_list ;
   struct mempolicy *mempolicy ;
   short il_next ;
   short pref_node_fork ;
   int numa_scan_seq ;
   unsigned int numa_scan_period ;
   unsigned int numa_scan_period_max ;
   int numa_preferred_nid ;
   unsigned long numa_migrate_retry ;
   u64 node_stamp ;
   u64 last_task_numa_placement ;
   u64 last_sum_exec_runtime ;
   struct callback_head numa_work ;
   struct list_head numa_entry ;
   struct numa_group *numa_group ;
   unsigned long *numa_faults ;
   unsigned long total_numa_faults ;
   unsigned long numa_faults_locality[3U] ;
   unsigned long numa_pages_migrated ;
   struct callback_head rcu ;
   struct pipe_inode_info *splice_pipe ;
   struct page_frag task_frag ;
   struct task_delay_info *delays ;
   int make_it_fail ;
   int nr_dirtied ;
   int nr_dirtied_pause ;
   unsigned long dirty_paused_when ;
   int latency_record_count ;
   struct latency_record latency_record[32U] ;
   unsigned long timer_slack_ns ;
   unsigned long default_timer_slack_ns ;
   unsigned int kasan_depth ;
   int curr_ret_stack ;
   struct ftrace_ret_stack *ret_stack ;
   unsigned long long ftrace_timestamp ;
   atomic_t trace_overrun ;
   atomic_t tracing_graph_pause ;
   unsigned long trace ;
   unsigned long trace_recursion ;
   struct memcg_oom_info memcg_oom ;
   struct uprobe_task *utask ;
   unsigned int sequential_io ;
   unsigned int sequential_io_avg ;
   unsigned long task_state_change ;
   int pagefault_disabled ;
};
enum irqreturn {
    IRQ_NONE = 0,
    IRQ_HANDLED = 1,
    IRQ_WAKE_THREAD = 2
} ;
typedef enum irqreturn irqreturn_t;
struct platform_device;
struct klist_node;
struct klist_node {
   void *n_klist ;
   struct list_head n_node ;
   struct kref n_ref ;
};
struct seq_file {
   char *buf ;
   size_t size ;
   size_t from ;
   size_t count ;
   size_t pad_until ;
   loff_t index ;
   loff_t read_pos ;
   u64 version ;
   struct mutex lock ;
   struct seq_operations const *op ;
   int poll_event ;
   struct user_namespace *user_ns ;
   void *private ;
};
struct seq_operations {
   void *(*start)(struct seq_file * , loff_t * ) ;
   void (*stop)(struct seq_file * , void * ) ;
   void *(*next)(struct seq_file * , void * , loff_t * ) ;
   int (*show)(struct seq_file * , void * ) ;
};
struct pinctrl;
struct pinctrl_state;
struct dev_pin_info {
   struct pinctrl *p ;
   struct pinctrl_state *default_state ;
   struct pinctrl_state *sleep_state ;
   struct pinctrl_state *idle_state ;
};
struct dma_map_ops;
struct dev_archdata {
   struct dma_map_ops *dma_ops ;
   void *iommu ;
};
struct pdev_archdata {
};
struct device_private;
struct device_driver;
struct driver_private;
struct class;
struct subsys_private;
struct bus_type;
struct device_node;
struct fwnode_handle;
struct iommu_ops;
struct iommu_group;
struct device_attribute;
struct bus_type {
   char const *name ;
   char const *dev_name ;
   struct device *dev_root ;
   struct device_attribute *dev_attrs ;
   struct attribute_group const **bus_groups ;
   struct attribute_group const **dev_groups ;
   struct attribute_group const **drv_groups ;
   int (*match)(struct device * , struct device_driver * ) ;
   int (*uevent)(struct device * , struct kobj_uevent_env * ) ;
   int (*probe)(struct device * ) ;
   int (*remove)(struct device * ) ;
   void (*shutdown)(struct device * ) ;
   int (*online)(struct device * ) ;
   int (*offline)(struct device * ) ;
   int (*suspend)(struct device * , pm_message_t ) ;
   int (*resume)(struct device * ) ;
   struct dev_pm_ops const *pm ;
   struct iommu_ops const *iommu_ops ;
   struct subsys_private *p ;
   struct lock_class_key lock_key ;
};
struct device_type;
enum probe_type {
    PROBE_DEFAULT_STRATEGY = 0,
    PROBE_PREFER_ASYNCHRONOUS = 1,
    PROBE_FORCE_SYNCHRONOUS = 2
} ;
struct of_device_id;
struct acpi_device_id;
struct device_driver {
   char const *name ;
   struct bus_type *bus ;
   struct module *owner ;
   char const *mod_name ;
   bool suppress_bind_attrs ;
   enum probe_type probe_type ;
   struct of_device_id const *of_match_table ;
   struct acpi_device_id const *acpi_match_table ;
   int (*probe)(struct device * ) ;
   int (*remove)(struct device * ) ;
   void (*shutdown)(struct device * ) ;
   int (*suspend)(struct device * , pm_message_t ) ;
   int (*resume)(struct device * ) ;
   struct attribute_group const **groups ;
   struct dev_pm_ops const *pm ;
   struct driver_private *p ;
};
struct class_attribute;
struct class {
   char const *name ;
   struct module *owner ;
   struct class_attribute *class_attrs ;
   struct attribute_group const **dev_groups ;
   struct kobject *dev_kobj ;
   int (*dev_uevent)(struct device * , struct kobj_uevent_env * ) ;
   char *(*devnode)(struct device * , umode_t * ) ;
   void (*class_release)(struct class * ) ;
   void (*dev_release)(struct device * ) ;
   int (*suspend)(struct device * , pm_message_t ) ;
   int (*resume)(struct device * ) ;
   struct kobj_ns_type_operations const *ns_type ;
   void const *(*namespace)(struct device * ) ;
   struct dev_pm_ops const *pm ;
   struct subsys_private *p ;
};
struct class_attribute {
   struct attribute attr ;
   ssize_t (*show)(struct class * , struct class_attribute * , char * ) ;
   ssize_t (*store)(struct class * , struct class_attribute * , char const * , size_t ) ;
};
struct device_type {
   char const *name ;
   struct attribute_group const **groups ;
   int (*uevent)(struct device * , struct kobj_uevent_env * ) ;
   char *(*devnode)(struct device * , umode_t * , kuid_t * , kgid_t * ) ;
   void (*release)(struct device * ) ;
   struct dev_pm_ops const *pm ;
};
struct device_attribute {
   struct attribute attr ;
   ssize_t (*show)(struct device * , struct device_attribute * , char * ) ;
   ssize_t (*store)(struct device * , struct device_attribute * , char const * ,
                    size_t ) ;
};
struct device_dma_parameters {
   unsigned int max_segment_size ;
   unsigned long segment_boundary_mask ;
};
struct dma_coherent_mem;
struct cma;
struct device {
   struct device *parent ;
   struct device_private *p ;
   struct kobject kobj ;
   char const *init_name ;
   struct device_type const *type ;
   struct mutex mutex ;
   struct bus_type *bus ;
   struct device_driver *driver ;
   void *platform_data ;
   void *driver_data ;
   struct dev_pm_info power ;
   struct dev_pm_domain *pm_domain ;
   struct dev_pin_info *pins ;
   int numa_node ;
   u64 *dma_mask ;
   u64 coherent_dma_mask ;
   unsigned long dma_pfn_offset ;
   struct device_dma_parameters *dma_parms ;
   struct list_head dma_pools ;
   struct dma_coherent_mem *dma_mem ;
   struct cma *cma_area ;
   struct dev_archdata archdata ;
   struct device_node *of_node ;
   struct fwnode_handle *fwnode ;
   dev_t devt ;
   u32 id ;
   spinlock_t devres_lock ;
   struct list_head devres_head ;
   struct klist_node knode_class ;
   struct class *class ;
   struct attribute_group const **groups ;
   void (*release)(struct device * ) ;
   struct iommu_group *iommu_group ;
   bool offline_disabled ;
   bool offline ;
};
struct wakeup_source {
   char const *name ;
   struct list_head entry ;
   spinlock_t lock ;
   struct wake_irq *wakeirq ;
   struct timer_list timer ;
   unsigned long timer_expires ;
   ktime_t total_time ;
   ktime_t max_time ;
   ktime_t last_time ;
   ktime_t start_prevent_time ;
   ktime_t prevent_sleep_time ;
   unsigned long event_count ;
   unsigned long active_count ;
   unsigned long relax_count ;
   unsigned long expire_count ;
   unsigned long wakeup_count ;
   bool active ;
   bool autosleep_enabled ;
};
typedef unsigned long kernel_ulong_t;
struct acpi_device_id {
   __u8 id[9U] ;
   kernel_ulong_t driver_data ;
};
struct of_device_id {
   char name[32U] ;
   char type[32U] ;
   char compatible[128U] ;
   void const *data ;
};
struct platform_device_id {
   char name[20U] ;
   kernel_ulong_t driver_data ;
};
struct mfd_cell;
struct platform_device {
   char const *name ;
   int id ;
   bool id_auto ;
   struct device dev ;
   u32 num_resources ;
   struct resource *resource ;
   struct platform_device_id const *id_entry ;
   char *driver_override ;
   struct mfd_cell *mfd_cell ;
   struct pdev_archdata archdata ;
};
struct platform_driver {
   int (*probe)(struct platform_device * ) ;
   int (*remove)(struct platform_device * ) ;
   void (*shutdown)(struct platform_device * ) ;
   int (*suspend)(struct platform_device * , pm_message_t ) ;
   int (*resume)(struct platform_device * ) ;
   struct device_driver driver ;
   struct platform_device_id const *id_table ;
   bool prevent_deferred_probe ;
};
struct irq_data;
struct msi_msg;
enum irqchip_irq_state;
enum irqchip_irq_state;
struct msi_desc;
struct irq_domain;
struct irq_common_data {
   unsigned int state_use_accessors ;
};
struct irq_chip;
struct irq_data {
   u32 mask ;
   unsigned int irq ;
   unsigned long hwirq ;
   unsigned int node ;
   struct irq_common_data *common ;
   struct irq_chip *chip ;
   struct irq_domain *domain ;
   struct irq_data *parent_data ;
   void *handler_data ;
   void *chip_data ;
   struct msi_desc *msi_desc ;
   cpumask_var_t affinity ;
};
struct irq_chip {
   char const *name ;
   unsigned int (*irq_startup)(struct irq_data * ) ;
   void (*irq_shutdown)(struct irq_data * ) ;
   void (*irq_enable)(struct irq_data * ) ;
   void (*irq_disable)(struct irq_data * ) ;
   void (*irq_ack)(struct irq_data * ) ;
   void (*irq_mask)(struct irq_data * ) ;
   void (*irq_mask_ack)(struct irq_data * ) ;
   void (*irq_unmask)(struct irq_data * ) ;
   void (*irq_eoi)(struct irq_data * ) ;
   int (*irq_set_affinity)(struct irq_data * , struct cpumask const * , bool ) ;
   int (*irq_retrigger)(struct irq_data * ) ;
   int (*irq_set_type)(struct irq_data * , unsigned int ) ;
   int (*irq_set_wake)(struct irq_data * , unsigned int ) ;
   void (*irq_bus_lock)(struct irq_data * ) ;
   void (*irq_bus_sync_unlock)(struct irq_data * ) ;
   void (*irq_cpu_online)(struct irq_data * ) ;
   void (*irq_cpu_offline)(struct irq_data * ) ;
   void (*irq_suspend)(struct irq_data * ) ;
   void (*irq_resume)(struct irq_data * ) ;
   void (*irq_pm_shutdown)(struct irq_data * ) ;
   void (*irq_calc_mask)(struct irq_data * ) ;
   void (*irq_print_chip)(struct irq_data * , struct seq_file * ) ;
   int (*irq_request_resources)(struct irq_data * ) ;
   void (*irq_release_resources)(struct irq_data * ) ;
   void (*irq_compose_msi_msg)(struct irq_data * , struct msi_msg * ) ;
   void (*irq_write_msi_msg)(struct irq_data * , struct msi_msg * ) ;
   int (*irq_get_irqchip_state)(struct irq_data * , enum irqchip_irq_state , bool * ) ;
   int (*irq_set_irqchip_state)(struct irq_data * , enum irqchip_irq_state , bool ) ;
   int (*irq_set_vcpu_affinity)(struct irq_data * , void * ) ;
   unsigned long flags ;
};
struct exception_table_entry {
   int insn ;
   int fixup ;
};
enum irqchip_irq_state {
    IRQCHIP_STATE_PENDING = 0,
    IRQCHIP_STATE_ACTIVE = 1,
    IRQCHIP_STATE_MASKED = 2,
    IRQCHIP_STATE_LINE_LEVEL = 3
} ;
struct cdev {
   struct kobject kobj ;
   struct module *owner ;
   struct file_operations const *ops ;
   struct list_head list ;
   dev_t dev ;
   unsigned int count ;
};
enum iio_chan_type {
    IIO_VOLTAGE = 0,
    IIO_CURRENT = 1,
    IIO_POWER = 2,
    IIO_ACCEL = 3,
    IIO_ANGL_VEL = 4,
    IIO_MAGN = 5,
    IIO_LIGHT = 6,
    IIO_INTENSITY = 7,
    IIO_PROXIMITY = 8,
    IIO_TEMP = 9,
    IIO_INCLI = 10,
    IIO_ROT = 11,
    IIO_ANGL = 12,
    IIO_TIMESTAMP = 13,
    IIO_CAPACITANCE = 14,
    IIO_ALTVOLTAGE = 15,
    IIO_CCT = 16,
    IIO_PRESSURE = 17,
    IIO_HUMIDITYRELATIVE = 18,
    IIO_ACTIVITY = 19,
    IIO_STEPS = 20,
    IIO_ENERGY = 21,
    IIO_DISTANCE = 22,
    IIO_VELOCITY = 23
} ;
enum iio_event_type {
    IIO_EV_TYPE_THRESH = 0,
    IIO_EV_TYPE_MAG = 1,
    IIO_EV_TYPE_ROC = 2,
    IIO_EV_TYPE_THRESH_ADAPTIVE = 3,
    IIO_EV_TYPE_MAG_ADAPTIVE = 4,
    IIO_EV_TYPE_CHANGE = 5
} ;
enum iio_event_direction {
    IIO_EV_DIR_EITHER = 0,
    IIO_EV_DIR_RISING = 1,
    IIO_EV_DIR_FALLING = 2,
    IIO_EV_DIR_NONE = 3
} ;
enum iio_event_info {
    IIO_EV_INFO_ENABLE = 0,
    IIO_EV_INFO_VALUE = 1,
    IIO_EV_INFO_HYSTERESIS = 2,
    IIO_EV_INFO_PERIOD = 3,
    IIO_EV_INFO_HIGH_PASS_FILTER_3DB = 4,
    IIO_EV_INFO_LOW_PASS_FILTER_3DB = 5
} ;
enum fwnode_type {
    FWNODE_INVALID = 0,
    FWNODE_OF = 1,
    FWNODE_ACPI = 2,
    FWNODE_PDATA = 3
} ;
struct fwnode_handle {
   enum fwnode_type type ;
   struct fwnode_handle *secondary ;
};
typedef u32 phandle;
struct property {
   char *name ;
   int length ;
   void *value ;
   struct property *next ;
   unsigned long _flags ;
   unsigned int unique_id ;
   struct bin_attribute attr ;
};
struct device_node {
   char const *name ;
   char const *type ;
   phandle phandle ;
   char const *full_name ;
   struct fwnode_handle fwnode ;
   struct property *properties ;
   struct property *deadprops ;
   struct device_node *parent ;
   struct device_node *child ;
   struct device_node *sibling ;
   struct kobject kobj ;
   unsigned long _flags ;
   void *data ;
};
struct of_phandle_args {
   struct device_node *np ;
   int args_count ;
   uint32_t args[16U] ;
};
enum iio_shared_by {
    IIO_SEPARATE = 0,
    IIO_SHARED_BY_TYPE = 1,
    IIO_SHARED_BY_DIR = 2,
    IIO_SHARED_BY_ALL = 3
} ;
enum iio_endian {
    IIO_CPU = 0,
    IIO_BE = 1,
    IIO_LE = 2
} ;
struct iio_chan_spec;
struct iio_dev;
struct iio_chan_spec_ext_info {
   char const *name ;
   enum iio_shared_by shared ;
   ssize_t (*read)(struct iio_dev * , uintptr_t , struct iio_chan_spec const * ,
                   char * ) ;
   ssize_t (*write)(struct iio_dev * , uintptr_t , struct iio_chan_spec const * ,
                    char const * , size_t ) ;
   uintptr_t private ;
};
struct iio_event_spec {
   enum iio_event_type type ;
   enum iio_event_direction dir ;
   unsigned long mask_separate ;
   unsigned long mask_shared_by_type ;
   unsigned long mask_shared_by_dir ;
   unsigned long mask_shared_by_all ;
};
struct __anonstruct_scan_type_229 {
   char sign ;
   u8 realbits ;
   u8 storagebits ;
   u8 shift ;
   u8 repeat ;
   enum iio_endian endianness ;
};
struct iio_chan_spec {
   enum iio_chan_type type ;
   int channel ;
   int channel2 ;
   unsigned long address ;
   int scan_index ;
   struct __anonstruct_scan_type_229 scan_type ;
   long info_mask_separate ;
   long info_mask_shared_by_type ;
   long info_mask_shared_by_dir ;
   long info_mask_shared_by_all ;
   struct iio_event_spec const *event_spec ;
   unsigned int num_event_specs ;
   struct iio_chan_spec_ext_info const *ext_info ;
   char const *extend_name ;
   char const *datasheet_name ;
   unsigned char modified : 1 ;
   unsigned char indexed : 1 ;
   unsigned char output : 1 ;
   unsigned char differential : 1 ;
};
struct iio_trigger;
struct iio_info {
   struct module *driver_module ;
   struct attribute_group *event_attrs ;
   struct attribute_group const *attrs ;
   int (*read_raw)(struct iio_dev * , struct iio_chan_spec const * , int * , int * ,
                   long ) ;
   int (*read_raw_multi)(struct iio_dev * , struct iio_chan_spec const * , int ,
                         int * , int * , long ) ;
   int (*write_raw)(struct iio_dev * , struct iio_chan_spec const * , int , int ,
                    long ) ;
   int (*write_raw_get_fmt)(struct iio_dev * , struct iio_chan_spec const * , long ) ;
   int (*read_event_config)(struct iio_dev * , struct iio_chan_spec const * , enum iio_event_type ,
                            enum iio_event_direction ) ;
   int (*write_event_config)(struct iio_dev * , struct iio_chan_spec const * , enum iio_event_type ,
                             enum iio_event_direction , int ) ;
   int (*read_event_value)(struct iio_dev * , struct iio_chan_spec const * , enum iio_event_type ,
                           enum iio_event_direction , enum iio_event_info , int * ,
                           int * ) ;
   int (*write_event_value)(struct iio_dev * , struct iio_chan_spec const * , enum iio_event_type ,
                            enum iio_event_direction , enum iio_event_info , int ,
                            int ) ;
   int (*validate_trigger)(struct iio_dev * , struct iio_trigger * ) ;
   int (*update_scan_mode)(struct iio_dev * , unsigned long const * ) ;
   int (*debugfs_reg_access)(struct iio_dev * , unsigned int , unsigned int , unsigned int * ) ;
   int (*of_xlate)(struct iio_dev * , struct of_phandle_args const * ) ;
   int (*hwfifo_set_watermark)(struct iio_dev * , unsigned int ) ;
   int (*hwfifo_flush_to_buffer)(struct iio_dev * , unsigned int ) ;
};
struct iio_buffer_setup_ops {
   int (*preenable)(struct iio_dev * ) ;
   int (*postenable)(struct iio_dev * ) ;
   int (*predisable)(struct iio_dev * ) ;
   int (*postdisable)(struct iio_dev * ) ;
   bool (*validate_scan_mask)(struct iio_dev * , unsigned long const * ) ;
};
struct iio_event_interface;
struct iio_buffer;
struct iio_poll_func;
struct iio_dev {
   int id ;
   int modes ;
   int currentmode ;
   struct device dev ;
   struct iio_event_interface *event_interface ;
   struct iio_buffer *buffer ;
   struct list_head buffer_list ;
   int scan_bytes ;
   struct mutex mlock ;
   unsigned long const *available_scan_masks ;
   unsigned int masklength ;
   unsigned long const *active_scan_mask ;
   bool scan_timestamp ;
   unsigned int scan_index_timestamp ;
   struct iio_trigger *trig ;
   struct iio_poll_func *pollfunc ;
   struct iio_chan_spec const *channels ;
   int num_channels ;
   struct list_head channel_attr_list ;
   struct attribute_group chan_attr_group ;
   char const *name ;
   struct iio_info const *info ;
   struct mutex info_exist_lock ;
   struct iio_buffer_setup_ops const *setup_ops ;
   struct cdev chrdev ;
   struct attribute_group const *groups[7U] ;
   int groupcounter ;
   unsigned long flags ;
   struct dentry *debugfs_dentry ;
   unsigned int cached_reg_addr ;
};
struct iio_subirq {
   bool enabled ;
};
struct iio_trigger_ops {
   struct module *owner ;
   int (*set_trigger_state)(struct iio_trigger * , bool ) ;
   int (*try_reenable)(struct iio_trigger * ) ;
   int (*validate_device)(struct iio_trigger * , struct iio_dev * ) ;
};
struct iio_trigger {
   struct iio_trigger_ops const *ops ;
   int id ;
   char const *name ;
   struct device dev ;
   struct list_head list ;
   struct list_head alloc_list ;
   atomic_t use_count ;
   struct irq_chip subirq_chip ;
   int subirq_base ;
   struct iio_subirq subirqs[2U] ;
   unsigned long pool[1U] ;
   struct mutex pool_lock ;
};
struct iio_interrupt_trigger_info {
   unsigned int irq ;
};
typedef int ldv_func_ret_type;
typedef int ldv_func_ret_type___0;
extern struct module __this_module ;
extern void *memset(void * , int , size_t ) ;
void ldv___module_get_6(struct module *ldv_func_arg1 ) ;
void ldv_module_put_5(struct module *ldv_func_arg1 ) ;
void ldv_module_get(struct module *module ) ;
void ldv_module_put(struct module *module ) ;
extern void kfree(void const * ) ;
extern void *ldv_malloc(size_t);
void *__kmalloc(size_t size, gfp_t t)
{
 return ldv_malloc(size);
}
void *ldv_malloc(size_t size ) ;
 static void *kmalloc(size_t size , gfp_t flags )
{
  void *tmp___2 ;
  {
  tmp___2 = __kmalloc(size, flags);
  return (tmp___2);
}
}
void *ldv_zalloc(size_t size ) ;
 static void *kzalloc(size_t size , gfp_t flags )
{
  void *tmp ;
  {
  tmp = kmalloc(size, flags | 32768U);
  return (tmp);
}
}
extern void *malloc(size_t ) ;
extern void *calloc(size_t , size_t ) ;
extern int __VERIFIER_nondet_int(void) ;
extern unsigned long __VERIFIER_nondet_ulong(void) ;
extern void abort(void);
void assume_abort_if_not(int cond) {
  if(!cond) {abort();}
}
void *ldv_malloc(size_t size )
{
  void *p ;
  void *tmp ;
  int tmp___0 ;
  {
  tmp___0 = __VERIFIER_nondet_int();
  if (tmp___0 != 0) {
    return ((void *)0);
  } else {
    tmp = malloc(size);
    p = tmp;
    assume_abort_if_not((unsigned long )p != (unsigned long )((void *)0));
    return (p);
  }
}
}
void *ldv_zalloc(size_t size )
{
  void *p ;
  void *tmp ;
  int tmp___0 ;
  {
  tmp___0 = __VERIFIER_nondet_int();
  if (tmp___0 != 0) {
    return ((void *)0);
  } else {
    tmp = calloc(1UL, size);
    p = tmp;
    assume_abort_if_not((unsigned long )p != (unsigned long )((void *)0));
    return (p);
  }
}
}
void *ldv_init_zalloc(size_t size )
{
  void *p ;
  void *tmp ;
  {
  tmp = calloc(1UL, size);
  p = tmp;
  assume_abort_if_not((unsigned long )p != (unsigned long )((void *)0));
  return (p);
}
}
void *ldv_memset(void *s , int c , size_t n )
{
  void *tmp ;
  {
  tmp = memset(s, c, n);
  return (tmp);
}
}
int ldv_undef_int(void)
{
  int tmp ;
  {
  tmp = __VERIFIER_nondet_int();
  return (tmp);
}
}
unsigned long ldv_undef_ulong(void)
{
  unsigned long tmp ;
  {
  tmp = __VERIFIER_nondet_ulong();
  return (tmp);
}
}
 static void ldv_stop(void)
{
  {
  LDV_STOP: ;
  goto LDV_STOP;
}
}
int ldv_irq_1_2 = 0;
int LDV_IN_INTERRUPT = 1;
int ldv_irq_1_3 = 0;
void *ldv_irq_data_1_1 ;
int ldv_irq_1_1 = 0;
int ldv_irq_1_0 = 0;
int probed_2 = 0;
int ldv_irq_line_1_3 ;
void *ldv_irq_data_1_0 ;
int ldv_state_variable_0 ;
int ldv_irq_line_1_0 ;
int ldv_state_variable_2 ;
void *ldv_irq_data_1_3 ;
int ref_cnt ;
int ldv_irq_line_1_1 ;
struct platform_device *iio_interrupt_trigger_driver_group1 ;
void *ldv_irq_data_1_2 ;
int ldv_state_variable_1 ;
int ldv_irq_line_1_2 ;
int ldv_irq_1(int state , int line , void *data ) ;
void activate_suitable_irq_1(int line , void *data ) ;
int reg_check_1(irqreturn_t (*handler)(int , void * ) ) ;
void choose_interrupt_1(void) ;
void ldv_platform_probe_2(int (*probe)(struct platform_device * ) ) ;
void ldv_platform_driver_init_2(void) ;
void disable_suitable_irq_1(int line , void *data ) ;
 static void *dev_get_drvdata(struct device const *dev )
{
  {
  return ((void *)dev->driver_data);
}
}
 static void dev_set_drvdata(struct device *dev , void *data )
{
  {
  dev->driver_data = data;
  return;
}
}
extern void put_device(struct device * ) ;
extern void dev_err(struct device const * , char const * , ...) ;
extern struct resource *platform_get_resource(struct platform_device * , unsigned int ,
                                              unsigned int ) ;
extern int __platform_driver_register(struct platform_driver * , struct module * ) ;
int ldv___platform_driver_register_10(struct platform_driver *ldv_func_arg1 , struct module *ldv_func_arg2 ) ;
extern void platform_driver_unregister(struct platform_driver * ) ;
void ldv_platform_driver_unregister_11(struct platform_driver *ldv_func_arg1 ) ;
 static void *platform_get_drvdata(struct platform_device const *pdev )
{
  void *tmp ;
  {
  tmp = dev_get_drvdata(& pdev->dev);
  return (tmp);
}
}
 static void platform_set_drvdata(struct platform_device *pdev , void *data )
{
  {
  dev_set_drvdata(& pdev->dev, data);
  return;
}
}
extern int request_threaded_irq(unsigned int , irqreturn_t (*)(int , void * ) ,
                                irqreturn_t (*)(int , void * ) , unsigned long ,
                                char const * , void * ) ;
 static int request_irq(unsigned int irq , irqreturn_t (*handler)(int , void * ) ,
                                unsigned long flags , char const *name , void *dev )
{
  int tmp ;
  {
  tmp = request_threaded_irq(irq, handler, (irqreturn_t (*)(int , void * ))0, flags,
                             name, dev);
  return (tmp);
}
}
 static int ldv_request_irq_7(unsigned int irq , irqreturn_t (*handler)(int ,
                                                                                void * ) ,
                                      unsigned long flags , char const *name , void *dev ) ;
extern void free_irq(unsigned int , void * ) ;
void ldv_free_irq_8(unsigned int ldv_func_arg1 , void *ldv_func_arg2 ) ;
void ldv_free_irq_9(unsigned int ldv_func_arg1 , void *ldv_func_arg2 ) ;
 static void iio_trigger_put(struct iio_trigger *trig )
{
  {
  ldv_module_put_5((trig->ops)->owner);
  put_device(& trig->dev);
  return;
}
}
 static void iio_trigger_set_drvdata(struct iio_trigger *trig , void *data )
{
  {
  dev_set_drvdata(& trig->dev, data);
  return;
}
}
 static void *iio_trigger_get_drvdata(struct iio_trigger *trig )
{
  void *tmp ;
  {
  tmp = dev_get_drvdata((struct device const *)(& trig->dev));
  return (tmp);
}
}
extern int iio_trigger_register(struct iio_trigger * ) ;
extern void iio_trigger_unregister(struct iio_trigger * ) ;
extern void iio_trigger_poll(struct iio_trigger * ) ;
extern struct iio_trigger *iio_trigger_alloc(char const * , ...) ;
static irqreturn_t iio_interrupt_trigger_poll(int irq , void *private )
{
  {
  iio_trigger_poll((struct iio_trigger *)private);
  return (1);
}
}
static struct iio_trigger_ops const iio_interrupt_trigger_ops = {& __this_module, 0, 0, 0};
static int iio_interrupt_trigger_probe(struct platform_device *pdev )
{
  struct iio_interrupt_trigger_info *trig_info ;
  struct iio_trigger *trig ;
  unsigned long irqflags ;
  struct resource *irq_res ;
  int irq ;
  int ret ;
  void *tmp ;
  {
  ret = 0;
  irq_res = platform_get_resource(pdev, 1024U, 0U);
  if ((unsigned long )irq_res == (unsigned long )((struct resource *)0)) {
    return (-19);
  } else {
  }
  irqflags = (irq_res->flags & 15UL) | 128UL;
  irq = (int )irq_res->start;
  trig = iio_trigger_alloc("irqtrig%d", irq);
  if ((unsigned long )trig == (unsigned long )((struct iio_trigger *)0)) {
    ret = -12;
    goto error_ret;
  } else {
  }
  tmp = kzalloc(4UL, 208U);
  trig_info = (struct iio_interrupt_trigger_info *)tmp;
  if ((unsigned long )trig_info == (unsigned long )((struct iio_interrupt_trigger_info *)0)) {
    ret = -12;
    goto error_put_trigger;
  } else {
  }
  iio_trigger_set_drvdata(trig, (void *)trig_info);
  trig_info->irq = (unsigned int )irq;
  trig->ops = & iio_interrupt_trigger_ops;
  ret = ldv_request_irq_7((unsigned int )irq, & iio_interrupt_trigger_poll, irqflags,
                          trig->name, (void *)trig);
  if (ret != 0) {
    dev_err((struct device const *)(& pdev->dev), "request IRQ-%d failed", irq);
    goto error_free_trig_info;
  } else {
  }
  ret = iio_trigger_register(trig);
  if (ret != 0) {
    goto error_release_irq;
  } else {
  }
  platform_set_drvdata(pdev, (void *)trig);
  return (0);
  error_release_irq:
  ldv_free_irq_8((unsigned int )irq, (void *)trig);
  error_free_trig_info:
  kfree((void const *)trig_info);
  error_put_trigger:
  iio_trigger_put(trig);
  error_ret: ;
  return (ret);
}
}
static int iio_interrupt_trigger_remove(struct platform_device *pdev )
{
  struct iio_trigger *trig ;
  struct iio_interrupt_trigger_info *trig_info ;
  void *tmp ;
  void *tmp___0 ;
  {
  tmp = platform_get_drvdata((struct platform_device const *)pdev);
  trig = (struct iio_trigger *)tmp;
  tmp___0 = iio_trigger_get_drvdata(trig);
  trig_info = (struct iio_interrupt_trigger_info *)tmp___0;
  iio_trigger_unregister(trig);
  ldv_free_irq_9(trig_info->irq, (void *)trig);
  kfree((void const *)trig_info);
  iio_trigger_put(trig);
  return (0);
}
}
static struct platform_driver iio_interrupt_trigger_driver =
     {& iio_interrupt_trigger_probe, & iio_interrupt_trigger_remove, 0, 0, 0, {"iio_interrupt_trigger",
                                                                             0, 0,
                                                                             0, (_Bool)0,
                                                                             0, 0,
                                                                             0, 0,
                                                                             0, 0,
                                                                             0, 0,
                                                                             0, 0,
                                                                             0}, 0,
    (_Bool)0};
static int iio_interrupt_trigger_driver_init(void)
{
  int tmp ;
  {
  tmp = ldv___platform_driver_register_10(& iio_interrupt_trigger_driver, & __this_module);
  return (tmp);
}
}
static void iio_interrupt_trigger_driver_exit(void)
{
  {
  ldv_platform_driver_unregister_11(& iio_interrupt_trigger_driver);
  return;
}
}
int ldv_retval_0 ;
int ldv_retval_1 ;
extern void ldv_initialize(void) ;
void ldv_check_final_state(void) ;
int ldv_retval_2 ;
int ldv_irq_1(int state , int line , void *data )
{
  irqreturn_t irq_retval ;
  int tmp ;
  int tmp___0 ;
  {
  tmp = __VERIFIER_nondet_int();
  irq_retval = (irqreturn_t )tmp;
  if (state != 0) {
    tmp___0 = __VERIFIER_nondet_int();
    switch (tmp___0) {
    case 0: ;
    if (state == 1) {
      LDV_IN_INTERRUPT = 2;
      irq_retval = iio_interrupt_trigger_poll(line, data);
      LDV_IN_INTERRUPT = 1;
      return (state);
    } else {
    }
    goto ldv_24390;
    default:
    ldv_stop();
    }
    ldv_24390: ;
  } else {
  }
  return (state);
}
}
void activate_suitable_irq_1(int line , void *data )
{
  {
  if (ldv_irq_1_0 == 0) {
    ldv_irq_line_1_0 = line;
    ldv_irq_data_1_0 = data;
    ldv_irq_1_0 = 1;
    return;
  } else {
  }
  if (ldv_irq_1_1 == 0) {
    ldv_irq_line_1_1 = line;
    ldv_irq_data_1_1 = data;
    ldv_irq_1_1 = 1;
    return;
  } else {
  }
  if (ldv_irq_1_2 == 0) {
    ldv_irq_line_1_2 = line;
    ldv_irq_data_1_2 = data;
    ldv_irq_1_2 = 1;
    return;
  } else {
  }
  if (ldv_irq_1_3 == 0) {
    ldv_irq_line_1_3 = line;
    ldv_irq_data_1_3 = data;
    ldv_irq_1_3 = 1;
    return;
  } else {
  }
  return;
}
}
int reg_check_1(irqreturn_t (*handler)(int , void * ) )
{
  {
  if ((unsigned long )handler == (unsigned long )(& iio_interrupt_trigger_poll)) {
    return (1);
  } else {
  }
  return (0);
}
}
void choose_interrupt_1(void)
{
  int tmp ;
  {
  tmp = __VERIFIER_nondet_int();
  switch (tmp) {
  case 0:
  ldv_irq_1_0 = ldv_irq_1(ldv_irq_1_0, ldv_irq_line_1_0, ldv_irq_data_1_0);
  goto ldv_24407;
  case 1:
  ldv_irq_1_0 = ldv_irq_1(ldv_irq_1_1, ldv_irq_line_1_1, ldv_irq_data_1_1);
  goto ldv_24407;
  case 2:
  ldv_irq_1_0 = ldv_irq_1(ldv_irq_1_2, ldv_irq_line_1_2, ldv_irq_data_1_2);
  goto ldv_24407;
  case 3:
  ldv_irq_1_0 = ldv_irq_1(ldv_irq_1_3, ldv_irq_line_1_3, ldv_irq_data_1_3);
  goto ldv_24407;
  default:
  ldv_stop();
  }
  ldv_24407: ;
  return;
}
}
void ldv_platform_probe_2(int (*probe)(struct platform_device * ) )
{
  int err ;
  {
  err = (*probe)(iio_interrupt_trigger_driver_group1);
  if (err == 0) {
    probed_2 = 1;
    ref_cnt = ref_cnt + 1;
  } else {
  }
  return;
}
}
void ldv_platform_driver_init_2(void)
{
  void *tmp ;
  {
  tmp = ldv_init_zalloc(1472UL);
  iio_interrupt_trigger_driver_group1 = (struct platform_device *)tmp;
  return;
}
}
void disable_suitable_irq_1(int line , void *data )
{
  {
  if (ldv_irq_1_0 != 0 && line == ldv_irq_line_1_0) {
    ldv_irq_1_0 = 0;
    return;
  } else {
  }
  if (ldv_irq_1_1 != 0 && line == ldv_irq_line_1_1) {
    ldv_irq_1_1 = 0;
    return;
  } else {
  }
  if (ldv_irq_1_2 != 0 && line == ldv_irq_line_1_2) {
    ldv_irq_1_2 = 0;
    return;
  } else {
  }
  if (ldv_irq_1_3 != 0 && line == ldv_irq_line_1_3) {
    ldv_irq_1_3 = 0;
    return;
  } else {
  }
  return;
}
}
int main(void)
{
  int tmp ;
  int tmp___0 ;
  int tmp___1 ;
  {
  ldv_initialize();
  ldv_state_variable_1 = 1;
  ref_cnt = 0;
  ldv_state_variable_0 = 1;
  ldv_state_variable_2 = 0;
  ldv_24445:
  tmp = __VERIFIER_nondet_int();
  switch (tmp) {
  case 0: ;
  if (ldv_state_variable_1 != 0) {
    choose_interrupt_1();
  } else {
  }
  goto ldv_24432;
  case 1: ;
  if (ldv_state_variable_0 != 0) {
    tmp___0 = __VERIFIER_nondet_int();
    switch (tmp___0) {
    case 0: ;
    if (ldv_state_variable_0 == 3 && ref_cnt == 0) {
      iio_interrupt_trigger_driver_exit();
      ldv_state_variable_0 = 2;
      goto ldv_final;
    } else {
    }
    goto ldv_24436;
    case 1: ;
    if (ldv_state_variable_0 == 1) {
      ldv_retval_0 = iio_interrupt_trigger_driver_init();
      if (ldv_retval_0 == 0) {
        ldv_state_variable_0 = 3;
      } else {
      }
      if (ldv_retval_0 != 0) {
        ldv_state_variable_0 = 2;
        goto ldv_final;
      } else {
      }
    } else {
    }
    goto ldv_24436;
    default:
    ldv_stop();
    }
    ldv_24436: ;
  } else {
  }
  goto ldv_24432;
  case 2: ;
  if (ldv_state_variable_2 != 0) {
    tmp___1 = __VERIFIER_nondet_int();
    switch (tmp___1) {
    case 0: ;
    if (ldv_state_variable_2 == 1) {
      ldv_retval_2 = iio_interrupt_trigger_probe(iio_interrupt_trigger_driver_group1);
      if (ldv_retval_2 == 0) {
        ldv_state_variable_2 = 2;
        ref_cnt = ref_cnt + 1;
        probed_2 = 1;
      } else {
      }
    } else {
    }
    goto ldv_24441;
    case 1: ;
    if (ldv_state_variable_2 == 1 && probed_2 == 1) {
      ldv_retval_1 = iio_interrupt_trigger_remove(iio_interrupt_trigger_driver_group1);
      if (ldv_retval_1 == 0) {
        ldv_state_variable_2 = 1;
        ref_cnt = ref_cnt - 1;
        probed_2 = 0;
      } else {
      }
    } else {
    }
    if (ldv_state_variable_2 == 2 && probed_2 == 1) {
      ldv_retval_1 = iio_interrupt_trigger_remove(iio_interrupt_trigger_driver_group1);
      if (ldv_retval_1 == 0) {
        ldv_state_variable_2 = 1;
        ref_cnt = ref_cnt - 1;
        probed_2 = 0;
      } else {
      }
    } else {
    }
    goto ldv_24441;
    default:
    ldv_stop();
    }
    ldv_24441: ;
  } else {
  }
  goto ldv_24432;
  default:
  ldv_stop();
  }
  ldv_24432: ;
  goto ldv_24445;
  ldv_final:
  ldv_check_final_state();
  return 0;
}
}
void ldv_module_put_5(struct module *ldv_func_arg1 )
{
  {
  ldv_module_put(ldv_func_arg1);
  return;
}
}
void ldv___module_get_6(struct module *ldv_func_arg1 )
{
  {
  ldv_module_get(ldv_func_arg1);
  return;
}
}
 static int ldv_request_irq_7(unsigned int irq , irqreturn_t (*handler)(int ,
                                                                                void * ) ,
                                      unsigned long flags , char const *name , void *dev )
{
  ldv_func_ret_type ldv_func_res ;
  int tmp ;
  int tmp___0 ;
  {
  tmp = request_irq(irq, handler, flags, name, dev);
  ldv_func_res = tmp;
  tmp___0 = reg_check_1(handler);
  if (tmp___0 != 0 && ldv_func_res == 0) {
    activate_suitable_irq_1((int )irq, dev);
  } else {
  }
  return (ldv_func_res);
}
}
void ldv_free_irq_8(unsigned int ldv_func_arg1 , void *ldv_func_arg2 )
{
  {
  free_irq(ldv_func_arg1, ldv_func_arg2);
  disable_suitable_irq_1((int )ldv_func_arg1, ldv_func_arg2);
  return;
}
}
void ldv_free_irq_9(unsigned int ldv_func_arg1 , void *ldv_func_arg2 )
{
  {
  free_irq(ldv_func_arg1, ldv_func_arg2);
  disable_suitable_irq_1((int )ldv_func_arg1, ldv_func_arg2);
  return;
}
}
int ldv___platform_driver_register_10(struct platform_driver *ldv_func_arg1 , struct module *ldv_func_arg2 )
{
  ldv_func_ret_type___0 ldv_func_res ;
  int tmp ;
  {
  tmp = __platform_driver_register(ldv_func_arg1, ldv_func_arg2);
  ldv_func_res = tmp;
  ldv_state_variable_2 = 1;
  ldv_platform_driver_init_2();
  return (ldv_func_res);
}
}
void ldv_platform_driver_unregister_11(struct platform_driver *ldv_func_arg1 )
{
  {
  platform_driver_unregister(ldv_func_arg1);
  ldv_state_variable_2 = 0;
  return;
}
}
extern void *memset(void * , int , size_t ) ;
 static void ldv_error(void)
{
  {
  ERROR: ;
  {reach_error();}
}
}
bool ldv_is_err(void const *ptr )
{
  {
  return ((unsigned long )ptr > 2012UL);
}
}
void *ldv_err_ptr(long error )
{
  {
  return ((void *)(2012L - error));
}
}
long ldv_ptr_err(void const *ptr )
{
  {
  return ((long )(2012UL - (unsigned long )ptr));
}
}
bool ldv_is_err_or_null(void const *ptr )
{
  bool tmp ;
  int tmp___0 ;
  {
  if ((unsigned long )ptr == (unsigned long )((void const *)0)) {
    tmp___0 = 1;
  } else {
    tmp = ldv_is_err(ptr);
    if ((int )tmp) {
      tmp___0 = 1;
    } else {
      tmp___0 = 0;
    }
  }
  return ((bool )tmp___0);
}
}
int ldv_module_refcounter = 1;
void ldv_module_get(struct module *module )
{
  {
  if ((unsigned long )module != (unsigned long )((struct module *)0)) {
    ldv_module_refcounter = ldv_module_refcounter + 1;
  } else {
  }
  return;
}
}
int ldv_try_module_get(struct module *module )
{
  int module_get_succeeded ;
  {
  if ((unsigned long )module != (unsigned long )((struct module *)0)) {
    module_get_succeeded = ldv_undef_int();
    if (module_get_succeeded == 1) {
      ldv_module_refcounter = ldv_module_refcounter + 1;
      return (1);
    } else {
      return (0);
    }
  } else {
  }
  return (0);
}
}
void ldv_module_put(struct module *module )
{
  {
  if ((unsigned long )module != (unsigned long )((struct module *)0)) {
    if (ldv_module_refcounter <= 1) {
      ldv_error();
    } else {
    }
    ldv_module_refcounter = ldv_module_refcounter - 1;
  } else {
  }
  return;
}
}
void ldv_module_put_and_exit(void)
{
  {
  ldv_module_put((struct module *)1);
  LDV_STOP: ;
  goto LDV_STOP;
}
}
unsigned int ldv_module_refcount(void)
{
  {
  return ((unsigned int )(ldv_module_refcounter + -1));
}
}
void ldv_check_final_state(void)
{
  {
  if (ldv_module_refcounter != 1) {
    ldv_error();
  } else {
  }
  return;
}
}
int __VERIFIER_nondet_int(void);
int __platform_driver_register(struct platform_driver *arg0, struct module *arg1) {
  return __VERIFIER_nondet_int();
}
void dev_err(const struct device *arg0, const char *arg1, ...) {
  return;
}
void free_irq(unsigned int arg0, void *arg1) {
  return;
}
struct iio_trigger *iio_trigger_alloc(const char *arg0, ...) {
  return ldv_malloc(sizeof(struct iio_trigger));
}
void iio_trigger_poll(struct iio_trigger *arg0) {
  return;
}
int __VERIFIER_nondet_int(void);
int iio_trigger_register(struct iio_trigger *arg0) {
  return __VERIFIER_nondet_int();
}
void iio_trigger_unregister(struct iio_trigger *arg0) {
  return;
}
void ldv_initialize() {
  return;
}
void platform_driver_unregister(struct platform_driver *arg0) {
  return;
}
struct resource *platform_get_resource(struct platform_device *arg0, unsigned int arg1, unsigned int arg2) {
  return ldv_malloc(sizeof(struct resource));
}
void put_device(struct device *arg0) {
  return;
}
int __VERIFIER_nondet_int(void);
int request_threaded_irq(unsigned int arg0, irqreturn_t (*arg1)(int, void *), irqreturn_t (*arg2)(int, void *), unsigned long arg3, const char *arg4, void *arg5) {
  return __VERIFIER_nondet_int();
}
void free(void *);
void kfree(void const *p) {
  free((void *)p);
}
