extern void abort(void);

extern void __assert_fail (const char *__assertion, const char *__file,
      unsigned int __line, const char *__function)
     __attribute__ ((__nothrow__ , __leaf__)) __attribute__ ((__noreturn__));
extern void __assert_perror_fail (int __errnum, const char *__file,
      unsigned int __line, const char *__function)
     __attribute__ ((__nothrow__ , __leaf__)) __attribute__ ((__noreturn__));
extern void __assert (const char *__assertion, const char *__file, int __line)
     __attribute__ ((__nothrow__ , __leaf__)) __attribute__ ((__noreturn__));

void reach_error() { ((void) sizeof ((0) ? 1 : 0), __extension__ ({ if (0) ; else __assert_fail ("0", "43_2a_consumption_linux-3.16-rc1.tar.xz-43_2a-drivers--hid--hid-axff.ko-entry_point.cil.out.c", 3, __extension__ __PRETTY_FUNCTION__); })); }
struct kernel_symbol {
   unsigned long value ;
   char const *name ;
};
struct module;
typedef signed char __s8;
typedef unsigned char __u8;
typedef short __s16;
typedef unsigned short __u16;
typedef int __s32;
typedef unsigned int __u32;
typedef unsigned long long __u64;
typedef unsigned char u8;
typedef short s16;
typedef unsigned short u16;
typedef int s32;
typedef unsigned int u32;
typedef long long s64;
typedef unsigned long long u64;
typedef long __kernel_long_t;
typedef unsigned long __kernel_ulong_t;
typedef unsigned int __kernel_uid32_t;
typedef unsigned int __kernel_gid32_t;
typedef __kernel_ulong_t __kernel_size_t;
typedef __kernel_long_t __kernel_ssize_t;
typedef long long __kernel_loff_t;
typedef __kernel_long_t __kernel_time_t;
typedef __u32 __kernel_dev_t;
typedef __kernel_dev_t dev_t;
typedef unsigned short umode_t;
typedef _Bool bool;
typedef __kernel_uid32_t uid_t;
typedef __kernel_gid32_t gid_t;
typedef __kernel_loff_t loff_t;
typedef __kernel_size_t size_t;
typedef __kernel_ssize_t ssize_t;
typedef __kernel_time_t time_t;
typedef unsigned long sector_t;
typedef unsigned long blkcnt_t;
typedef unsigned int gfp_t;
typedef unsigned int fmode_t;
struct __anonstruct_atomic_t_6 {
   int counter ;
};
typedef struct __anonstruct_atomic_t_6 atomic_t;
struct __anonstruct_atomic64_t_7 {
   long counter ;
};
typedef struct __anonstruct_atomic64_t_7 atomic64_t;
struct list_head {
   struct list_head *next ;
   struct list_head *prev ;
};
struct hlist_node;
struct hlist_head {
   struct hlist_node *first ;
};
struct hlist_node {
   struct hlist_node *next ;
   struct hlist_node **pprev ;
};
struct callback_head {
   struct callback_head *next ;
   void (*func)(struct callback_head * ) ;
};
typedef unsigned long pgdval_t;
typedef unsigned long pgprotval_t;
struct pgprot {
   pgprotval_t pgprot ;
};
typedef struct pgprot pgprot_t;
struct __anonstruct_pgd_t_12 {
   pgdval_t pgd ;
};
typedef struct __anonstruct_pgd_t_12 pgd_t;
struct page;
typedef struct page *pgtable_t;
struct file;
struct seq_file;
struct mm_struct;
struct task_struct;
struct cpumask;
struct arch_spinlock;
typedef u16 __ticket_t;
typedef u32 __ticketpair_t;
struct __raw_tickets {
   __ticket_t head ;
   __ticket_t tail ;
};
union __anonunion_ldv_1458_15 {
   __ticketpair_t head_tail ;
   struct __raw_tickets tickets ;
};
struct arch_spinlock {
   union __anonunion_ldv_1458_15 ldv_1458 ;
};
typedef struct arch_spinlock arch_spinlock_t;
struct qrwlock {
   atomic_t cnts ;
   arch_spinlock_t lock ;
};
typedef struct qrwlock arch_rwlock_t;
typedef void (*ctor_fn_t)(void);
struct _ddebug {
   char const *modname ;
   char const *function ;
   char const *filename ;
   char const *format ;
   unsigned int lineno : 18 ;
   unsigned char flags ;
};
struct device;
struct file_operations;
struct completion;
struct pid;
struct bug_entry {
   int bug_addr_disp ;
   int file_disp ;
   unsigned short line ;
   unsigned short flags ;
};
struct timespec;
struct cpumask {
   unsigned long bits[128U] ;
};
typedef struct cpumask *cpumask_var_t;
struct seq_operations;
struct kmem_cache;
typedef atomic64_t atomic_long_t;
struct lockdep_map;
struct stack_trace {
   unsigned int nr_entries ;
   unsigned int max_entries ;
   unsigned long *entries ;
   int skip ;
};
struct lockdep_subclass_key {
   char __one_byte ;
} __attribute__((__packed__)) ;
struct lock_class_key {
   struct lockdep_subclass_key subkeys[8U] ;
};
struct lock_class {
   struct list_head hash_entry ;
   struct list_head lock_entry ;
   struct lockdep_subclass_key *key ;
   unsigned int subclass ;
   unsigned int dep_gen_id ;
   unsigned long usage_mask ;
   struct stack_trace usage_traces[13U] ;
   struct list_head locks_after ;
   struct list_head locks_before ;
   unsigned int version ;
   unsigned long ops ;
   char const *name ;
   int name_version ;
   unsigned long contention_point[4U] ;
   unsigned long contending_point[4U] ;
};
struct lockdep_map {
   struct lock_class_key *key ;
   struct lock_class *class_cache[2U] ;
   char const *name ;
   int cpu ;
   unsigned long ip ;
};
struct raw_spinlock {
   arch_spinlock_t raw_lock ;
   unsigned int magic ;
   unsigned int owner_cpu ;
   void *owner ;
   struct lockdep_map dep_map ;
};
typedef struct raw_spinlock raw_spinlock_t;
struct __anonstruct_ldv_6346_31 {
   u8 __padding[24U] ;
   struct lockdep_map dep_map ;
};
union __anonunion_ldv_6347_30 {
   struct raw_spinlock rlock ;
   struct __anonstruct_ldv_6346_31 ldv_6346 ;
};
struct spinlock {
   union __anonunion_ldv_6347_30 ldv_6347 ;
};
typedef struct spinlock spinlock_t;
struct __anonstruct_rwlock_t_32 {
   arch_rwlock_t raw_lock ;
   unsigned int magic ;
   unsigned int owner_cpu ;
   void *owner ;
   struct lockdep_map dep_map ;
};
typedef struct __anonstruct_rwlock_t_32 rwlock_t;
struct seqcount {
   unsigned int sequence ;
   struct lockdep_map dep_map ;
};
typedef struct seqcount seqcount_t;
struct timespec {
   __kernel_time_t tv_sec ;
   long tv_nsec ;
};
struct user_namespace;
struct __anonstruct_kuid_t_34 {
   uid_t val ;
};
typedef struct __anonstruct_kuid_t_34 kuid_t;
struct __anonstruct_kgid_t_35 {
   gid_t val ;
};
typedef struct __anonstruct_kgid_t_35 kgid_t;
struct kstat {
   u64 ino ;
   dev_t dev ;
   umode_t mode ;
   unsigned int nlink ;
   kuid_t uid ;
   kgid_t gid ;
   dev_t rdev ;
   loff_t size ;
   struct timespec atime ;
   struct timespec mtime ;
   struct timespec ctime ;
   unsigned long blksize ;
   unsigned long long blocks ;
};
struct __wait_queue_head {
   spinlock_t lock ;
   struct list_head task_list ;
};
typedef struct __wait_queue_head wait_queue_head_t;
struct __anonstruct_nodemask_t_36 {
   unsigned long bits[16U] ;
};
typedef struct __anonstruct_nodemask_t_36 nodemask_t;
struct optimistic_spin_queue;
struct mutex {
   atomic_t count ;
   spinlock_t wait_lock ;
   struct list_head wait_list ;
   struct task_struct *owner ;
   char const *name ;
   void *magic ;
   struct lockdep_map dep_map ;
};
struct rw_semaphore;
struct rw_semaphore {
   long count ;
   raw_spinlock_t wait_lock ;
   struct list_head wait_list ;
   struct task_struct *owner ;
   struct optimistic_spin_queue *osq ;
   struct lockdep_map dep_map ;
};
struct completion {
   unsigned int done ;
   wait_queue_head_t wait ;
};
struct llist_node;
struct llist_node {
   struct llist_node *next ;
};
union ktime {
   s64 tv64 ;
};
typedef union ktime ktime_t;
struct tvec_base;
struct timer_list {
   struct list_head entry ;
   unsigned long expires ;
   struct tvec_base *base ;
   void (*function)(unsigned long ) ;
   unsigned long data ;
   int slack ;
   int start_pid ;
   void *start_site ;
   char start_comm[16U] ;
   struct lockdep_map lockdep_map ;
};
struct workqueue_struct;
struct work_struct;
struct work_struct {
   atomic_long_t data ;
   struct list_head entry ;
   void (*func)(struct work_struct * ) ;
   struct lockdep_map lockdep_map ;
};
struct delayed_work {
   struct work_struct work ;
   struct timer_list timer ;
   struct workqueue_struct *wq ;
   int cpu ;
};
struct pm_message {
   int event ;
};
typedef struct pm_message pm_message_t;
struct dev_pm_ops {
   int (*prepare)(struct device * ) ;
   void (*complete)(struct device * ) ;
   int (*suspend)(struct device * ) ;
   int (*resume)(struct device * ) ;
   int (*freeze)(struct device * ) ;
   int (*thaw)(struct device * ) ;
   int (*poweroff)(struct device * ) ;
   int (*restore)(struct device * ) ;
   int (*suspend_late)(struct device * ) ;
   int (*resume_early)(struct device * ) ;
   int (*freeze_late)(struct device * ) ;
   int (*thaw_early)(struct device * ) ;
   int (*poweroff_late)(struct device * ) ;
   int (*restore_early)(struct device * ) ;
   int (*suspend_noirq)(struct device * ) ;
   int (*resume_noirq)(struct device * ) ;
   int (*freeze_noirq)(struct device * ) ;
   int (*thaw_noirq)(struct device * ) ;
   int (*poweroff_noirq)(struct device * ) ;
   int (*restore_noirq)(struct device * ) ;
   int (*runtime_suspend)(struct device * ) ;
   int (*runtime_resume)(struct device * ) ;
   int (*runtime_idle)(struct device * ) ;
};
enum rpm_status {
    RPM_ACTIVE = 0,
    RPM_RESUMING = 1,
    RPM_SUSPENDED = 2,
    RPM_SUSPENDING = 3
} ;
enum rpm_request {
    RPM_REQ_NONE = 0,
    RPM_REQ_IDLE = 1,
    RPM_REQ_SUSPEND = 2,
    RPM_REQ_AUTOSUSPEND = 3,
    RPM_REQ_RESUME = 4
} ;
struct wakeup_source;
struct pm_subsys_data {
   spinlock_t lock ;
   unsigned int refcount ;
   struct list_head clock_list ;
};
struct dev_pm_qos;
struct dev_pm_info {
   pm_message_t power_state ;
   unsigned char can_wakeup : 1 ;
   unsigned char async_suspend : 1 ;
   bool is_prepared ;
   bool is_suspended ;
   bool is_noirq_suspended ;
   bool is_late_suspended ;
   bool ignore_children ;
   bool early_init ;
   bool direct_complete ;
   spinlock_t lock ;
   struct list_head entry ;
   struct completion completion ;
   struct wakeup_source *wakeup ;
   bool wakeup_path ;
   bool syscore ;
   struct timer_list suspend_timer ;
   unsigned long timer_expires ;
   struct work_struct work ;
   wait_queue_head_t wait_queue ;
   atomic_t usage_count ;
   atomic_t child_count ;
   unsigned char disable_depth : 3 ;
   unsigned char idle_notification : 1 ;
   unsigned char request_pending : 1 ;
   unsigned char deferred_resume : 1 ;
   unsigned char run_wake : 1 ;
   unsigned char runtime_auto : 1 ;
   unsigned char no_callbacks : 1 ;
   unsigned char irq_safe : 1 ;
   unsigned char use_autosuspend : 1 ;
   unsigned char timer_autosuspends : 1 ;
   unsigned char memalloc_noio : 1 ;
   enum rpm_request request ;
   enum rpm_status runtime_status ;
   int runtime_error ;
   int autosuspend_delay ;
   unsigned long last_busy ;
   unsigned long active_jiffies ;
   unsigned long suspended_jiffies ;
   unsigned long accounting_timestamp ;
   struct pm_subsys_data *subsys_data ;
   void (*set_latency_tolerance)(struct device * , s32 ) ;
   struct dev_pm_qos *qos ;
};
struct dev_pm_domain {
   struct dev_pm_ops ops ;
};
struct __anonstruct_mm_context_t_101 {
   void *ldt ;
   int size ;
   unsigned short ia32_compat ;
   struct mutex lock ;
   void *vdso ;
};
typedef struct __anonstruct_mm_context_t_101 mm_context_t;
struct rb_node {
   unsigned long __rb_parent_color ;
   struct rb_node *rb_right ;
   struct rb_node *rb_left ;
} __attribute__((__aligned__(sizeof(long )))) ;
struct rb_root {
   struct rb_node *rb_node ;
};
struct vm_area_struct;
struct cred;
struct inode;
struct xol_area;
struct uprobes_state {
   struct xol_area *xol_area ;
};
struct address_space;
union __anonunion_ldv_14120_138 {
   struct address_space *mapping ;
   void *s_mem ;
};
union __anonunion_ldv_14126_140 {
   unsigned long index ;
   void *freelist ;
   bool pfmemalloc ;
};
struct __anonstruct_ldv_14136_144 {
   unsigned short inuse ;
   unsigned short objects : 15 ;
   unsigned char frozen : 1 ;
};
union __anonunion_ldv_14138_143 {
   atomic_t _mapcount ;
   struct __anonstruct_ldv_14136_144 ldv_14136 ;
   int units ;
};
struct __anonstruct_ldv_14140_142 {
   union __anonunion_ldv_14138_143 ldv_14138 ;
   atomic_t _count ;
};
union __anonunion_ldv_14142_141 {
   unsigned long counters ;
   struct __anonstruct_ldv_14140_142 ldv_14140 ;
   unsigned int active ;
};
struct __anonstruct_ldv_14143_139 {
   union __anonunion_ldv_14126_140 ldv_14126 ;
   union __anonunion_ldv_14142_141 ldv_14142 ;
};
struct __anonstruct_ldv_14150_146 {
   struct page *next ;
   int pages ;
   int pobjects ;
};
struct slab;
union __anonunion_ldv_14155_145 {
   struct list_head lru ;
   struct __anonstruct_ldv_14150_146 ldv_14150 ;
   struct slab *slab_page ;
   struct callback_head callback_head ;
   pgtable_t pmd_huge_pte ;
};
union __anonunion_ldv_14161_147 {
   unsigned long private ;
   spinlock_t *ptl ;
   struct kmem_cache *slab_cache ;
   struct page *first_page ;
};
struct page {
   unsigned long flags ;
   union __anonunion_ldv_14120_138 ldv_14120 ;
   struct __anonstruct_ldv_14143_139 ldv_14143 ;
   union __anonunion_ldv_14155_145 ldv_14155 ;
   union __anonunion_ldv_14161_147 ldv_14161 ;
   unsigned long debug_flags ;
};
struct __anonstruct_linear_149 {
   struct rb_node rb ;
   unsigned long rb_subtree_last ;
};
union __anonunion_shared_148 {
   struct __anonstruct_linear_149 linear ;
   struct list_head nonlinear ;
};
struct anon_vma;
struct vm_operations_struct;
struct mempolicy;
struct vm_area_struct {
   unsigned long vm_start ;
   unsigned long vm_end ;
   struct vm_area_struct *vm_next ;
   struct vm_area_struct *vm_prev ;
   struct rb_node vm_rb ;
   unsigned long rb_subtree_gap ;
   struct mm_struct *vm_mm ;
   pgprot_t vm_page_prot ;
   unsigned long vm_flags ;
   union __anonunion_shared_148 shared ;
   struct list_head anon_vma_chain ;
   struct anon_vma *anon_vma ;
   struct vm_operations_struct const *vm_ops ;
   unsigned long vm_pgoff ;
   struct file *vm_file ;
   void *vm_private_data ;
   struct mempolicy *vm_policy ;
};
struct core_thread {
   struct task_struct *task ;
   struct core_thread *next ;
};
struct core_state {
   atomic_t nr_threads ;
   struct core_thread dumper ;
   struct completion startup ;
};
struct mm_rss_stat {
   atomic_long_t count[3U] ;
};
struct kioctx_table;
struct linux_binfmt;
struct mmu_notifier_mm;
struct mm_struct {
   struct vm_area_struct *mmap ;
   struct rb_root mm_rb ;
   u32 vmacache_seqnum ;
   unsigned long (*get_unmapped_area)(struct file * , unsigned long , unsigned long ,
                                      unsigned long , unsigned long ) ;
   unsigned long mmap_base ;
   unsigned long mmap_legacy_base ;
   unsigned long task_size ;
   unsigned long highest_vm_end ;
   pgd_t *pgd ;
   atomic_t mm_users ;
   atomic_t mm_count ;
   atomic_long_t nr_ptes ;
   int map_count ;
   spinlock_t page_table_lock ;
   struct rw_semaphore mmap_sem ;
   struct list_head mmlist ;
   unsigned long hiwater_rss ;
   unsigned long hiwater_vm ;
   unsigned long total_vm ;
   unsigned long locked_vm ;
   unsigned long pinned_vm ;
   unsigned long shared_vm ;
   unsigned long exec_vm ;
   unsigned long stack_vm ;
   unsigned long def_flags ;
   unsigned long start_code ;
   unsigned long end_code ;
   unsigned long start_data ;
   unsigned long end_data ;
   unsigned long start_brk ;
   unsigned long brk ;
   unsigned long start_stack ;
   unsigned long arg_start ;
   unsigned long arg_end ;
   unsigned long env_start ;
   unsigned long env_end ;
   unsigned long saved_auxv[46U] ;
   struct mm_rss_stat rss_stat ;
   struct linux_binfmt *binfmt ;
   cpumask_var_t cpu_vm_mask_var ;
   mm_context_t context ;
   unsigned long flags ;
   struct core_state *core_state ;
   spinlock_t ioctx_lock ;
   struct kioctx_table *ioctx_table ;
   struct task_struct *owner ;
   struct file *exe_file ;
   struct mmu_notifier_mm *mmu_notifier_mm ;
   struct cpumask cpumask_allocation ;
   unsigned long numa_next_scan ;
   unsigned long numa_scan_offset ;
   int numa_scan_seq ;
   bool tlb_flush_pending ;
   struct uprobes_state uprobes_state ;
};
typedef __u64 Elf64_Addr;
typedef __u16 Elf64_Half;
typedef __u32 Elf64_Word;
typedef __u64 Elf64_Xword;
struct elf64_sym {
   Elf64_Word st_name ;
   unsigned char st_info ;
   unsigned char st_other ;
   Elf64_Half st_shndx ;
   Elf64_Addr st_value ;
   Elf64_Xword st_size ;
};
typedef struct elf64_sym Elf64_Sym;
union __anonunion_ldv_14524_153 {
   unsigned long bitmap[4U] ;
   struct callback_head callback_head ;
};
struct idr_layer {
   int prefix ;
   int layer ;
   struct idr_layer *ary[256U] ;
   int count ;
   union __anonunion_ldv_14524_153 ldv_14524 ;
};
struct idr {
   struct idr_layer *hint ;
   struct idr_layer *top ;
   int layers ;
   int cur ;
   spinlock_t lock ;
   int id_free_cnt ;
   struct idr_layer *id_free ;
};
struct ida_bitmap {
   long nr_busy ;
   unsigned long bitmap[15U] ;
};
struct ida {
   struct idr idr ;
   struct ida_bitmap *free_bitmap ;
};
struct dentry;
struct iattr;
struct super_block;
struct file_system_type;
struct kernfs_open_node;
struct kernfs_iattrs;
struct kernfs_root;
struct kernfs_elem_dir {
   unsigned long subdirs ;
   struct rb_root children ;
   struct kernfs_root *root ;
};
struct kernfs_node;
struct kernfs_elem_symlink {
   struct kernfs_node *target_kn ;
};
struct kernfs_ops;
struct kernfs_elem_attr {
   struct kernfs_ops const *ops ;
   struct kernfs_open_node *open ;
   loff_t size ;
};
union __anonunion_ldv_14668_154 {
   struct kernfs_elem_dir dir ;
   struct kernfs_elem_symlink symlink ;
   struct kernfs_elem_attr attr ;
};
struct kernfs_node {
   atomic_t count ;
   atomic_t active ;
   struct lockdep_map dep_map ;
   struct kernfs_node *parent ;
   char const *name ;
   struct rb_node rb ;
   void const *ns ;
   unsigned int hash ;
   union __anonunion_ldv_14668_154 ldv_14668 ;
   void *priv ;
   unsigned short flags ;
   umode_t mode ;
   unsigned int ino ;
   struct kernfs_iattrs *iattr ;
};
struct kernfs_syscall_ops {
   int (*remount_fs)(struct kernfs_root * , int * , char * ) ;
   int (*show_options)(struct seq_file * , struct kernfs_root * ) ;
   int (*mkdir)(struct kernfs_node * , char const * , umode_t ) ;
   int (*rmdir)(struct kernfs_node * ) ;
   int (*rename)(struct kernfs_node * , struct kernfs_node * , char const * ) ;
};
struct kernfs_root {
   struct kernfs_node *kn ;
   unsigned int flags ;
   struct ida ino_ida ;
   struct kernfs_syscall_ops *syscall_ops ;
   struct list_head supers ;
   wait_queue_head_t deactivate_waitq ;
};
struct kernfs_open_file {
   struct kernfs_node *kn ;
   struct file *file ;
   void *priv ;
   struct mutex mutex ;
   int event ;
   struct list_head list ;
   size_t atomic_write_len ;
   bool mmapped ;
   struct vm_operations_struct const *vm_ops ;
};
struct kernfs_ops {
   int (*seq_show)(struct seq_file * , void * ) ;
   void *(*seq_start)(struct seq_file * , loff_t * ) ;
   void *(*seq_next)(struct seq_file * , void * , loff_t * ) ;
   void (*seq_stop)(struct seq_file * , void * ) ;
   ssize_t (*read)(struct kernfs_open_file * , char * , size_t , loff_t ) ;
   size_t atomic_write_len ;
   ssize_t (*write)(struct kernfs_open_file * , char * , size_t , loff_t ) ;
   int (*mmap)(struct kernfs_open_file * , struct vm_area_struct * ) ;
   struct lock_class_key lockdep_key ;
};
struct sock;
struct kobject;
enum kobj_ns_type {
    KOBJ_NS_TYPE_NONE = 0,
    KOBJ_NS_TYPE_NET = 1,
    KOBJ_NS_TYPES = 2
} ;
struct kobj_ns_type_operations {
   enum kobj_ns_type type ;
   bool (*current_may_mount)(void) ;
   void *(*grab_current_ns)(void) ;
   void const *(*netlink_ns)(struct sock * ) ;
   void const *(*initial_ns)(void) ;
   void (*drop_ns)(void * ) ;
};
struct bin_attribute;
struct attribute {
   char const *name ;
   umode_t mode ;
   bool ignore_lockdep ;
   struct lock_class_key *key ;
   struct lock_class_key skey ;
};
struct attribute_group {
   char const *name ;
   umode_t (*is_visible)(struct kobject * , struct attribute * , int ) ;
   struct attribute **attrs ;
   struct bin_attribute **bin_attrs ;
};
struct bin_attribute {
   struct attribute attr ;
   size_t size ;
   void *private ;
   ssize_t (*read)(struct file * , struct kobject * , struct bin_attribute * , char * ,
                   loff_t , size_t ) ;
   ssize_t (*write)(struct file * , struct kobject * , struct bin_attribute * , char * ,
                    loff_t , size_t ) ;
   int (*mmap)(struct file * , struct kobject * , struct bin_attribute * , struct vm_area_struct * ) ;
};
struct sysfs_ops {
   ssize_t (*show)(struct kobject * , struct attribute * , char * ) ;
   ssize_t (*store)(struct kobject * , struct attribute * , char const * , size_t ) ;
};
struct kref {
   atomic_t refcount ;
};
struct kset;
struct kobj_type;
struct kobject {
   char const *name ;
   struct list_head entry ;
   struct kobject *parent ;
   struct kset *kset ;
   struct kobj_type *ktype ;
   struct kernfs_node *sd ;
   struct kref kref ;
   struct delayed_work release ;
   unsigned char state_initialized : 1 ;
   unsigned char state_in_sysfs : 1 ;
   unsigned char state_add_uevent_sent : 1 ;
   unsigned char state_remove_uevent_sent : 1 ;
   unsigned char uevent_suppress : 1 ;
};
struct kobj_type {
   void (*release)(struct kobject * ) ;
   struct sysfs_ops const *sysfs_ops ;
   struct attribute **default_attrs ;
   struct kobj_ns_type_operations const *(*child_ns_type)(struct kobject * ) ;
   void const *(*namespace)(struct kobject * ) ;
};
struct kobj_uevent_env {
   char *argv[3U] ;
   char *envp[32U] ;
   int envp_idx ;
   char buf[2048U] ;
   int buflen ;
};
struct kset_uevent_ops {
   int (* const filter)(struct kset * , struct kobject * ) ;
   char const *(* const name)(struct kset * , struct kobject * ) ;
   int (* const uevent)(struct kset * , struct kobject * , struct kobj_uevent_env * ) ;
};
struct kset {
   struct list_head list ;
   spinlock_t list_lock ;
   struct kobject kobj ;
   struct kset_uevent_ops const *uevent_ops ;
};
struct kernel_param;
struct kernel_param_ops {
   unsigned int flags ;
   int (*set)(char const * , struct kernel_param const * ) ;
   int (*get)(char * , struct kernel_param const * ) ;
   void (*free)(void * ) ;
};
struct kparam_string;
struct kparam_array;
union __anonunion_ldv_15343_155 {
   void *arg ;
   struct kparam_string const *str ;
   struct kparam_array const *arr ;
};
struct kernel_param {
   char const *name ;
   struct kernel_param_ops const *ops ;
   u16 perm ;
   s16 level ;
   union __anonunion_ldv_15343_155 ldv_15343 ;
};
struct kparam_string {
   unsigned int maxlen ;
   char *string ;
};
struct kparam_array {
   unsigned int max ;
   unsigned int elemsize ;
   unsigned int *num ;
   struct kernel_param_ops const *ops ;
   void *elem ;
};
struct mod_arch_specific {
};
struct module_param_attrs;
struct module_kobject {
   struct kobject kobj ;
   struct module *mod ;
   struct kobject *drivers_dir ;
   struct module_param_attrs *mp ;
   struct completion *kobj_completion ;
};
struct module_attribute {
   struct attribute attr ;
   ssize_t (*show)(struct module_attribute * , struct module_kobject * , char * ) ;
   ssize_t (*store)(struct module_attribute * , struct module_kobject * , char const * ,
                    size_t ) ;
   void (*setup)(struct module * , char const * ) ;
   int (*test)(struct module * ) ;
   void (*free)(struct module * ) ;
};
struct exception_table_entry;
enum module_state {
    MODULE_STATE_LIVE = 0,
    MODULE_STATE_COMING = 1,
    MODULE_STATE_GOING = 2,
    MODULE_STATE_UNFORMED = 3
} ;
struct module_ref {
   unsigned long incs ;
   unsigned long decs ;
};
struct module_sect_attrs;
struct module_notes_attrs;
struct tracepoint;
struct ftrace_event_call;
struct module {
   enum module_state state ;
   struct list_head list ;
   char name[56U] ;
   struct module_kobject mkobj ;
   struct module_attribute *modinfo_attrs ;
   char const *version ;
   char const *srcversion ;
   struct kobject *holders_dir ;
   struct kernel_symbol const *syms ;
   unsigned long const *crcs ;
   unsigned int num_syms ;
   struct kernel_param *kp ;
   unsigned int num_kp ;
   unsigned int num_gpl_syms ;
   struct kernel_symbol const *gpl_syms ;
   unsigned long const *gpl_crcs ;
   struct kernel_symbol const *unused_syms ;
   unsigned long const *unused_crcs ;
   unsigned int num_unused_syms ;
   unsigned int num_unused_gpl_syms ;
   struct kernel_symbol const *unused_gpl_syms ;
   unsigned long const *unused_gpl_crcs ;
   bool sig_ok ;
   struct kernel_symbol const *gpl_future_syms ;
   unsigned long const *gpl_future_crcs ;
   unsigned int num_gpl_future_syms ;
   unsigned int num_exentries ;
   struct exception_table_entry *extable ;
   int (*init)(void) ;
   void *module_init ;
   void *module_core ;
   unsigned int init_size ;
   unsigned int core_size ;
   unsigned int init_text_size ;
   unsigned int core_text_size ;
   unsigned int init_ro_size ;
   unsigned int core_ro_size ;
   struct mod_arch_specific arch ;
   unsigned int taints ;
   unsigned int num_bugs ;
   struct list_head bug_list ;
   struct bug_entry *bug_table ;
   Elf64_Sym *symtab ;
   Elf64_Sym *core_symtab ;
   unsigned int num_symtab ;
   unsigned int core_num_syms ;
   char *strtab ;
   char *core_strtab ;
   struct module_sect_attrs *sect_attrs ;
   struct module_notes_attrs *notes_attrs ;
   char *args ;
   void *percpu ;
   unsigned int percpu_size ;
   unsigned int num_tracepoints ;
   struct tracepoint * const *tracepoints_ptrs ;
   unsigned int num_trace_bprintk_fmt ;
   char const **trace_bprintk_fmt_start ;
   struct ftrace_event_call **trace_events ;
   unsigned int num_trace_events ;
   unsigned int num_ftrace_callsites ;
   unsigned long *ftrace_callsites ;
   struct list_head source_list ;
   struct list_head target_list ;
   void (*exit)(void) ;
   struct module_ref *refptr ;
   ctor_fn_t (**ctors)(void) ;
   unsigned int num_ctors ;
};
struct mem_cgroup;
struct kmem_cache_cpu {
   void **freelist ;
   unsigned long tid ;
   struct page *page ;
   struct page *partial ;
   unsigned int stat[26U] ;
};
struct kmem_cache_order_objects {
   unsigned long x ;
};
struct memcg_cache_params;
struct kmem_cache_node;
struct kmem_cache {
   struct kmem_cache_cpu *cpu_slab ;
   unsigned long flags ;
   unsigned long min_partial ;
   int size ;
   int object_size ;
   int offset ;
   int cpu_partial ;
   struct kmem_cache_order_objects oo ;
   struct kmem_cache_order_objects max ;
   struct kmem_cache_order_objects min ;
   gfp_t allocflags ;
   int refcount ;
   void (*ctor)(void * ) ;
   int inuse ;
   int align ;
   int reserved ;
   char const *name ;
   struct list_head list ;
   struct kobject kobj ;
   struct memcg_cache_params *memcg_params ;
   int max_attr_size ;
   struct kset *memcg_kset ;
   int remote_node_defrag_ratio ;
   struct kmem_cache_node *node[1024U] ;
};
struct __anonstruct_ldv_15963_157 {
   struct callback_head callback_head ;
   struct kmem_cache *memcg_caches[0U] ;
};
struct __anonstruct_ldv_15969_158 {
   struct mem_cgroup *memcg ;
   struct list_head list ;
   struct kmem_cache *root_cache ;
   atomic_t nr_pages ;
};
union __anonunion_ldv_15970_156 {
   struct __anonstruct_ldv_15963_157 ldv_15963 ;
   struct __anonstruct_ldv_15969_158 ldv_15969 ;
};
struct memcg_cache_params {
   bool is_root_cache ;
   union __anonunion_ldv_15970_156 ldv_15970 ;
};
struct hid_device;
struct input_id {
   __u16 bustype ;
   __u16 vendor ;
   __u16 product ;
   __u16 version ;
};
struct input_absinfo {
   __s32 value ;
   __s32 minimum ;
   __s32 maximum ;
   __s32 fuzz ;
   __s32 flat ;
   __s32 resolution ;
};
struct input_keymap_entry {
   __u8 flags ;
   __u8 len ;
   __u16 index ;
   __u32 keycode ;
   __u8 scancode[32U] ;
};
struct ff_replay {
   __u16 length ;
   __u16 delay ;
};
struct ff_trigger {
   __u16 button ;
   __u16 interval ;
};
struct ff_envelope {
   __u16 attack_length ;
   __u16 attack_level ;
   __u16 fade_length ;
   __u16 fade_level ;
};
struct ff_constant_effect {
   __s16 level ;
   struct ff_envelope envelope ;
};
struct ff_ramp_effect {
   __s16 start_level ;
   __s16 end_level ;
   struct ff_envelope envelope ;
};
struct ff_condition_effect {
   __u16 right_saturation ;
   __u16 left_saturation ;
   __s16 right_coeff ;
   __s16 left_coeff ;
   __u16 deadband ;
   __s16 center ;
};
struct ff_periodic_effect {
   __u16 waveform ;
   __u16 period ;
   __s16 magnitude ;
   __s16 offset ;
   __u16 phase ;
   struct ff_envelope envelope ;
   __u32 custom_len ;
   __s16 *custom_data ;
};
struct ff_rumble_effect {
   __u16 strong_magnitude ;
   __u16 weak_magnitude ;
};
union __anonunion_u_159 {
   struct ff_constant_effect constant ;
   struct ff_ramp_effect ramp ;
   struct ff_periodic_effect periodic ;
   struct ff_condition_effect condition[2U] ;
   struct ff_rumble_effect rumble ;
};
struct ff_effect {
   __u16 type ;
   __s16 id ;
   __u16 direction ;
   struct ff_trigger trigger ;
   struct ff_replay replay ;
   union __anonunion_u_159 u ;
};
struct klist_node;
struct klist_node {
   void *n_klist ;
   struct list_head n_node ;
   struct kref n_ref ;
};
struct path;
struct seq_file {
   char *buf ;
   size_t size ;
   size_t from ;
   size_t count ;
   size_t pad_until ;
   loff_t index ;
   loff_t read_pos ;
   u64 version ;
   struct mutex lock ;
   struct seq_operations const *op ;
   int poll_event ;
   struct user_namespace *user_ns ;
   void *private ;
};
struct seq_operations {
   void *(*start)(struct seq_file * , loff_t * ) ;
   void (*stop)(struct seq_file * , void * ) ;
   void *(*next)(struct seq_file * , void * , loff_t * ) ;
   int (*show)(struct seq_file * , void * ) ;
};
struct pinctrl;
struct pinctrl_state;
struct dev_pin_info {
   struct pinctrl *p ;
   struct pinctrl_state *default_state ;
   struct pinctrl_state *sleep_state ;
   struct pinctrl_state *idle_state ;
};
struct dma_map_ops;
struct dev_archdata {
   struct dma_map_ops *dma_ops ;
   void *iommu ;
};
struct device_private;
struct device_driver;
struct driver_private;
struct class;
struct subsys_private;
struct bus_type;
struct device_node;
struct iommu_ops;
struct iommu_group;
struct device_attribute;
struct bus_type {
   char const *name ;
   char const *dev_name ;
   struct device *dev_root ;
   struct device_attribute *dev_attrs ;
   struct attribute_group const **bus_groups ;
   struct attribute_group const **dev_groups ;
   struct attribute_group const **drv_groups ;
   int (*match)(struct device * , struct device_driver * ) ;
   int (*uevent)(struct device * , struct kobj_uevent_env * ) ;
   int (*probe)(struct device * ) ;
   int (*remove)(struct device * ) ;
   void (*shutdown)(struct device * ) ;
   int (*online)(struct device * ) ;
   int (*offline)(struct device * ) ;
   int (*suspend)(struct device * , pm_message_t ) ;
   int (*resume)(struct device * ) ;
   struct dev_pm_ops const *pm ;
   struct iommu_ops *iommu_ops ;
   struct subsys_private *p ;
   struct lock_class_key lock_key ;
};
struct device_type;
struct of_device_id;
struct acpi_device_id;
struct device_driver {
   char const *name ;
   struct bus_type *bus ;
   struct module *owner ;
   char const *mod_name ;
   bool suppress_bind_attrs ;
   struct of_device_id const *of_match_table ;
   struct acpi_device_id const *acpi_match_table ;
   int (*probe)(struct device * ) ;
   int (*remove)(struct device * ) ;
   void (*shutdown)(struct device * ) ;
   int (*suspend)(struct device * , pm_message_t ) ;
   int (*resume)(struct device * ) ;
   struct attribute_group const **groups ;
   struct dev_pm_ops const *pm ;
   struct driver_private *p ;
};
struct class_attribute;
struct class {
   char const *name ;
   struct module *owner ;
   struct class_attribute *class_attrs ;
   struct attribute_group const **dev_groups ;
   struct kobject *dev_kobj ;
   int (*dev_uevent)(struct device * , struct kobj_uevent_env * ) ;
   char *(*devnode)(struct device * , umode_t * ) ;
   void (*class_release)(struct class * ) ;
   void (*dev_release)(struct device * ) ;
   int (*suspend)(struct device * , pm_message_t ) ;
   int (*resume)(struct device * ) ;
   struct kobj_ns_type_operations const *ns_type ;
   void const *(*namespace)(struct device * ) ;
   struct dev_pm_ops const *pm ;
   struct subsys_private *p ;
};
struct class_attribute {
   struct attribute attr ;
   ssize_t (*show)(struct class * , struct class_attribute * , char * ) ;
   ssize_t (*store)(struct class * , struct class_attribute * , char const * , size_t ) ;
};
struct device_type {
   char const *name ;
   struct attribute_group const **groups ;
   int (*uevent)(struct device * , struct kobj_uevent_env * ) ;
   char *(*devnode)(struct device * , umode_t * , kuid_t * , kgid_t * ) ;
   void (*release)(struct device * ) ;
   struct dev_pm_ops const *pm ;
};
struct device_attribute {
   struct attribute attr ;
   ssize_t (*show)(struct device * , struct device_attribute * , char * ) ;
   ssize_t (*store)(struct device * , struct device_attribute * , char const * ,
                    size_t ) ;
};
struct device_dma_parameters {
   unsigned int max_segment_size ;
   unsigned long segment_boundary_mask ;
};
struct acpi_device;
struct acpi_dev_node {
   struct acpi_device *companion ;
};
struct dma_coherent_mem;
struct cma;
struct device {
   struct device *parent ;
   struct device_private *p ;
   struct kobject kobj ;
   char const *init_name ;
   struct device_type const *type ;
   struct mutex mutex ;
   struct bus_type *bus ;
   struct device_driver *driver ;
   void *platform_data ;
   void *driver_data ;
   struct dev_pm_info power ;
   struct dev_pm_domain *pm_domain ;
   struct dev_pin_info *pins ;
   int numa_node ;
   u64 *dma_mask ;
   u64 coherent_dma_mask ;
   unsigned long dma_pfn_offset ;
   struct device_dma_parameters *dma_parms ;
   struct list_head dma_pools ;
   struct dma_coherent_mem *dma_mem ;
   struct cma *cma_area ;
   struct dev_archdata archdata ;
   struct device_node *of_node ;
   struct acpi_dev_node acpi_node ;
   dev_t devt ;
   u32 id ;
   spinlock_t devres_lock ;
   struct list_head devres_head ;
   struct klist_node knode_class ;
   struct class *class ;
   struct attribute_group const **groups ;
   void (*release)(struct device * ) ;
   struct iommu_group *iommu_group ;
   bool offline_disabled ;
   bool offline ;
};
struct wakeup_source {
   char const *name ;
   struct list_head entry ;
   spinlock_t lock ;
   struct timer_list timer ;
   unsigned long timer_expires ;
   ktime_t total_time ;
   ktime_t max_time ;
   ktime_t last_time ;
   ktime_t start_prevent_time ;
   ktime_t prevent_sleep_time ;
   unsigned long event_count ;
   unsigned long active_count ;
   unsigned long relax_count ;
   unsigned long expire_count ;
   unsigned long wakeup_count ;
   bool active ;
   bool autosleep_enabled ;
};
struct hlist_bl_node;
struct hlist_bl_head {
   struct hlist_bl_node *first ;
};
struct hlist_bl_node {
   struct hlist_bl_node *next ;
   struct hlist_bl_node **pprev ;
};
struct __anonstruct_ldv_17631_161 {
   spinlock_t lock ;
   unsigned int count ;
};
union __anonunion_ldv_17632_160 {
   struct __anonstruct_ldv_17631_161 ldv_17631 ;
};
struct lockref {
   union __anonunion_ldv_17632_160 ldv_17632 ;
};
struct nameidata;
struct vfsmount;
struct __anonstruct_ldv_17655_163 {
   u32 hash ;
   u32 len ;
};
union __anonunion_ldv_17657_162 {
   struct __anonstruct_ldv_17655_163 ldv_17655 ;
   u64 hash_len ;
};
struct qstr {
   union __anonunion_ldv_17657_162 ldv_17657 ;
   unsigned char const *name ;
};
struct dentry_operations;
union __anonunion_d_u_164 {
   struct list_head d_child ;
   struct callback_head d_rcu ;
};
struct dentry {
   unsigned int d_flags ;
   seqcount_t d_seq ;
   struct hlist_bl_node d_hash ;
   struct dentry *d_parent ;
   struct qstr d_name ;
   struct inode *d_inode ;
   unsigned char d_iname[32U] ;
   struct lockref d_lockref ;
   struct dentry_operations const *d_op ;
   struct super_block *d_sb ;
   unsigned long d_time ;
   void *d_fsdata ;
   struct list_head d_lru ;
   union __anonunion_d_u_164 d_u ;
   struct list_head d_subdirs ;
   struct hlist_node d_alias ;
};
struct dentry_operations {
   int (*d_revalidate)(struct dentry * , unsigned int ) ;
   int (*d_weak_revalidate)(struct dentry * , unsigned int ) ;
   int (*d_hash)(struct dentry const * , struct qstr * ) ;
   int (*d_compare)(struct dentry const * , struct dentry const * , unsigned int ,
                    char const * , struct qstr const * ) ;
   int (*d_delete)(struct dentry const * ) ;
   void (*d_release)(struct dentry * ) ;
   void (*d_prune)(struct dentry * ) ;
   void (*d_iput)(struct dentry * , struct inode * ) ;
   char *(*d_dname)(struct dentry * , char * , int ) ;
   struct vfsmount *(*d_automount)(struct path * ) ;
   int (*d_manage)(struct dentry * , bool ) ;
};
struct path {
   struct vfsmount *mnt ;
   struct dentry *dentry ;
};
struct list_lru_node {
   spinlock_t lock ;
   struct list_head list ;
   long nr_items ;
};
struct list_lru {
   struct list_lru_node *node ;
   nodemask_t active_nodes ;
};
struct __anonstruct_ldv_18018_166 {
   struct radix_tree_node *parent ;
   void *private_data ;
};
union __anonunion_ldv_18020_165 {
   struct __anonstruct_ldv_18018_166 ldv_18018 ;
   struct callback_head callback_head ;
};
struct radix_tree_node {
   unsigned int path ;
   unsigned int count ;
   union __anonunion_ldv_18020_165 ldv_18020 ;
   struct list_head private_list ;
   void *slots[64U] ;
   unsigned long tags[3U][1U] ;
};
struct radix_tree_root {
   unsigned int height ;
   gfp_t gfp_mask ;
   struct radix_tree_node *rnode ;
};
enum pid_type {
    PIDTYPE_PID = 0,
    PIDTYPE_PGID = 1,
    PIDTYPE_SID = 2,
    PIDTYPE_MAX = 3
} ;
struct pid_namespace;
struct upid {
   int nr ;
   struct pid_namespace *ns ;
   struct hlist_node pid_chain ;
};
struct pid {
   atomic_t count ;
   unsigned int level ;
   struct hlist_head tasks[3U] ;
   struct callback_head rcu ;
   struct upid numbers[1U] ;
};
struct semaphore {
   raw_spinlock_t lock ;
   unsigned int count ;
   struct list_head wait_list ;
};
struct fiemap_extent {
   __u64 fe_logical ;
   __u64 fe_physical ;
   __u64 fe_length ;
   __u64 fe_reserved64[2U] ;
   __u32 fe_flags ;
   __u32 fe_reserved[3U] ;
};
struct shrink_control {
   gfp_t gfp_mask ;
   unsigned long nr_to_scan ;
   nodemask_t nodes_to_scan ;
   int nid ;
};
struct shrinker {
   unsigned long (*count_objects)(struct shrinker * , struct shrink_control * ) ;
   unsigned long (*scan_objects)(struct shrinker * , struct shrink_control * ) ;
   int seeks ;
   long batch ;
   unsigned long flags ;
   struct list_head list ;
   atomic_long_t *nr_deferred ;
};
enum migrate_mode {
    MIGRATE_ASYNC = 0,
    MIGRATE_SYNC_LIGHT = 1,
    MIGRATE_SYNC = 2
} ;
struct block_device;
struct export_operations;
struct iovec;
struct kiocb;
struct pipe_inode_info;
struct poll_table_struct;
struct kstatfs;
struct swap_info_struct;
struct iov_iter;
struct iattr {
   unsigned int ia_valid ;
   umode_t ia_mode ;
   kuid_t ia_uid ;
   kgid_t ia_gid ;
   loff_t ia_size ;
   struct timespec ia_atime ;
   struct timespec ia_mtime ;
   struct timespec ia_ctime ;
   struct file *ia_file ;
};
struct percpu_counter {
   raw_spinlock_t lock ;
   s64 count ;
   struct list_head list ;
   s32 *counters ;
};
struct fs_disk_quota {
   __s8 d_version ;
   __s8 d_flags ;
   __u16 d_fieldmask ;
   __u32 d_id ;
   __u64 d_blk_hardlimit ;
   __u64 d_blk_softlimit ;
   __u64 d_ino_hardlimit ;
   __u64 d_ino_softlimit ;
   __u64 d_bcount ;
   __u64 d_icount ;
   __s32 d_itimer ;
   __s32 d_btimer ;
   __u16 d_iwarns ;
   __u16 d_bwarns ;
   __s32 d_padding2 ;
   __u64 d_rtb_hardlimit ;
   __u64 d_rtb_softlimit ;
   __u64 d_rtbcount ;
   __s32 d_rtbtimer ;
   __u16 d_rtbwarns ;
   __s16 d_padding3 ;
   char d_padding4[8U] ;
};
struct fs_qfilestat {
   __u64 qfs_ino ;
   __u64 qfs_nblks ;
   __u32 qfs_nextents ;
};
typedef struct fs_qfilestat fs_qfilestat_t;
struct fs_quota_stat {
   __s8 qs_version ;
   __u16 qs_flags ;
   __s8 qs_pad ;
   fs_qfilestat_t qs_uquota ;
   fs_qfilestat_t qs_gquota ;
   __u32 qs_incoredqs ;
   __s32 qs_btimelimit ;
   __s32 qs_itimelimit ;
   __s32 qs_rtbtimelimit ;
   __u16 qs_bwarnlimit ;
   __u16 qs_iwarnlimit ;
};
struct fs_qfilestatv {
   __u64 qfs_ino ;
   __u64 qfs_nblks ;
   __u32 qfs_nextents ;
   __u32 qfs_pad ;
};
struct fs_quota_statv {
   __s8 qs_version ;
   __u8 qs_pad1 ;
   __u16 qs_flags ;
   __u32 qs_incoredqs ;
   struct fs_qfilestatv qs_uquota ;
   struct fs_qfilestatv qs_gquota ;
   struct fs_qfilestatv qs_pquota ;
   __s32 qs_btimelimit ;
   __s32 qs_itimelimit ;
   __s32 qs_rtbtimelimit ;
   __u16 qs_bwarnlimit ;
   __u16 qs_iwarnlimit ;
   __u64 qs_pad2[8U] ;
};
struct dquot;
typedef __kernel_uid32_t projid_t;
struct __anonstruct_kprojid_t_168 {
   projid_t val ;
};
typedef struct __anonstruct_kprojid_t_168 kprojid_t;
struct if_dqinfo {
   __u64 dqi_bgrace ;
   __u64 dqi_igrace ;
   __u32 dqi_flags ;
   __u32 dqi_valid ;
};
enum quota_type {
    USRQUOTA = 0,
    GRPQUOTA = 1,
    PRJQUOTA = 2
} ;
typedef long long qsize_t;
union __anonunion_ldv_18840_169 {
   kuid_t uid ;
   kgid_t gid ;
   kprojid_t projid ;
};
struct kqid {
   union __anonunion_ldv_18840_169 ldv_18840 ;
   enum quota_type type ;
};
struct mem_dqblk {
   qsize_t dqb_bhardlimit ;
   qsize_t dqb_bsoftlimit ;
   qsize_t dqb_curspace ;
   qsize_t dqb_rsvspace ;
   qsize_t dqb_ihardlimit ;
   qsize_t dqb_isoftlimit ;
   qsize_t dqb_curinodes ;
   time_t dqb_btime ;
   time_t dqb_itime ;
};
struct quota_format_type;
struct mem_dqinfo {
   struct quota_format_type *dqi_format ;
   int dqi_fmt_id ;
   struct list_head dqi_dirty_list ;
   unsigned long dqi_flags ;
   unsigned int dqi_bgrace ;
   unsigned int dqi_igrace ;
   qsize_t dqi_maxblimit ;
   qsize_t dqi_maxilimit ;
   void *dqi_priv ;
};
struct dquot {
   struct hlist_node dq_hash ;
   struct list_head dq_inuse ;
   struct list_head dq_free ;
   struct list_head dq_dirty ;
   struct mutex dq_lock ;
   atomic_t dq_count ;
   wait_queue_head_t dq_wait_unused ;
   struct super_block *dq_sb ;
   struct kqid dq_id ;
   loff_t dq_off ;
   unsigned long dq_flags ;
   struct mem_dqblk dq_dqb ;
};
struct quota_format_ops {
   int (*check_quota_file)(struct super_block * , int ) ;
   int (*read_file_info)(struct super_block * , int ) ;
   int (*write_file_info)(struct super_block * , int ) ;
   int (*free_file_info)(struct super_block * , int ) ;
   int (*read_dqblk)(struct dquot * ) ;
   int (*commit_dqblk)(struct dquot * ) ;
   int (*release_dqblk)(struct dquot * ) ;
};
struct dquot_operations {
   int (*write_dquot)(struct dquot * ) ;
   struct dquot *(*alloc_dquot)(struct super_block * , int ) ;
   void (*destroy_dquot)(struct dquot * ) ;
   int (*acquire_dquot)(struct dquot * ) ;
   int (*release_dquot)(struct dquot * ) ;
   int (*mark_dirty)(struct dquot * ) ;
   int (*write_info)(struct super_block * , int ) ;
   qsize_t *(*get_reserved_space)(struct inode * ) ;
};
struct quotactl_ops {
   int (*quota_on)(struct super_block * , int , int , struct path * ) ;
   int (*quota_on_meta)(struct super_block * , int , int ) ;
   int (*quota_off)(struct super_block * , int ) ;
   int (*quota_sync)(struct super_block * , int ) ;
   int (*get_info)(struct super_block * , int , struct if_dqinfo * ) ;
   int (*set_info)(struct super_block * , int , struct if_dqinfo * ) ;
   int (*get_dqblk)(struct super_block * , struct kqid , struct fs_disk_quota * ) ;
   int (*set_dqblk)(struct super_block * , struct kqid , struct fs_disk_quota * ) ;
   int (*get_xstate)(struct super_block * , struct fs_quota_stat * ) ;
   int (*set_xstate)(struct super_block * , unsigned int , int ) ;
   int (*get_xstatev)(struct super_block * , struct fs_quota_statv * ) ;
   int (*rm_xquota)(struct super_block * , unsigned int ) ;
};
struct quota_format_type {
   int qf_fmt_id ;
   struct quota_format_ops const *qf_ops ;
   struct module *qf_owner ;
   struct quota_format_type *qf_next ;
};
struct quota_info {
   unsigned int flags ;
   struct mutex dqio_mutex ;
   struct mutex dqonoff_mutex ;
   struct rw_semaphore dqptr_sem ;
   struct inode *files[2U] ;
   struct mem_dqinfo info[2U] ;
   struct quota_format_ops const *ops[2U] ;
};
struct writeback_control;
struct address_space_operations {
   int (*writepage)(struct page * , struct writeback_control * ) ;
   int (*readpage)(struct file * , struct page * ) ;
   int (*writepages)(struct address_space * , struct writeback_control * ) ;
   int (*set_page_dirty)(struct page * ) ;
   int (*readpages)(struct file * , struct address_space * , struct list_head * ,
                    unsigned int ) ;
   int (*write_begin)(struct file * , struct address_space * , loff_t , unsigned int ,
                      unsigned int , struct page ** , void ** ) ;
   int (*write_end)(struct file * , struct address_space * , loff_t , unsigned int ,
                    unsigned int , struct page * , void * ) ;
   sector_t (*bmap)(struct address_space * , sector_t ) ;
   void (*invalidatepage)(struct page * , unsigned int , unsigned int ) ;
   int (*releasepage)(struct page * , gfp_t ) ;
   void (*freepage)(struct page * ) ;
   ssize_t (*direct_IO)(int , struct kiocb * , struct iov_iter * , loff_t ) ;
   int (*get_xip_mem)(struct address_space * , unsigned long , int , void ** , unsigned long * ) ;
   int (*migratepage)(struct address_space * , struct page * , struct page * , enum migrate_mode ) ;
   int (*launder_page)(struct page * ) ;
   int (*is_partially_uptodate)(struct page * , unsigned long , unsigned long ) ;
   void (*is_dirty_writeback)(struct page * , bool * , bool * ) ;
   int (*error_remove_page)(struct address_space * , struct page * ) ;
   int (*swap_activate)(struct swap_info_struct * , struct file * , sector_t * ) ;
   void (*swap_deactivate)(struct file * ) ;
};
struct backing_dev_info;
struct address_space {
   struct inode *host ;
   struct radix_tree_root page_tree ;
   spinlock_t tree_lock ;
   unsigned int i_mmap_writable ;
   struct rb_root i_mmap ;
   struct list_head i_mmap_nonlinear ;
   struct mutex i_mmap_mutex ;
   unsigned long nrpages ;
   unsigned long nrshadows ;
   unsigned long writeback_index ;
   struct address_space_operations const *a_ops ;
   unsigned long flags ;
   struct backing_dev_info *backing_dev_info ;
   spinlock_t private_lock ;
   struct list_head private_list ;
   void *private_data ;
};
struct request_queue;
struct hd_struct;
struct gendisk;
struct block_device {
   dev_t bd_dev ;
   int bd_openers ;
   struct inode *bd_inode ;
   struct super_block *bd_super ;
   struct mutex bd_mutex ;
   struct list_head bd_inodes ;
   void *bd_claiming ;
   void *bd_holder ;
   int bd_holders ;
   bool bd_write_holder ;
   struct list_head bd_holder_disks ;
   struct block_device *bd_contains ;
   unsigned int bd_block_size ;
   struct hd_struct *bd_part ;
   unsigned int bd_part_count ;
   int bd_invalidated ;
   struct gendisk *bd_disk ;
   struct request_queue *bd_queue ;
   struct list_head bd_list ;
   unsigned long bd_private ;
   int bd_fsfreeze_count ;
   struct mutex bd_fsfreeze_mutex ;
};
struct posix_acl;
struct inode_operations;
union __anonunion_ldv_19256_172 {
   unsigned int const i_nlink ;
   unsigned int __i_nlink ;
};
union __anonunion_ldv_19276_173 {
   struct hlist_head i_dentry ;
   struct callback_head i_rcu ;
};
struct file_lock;
struct cdev;
union __anonunion_ldv_19293_174 {
   struct pipe_inode_info *i_pipe ;
   struct block_device *i_bdev ;
   struct cdev *i_cdev ;
};
struct inode {
   umode_t i_mode ;
   unsigned short i_opflags ;
   kuid_t i_uid ;
   kgid_t i_gid ;
   unsigned int i_flags ;
   struct posix_acl *i_acl ;
   struct posix_acl *i_default_acl ;
   struct inode_operations const *i_op ;
   struct super_block *i_sb ;
   struct address_space *i_mapping ;
   void *i_security ;
   unsigned long i_ino ;
   union __anonunion_ldv_19256_172 ldv_19256 ;
   dev_t i_rdev ;
   loff_t i_size ;
   struct timespec i_atime ;
   struct timespec i_mtime ;
   struct timespec i_ctime ;
   spinlock_t i_lock ;
   unsigned short i_bytes ;
   unsigned int i_blkbits ;
   blkcnt_t i_blocks ;
   unsigned long i_state ;
   struct mutex i_mutex ;
   unsigned long dirtied_when ;
   struct hlist_node i_hash ;
   struct list_head i_wb_list ;
   struct list_head i_lru ;
   struct list_head i_sb_list ;
   union __anonunion_ldv_19276_173 ldv_19276 ;
   u64 i_version ;
   atomic_t i_count ;
   atomic_t i_dio_count ;
   atomic_t i_writecount ;
   atomic_t i_readcount ;
   struct file_operations const *i_fop ;
   struct file_lock *i_flock ;
   struct address_space i_data ;
   struct dquot *i_dquot[2U] ;
   struct list_head i_devices ;
   union __anonunion_ldv_19293_174 ldv_19293 ;
   __u32 i_generation ;
   __u32 i_fsnotify_mask ;
   struct hlist_head i_fsnotify_marks ;
   void *i_private ;
};
struct fown_struct {
   rwlock_t lock ;
   struct pid *pid ;
   enum pid_type pid_type ;
   kuid_t uid ;
   kuid_t euid ;
   int signum ;
};
struct file_ra_state {
   unsigned long start ;
   unsigned int size ;
   unsigned int async_size ;
   unsigned int ra_pages ;
   unsigned int mmap_miss ;
   loff_t prev_pos ;
};
union __anonunion_f_u_175 {
   struct llist_node fu_llist ;
   struct callback_head fu_rcuhead ;
};
struct file {
   union __anonunion_f_u_175 f_u ;
   struct path f_path ;
   struct inode *f_inode ;
   struct file_operations const *f_op ;
   spinlock_t f_lock ;
   atomic_long_t f_count ;
   unsigned int f_flags ;
   fmode_t f_mode ;
   struct mutex f_pos_lock ;
   loff_t f_pos ;
   struct fown_struct f_owner ;
   struct cred const *f_cred ;
   struct file_ra_state f_ra ;
   u64 f_version ;
   void *f_security ;
   void *private_data ;
   struct list_head f_ep_links ;
   struct list_head f_tfile_llink ;
   struct address_space *f_mapping ;
};
struct files_struct;
typedef struct files_struct *fl_owner_t;
struct file_lock_operations {
   void (*fl_copy_lock)(struct file_lock * , struct file_lock * ) ;
   void (*fl_release_private)(struct file_lock * ) ;
};
struct lock_manager_operations {
   int (*lm_compare_owner)(struct file_lock * , struct file_lock * ) ;
   unsigned long (*lm_owner_key)(struct file_lock * ) ;
   void (*lm_notify)(struct file_lock * ) ;
   int (*lm_grant)(struct file_lock * , struct file_lock * , int ) ;
   void (*lm_break)(struct file_lock * ) ;
   int (*lm_change)(struct file_lock ** , int ) ;
};
struct nlm_lockowner;
struct nfs_lock_info {
   u32 state ;
   struct nlm_lockowner *owner ;
   struct list_head list ;
};
struct nfs4_lock_state;
struct nfs4_lock_info {
   struct nfs4_lock_state *owner ;
};
struct fasync_struct;
struct __anonstruct_afs_177 {
   struct list_head link ;
   int state ;
};
union __anonunion_fl_u_176 {
   struct nfs_lock_info nfs_fl ;
   struct nfs4_lock_info nfs4_fl ;
   struct __anonstruct_afs_177 afs ;
};
struct file_lock {
   struct file_lock *fl_next ;
   struct hlist_node fl_link ;
   struct list_head fl_block ;
   fl_owner_t fl_owner ;
   unsigned int fl_flags ;
   unsigned char fl_type ;
   unsigned int fl_pid ;
   int fl_link_cpu ;
   struct pid *fl_nspid ;
   wait_queue_head_t fl_wait ;
   struct file *fl_file ;
   loff_t fl_start ;
   loff_t fl_end ;
   struct fasync_struct *fl_fasync ;
   unsigned long fl_break_time ;
   unsigned long fl_downgrade_time ;
   struct file_lock_operations const *fl_ops ;
   struct lock_manager_operations const *fl_lmops ;
   union __anonunion_fl_u_176 fl_u ;
};
struct fasync_struct {
   spinlock_t fa_lock ;
   int magic ;
   int fa_fd ;
   struct fasync_struct *fa_next ;
   struct file *fa_file ;
   struct callback_head fa_rcu ;
};
struct sb_writers {
   struct percpu_counter counter[3U] ;
   wait_queue_head_t wait ;
   int frozen ;
   wait_queue_head_t wait_unfrozen ;
   struct lockdep_map lock_map[3U] ;
};
struct super_operations;
struct xattr_handler;
struct mtd_info;
struct super_block {
   struct list_head s_list ;
   dev_t s_dev ;
   unsigned char s_blocksize_bits ;
   unsigned long s_blocksize ;
   loff_t s_maxbytes ;
   struct file_system_type *s_type ;
   struct super_operations const *s_op ;
   struct dquot_operations const *dq_op ;
   struct quotactl_ops const *s_qcop ;
   struct export_operations const *s_export_op ;
   unsigned long s_flags ;
   unsigned long s_magic ;
   struct dentry *s_root ;
   struct rw_semaphore s_umount ;
   int s_count ;
   atomic_t s_active ;
   void *s_security ;
   struct xattr_handler const **s_xattr ;
   struct list_head s_inodes ;
   struct hlist_bl_head s_anon ;
   struct list_head s_mounts ;
   struct block_device *s_bdev ;
   struct backing_dev_info *s_bdi ;
   struct mtd_info *s_mtd ;
   struct hlist_node s_instances ;
   struct quota_info s_dquot ;
   struct sb_writers s_writers ;
   char s_id[32U] ;
   u8 s_uuid[16U] ;
   void *s_fs_info ;
   unsigned int s_max_links ;
   fmode_t s_mode ;
   u32 s_time_gran ;
   struct mutex s_vfs_rename_mutex ;
   char *s_subtype ;
   char *s_options ;
   struct dentry_operations const *s_d_op ;
   int cleancache_poolid ;
   struct shrinker s_shrink ;
   atomic_long_t s_remove_count ;
   int s_readonly_remount ;
   struct workqueue_struct *s_dio_done_wq ;
   struct list_lru s_dentry_lru ;
   struct list_lru s_inode_lru ;
   struct callback_head rcu ;
};
struct fiemap_extent_info {
   unsigned int fi_flags ;
   unsigned int fi_extents_mapped ;
   unsigned int fi_extents_max ;
   struct fiemap_extent *fi_extents_start ;
};
struct dir_context {
   int (*actor)(void * , char const * , int , loff_t , u64 , unsigned int ) ;
   loff_t pos ;
};
struct file_operations {
   struct module *owner ;
   loff_t (*llseek)(struct file * , loff_t , int ) ;
   ssize_t (*read)(struct file * , char * , size_t , loff_t * ) ;
   ssize_t (*write)(struct file * , char const * , size_t , loff_t * ) ;
   ssize_t (*aio_read)(struct kiocb * , struct iovec const * , unsigned long ,
                       loff_t ) ;
   ssize_t (*aio_write)(struct kiocb * , struct iovec const * , unsigned long ,
                        loff_t ) ;
   ssize_t (*read_iter)(struct kiocb * , struct iov_iter * ) ;
   ssize_t (*write_iter)(struct kiocb * , struct iov_iter * ) ;
   int (*iterate)(struct file * , struct dir_context * ) ;
   unsigned int (*poll)(struct file * , struct poll_table_struct * ) ;
   long (*unlocked_ioctl)(struct file * , unsigned int , unsigned long ) ;
   long (*compat_ioctl)(struct file * , unsigned int , unsigned long ) ;
   int (*mmap)(struct file * , struct vm_area_struct * ) ;
   int (*open)(struct inode * , struct file * ) ;
   int (*flush)(struct file * , fl_owner_t ) ;
   int (*release)(struct inode * , struct file * ) ;
   int (*fsync)(struct file * , loff_t , loff_t , int ) ;
   int (*aio_fsync)(struct kiocb * , int ) ;
   int (*fasync)(int , struct file * , int ) ;
   int (*lock)(struct file * , int , struct file_lock * ) ;
   ssize_t (*sendpage)(struct file * , struct page * , int , size_t , loff_t * ,
                       int ) ;
   unsigned long (*get_unmapped_area)(struct file * , unsigned long , unsigned long ,
                                      unsigned long , unsigned long ) ;
   int (*check_flags)(int ) ;
   int (*flock)(struct file * , int , struct file_lock * ) ;
   ssize_t (*splice_write)(struct pipe_inode_info * , struct file * , loff_t * , size_t ,
                           unsigned int ) ;
   ssize_t (*splice_read)(struct file * , loff_t * , struct pipe_inode_info * , size_t ,
                          unsigned int ) ;
   int (*setlease)(struct file * , long , struct file_lock ** ) ;
   long (*fallocate)(struct file * , int , loff_t , loff_t ) ;
   int (*show_fdinfo)(struct seq_file * , struct file * ) ;
};
struct inode_operations {
   struct dentry *(*lookup)(struct inode * , struct dentry * , unsigned int ) ;
   void *(*follow_link)(struct dentry * , struct nameidata * ) ;
   int (*permission)(struct inode * , int ) ;
   struct posix_acl *(*get_acl)(struct inode * , int ) ;
   int (*readlink)(struct dentry * , char * , int ) ;
   void (*put_link)(struct dentry * , struct nameidata * , void * ) ;
   int (*create)(struct inode * , struct dentry * , umode_t , bool ) ;
   int (*link)(struct dentry * , struct inode * , struct dentry * ) ;
   int (*unlink)(struct inode * , struct dentry * ) ;
   int (*symlink)(struct inode * , struct dentry * , char const * ) ;
   int (*mkdir)(struct inode * , struct dentry * , umode_t ) ;
   int (*rmdir)(struct inode * , struct dentry * ) ;
   int (*mknod)(struct inode * , struct dentry * , umode_t , dev_t ) ;
   int (*rename)(struct inode * , struct dentry * , struct inode * , struct dentry * ) ;
   int (*rename2)(struct inode * , struct dentry * , struct inode * , struct dentry * ,
                  unsigned int ) ;
   int (*setattr)(struct dentry * , struct iattr * ) ;
   int (*getattr)(struct vfsmount * , struct dentry * , struct kstat * ) ;
   int (*setxattr)(struct dentry * , char const * , void const * , size_t , int ) ;
   ssize_t (*getxattr)(struct dentry * , char const * , void * , size_t ) ;
   ssize_t (*listxattr)(struct dentry * , char * , size_t ) ;
   int (*removexattr)(struct dentry * , char const * ) ;
   int (*fiemap)(struct inode * , struct fiemap_extent_info * , u64 , u64 ) ;
   int (*update_time)(struct inode * , struct timespec * , int ) ;
   int (*atomic_open)(struct inode * , struct dentry * , struct file * , unsigned int ,
                      umode_t , int * ) ;
   int (*tmpfile)(struct inode * , struct dentry * , umode_t ) ;
   int (*set_acl)(struct inode * , struct posix_acl * , int ) ;
};
struct super_operations {
   struct inode *(*alloc_inode)(struct super_block * ) ;
   void (*destroy_inode)(struct inode * ) ;
   void (*dirty_inode)(struct inode * , int ) ;
   int (*write_inode)(struct inode * , struct writeback_control * ) ;
   int (*drop_inode)(struct inode * ) ;
   void (*evict_inode)(struct inode * ) ;
   void (*put_super)(struct super_block * ) ;
   int (*sync_fs)(struct super_block * , int ) ;
   int (*freeze_fs)(struct super_block * ) ;
   int (*unfreeze_fs)(struct super_block * ) ;
   int (*statfs)(struct dentry * , struct kstatfs * ) ;
   int (*remount_fs)(struct super_block * , int * , char * ) ;
   void (*umount_begin)(struct super_block * ) ;
   int (*show_options)(struct seq_file * , struct dentry * ) ;
   int (*show_devname)(struct seq_file * , struct dentry * ) ;
   int (*show_path)(struct seq_file * , struct dentry * ) ;
   int (*show_stats)(struct seq_file * , struct dentry * ) ;
   ssize_t (*quota_read)(struct super_block * , int , char * , size_t , loff_t ) ;
   ssize_t (*quota_write)(struct super_block * , int , char const * , size_t ,
                          loff_t ) ;
   int (*bdev_try_to_free_page)(struct super_block * , struct page * , gfp_t ) ;
   long (*nr_cached_objects)(struct super_block * , int ) ;
   long (*free_cached_objects)(struct super_block * , long , int ) ;
};
struct file_system_type {
   char const *name ;
   int fs_flags ;
   struct dentry *(*mount)(struct file_system_type * , int , char const * , void * ) ;
   void (*kill_sb)(struct super_block * ) ;
   struct module *owner ;
   struct file_system_type *next ;
   struct hlist_head fs_supers ;
   struct lock_class_key s_lock_key ;
   struct lock_class_key s_umount_key ;
   struct lock_class_key s_vfs_rename_key ;
   struct lock_class_key s_writers_key[3U] ;
   struct lock_class_key i_lock_key ;
   struct lock_class_key i_mutex_key ;
   struct lock_class_key i_mutex_dir_key ;
};
typedef unsigned long kernel_ulong_t;
struct hid_device_id {
   __u16 bus ;
   __u16 group ;
   __u32 vendor ;
   __u32 product ;
   kernel_ulong_t driver_data ;
};
struct acpi_device_id {
   __u8 id[9U] ;
   kernel_ulong_t driver_data ;
};
struct of_device_id {
   char name[32U] ;
   char type[32U] ;
   char compatible[128U] ;
   void const *data ;
};
struct input_device_id {
   kernel_ulong_t flags ;
   __u16 bustype ;
   __u16 vendor ;
   __u16 product ;
   __u16 version ;
   kernel_ulong_t evbit[1U] ;
   kernel_ulong_t keybit[12U] ;
   kernel_ulong_t relbit[1U] ;
   kernel_ulong_t absbit[1U] ;
   kernel_ulong_t mscbit[1U] ;
   kernel_ulong_t ledbit[1U] ;
   kernel_ulong_t sndbit[1U] ;
   kernel_ulong_t ffbit[2U] ;
   kernel_ulong_t swbit[1U] ;
   kernel_ulong_t driver_info ;
};
struct input_value {
   __u16 type ;
   __u16 code ;
   __s32 value ;
};
struct ff_device;
struct input_mt;
struct input_handle;
struct input_dev {
   char const *name ;
   char const *phys ;
   char const *uniq ;
   struct input_id id ;
   unsigned long propbit[1U] ;
   unsigned long evbit[1U] ;
   unsigned long keybit[12U] ;
   unsigned long relbit[1U] ;
   unsigned long absbit[1U] ;
   unsigned long mscbit[1U] ;
   unsigned long ledbit[1U] ;
   unsigned long sndbit[1U] ;
   unsigned long ffbit[2U] ;
   unsigned long swbit[1U] ;
   unsigned int hint_events_per_packet ;
   unsigned int keycodemax ;
   unsigned int keycodesize ;
   void *keycode ;
   int (*setkeycode)(struct input_dev * , struct input_keymap_entry const * , unsigned int * ) ;
   int (*getkeycode)(struct input_dev * , struct input_keymap_entry * ) ;
   struct ff_device *ff ;
   unsigned int repeat_key ;
   struct timer_list timer ;
   int rep[2U] ;
   struct input_mt *mt ;
   struct input_absinfo *absinfo ;
   unsigned long key[12U] ;
   unsigned long led[1U] ;
   unsigned long snd[1U] ;
   unsigned long sw[1U] ;
   int (*open)(struct input_dev * ) ;
   void (*close)(struct input_dev * ) ;
   int (*flush)(struct input_dev * , struct file * ) ;
   int (*event)(struct input_dev * , unsigned int , unsigned int , int ) ;
   struct input_handle *grab ;
   spinlock_t event_lock ;
   struct mutex mutex ;
   unsigned int users ;
   bool going_away ;
   struct device dev ;
   struct list_head h_list ;
   struct list_head node ;
   unsigned int num_vals ;
   unsigned int max_vals ;
   struct input_value *vals ;
   bool devres_managed ;
};
struct input_handler {
   void *private ;
   void (*event)(struct input_handle * , unsigned int , unsigned int , int ) ;
   void (*events)(struct input_handle * , struct input_value const * , unsigned int ) ;
   bool (*filter)(struct input_handle * , unsigned int , unsigned int , int ) ;
   bool (*match)(struct input_handler * , struct input_dev * ) ;
   int (*connect)(struct input_handler * , struct input_dev * , struct input_device_id const * ) ;
   void (*disconnect)(struct input_handle * ) ;
   void (*start)(struct input_handle * ) ;
   bool legacy_minors ;
   int minor ;
   char const *name ;
   struct input_device_id const *id_table ;
   struct list_head h_list ;
   struct list_head node ;
};
struct input_handle {
   void *private ;
   int open ;
   char const *name ;
   struct input_dev *dev ;
   struct input_handler *handler ;
   struct list_head d_node ;
   struct list_head h_node ;
};
struct ff_device {
   int (*upload)(struct input_dev * , struct ff_effect * , struct ff_effect * ) ;
   int (*erase)(struct input_dev * , int ) ;
   int (*playback)(struct input_dev * , int , int ) ;
   void (*set_gain)(struct input_dev * , u16 ) ;
   void (*set_autocenter)(struct input_dev * , u16 ) ;
   void (*destroy)(struct ff_device * ) ;
   void *private ;
   unsigned long ffbit[2U] ;
   struct mutex mutex ;
   int max_effects ;
   struct ff_effect *effects ;
   struct file *effect_owners[] ;
};
struct hid_collection {
   unsigned int type ;
   unsigned int usage ;
   unsigned int level ;
};
struct hid_usage {
   unsigned int hid ;
   unsigned int collection_index ;
   unsigned int usage_index ;
   __u16 code ;
   __u8 type ;
   __s8 hat_min ;
   __s8 hat_max ;
   __s8 hat_dir ;
};
struct hid_input;
struct hid_report;
struct hid_field {
   unsigned int physical ;
   unsigned int logical ;
   unsigned int application ;
   struct hid_usage *usage ;
   unsigned int maxusage ;
   unsigned int flags ;
   unsigned int report_offset ;
   unsigned int report_size ;
   unsigned int report_count ;
   unsigned int report_type ;
   __s32 *value ;
   __s32 logical_minimum ;
   __s32 logical_maximum ;
   __s32 physical_minimum ;
   __s32 physical_maximum ;
   __s32 unit_exponent ;
   unsigned int unit ;
   struct hid_report *report ;
   unsigned int index ;
   struct hid_input *hidinput ;
   __u16 dpad ;
};
struct hid_report {
   struct list_head list ;
   unsigned int id ;
   unsigned int type ;
   struct hid_field *field[256U] ;
   unsigned int maxfield ;
   unsigned int size ;
   struct hid_device *device ;
};
struct hid_report_enum {
   unsigned int numbered ;
   struct list_head report_list ;
   struct hid_report *report_id_hash[256U] ;
};
struct hid_input {
   struct list_head list ;
   struct hid_report *report ;
   struct input_dev *input ;
};
enum hid_type {
    HID_TYPE_OTHER = 0,
    HID_TYPE_USBMOUSE = 1,
    HID_TYPE_USBNONE = 2
} ;
struct hid_driver;
struct hid_ll_driver;
struct hid_device {
   __u8 *dev_rdesc ;
   unsigned int dev_rsize ;
   __u8 *rdesc ;
   unsigned int rsize ;
   struct hid_collection *collection ;
   unsigned int collection_size ;
   unsigned int maxcollection ;
   unsigned int maxapplication ;
   __u16 bus ;
   __u16 group ;
   __u32 vendor ;
   __u32 product ;
   __u32 version ;
   enum hid_type type ;
   unsigned int country ;
   struct hid_report_enum report_enum[3U] ;
   struct work_struct led_work ;
   struct semaphore driver_lock ;
   struct semaphore driver_input_lock ;
   struct device dev ;
   struct hid_driver *driver ;
   struct hid_ll_driver *ll_driver ;
   unsigned int status ;
   unsigned int claimed ;
   unsigned int quirks ;
   bool io_started ;
   struct list_head inputs ;
   void *hiddev ;
   void *hidraw ;
   int minor ;
   int open ;
   char name[128U] ;
   char phys[64U] ;
   char uniq[64U] ;
   void *driver_data ;
   int (*ff_init)(struct hid_device * ) ;
   int (*hiddev_connect)(struct hid_device * , unsigned int ) ;
   void (*hiddev_disconnect)(struct hid_device * ) ;
   void (*hiddev_hid_event)(struct hid_device * , struct hid_field * , struct hid_usage * ,
                            __s32 ) ;
   void (*hiddev_report_event)(struct hid_device * , struct hid_report * ) ;
   unsigned short debug ;
   struct dentry *debug_dir ;
   struct dentry *debug_rdesc ;
   struct dentry *debug_events ;
   struct list_head debug_list ;
   spinlock_t debug_list_lock ;
   wait_queue_head_t debug_wait ;
};
struct hid_report_id {
   __u32 report_type ;
};
struct hid_usage_id {
   __u32 usage_hid ;
   __u32 usage_type ;
   __u32 usage_code ;
};
struct hid_driver {
   char *name ;
   struct hid_device_id const *id_table ;
   struct list_head dyn_list ;
   spinlock_t dyn_lock ;
   int (*probe)(struct hid_device * , struct hid_device_id const * ) ;
   void (*remove)(struct hid_device * ) ;
   struct hid_report_id const *report_table ;
   int (*raw_event)(struct hid_device * , struct hid_report * , u8 * , int ) ;
   struct hid_usage_id const *usage_table ;
   int (*event)(struct hid_device * , struct hid_field * , struct hid_usage * , __s32 ) ;
   void (*report)(struct hid_device * , struct hid_report * ) ;
   __u8 *(*report_fixup)(struct hid_device * , __u8 * , unsigned int * ) ;
   int (*input_mapping)(struct hid_device * , struct hid_input * , struct hid_field * ,
                        struct hid_usage * , unsigned long ** , int * ) ;
   int (*input_mapped)(struct hid_device * , struct hid_input * , struct hid_field * ,
                       struct hid_usage * , unsigned long ** , int * ) ;
   void (*input_configured)(struct hid_device * , struct hid_input * ) ;
   void (*feature_mapping)(struct hid_device * , struct hid_field * , struct hid_usage * ) ;
   int (*suspend)(struct hid_device * , pm_message_t ) ;
   int (*resume)(struct hid_device * ) ;
   int (*reset_resume)(struct hid_device * ) ;
   struct device_driver driver ;
};
struct hid_ll_driver {
   int (*start)(struct hid_device * ) ;
   void (*stop)(struct hid_device * ) ;
   int (*open)(struct hid_device * ) ;
   void (*close)(struct hid_device * ) ;
   int (*power)(struct hid_device * , int ) ;
   int (*parse)(struct hid_device * ) ;
   void (*request)(struct hid_device * , struct hid_report * , int ) ;
   int (*wait)(struct hid_device * ) ;
   int (*raw_request)(struct hid_device * , unsigned char , __u8 * , size_t , unsigned char ,
                      int ) ;
   int (*output_report)(struct hid_device * , __u8 * , size_t ) ;
   int (*idle)(struct hid_device * , int , int , int ) ;
};
struct axff_device {
   struct hid_report *report ;
};
typedef struct page___0 *pgtable_t___0;
struct __anonstruct____missing_field_name_211 {
   unsigned int inuse : 16 ;
   unsigned int objects : 15 ;
   unsigned int frozen : 1 ;
};
union __anonunion____missing_field_name_210 {
   atomic_t _mapcount ;
   struct __anonstruct____missing_field_name_211 __annonCompField39 ;
   int units ;
};
struct __anonstruct____missing_field_name_209 {
   union __anonunion____missing_field_name_210 __annonCompField40 ;
   atomic_t _count ;
};
union __anonunion____missing_field_name_208 {
   unsigned long counters ;
   struct __anonstruct____missing_field_name_209 __annonCompField41 ;
   unsigned int active ;
};
struct __anonstruct____missing_field_name_206 {
   union __anonunion_ldv_14126_140 __annonCompField38 ;
   union __anonunion____missing_field_name_208 __annonCompField42 ;
};
struct __anonstruct____missing_field_name_213 {
   struct page___0 *next ;
   int pages ;
   int pobjects ;
};
union __anonunion____missing_field_name_212 {
   struct list_head lru ;
   struct __anonstruct____missing_field_name_213 __annonCompField44 ;
   struct slab *slab_page ;
   struct callback_head callback_head ;
   pgtable_t___0 pmd_huge_pte ;
};
union __anonunion____missing_field_name_214 {
   unsigned long private ;
   spinlock_t *ptl ;
   struct kmem_cache___0 *slab_cache ;
   struct page___0 *first_page ;
};
struct page___0 {
   unsigned long flags ;
   union __anonunion_ldv_14120_138 __annonCompField37 ;
   struct __anonstruct____missing_field_name_206 __annonCompField43 ;
   union __anonunion____missing_field_name_212 __annonCompField45 ;
   union __anonunion____missing_field_name_214 __annonCompField46 ;
   unsigned long debug_flags ;
} __attribute__((__aligned__((2) * (sizeof(unsigned long )) ))) ;
enum kobj_ns_type;
struct attribute___0 {
   char const *name ;
   umode_t mode ;
   bool ignore_lockdep : 1 ;
   struct lock_class_key *key ;
   struct lock_class_key skey ;
};
struct sysfs_ops___0 {
   ssize_t (*show)(struct kobject___0 * , struct attribute___0 * , char * ) ;
   ssize_t (*store)(struct kobject___0 * , struct attribute___0 * , char const * ,
                    size_t ) ;
};
struct kobject___0 {
   char const *name ;
   struct list_head entry ;
   struct kobject___0 *parent ;
   struct kset *kset ;
   struct kobj_type___0 *ktype ;
   struct kernfs_node *sd ;
   struct kref kref ;
   struct delayed_work release ;
   unsigned int state_initialized : 1 ;
   unsigned int state_in_sysfs : 1 ;
   unsigned int state_add_uevent_sent : 1 ;
   unsigned int state_remove_uevent_sent : 1 ;
   unsigned int uevent_suppress : 1 ;
};
struct kobj_type___0 {
   void (*release)(struct kobject___0 *kobj ) ;
   struct sysfs_ops___0 const *sysfs_ops ;
   struct attribute___0 **default_attrs ;
   struct kobj_ns_type_operations const *(*child_ns_type)(struct kobject___0 *kobj ) ;
   void const *(*namespace)(struct kobject___0 *kobj ) ;
};
struct kmem_cache_cpu___0 {
   void **freelist ;
   unsigned long tid ;
   struct page___0 *page ;
   struct page___0 *partial ;
   unsigned int stat[26] ;
};
struct kmem_cache___0 {
   struct kmem_cache_cpu___0 *cpu_slab ;
   unsigned long flags ;
   unsigned long min_partial ;
   int size ;
   int object_size ;
   int offset ;
   int cpu_partial ;
   struct kmem_cache_order_objects oo ;
   struct kmem_cache_order_objects max ;
   struct kmem_cache_order_objects min ;
   gfp_t allocflags ;
   int refcount ;
   void (*ctor)(void * ) ;
   int inuse ;
   int align ;
   int reserved ;
   char const *name ;
   struct list_head list ;
   struct kobject___0 kobj ;
   struct memcg_cache_params___0 *memcg_params ;
   int max_attr_size ;
   struct kset *memcg_kset ;
   int remote_node_defrag_ratio ;
   struct kmem_cache_node *node[1 << 10] ;
};
struct __anonstruct____missing_field_name_227 {
   struct callback_head callback_head ;
   struct kmem_cache___0 *memcg_caches[0] ;
};
struct __anonstruct____missing_field_name_228 {
   struct mem_cgroup *memcg ;
   struct list_head list ;
   struct kmem_cache___0 *root_cache ;
   atomic_t nr_pages ;
};
union __anonunion____missing_field_name_226 {
   struct __anonstruct____missing_field_name_227 __annonCompField50 ;
   struct __anonstruct____missing_field_name_228 __annonCompField51 ;
};
struct memcg_cache_params___0 {
   bool is_root_cache ;
   union __anonunion____missing_field_name_226 __annonCompField52 ;
};
long ldv__builtin_expect(long exp , long c ) ;
extern struct module __this_module ;
 static void set_bit(long nr , unsigned long volatile *addr )
{
  {
  __asm__ volatile (".pushsection .smp_locks,\"a\"\n.balign 4\n.long 671f - .\n.popsection\n671:\n\tlock; bts %1,%0": "+m" (*((long volatile *)addr)): "Ir" (nr): "memory");
  return;
}
}
extern int printk(char const * , ...) ;
extern int __dynamic_dev_dbg(struct _ddebug * , struct device const * , char const *
                             , ...) ;
 static int list_empty(struct list_head const *head )
{
  {
  return ((unsigned long )((struct list_head const *)head->next) == (unsigned long )head);
}
}
extern void kfree(void const * ) ;
extern void *kmem_cache_alloc(struct kmem_cache * , gfp_t ) ;
 static void *kzalloc(size_t size , gfp_t flags ) ;
void ldv_check_alloc_flags(gfp_t flags ) ;
extern void *malloc(size_t size ) ;
extern void *calloc(size_t nmemb , size_t size ) ;
extern int __VERIFIER_nondet_int(void) ;
extern unsigned long __VERIFIER_nondet_ulong(void) ;
extern void abort(void);
void assume_abort_if_not(int cond) {
  if(!cond) {abort();}
}
void *ldv_malloc(size_t size )
{
  void *p ;
  void *tmp ;
  int tmp___0 ;
  {
  tmp___0 = __VERIFIER_nondet_int();
  if (tmp___0 != 0) {
    return ((void *)0);
  } else {
    tmp = malloc(size);
    p = tmp;
    assume_abort_if_not((unsigned long )p != (unsigned long )((void *)0));
    return (p);
  }
}
}
void *ldv_zalloc(size_t size )
{
  void *p ;
  void *tmp ;
  int tmp___0 ;
  {
  tmp___0 = __VERIFIER_nondet_int();
  if (tmp___0 != 0) {
    return ((void *)0);
  } else {
    tmp = calloc(1UL, size);
    p = tmp;
    assume_abort_if_not((unsigned long )p != (unsigned long )((void *)0));
    return (p);
  }
}
}
int ldv_undef_int(void)
{
  int tmp ;
  {
  tmp = __VERIFIER_nondet_int();
  return (tmp);
}
}
unsigned long ldv_undef_ulong(void)
{
  unsigned long tmp ;
  {
  tmp = __VERIFIER_nondet_ulong();
  return (tmp);
}
}
 static void ldv_error(void)
{
  {
  ERROR: ;
  {reach_error();}
}
}
 static void ldv_stop(void)
{
  {
  LDV_STOP: ;
  goto LDV_STOP;
}
}
long ldv__builtin_expect(long exp , long c )
{
  {
  return (exp);
}
}
void ldv__builtin_trap(void)
{
  {
  ldv_error();
  return;
}
}
int ldv_state_variable_1 ;
int LDV_IN_INTERRUPT = 1;
int ref_cnt ;
int ldv_state_variable_0 ;
struct hid_device *ax_driver_group0 ;
void ldv_initialize_hid_driver_1(void) ;
 static void *dev_get_drvdata(struct device const *dev )
{
  {
  return ((void *)dev->driver_data);
}
}
extern int dev_err(struct device const * , char const * , ...) ;
extern int dev_warn(struct device const * , char const * , ...) ;
extern int _dev_info(struct device const * , char const * , ...) ;
 static void *input_get_drvdata(struct input_dev *dev )
{
  void *tmp ;
  {
  tmp = dev_get_drvdata((struct device const *)(& dev->dev));
  return (tmp);
}
}
extern int input_ff_create_memless(struct input_dev * , void * , int (*)(struct input_dev * ,
                                                                         void * ,
                                                                         struct ff_effect * ) ) ;
extern int hid_debug ;
extern int __hid_register_driver(struct hid_driver * , struct module * , char const * ) ;
extern void hid_unregister_driver(struct hid_driver * ) ;
extern void __hid_request(struct hid_device * , struct hid_report * , int ) ;
extern int hid_open_report(struct hid_device * ) ;
extern int hid_connect(struct hid_device * , unsigned int ) ;
extern void hid_disconnect(struct hid_device * ) ;
 static int hid_parse(struct hid_device *hdev )
{
  int tmp ;
  {
  tmp = hid_open_report(hdev);
  return (tmp);
}
}
 static int hid_hw_start(struct hid_device *hdev , unsigned int connect_mask )
{
  int ret ;
  int tmp ;
  {
  tmp = (*((hdev->ll_driver)->start))(hdev);
  ret = tmp;
  if (ret != 0 || connect_mask == 0U) {
    return (ret);
  } else {
  }
  ret = hid_connect(hdev, connect_mask);
  if (ret != 0) {
    (*((hdev->ll_driver)->stop))(hdev);
  } else {
  }
  return (ret);
}
}
 static void hid_hw_stop(struct hid_device *hdev )
{
  {
  hid_disconnect(hdev);
  (*((hdev->ll_driver)->stop))(hdev);
  return;
}
}
 static int hid_hw_open(struct hid_device *hdev )
{
  int tmp ;
  {
  tmp = (*((hdev->ll_driver)->open))(hdev);
  return (tmp);
}
}
 static void hid_hw_close(struct hid_device *hdev )
{
  {
  (*((hdev->ll_driver)->close))(hdev);
  return;
}
}
 static void hid_hw_request(struct hid_device *hdev , struct hid_report *report ,
                                    int reqtype )
{
  {
  if ((unsigned long )(hdev->ll_driver)->request != (unsigned long )((void (*)(struct hid_device * ,
                                                                               struct hid_report * ,
                                                                               int ))0)) {
    return;
  } else {
  }
  __hid_request(hdev, report, reqtype);
  return;
}
}
static int axff_play(struct input_dev *dev , void *data , struct ff_effect *effect )
{
  struct hid_device *hid ;
  void *tmp ;
  struct axff_device *axff ;
  struct hid_report *report ;
  int field_count ;
  int left ;
  int right ;
  int i ;
  int j ;
  {
  tmp = input_get_drvdata(dev);
  hid = (struct hid_device *)tmp;
  axff = (struct axff_device *)data;
  report = axff->report;
  field_count = 0;
  left = (int )effect->u.rumble.strong_magnitude;
  right = (int )effect->u.rumble.weak_magnitude;
  if (hid_debug != 0) {
    printk("\017%s: called with 0x%04x 0x%04x", (char *)"/work/ldvuser/mutilin/launch/work/current--X--drivers--X--defaultlinux-3.16-rc1.tar.xz--X--43_2a--X--cpachecker/linux-3.16-rc1.tar.xz/csd_deg_dscv/449/dscv_tempdir/dscv/ri/43_2a/drivers/hid/hid-axff.o.c.prepared",
           left, right);
  } else {
  }
  left = (left * 255) / 65535;
  right = (right * 255) / 65535;
  i = 0;
  goto ldv_22731;
  ldv_22730:
  j = 0;
  goto ldv_22728;
  ldv_22727:
  *((report->field[i])->value + (unsigned long )j) = field_count & 1 ? right : left;
  field_count = field_count + 1;
  j = j + 1;
  ldv_22728: ;
  if ((unsigned int )j < (report->field[i])->report_count) {
    goto ldv_22727;
  } else {
  }
  i = i + 1;
  ldv_22731: ;
  if ((unsigned int )i < report->maxfield) {
    goto ldv_22730;
  } else {
  }
  if (hid_debug != 0) {
    printk("\017%s: running with 0x%02x 0x%02x", (char *)"/work/ldvuser/mutilin/launch/work/current--X--drivers--X--defaultlinux-3.16-rc1.tar.xz--X--43_2a--X--cpachecker/linux-3.16-rc1.tar.xz/csd_deg_dscv/449/dscv_tempdir/dscv/ri/43_2a/drivers/hid/hid-axff.o.c.prepared",
           left, right);
  } else {
  }
  hid_hw_request(hid, axff->report, 9);
  return (0);
}
}
static int axff_init(struct hid_device *hid )
{
  struct axff_device *axff ;
  struct hid_report *report ;
  struct hid_input *hidinput ;
  struct list_head const *__mptr ;
  struct list_head *report_list ;
  struct input_dev *dev ;
  int field_count ;
  int i ;
  int j ;
  int error ;
  int tmp ;
  struct list_head const *__mptr___0 ;
  void *tmp___0 ;
  {
  __mptr = (struct list_head const *)hid->inputs.next;
  hidinput = (struct hid_input *)__mptr;
  report_list = & hid->report_enum[1].report_list;
  dev = hidinput->input;
  field_count = 0;
  tmp = list_empty((struct list_head const *)report_list);
  if (tmp != 0) {
    dev_err((struct device const *)(& hid->dev), "no output reports found\n");
    return (-19);
  } else {
  }
  __mptr___0 = (struct list_head const *)report_list->next;
  report = (struct hid_report *)__mptr___0;
  i = 0;
  goto ldv_22753;
  ldv_22752:
  j = 0;
  goto ldv_22750;
  ldv_22749:
  *((report->field[i])->value + (unsigned long )j) = 0;
  field_count = field_count + 1;
  j = j + 1;
  ldv_22750: ;
  if ((unsigned int )j < (report->field[i])->report_count) {
    goto ldv_22749;
  } else {
  }
  i = i + 1;
  ldv_22753: ;
  if ((unsigned int )i < report->maxfield) {
    goto ldv_22752;
  } else {
  }
  if (field_count <= 3 && hid->product != 63237U) {
    dev_err((struct device const *)(& hid->dev), "not enough fields in the report: %d\n",
            field_count);
    return (-19);
  } else {
  }
  tmp___0 = kzalloc(8UL, 208U);
  axff = (struct axff_device *)tmp___0;
  if ((unsigned long )axff == (unsigned long )((struct axff_device *)0)) {
    return (-12);
  } else {
  }
  set_bit(80L, (unsigned long volatile *)(& dev->ffbit));
  error = input_ff_create_memless(dev, (void *)axff, & axff_play);
  if (error != 0) {
    goto err_free_mem;
  } else {
  }
  axff->report = report;
  hid_hw_request(hid, axff->report, 9);
  _dev_info((struct device const *)(& hid->dev), "Force Feedback for ACRUX game controllers by Sergei Kolzun <x0r@dv-life.ru>\n");
  return (0);
  err_free_mem:
  kfree((void const *)axff);
  return (error);
}
}
static int ax_probe(struct hid_device *hdev , struct hid_device_id const *id )
{
  int error ;
  struct _ddebug descriptor ;
  long tmp ;
  {
  descriptor.modname = "hid_axff";
  descriptor.function = "ax_probe";
  descriptor.filename = "/work/ldvuser/mutilin/launch/work/current--X--drivers--X--defaultlinux-3.16-rc1.tar.xz--X--43_2a--X--cpachecker/linux-3.16-rc1.tar.xz/csd_deg_dscv/449/dscv_tempdir/dscv/ri/43_2a/drivers/hid/hid-axff.o.c.prepared";
  descriptor.format = "ACRUX HID hardware probe...\n";
  descriptor.lineno = 162U;
  descriptor.flags = 0U;
  tmp = ldv__builtin_expect((long )descriptor.flags & 1L, 0L);
  if (tmp != 0L) {
    __dynamic_dev_dbg(& descriptor, (struct device const *)(& hdev->dev), "ACRUX HID hardware probe...\n");
  } else {
  }
  error = hid_parse(hdev);
  if (error != 0) {
    dev_err((struct device const *)(& hdev->dev), "parse failed\n");
    return (error);
  } else {
  }
  error = hid_hw_start(hdev, 13U);
  if (error != 0) {
    dev_err((struct device const *)(& hdev->dev), "hw start failed\n");
    return (error);
  } else {
  }
  error = axff_init(hdev);
  if (error != 0) {
    dev_warn((struct device const *)(& hdev->dev), "Failed to enable force feedback support, error: %d\n",
             error);
  } else {
  }
  error = hid_hw_open(hdev);
  if (error != 0) {
    dev_err((struct device const *)(& hdev->dev), "hw open failed\n");
    hid_hw_stop(hdev);
    return (error);
  } else {
  }
  return (0);
}
}
static void ax_remove(struct hid_device *hdev )
{
  {
  hid_hw_close(hdev);
  hid_hw_stop(hdev);
  return;
}
}
static struct hid_device_id const ax_devices[3U] = { {3U, (unsigned short)0, 6708U, 2050U, 0UL},
        {3U, (unsigned short)0, 6708U, 63237U, 0UL}};
struct hid_device_id const __mod_hid__ax_devices_device_table ;
static struct hid_driver ax_driver =
     {(char *)"acrux", (struct hid_device_id const *)(& ax_devices), {0, 0}, {{{{{0U}},
                                                                                0U,
                                                                                0U,
                                                                                0,
                                                                                {0,
                                                                                 {0,
                                                                                  0},
                                                                                 0,
                                                                                 0,
                                                                                 0UL}}}},
    & ax_probe, & ax_remove, 0, 0, 0, 0, 0, 0, 0, 0, 0, 0, 0, 0, 0, {0, 0, 0, 0, (_Bool)0,
                                                                     0, 0, 0, 0, 0,
                                                                     0, 0, 0, 0, 0}};
static int ax_driver_init(void)
{
  int tmp ;
  {
  tmp = __hid_register_driver(& ax_driver, & __this_module, "hid_axff");
  return (tmp);
}
}
static void ax_driver_exit(void)
{
  {
  hid_unregister_driver(& ax_driver);
  return;
}
}
int ldv_retval_0 ;
int ldv_retval_1 ;
extern void ldv_initialize(void) ;
extern void ldv_check_final_state(void) ;
void ldv_initialize_hid_driver_1(void)
{
  void *tmp ;
  {
  tmp = ldv_zalloc(8568UL);
  ax_driver_group0 = (struct hid_device *)tmp;
  return;
}
}
int main(void)
{
  struct hid_device_id *ldvarg0 ;
  void *tmp ;
  int tmp___0 ;
  int tmp___1 ;
  int tmp___2 ;
  {
  tmp = ldv_zalloc(24UL);
  ldvarg0 = (struct hid_device_id *)tmp;
  ldv_initialize();
  ldv_state_variable_1 = 0;
  ref_cnt = 0;
  ldv_state_variable_0 = 1;
  ldv_22820:
  tmp___0 = __VERIFIER_nondet_int();
  switch (tmp___0) {
  case 0: ;
  if (ldv_state_variable_1 != 0) {
    tmp___1 = __VERIFIER_nondet_int();
    switch (tmp___1) {
    case 0: ;
    if (ldv_state_variable_1 == 1) {
      ldv_retval_0 = ax_probe(ax_driver_group0, (struct hid_device_id const *)ldvarg0);
      if (ldv_retval_0 == 0) {
        ldv_state_variable_1 = 2;
        ref_cnt = ref_cnt + 1;
      } else {
      }
    } else {
    }
    goto ldv_22809;
    case 1: ;
    if (ldv_state_variable_1 == 2) {
      ax_remove(ax_driver_group0);
      ldv_state_variable_1 = 1;
      ref_cnt = ref_cnt - 1;
    } else {
    }
    goto ldv_22809;
    default:
    ldv_stop();
    }
    ldv_22809: ;
  } else {
  }
  goto ldv_22812;
  case 1: ;
  if (ldv_state_variable_0 != 0) {
    tmp___2 = __VERIFIER_nondet_int();
    switch (tmp___2) {
    case 0: ;
    if (ldv_state_variable_0 == 3 && ref_cnt == 0) {
      ax_driver_exit();
      ldv_state_variable_0 = 2;
      goto ldv_final;
    } else {
    }
    goto ldv_22816;
    case 1: ;
    if (ldv_state_variable_0 == 1) {
      ldv_retval_1 = ax_driver_init();
      if (ldv_retval_1 == 0) {
        ldv_state_variable_0 = 3;
        ldv_state_variable_1 = 1;
        ldv_initialize_hid_driver_1();
      } else {
      }
      if (ldv_retval_1 != 0) {
        ldv_state_variable_0 = 2;
        goto ldv_final;
      } else {
      }
    } else {
    }
    goto ldv_22816;
    default:
    ldv_stop();
    }
    ldv_22816: ;
  } else {
  }
  goto ldv_22812;
  default:
  ldv_stop();
  }
  ldv_22812: ;
  goto ldv_22820;
  ldv_final:
  ldv_check_final_state();
  return 0;
}
}
void *ldv_zalloc(size_t size ) ;
 static void *kzalloc(size_t size , gfp_t flags )
{
  {
  ldv_check_alloc_flags(flags);
  return ((void *)0);
}
}
 static void ldv_error(void);
int ldv_spin = 0;
void ldv_check_alloc_flags(gfp_t flags )
{
  {
  if (ldv_spin == 0 || ! (flags & 16U)) {
  } else {
    ldv_error();
  }
  return;
}
}
extern struct page___0 *ldv_some_page(void) ;
struct page___0 *ldv_check_alloc_flags_and_return_some_page(gfp_t flags )
{
  struct page___0 *tmp ;
  {
  if (ldv_spin == 0 || ! (flags & 16U)) {
  } else {
    ldv_error();
  }
  tmp = ldv_some_page();
  return (tmp);
}
}
void ldv_check_alloc_nonatomic(void)
{
  {
  if (ldv_spin == 0) {
  } else {
    ldv_error();
  }
  return;
}
}
void ldv_spin_lock(void)
{
  {
  ldv_spin = 1;
  return;
}
}
void ldv_spin_unlock(void)
{
  {
  ldv_spin = 0;
  return;
}
}
int ldv_spin_trylock(void)
{
  int is_lock ;
  {
  is_lock = ldv_undef_int();
  if (is_lock) {
    return (0);
  } else {
    ldv_spin = 1;
    return (1);
  }
}
}
int __VERIFIER_nondet_int(void);
int __dynamic_dev_dbg(struct _ddebug *arg0, const struct device *arg1, const char *arg2, ...) {
  return __VERIFIER_nondet_int();
}
int __VERIFIER_nondet_int(void);
int __hid_register_driver(struct hid_driver *arg0, struct module *arg1, const char *arg2) {
  return __VERIFIER_nondet_int();
}
void __hid_request(struct hid_device *arg0, struct hid_report *arg1, int arg2) {
  return;
}
int __VERIFIER_nondet_int(void);
int _dev_info(const struct device *arg0, const char *arg1, ...) {
  return __VERIFIER_nondet_int();
}
int __VERIFIER_nondet_int(void);
int dev_err(const struct device *arg0, const char *arg1, ...) {
  return __VERIFIER_nondet_int();
}
int __VERIFIER_nondet_int(void);
int dev_warn(const struct device *arg0, const char *arg1, ...) {
  return __VERIFIER_nondet_int();
}
int __VERIFIER_nondet_int(void);
int hid_connect(struct hid_device *arg0, unsigned int arg1) {
  return __VERIFIER_nondet_int();
}
void hid_disconnect(struct hid_device *arg0) {
  return;
}
int __VERIFIER_nondet_int(void);
int hid_open_report(struct hid_device *arg0) {
  return __VERIFIER_nondet_int();
}
void hid_unregister_driver(struct hid_driver *arg0) {
  return;
}
int __VERIFIER_nondet_int(void);
int input_ff_create_memless(struct input_dev *arg0, void *arg1, int (*arg2)(struct input_dev *, void *, struct ff_effect *)) {
  return __VERIFIER_nondet_int();
}
void *kmem_cache_alloc(struct kmem_cache *arg0, gfp_t arg1) {
  return ldv_malloc(0UL);
}
void ldv_check_final_state() {
  return;
}
void ldv_initialize() {
  return;
}
struct page___0 *ldv_some_page() {
  return ldv_malloc(sizeof(struct page___0));
}
int __VERIFIER_nondet_int(void);
int printk(const char *arg0, ...) {
  return __VERIFIER_nondet_int();
}
void free(void *);
void kfree(void const *p) {
  free((void *)p);
}
