extern void abort(void);
extern void __assert_fail(const char *, const char *, unsigned int, const char *) __attribute__ ((__nothrow__ , __leaf__)) __attribute__ ((__noreturn__));
void reach_error() { __assert_fail("0", "drivers--rtc--rtc-max6902.ko_011.e0626e3.32_7a.cil_true-unreach-call.i", 3, "reach_error"); }

/* Generated by CIL v. 1.5.1 */
/* print_CIL_Input is false */

typedef signed char __s8;
typedef short __s16;
typedef unsigned short __u16;
typedef int __s32;
typedef unsigned int __u32;
typedef long long __s64;
typedef unsigned long long __u64;
typedef unsigned char u8;
typedef short s16;
typedef unsigned short u16;
typedef unsigned int u32;
typedef long long s64;
typedef unsigned long long u64;
typedef unsigned short umode_t;
typedef unsigned int __kernel_mode_t;
typedef int __kernel_pid_t;
typedef unsigned int __kernel_uid_t;
typedef unsigned int __kernel_gid_t;
typedef unsigned long __kernel_size_t;
typedef long __kernel_ssize_t;
typedef long __kernel_time_t;
typedef long __kernel_clock_t;
typedef int __kernel_timer_t;
typedef int __kernel_clockid_t;
typedef long long __kernel_loff_t;
typedef __kernel_uid_t __kernel_uid32_t;
typedef __kernel_gid_t __kernel_gid32_t;
typedef __u32 __kernel_dev_t;
typedef __kernel_dev_t dev_t;
typedef __kernel_mode_t mode_t;
typedef __kernel_pid_t pid_t;
typedef __kernel_clockid_t clockid_t;
typedef __kernel_uid32_t uid_t;
typedef __kernel_gid32_t gid_t;
typedef __kernel_loff_t loff_t;
typedef __kernel_size_t size_t;
typedef __kernel_ssize_t ssize_t;
typedef __kernel_time_t time_t;
typedef __s32 int32_t;
typedef __u32 uint32_t;
typedef unsigned long sector_t;
typedef unsigned long blkcnt_t;
typedef unsigned int gfp_t;
typedef unsigned int fmode_t;
struct __anonstruct_atomic_t_6 {
   int volatile   counter ;
};
typedef struct __anonstruct_atomic_t_6 atomic_t;
struct __anonstruct_atomic64_t_7 {
   long volatile   counter ;
};
typedef struct __anonstruct_atomic64_t_7 atomic64_t;
struct module;
struct bug_entry {
   int bug_addr_disp ;
   int file_disp ;
   unsigned short line ;
   unsigned short flags ;
};
struct completion;
struct pt_regs;
struct pid;
struct task_struct;
struct mm_struct;
struct pt_regs {
   unsigned long r15 ;
   unsigned long r14 ;
   unsigned long r13 ;
   unsigned long r12 ;
   unsigned long bp ;
   unsigned long bx ;
   unsigned long r11 ;
   unsigned long r10 ;
   unsigned long r9 ;
   unsigned long r8 ;
   unsigned long ax ;
   unsigned long cx ;
   unsigned long dx ;
   unsigned long si ;
   unsigned long di ;
   unsigned long orig_ax ;
   unsigned long ip ;
   unsigned long cs ;
   unsigned long flags ;
   unsigned long sp ;
   unsigned long ss ;
};
typedef void (*ctor_fn_t)(void);
struct kernel_vm86_regs {
   struct pt_regs pt ;
   unsigned short es ;
   unsigned short __esh ;
   unsigned short ds ;
   unsigned short __dsh ;
   unsigned short fs ;
   unsigned short __fsh ;
   unsigned short gs ;
   unsigned short __gsh ;
};
union __anonunion_ldv_1788_8 {
   struct pt_regs *regs ;
   struct kernel_vm86_regs *vm86 ;
};
struct math_emu_info {
   long ___orig_eip ;
   union __anonunion_ldv_1788_8 ldv_1788 ;
};
typedef unsigned long pgdval_t;
typedef unsigned long pgprotval_t;
struct pgprot {
   pgprotval_t pgprot ;
};
typedef struct pgprot pgprot_t;
struct __anonstruct_pgd_t_11 {
   pgdval_t pgd ;
};
typedef struct __anonstruct_pgd_t_11 pgd_t;
struct page;
struct file;
struct seq_file;
struct __anonstruct_ldv_2072_15 {
   unsigned int a ;
   unsigned int b ;
};
struct __anonstruct_ldv_2087_16 {
   u16 limit0 ;
   u16 base0 ;
   unsigned char base1 ;
   unsigned char type : 4 ;
   unsigned char s : 1 ;
   unsigned char dpl : 2 ;
   unsigned char p : 1 ;
   unsigned char limit : 4 ;
   unsigned char avl : 1 ;
   unsigned char l : 1 ;
   unsigned char d : 1 ;
   unsigned char g : 1 ;
   unsigned char base2 ;
};
union __anonunion_ldv_2088_14 {
   struct __anonstruct_ldv_2072_15 ldv_2072 ;
   struct __anonstruct_ldv_2087_16 ldv_2087 ;
};
struct desc_struct {
   union __anonunion_ldv_2088_14 ldv_2088 ;
};
struct thread_struct;
struct cpumask;
struct raw_spinlock;
struct cpumask {
   unsigned long bits[64U] ;
};
typedef struct cpumask cpumask_t;
struct exec_domain;
struct map_segment;
struct exec_domain {
   char const   *name ;
   void (*handler)(int  , struct pt_regs * ) ;
   unsigned char pers_low ;
   unsigned char pers_high ;
   unsigned long *signal_map ;
   unsigned long *signal_invmap ;
   struct map_segment *err_map ;
   struct map_segment *socktype_map ;
   struct map_segment *sockopt_map ;
   struct map_segment *af_map ;
   struct module *module ;
   struct exec_domain *next ;
};
struct seq_operations;
struct i387_fsave_struct {
   u32 cwd ;
   u32 swd ;
   u32 twd ;
   u32 fip ;
   u32 fcs ;
   u32 foo ;
   u32 fos ;
   u32 st_space[20U] ;
   u32 status ;
};
struct __anonstruct_ldv_4598_20 {
   u64 rip ;
   u64 rdp ;
};
struct __anonstruct_ldv_4604_21 {
   u32 fip ;
   u32 fcs ;
   u32 foo ;
   u32 fos ;
};
union __anonunion_ldv_4605_19 {
   struct __anonstruct_ldv_4598_20 ldv_4598 ;
   struct __anonstruct_ldv_4604_21 ldv_4604 ;
};
union __anonunion_ldv_4614_22 {
   u32 padding1[12U] ;
   u32 sw_reserved[12U] ;
};
struct i387_fxsave_struct {
   u16 cwd ;
   u16 swd ;
   u16 twd ;
   u16 fop ;
   union __anonunion_ldv_4605_19 ldv_4605 ;
   u32 mxcsr ;
   u32 mxcsr_mask ;
   u32 st_space[32U] ;
   u32 xmm_space[64U] ;
   u32 padding[12U] ;
   union __anonunion_ldv_4614_22 ldv_4614 ;
};
struct i387_soft_struct {
   u32 cwd ;
   u32 swd ;
   u32 twd ;
   u32 fip ;
   u32 fcs ;
   u32 foo ;
   u32 fos ;
   u32 st_space[20U] ;
   u8 ftop ;
   u8 changed ;
   u8 lookahead ;
   u8 no_update ;
   u8 rm ;
   u8 alimit ;
   struct math_emu_info *info ;
   u32 entry_eip ;
};
struct ymmh_struct {
   u32 ymmh_space[64U] ;
};
struct xsave_hdr_struct {
   u64 xstate_bv ;
   u64 reserved1[2U] ;
   u64 reserved2[5U] ;
};
struct xsave_struct {
   struct i387_fxsave_struct i387 ;
   struct xsave_hdr_struct xsave_hdr ;
   struct ymmh_struct ymmh ;
};
union thread_xstate {
   struct i387_fsave_struct fsave ;
   struct i387_fxsave_struct fxsave ;
   struct i387_soft_struct soft ;
   struct xsave_struct xsave ;
};
struct kmem_cache;
struct ds_context;
struct thread_struct {
   struct desc_struct tls_array[3U] ;
   unsigned long sp0 ;
   unsigned long sp ;
   unsigned long usersp ;
   unsigned short es ;
   unsigned short ds ;
   unsigned short fsindex ;
   unsigned short gsindex ;
   unsigned long fs ;
   unsigned long gs ;
   unsigned long debugreg0 ;
   unsigned long debugreg1 ;
   unsigned long debugreg2 ;
   unsigned long debugreg3 ;
   unsigned long debugreg6 ;
   unsigned long debugreg7 ;
   unsigned long cr2 ;
   unsigned long trap_no ;
   unsigned long error_code ;
   union thread_xstate *xstate ;
   unsigned long *io_bitmap_ptr ;
   unsigned long iopl ;
   unsigned int io_bitmap_max ;
   unsigned long debugctlmsr ;
   struct ds_context *ds_ctx ;
};
struct __anonstruct_mm_segment_t_24 {
   unsigned long seg ;
};
typedef struct __anonstruct_mm_segment_t_24 mm_segment_t;
struct list_head {
   struct list_head *next ;
   struct list_head *prev ;
};
struct hlist_node;
struct hlist_head {
   struct hlist_node *first ;
};
struct hlist_node {
   struct hlist_node *next ;
   struct hlist_node **pprev ;
};
struct raw_spinlock {
   unsigned int slock ;
};
typedef struct raw_spinlock raw_spinlock_t;
struct __anonstruct_raw_rwlock_t_25 {
   unsigned int lock ;
};
typedef struct __anonstruct_raw_rwlock_t_25 raw_rwlock_t;
struct lockdep_map;
typedef atomic64_t atomic_long_t;
struct stack_trace {
   unsigned int nr_entries ;
   unsigned int max_entries ;
   unsigned long *entries ;
   int skip ;
};
struct lockdep_subclass_key {
   char __one_byte ;
};
struct lock_class_key {
   struct lockdep_subclass_key subkeys[8U] ;
};
struct lock_class {
   struct list_head hash_entry ;
   struct list_head lock_entry ;
   struct lockdep_subclass_key *key ;
   unsigned int subclass ;
   unsigned int dep_gen_id ;
   unsigned long usage_mask ;
   struct stack_trace usage_traces[13U] ;
   struct list_head locks_after ;
   struct list_head locks_before ;
   unsigned int version ;
   unsigned long ops ;
   char const   *name ;
   int name_version ;
   unsigned long contention_point[4U] ;
   unsigned long contending_point[4U] ;
};
struct lockdep_map {
   struct lock_class_key *key ;
   struct lock_class *class_cache ;
   char const   *name ;
   int cpu ;
   unsigned long ip ;
};
struct held_lock {
   u64 prev_chain_key ;
   unsigned long acquire_ip ;
   struct lockdep_map *instance ;
   struct lockdep_map *nest_lock ;
   u64 waittime_stamp ;
   u64 holdtime_stamp ;
   unsigned short class_idx : 13 ;
   unsigned char irq_context : 2 ;
   unsigned char trylock : 1 ;
   unsigned char read : 2 ;
   unsigned char check : 2 ;
   unsigned char hardirqs_off : 1 ;
   unsigned short references : 11 ;
};
struct __anonstruct_spinlock_t_26 {
   raw_spinlock_t raw_lock ;
   unsigned int magic ;
   unsigned int owner_cpu ;
   void *owner ;
   struct lockdep_map dep_map ;
};
typedef struct __anonstruct_spinlock_t_26 spinlock_t;
struct __anonstruct_rwlock_t_27 {
   raw_rwlock_t raw_lock ;
   unsigned int magic ;
   unsigned int owner_cpu ;
   void *owner ;
   struct lockdep_map dep_map ;
};
typedef struct __anonstruct_rwlock_t_27 rwlock_t;
struct thread_info;
struct mutex {
   atomic_t count ;
   spinlock_t wait_lock ;
   struct list_head wait_list ;
   struct thread_info *owner ;
   char const   *name ;
   void *magic ;
   struct lockdep_map dep_map ;
};
struct mutex_waiter {
   struct list_head list ;
   struct task_struct *task ;
   void *magic ;
};
struct timespec;
struct compat_timespec;
struct __anonstruct_ldv_5548_29 {
   unsigned long arg0 ;
   unsigned long arg1 ;
   unsigned long arg2 ;
   unsigned long arg3 ;
};
struct __anonstruct_futex_30 {
   u32 *uaddr ;
   u32 val ;
   u32 flags ;
   u32 bitset ;
   u64 time ;
   u32 *uaddr2 ;
};
struct __anonstruct_nanosleep_31 {
   clockid_t index ;
   struct timespec *rmtp ;
   struct compat_timespec *compat_rmtp ;
   u64 expires ;
};
struct pollfd;
struct __anonstruct_poll_32 {
   struct pollfd *ufds ;
   int nfds ;
   int has_timeout ;
   unsigned long tv_sec ;
   unsigned long tv_nsec ;
};
union __anonunion_ldv_5571_28 {
   struct __anonstruct_ldv_5548_29 ldv_5548 ;
   struct __anonstruct_futex_30 futex ;
   struct __anonstruct_nanosleep_31 nanosleep ;
   struct __anonstruct_poll_32 poll ;
};
struct restart_block {
   long (*fn)(struct restart_block * ) ;
   union __anonunion_ldv_5571_28 ldv_5571 ;
};
struct thread_info {
   struct task_struct *task ;
   struct exec_domain *exec_domain ;
   __u32 flags ;
   __u32 status ;
   __u32 cpu ;
   int preempt_count ;
   mm_segment_t addr_limit ;
   struct restart_block restart_block ;
   void *sysenter_return ;
   int uaccess_err ;
};
struct timespec {
   __kernel_time_t tv_sec ;
   long tv_nsec ;
};
struct kstat {
   u64 ino ;
   dev_t dev ;
   umode_t mode ;
   unsigned int nlink ;
   uid_t uid ;
   gid_t gid ;
   dev_t rdev ;
   loff_t size ;
   struct timespec atime ;
   struct timespec mtime ;
   struct timespec ctime ;
   unsigned long blksize ;
   unsigned long long blocks ;
};
struct __wait_queue;
typedef struct __wait_queue wait_queue_t;
struct __wait_queue {
   unsigned int flags ;
   void *private ;
   int (*func)(wait_queue_t * , unsigned int  , int  , void * ) ;
   struct list_head task_list ;
};
struct __wait_queue_head {
   spinlock_t lock ;
   struct list_head task_list ;
};
typedef struct __wait_queue_head wait_queue_head_t;
struct __anonstruct_nodemask_t_34 {
   unsigned long bits[8U] ;
};
typedef struct __anonstruct_nodemask_t_34 nodemask_t;
struct rw_semaphore;
struct rw_semaphore {
   __s32 activity ;
   spinlock_t wait_lock ;
   struct list_head wait_list ;
   struct lockdep_map dep_map ;
};
struct device;
union ktime {
   s64 tv64 ;
};
typedef union ktime ktime_t;
struct tvec_base;
struct timer_list {
   struct list_head entry ;
   unsigned long expires ;
   void (*function)(unsigned long  ) ;
   unsigned long data ;
   struct tvec_base *base ;
   void *start_site ;
   char start_comm[16U] ;
   int start_pid ;
   struct lockdep_map lockdep_map ;
};
struct hrtimer;
enum hrtimer_restart;
struct work_struct;
struct work_struct {
   atomic_long_t data ;
   struct list_head entry ;
   void (*func)(struct work_struct * ) ;
   struct lockdep_map lockdep_map ;
};
struct delayed_work {
   struct work_struct work ;
   struct timer_list timer ;
};
struct pm_message {
   int event ;
};
typedef struct pm_message pm_message_t;
struct dev_pm_ops {
   int (*prepare)(struct device * ) ;
   void (*complete)(struct device * ) ;
   int (*suspend)(struct device * ) ;
   int (*resume)(struct device * ) ;
   int (*freeze)(struct device * ) ;
   int (*thaw)(struct device * ) ;
   int (*poweroff)(struct device * ) ;
   int (*restore)(struct device * ) ;
   int (*suspend_noirq)(struct device * ) ;
   int (*resume_noirq)(struct device * ) ;
   int (*freeze_noirq)(struct device * ) ;
   int (*thaw_noirq)(struct device * ) ;
   int (*poweroff_noirq)(struct device * ) ;
   int (*restore_noirq)(struct device * ) ;
   int (*runtime_suspend)(struct device * ) ;
   int (*runtime_resume)(struct device * ) ;
   int (*runtime_idle)(struct device * ) ;
};
enum dpm_state {
    DPM_INVALID = 0,
    DPM_ON = 1,
    DPM_PREPARING = 2,
    DPM_RESUMING = 3,
    DPM_SUSPENDING = 4,
    DPM_OFF = 5,
    DPM_OFF_IRQ = 6
} ;
enum rpm_status {
    RPM_ACTIVE = 0,
    RPM_RESUMING = 1,
    RPM_SUSPENDED = 2,
    RPM_SUSPENDING = 3
} ;
enum rpm_request {
    RPM_REQ_NONE = 0,
    RPM_REQ_IDLE = 1,
    RPM_REQ_SUSPEND = 2,
    RPM_REQ_RESUME = 3
} ;
struct dev_pm_info {
   pm_message_t power_state ;
   unsigned char can_wakeup : 1 ;
   unsigned char should_wakeup : 1 ;
   enum dpm_state status ;
   struct list_head entry ;
   struct timer_list suspend_timer ;
   unsigned long timer_expires ;
   struct work_struct work ;
   wait_queue_head_t wait_queue ;
   spinlock_t lock ;
   atomic_t usage_count ;
   atomic_t child_count ;
   unsigned char disable_depth : 3 ;
   unsigned char ignore_children : 1 ;
   unsigned char idle_notification : 1 ;
   unsigned char request_pending : 1 ;
   unsigned char deferred_resume : 1 ;
   enum rpm_request request ;
   enum rpm_status runtime_status ;
   int runtime_error ;
};
struct __anonstruct_mm_context_t_99 {
   void *ldt ;
   int size ;
   struct mutex lock ;
   void *vdso ;
};
typedef struct __anonstruct_mm_context_t_99 mm_context_t;
struct vm_area_struct;
struct key;
typedef __u64 Elf64_Addr;
typedef __u16 Elf64_Half;
typedef __u32 Elf64_Word;
typedef __u64 Elf64_Xword;
struct elf64_sym {
   Elf64_Word st_name ;
   unsigned char st_info ;
   unsigned char st_other ;
   Elf64_Half st_shndx ;
   Elf64_Addr st_value ;
   Elf64_Xword st_size ;
};
typedef struct elf64_sym Elf64_Sym;
struct kobject;
struct attribute {
   char const   *name ;
   struct module *owner ;
   mode_t mode ;
};
struct attribute_group {
   char const   *name ;
   mode_t (*is_visible)(struct kobject * , struct attribute * , int  ) ;
   struct attribute **attrs ;
};
struct sysfs_ops {
   ssize_t (*show)(struct kobject * , struct attribute * , char * ) ;
   ssize_t (*store)(struct kobject * , struct attribute * , char const   * , size_t  ) ;
};
struct sysfs_dirent;
struct kref {
   atomic_t refcount ;
};
struct kset;
struct kobj_type;
struct kobject {
   char const   *name ;
   struct list_head entry ;
   struct kobject *parent ;
   struct kset *kset ;
   struct kobj_type *ktype ;
   struct sysfs_dirent *sd ;
   struct kref kref ;
   unsigned char state_initialized : 1 ;
   unsigned char state_in_sysfs : 1 ;
   unsigned char state_add_uevent_sent : 1 ;
   unsigned char state_remove_uevent_sent : 1 ;
   unsigned char uevent_suppress : 1 ;
};
struct kobj_type {
   void (*release)(struct kobject * ) ;
   struct sysfs_ops *sysfs_ops ;
   struct attribute **default_attrs ;
};
struct kobj_uevent_env {
   char *envp[32U] ;
   int envp_idx ;
   char buf[2048U] ;
   int buflen ;
};
struct kset_uevent_ops {
   int (*filter)(struct kset * , struct kobject * ) ;
   char const   *(*name)(struct kset * , struct kobject * ) ;
   int (*uevent)(struct kset * , struct kobject * , struct kobj_uevent_env * ) ;
};
struct kset {
   struct list_head list ;
   spinlock_t list_lock ;
   struct kobject kobj ;
   struct kset_uevent_ops *uevent_ops ;
};
struct kernel_param;
struct kparam_string;
struct kparam_array;
union __anonunion_ldv_10118_109 {
   void *arg ;
   struct kparam_string  const  *str ;
   struct kparam_array  const  *arr ;
};
struct kernel_param {
   char const   *name ;
   u16 perm ;
   u16 flags ;
   int (*set)(char const   * , struct kernel_param * ) ;
   int (*get)(char * , struct kernel_param * ) ;
   union __anonunion_ldv_10118_109 ldv_10118 ;
};
struct kparam_string {
   unsigned int maxlen ;
   char *string ;
};
struct kparam_array {
   unsigned int max ;
   unsigned int *num ;
   int (*set)(char const   * , struct kernel_param * ) ;
   int (*get)(char * , struct kernel_param * ) ;
   unsigned int elemsize ;
   void *elem ;
};
struct completion {
   unsigned int done ;
   wait_queue_head_t wait ;
};
struct rcu_head {
   struct rcu_head *next ;
   void (*func)(struct rcu_head * ) ;
};
struct tracepoint;
struct tracepoint {
   char const   *name ;
   int state ;
   void (*regfunc)(void) ;
   void (*unregfunc)(void) ;
   void **funcs ;
};
struct kmem_cache_cpu {
   void **freelist ;
   struct page *page ;
   int node ;
   unsigned int offset ;
   unsigned int objsize ;
   unsigned int stat[18U] ;
};
struct kmem_cache_node {
   spinlock_t list_lock ;
   unsigned long nr_partial ;
   struct list_head partial ;
   atomic_long_t nr_slabs ;
   atomic_long_t total_objects ;
   struct list_head full ;
};
struct kmem_cache_order_objects {
   unsigned long x ;
};
struct kmem_cache {
   unsigned long flags ;
   int size ;
   int objsize ;
   int offset ;
   struct kmem_cache_order_objects oo ;
   struct kmem_cache_node local_node ;
   struct kmem_cache_order_objects max ;
   struct kmem_cache_order_objects min ;
   gfp_t allocflags ;
   int refcount ;
   void (*ctor)(void * ) ;
   int inuse ;
   int align ;
   unsigned long min_partial ;
   char const   *name ;
   struct list_head list ;
   struct kobject kobj ;
   int remote_node_defrag_ratio ;
   struct kmem_cache_node *node[512U] ;
   struct kmem_cache_cpu *cpu_slab[4096U] ;
};
struct mod_arch_specific {

};
struct kernel_symbol {
   unsigned long value ;
   char const   *name ;
};
struct module_attribute {
   struct attribute attr ;
   ssize_t (*show)(struct module_attribute * , struct module * , char * ) ;
   ssize_t (*store)(struct module_attribute * , struct module * , char const   * ,
                    size_t  ) ;
   void (*setup)(struct module * , char const   * ) ;
   int (*test)(struct module * ) ;
   void (*free)(struct module * ) ;
};
struct module_param_attrs;
struct module_kobject {
   struct kobject kobj ;
   struct module *mod ;
   struct kobject *drivers_dir ;
   struct module_param_attrs *mp ;
};
struct exception_table_entry;
enum module_state {
    MODULE_STATE_LIVE = 0,
    MODULE_STATE_COMING = 1,
    MODULE_STATE_GOING = 2
} ;
struct module_sect_attrs;
struct module_notes_attrs;
struct ftrace_event_call;
struct module {
   enum module_state state ;
   struct list_head list ;
   char name[56U] ;
   struct module_kobject mkobj ;
   struct module_attribute *modinfo_attrs ;
   char const   *version ;
   char const   *srcversion ;
   struct kobject *holders_dir ;
   struct kernel_symbol  const  *syms ;
   unsigned long const   *crcs ;
   unsigned int num_syms ;
   struct kernel_param *kp ;
   unsigned int num_kp ;
   unsigned int num_gpl_syms ;
   struct kernel_symbol  const  *gpl_syms ;
   unsigned long const   *gpl_crcs ;
   struct kernel_symbol  const  *unused_syms ;
   unsigned long const   *unused_crcs ;
   unsigned int num_unused_syms ;
   unsigned int num_unused_gpl_syms ;
   struct kernel_symbol  const  *unused_gpl_syms ;
   unsigned long const   *unused_gpl_crcs ;
   struct kernel_symbol  const  *gpl_future_syms ;
   unsigned long const   *gpl_future_crcs ;
   unsigned int num_gpl_future_syms ;
   unsigned int num_exentries ;
   struct exception_table_entry *extable ;
   int (*init)(void) ;
   void *module_init ;
   void *module_core ;
   unsigned int init_size ;
   unsigned int core_size ;
   unsigned int init_text_size ;
   unsigned int core_text_size ;
   struct mod_arch_specific arch ;
   unsigned int taints ;
   unsigned int num_bugs ;
   struct list_head bug_list ;
   struct bug_entry *bug_table ;
   Elf64_Sym *symtab ;
   unsigned int num_symtab ;
   char *strtab ;
   struct module_sect_attrs *sect_attrs ;
   struct module_notes_attrs *notes_attrs ;
   void *percpu ;
   char *args ;
   struct tracepoint *tracepoints ;
   unsigned int num_tracepoints ;
   char const   **trace_bprintk_fmt_start ;
   unsigned int num_trace_bprintk_fmt ;
   struct ftrace_event_call *trace_events ;
   unsigned int num_trace_events ;
   struct list_head modules_which_use_me ;
   struct task_struct *waiter ;
   void (*exit)(void) ;
   char *refptr ;
   ctor_fn_t (**ctors)(void) ;
   unsigned int num_ctors ;
};
struct device_driver;
struct klist_node;
struct klist_node {
   void *n_klist ;
   struct list_head n_node ;
   struct kref n_ref ;
};
struct semaphore {
   spinlock_t lock ;
   unsigned int count ;
   struct list_head wait_list ;
};
struct dma_map_ops;
struct dev_archdata {
   void *acpi_handle ;
   struct dma_map_ops *dma_ops ;
   void *iommu ;
};
struct device_private;
struct driver_private;
struct class;
struct class_private;
struct bus_type;
struct bus_type_private;
struct bus_attribute {
   struct attribute attr ;
   ssize_t (*show)(struct bus_type * , char * ) ;
   ssize_t (*store)(struct bus_type * , char const   * , size_t  ) ;
};
struct device_attribute;
struct driver_attribute;
struct bus_type {
   char const   *name ;
   struct bus_attribute *bus_attrs ;
   struct device_attribute *dev_attrs ;
   struct driver_attribute *drv_attrs ;
   int (*match)(struct device * , struct device_driver * ) ;
   int (*uevent)(struct device * , struct kobj_uevent_env * ) ;
   int (*probe)(struct device * ) ;
   int (*remove)(struct device * ) ;
   void (*shutdown)(struct device * ) ;
   int (*suspend)(struct device * , pm_message_t  ) ;
   int (*resume)(struct device * ) ;
   struct dev_pm_ops  const  *pm ;
   struct bus_type_private *p ;
};
struct device_driver {
   char const   *name ;
   struct bus_type *bus ;
   struct module *owner ;
   char const   *mod_name ;
   int (*probe)(struct device * ) ;
   int (*remove)(struct device * ) ;
   void (*shutdown)(struct device * ) ;
   int (*suspend)(struct device * , pm_message_t  ) ;
   int (*resume)(struct device * ) ;
   struct attribute_group  const  **groups ;
   struct dev_pm_ops  const  *pm ;
   struct driver_private *p ;
};
struct driver_attribute {
   struct attribute attr ;
   ssize_t (*show)(struct device_driver * , char * ) ;
   ssize_t (*store)(struct device_driver * , char const   * , size_t  ) ;
};
struct class_attribute;
struct class {
   char const   *name ;
   struct module *owner ;
   struct class_attribute *class_attrs ;
   struct device_attribute *dev_attrs ;
   struct kobject *dev_kobj ;
   int (*dev_uevent)(struct device * , struct kobj_uevent_env * ) ;
   char *(*devnode)(struct device * , mode_t * ) ;
   void (*class_release)(struct class * ) ;
   void (*dev_release)(struct device * ) ;
   int (*suspend)(struct device * , pm_message_t  ) ;
   int (*resume)(struct device * ) ;
   struct dev_pm_ops  const  *pm ;
   struct class_private *p ;
};
struct device_type;
struct class_attribute {
   struct attribute attr ;
   ssize_t (*show)(struct class * , char * ) ;
   ssize_t (*store)(struct class * , char const   * , size_t  ) ;
};
struct device_type {
   char const   *name ;
   struct attribute_group  const  **groups ;
   int (*uevent)(struct device * , struct kobj_uevent_env * ) ;
   char *(*devnode)(struct device * , mode_t * ) ;
   void (*release)(struct device * ) ;
   struct dev_pm_ops  const  *pm ;
};
struct device_attribute {
   struct attribute attr ;
   ssize_t (*show)(struct device * , struct device_attribute * , char * ) ;
   ssize_t (*store)(struct device * , struct device_attribute * , char const   * ,
                    size_t  ) ;
};
struct device_dma_parameters {
   unsigned int max_segment_size ;
   unsigned long segment_boundary_mask ;
};
struct dma_coherent_mem;
struct device {
   struct device *parent ;
   struct device_private *p ;
   struct kobject kobj ;
   char const   *init_name ;
   struct device_type *type ;
   struct semaphore sem ;
   struct bus_type *bus ;
   struct device_driver *driver ;
   void *platform_data ;
   struct dev_pm_info power ;
   int numa_node ;
   u64 *dma_mask ;
   u64 coherent_dma_mask ;
   struct device_dma_parameters *dma_parms ;
   struct list_head dma_pools ;
   struct dma_coherent_mem *dma_mem ;
   struct dev_archdata archdata ;
   dev_t devt ;
   spinlock_t devres_lock ;
   struct list_head devres_head ;
   struct klist_node knode_class ;
   struct class *class ;
   struct attribute_group  const  **groups ;
   void (*release)(struct device * ) ;
};
typedef unsigned long kernel_ulong_t;
struct spi_device_id {
   char name[32U] ;
   kernel_ulong_t driver_data ;
};
struct rtc_time {
   int tm_sec ;
   int tm_min ;
   int tm_hour ;
   int tm_mday ;
   int tm_mon ;
   int tm_year ;
   int tm_wday ;
   int tm_yday ;
   int tm_isdst ;
};
struct rtc_wkalrm {
   unsigned char enabled ;
   unsigned char pending ;
   struct rtc_time time ;
};
enum irqreturn {
    IRQ_NONE = 0,
    IRQ_HANDLED = 1,
    IRQ_WAKE_THREAD = 2
} ;
typedef enum irqreturn irqreturn_t;
struct proc_dir_entry;
struct irqaction;
struct kernel_cap_struct {
   __u32 cap[2U] ;
};
typedef struct kernel_cap_struct kernel_cap_t;
struct dentry;
struct rb_node {
   unsigned long rb_parent_color ;
   struct rb_node *rb_right ;
   struct rb_node *rb_left ;
};
struct rb_root {
   struct rb_node *rb_node ;
};
struct prio_tree_node;
struct raw_prio_tree_node {
   struct prio_tree_node *left ;
   struct prio_tree_node *right ;
   struct prio_tree_node *parent ;
};
struct prio_tree_node {
   struct prio_tree_node *left ;
   struct prio_tree_node *right ;
   struct prio_tree_node *parent ;
   unsigned long start ;
   unsigned long last ;
};
struct prio_tree_root {
   struct prio_tree_node *prio_tree_node ;
   unsigned short index_bits ;
   unsigned short raw ;
};
struct address_space;
typedef atomic_long_t mm_counter_t;
struct __anonstruct_ldv_13104_115 {
   u16 inuse ;
   u16 objects ;
};
union __anonunion_ldv_13105_114 {
   atomic_t _mapcount ;
   struct __anonstruct_ldv_13104_115 ldv_13104 ;
};
struct __anonstruct_ldv_13110_117 {
   unsigned long private ;
   struct address_space *mapping ;
};
union __anonunion_ldv_13114_116 {
   struct __anonstruct_ldv_13110_117 ldv_13110 ;
   spinlock_t ptl ;
   struct kmem_cache *slab ;
   struct page *first_page ;
};
union __anonunion_ldv_13118_118 {
   unsigned long index ;
   void *freelist ;
};
struct page {
   unsigned long flags ;
   atomic_t _count ;
   union __anonunion_ldv_13105_114 ldv_13105 ;
   union __anonunion_ldv_13114_116 ldv_13114 ;
   union __anonunion_ldv_13118_118 ldv_13118 ;
   struct list_head lru ;
};
struct __anonstruct_vm_set_120 {
   struct list_head list ;
   void *parent ;
   struct vm_area_struct *head ;
};
union __anonunion_shared_119 {
   struct __anonstruct_vm_set_120 vm_set ;
   struct raw_prio_tree_node prio_tree_node ;
};
struct anon_vma;
struct vm_operations_struct;
struct mempolicy;
struct vm_area_struct {
   struct mm_struct *vm_mm ;
   unsigned long vm_start ;
   unsigned long vm_end ;
   struct vm_area_struct *vm_next ;
   pgprot_t vm_page_prot ;
   unsigned long vm_flags ;
   struct rb_node vm_rb ;
   union __anonunion_shared_119 shared ;
   struct list_head anon_vma_node ;
   struct anon_vma *anon_vma ;
   struct vm_operations_struct *vm_ops ;
   unsigned long vm_pgoff ;
   struct file *vm_file ;
   void *vm_private_data ;
   unsigned long vm_truncate_count ;
   struct mempolicy *vm_policy ;
};
struct core_thread {
   struct task_struct *task ;
   struct core_thread *next ;
};
struct core_state {
   atomic_t nr_threads ;
   struct core_thread dumper ;
   struct completion startup ;
};
struct mmu_notifier_mm;
struct mm_struct {
   struct vm_area_struct *mmap ;
   struct rb_root mm_rb ;
   struct vm_area_struct *mmap_cache ;
   unsigned long (*get_unmapped_area)(struct file * , unsigned long  , unsigned long  ,
                                      unsigned long  , unsigned long  ) ;
   void (*unmap_area)(struct mm_struct * , unsigned long  ) ;
   unsigned long mmap_base ;
   unsigned long task_size ;
   unsigned long cached_hole_size ;
   unsigned long free_area_cache ;
   pgd_t *pgd ;
   atomic_t mm_users ;
   atomic_t mm_count ;
   int map_count ;
   struct rw_semaphore mmap_sem ;
   spinlock_t page_table_lock ;
   struct list_head mmlist ;
   mm_counter_t _file_rss ;
   mm_counter_t _anon_rss ;
   unsigned long hiwater_rss ;
   unsigned long hiwater_vm ;
   unsigned long total_vm ;
   unsigned long locked_vm ;
   unsigned long shared_vm ;
   unsigned long exec_vm ;
   unsigned long stack_vm ;
   unsigned long reserved_vm ;
   unsigned long def_flags ;
   unsigned long nr_ptes ;
   unsigned long start_code ;
   unsigned long end_code ;
   unsigned long start_data ;
   unsigned long end_data ;
   unsigned long start_brk ;
   unsigned long brk ;
   unsigned long start_stack ;
   unsigned long arg_start ;
   unsigned long arg_end ;
   unsigned long env_start ;
   unsigned long env_end ;
   unsigned long saved_auxv[44U] ;
   cpumask_t cpu_vm_mask ;
   mm_context_t context ;
   unsigned int faultstamp ;
   unsigned int token_priority ;
   unsigned int last_interval ;
   unsigned long flags ;
   struct core_state *core_state ;
   spinlock_t ioctx_lock ;
   struct hlist_head ioctx_list ;
   struct task_struct *owner ;
   struct file *exe_file ;
   unsigned long num_exe_file_vmas ;
   struct mmu_notifier_mm *mmu_notifier_mm ;
};
typedef unsigned long cputime_t;
struct sem_undo_list;
struct sem_undo_list {
   atomic_t refcnt ;
   spinlock_t lock ;
   struct list_head list_proc ;
};
struct sysv_sem {
   struct sem_undo_list *undo_list ;
};
struct siginfo;
struct __anonstruct_sigset_t_121 {
   unsigned long sig[1U] ;
};
typedef struct __anonstruct_sigset_t_121 sigset_t;
typedef void __signalfn_t(int  );
typedef __signalfn_t *__sighandler_t;
typedef void __restorefn_t(void);
typedef __restorefn_t *__sigrestore_t;
struct sigaction {
   __sighandler_t sa_handler ;
   unsigned long sa_flags ;
   __sigrestore_t sa_restorer ;
   sigset_t sa_mask ;
};
struct k_sigaction {
   struct sigaction sa ;
};
union sigval {
   int sival_int ;
   void *sival_ptr ;
};
typedef union sigval sigval_t;
struct __anonstruct__kill_123 {
   __kernel_pid_t _pid ;
   __kernel_uid32_t _uid ;
};
struct __anonstruct__timer_124 {
   __kernel_timer_t _tid ;
   int _overrun ;
   char _pad[0U] ;
   sigval_t _sigval ;
   int _sys_private ;
};
struct __anonstruct__rt_125 {
   __kernel_pid_t _pid ;
   __kernel_uid32_t _uid ;
   sigval_t _sigval ;
};
struct __anonstruct__sigchld_126 {
   __kernel_pid_t _pid ;
   __kernel_uid32_t _uid ;
   int _status ;
   __kernel_clock_t _utime ;
   __kernel_clock_t _stime ;
};
struct __anonstruct__sigfault_127 {
   void *_addr ;
};
struct __anonstruct__sigpoll_128 {
   long _band ;
   int _fd ;
};
union __anonunion__sifields_122 {
   int _pad[28U] ;
   struct __anonstruct__kill_123 _kill ;
   struct __anonstruct__timer_124 _timer ;
   struct __anonstruct__rt_125 _rt ;
   struct __anonstruct__sigchld_126 _sigchld ;
   struct __anonstruct__sigfault_127 _sigfault ;
   struct __anonstruct__sigpoll_128 _sigpoll ;
};
struct siginfo {
   int si_signo ;
   int si_errno ;
   int si_code ;
   union __anonunion__sifields_122 _sifields ;
};
typedef struct siginfo siginfo_t;
struct user_struct;
struct sigpending {
   struct list_head list ;
   sigset_t signal ;
};
struct vfsmount;
struct path {
   struct vfsmount *mnt ;
   struct dentry *dentry ;
};
enum pid_type {
    PIDTYPE_PID = 0,
    PIDTYPE_PGID = 1,
    PIDTYPE_SID = 2,
    PIDTYPE_MAX = 3
} ;
struct pid_namespace;
struct upid {
   int nr ;
   struct pid_namespace *ns ;
   struct hlist_node pid_chain ;
};
struct pid {
   atomic_t count ;
   unsigned int level ;
   struct hlist_head tasks[3U] ;
   struct rcu_head rcu ;
   struct upid numbers[1U] ;
};
struct pid_link {
   struct hlist_node node ;
   struct pid *pid ;
};
struct prop_local_single {
   unsigned long events ;
   unsigned long period ;
   int shift ;
   spinlock_t lock ;
};
struct __anonstruct_seccomp_t_131 {
   int mode ;
};
typedef struct __anonstruct_seccomp_t_131 seccomp_t;
struct plist_head {
   struct list_head prio_list ;
   struct list_head node_list ;
   spinlock_t *lock ;
};
struct plist_node {
   int prio ;
   struct plist_head plist ;
};
struct rt_mutex_waiter;
struct rlimit {
   unsigned long rlim_cur ;
   unsigned long rlim_max ;
};
struct hrtimer_clock_base;
struct hrtimer_cpu_base;
enum hrtimer_restart {
    HRTIMER_NORESTART = 0,
    HRTIMER_RESTART = 1
} ;
struct hrtimer {
   struct rb_node node ;
   ktime_t _expires ;
   ktime_t _softexpires ;
   enum hrtimer_restart (*function)(struct hrtimer * ) ;
   struct hrtimer_clock_base *base ;
   unsigned long state ;
   int start_pid ;
   void *start_site ;
   char start_comm[16U] ;
};
struct hrtimer_clock_base {
   struct hrtimer_cpu_base *cpu_base ;
   clockid_t index ;
   struct rb_root active ;
   struct rb_node *first ;
   ktime_t resolution ;
   ktime_t (*get_time)(void) ;
   ktime_t softirq_time ;
   ktime_t offset ;
};
struct hrtimer_cpu_base {
   spinlock_t lock ;
   struct hrtimer_clock_base clock_base[2U] ;
   ktime_t expires_next ;
   int hres_active ;
   unsigned long nr_events ;
};
struct task_io_accounting {
   u64 rchar ;
   u64 wchar ;
   u64 syscr ;
   u64 syscw ;
   u64 read_bytes ;
   u64 write_bytes ;
   u64 cancelled_write_bytes ;
};
struct latency_record {
   unsigned long backtrace[12U] ;
   unsigned int count ;
   unsigned long time ;
   unsigned long max ;
};
struct nsproxy;
typedef int32_t key_serial_t;
typedef uint32_t key_perm_t;
struct signal_struct;
struct cred;
struct key_type;
struct keyring_list;
struct key_user;
union __anonunion_ldv_15135_132 {
   time_t expiry ;
   time_t revoked_at ;
};
union __anonunion_type_data_133 {
   struct list_head link ;
   unsigned long x[2U] ;
   void *p[2U] ;
};
union __anonunion_payload_134 {
   unsigned long value ;
   void *data ;
   struct keyring_list *subscriptions ;
};
struct key {
   atomic_t usage ;
   key_serial_t serial ;
   struct rb_node serial_node ;
   struct key_type *type ;
   struct rw_semaphore sem ;
   struct key_user *user ;
   void *security ;
   union __anonunion_ldv_15135_132 ldv_15135 ;
   uid_t uid ;
   gid_t gid ;
   key_perm_t perm ;
   unsigned short quotalen ;
   unsigned short datalen ;
   unsigned long flags ;
   char *description ;
   union __anonunion_type_data_133 type_data ;
   union __anonunion_payload_134 payload ;
};
struct audit_context;
struct inode;
struct group_info {
   atomic_t usage ;
   int ngroups ;
   int nblocks ;
   gid_t small_block[32U] ;
   gid_t *blocks[0U] ;
};
struct thread_group_cred {
   atomic_t usage ;
   pid_t tgid ;
   spinlock_t lock ;
   struct key *session_keyring ;
   struct key *process_keyring ;
   struct rcu_head rcu ;
};
struct cred {
   atomic_t usage ;
   atomic_t subscribers ;
   void *put_addr ;
   unsigned int magic ;
   uid_t uid ;
   gid_t gid ;
   uid_t suid ;
   gid_t sgid ;
   uid_t euid ;
   gid_t egid ;
   uid_t fsuid ;
   gid_t fsgid ;
   unsigned int securebits ;
   kernel_cap_t cap_inheritable ;
   kernel_cap_t cap_permitted ;
   kernel_cap_t cap_effective ;
   kernel_cap_t cap_bset ;
   unsigned char jit_keyring ;
   struct key *thread_keyring ;
   struct key *request_key_auth ;
   struct thread_group_cred *tgcred ;
   void *security ;
   struct user_struct *user ;
   struct group_info *group_info ;
   struct rcu_head rcu ;
};
struct futex_pi_state;
struct robust_list_head;
struct bio;
struct fs_struct;
struct bts_context;
struct perf_event_context;
struct cfs_rq;
struct task_group;
struct user_namespace;
struct io_event {
   __u64 data ;
   __u64 obj ;
   __s64 res ;
   __s64 res2 ;
};
struct iovec {
   void *iov_base ;
   __kernel_size_t iov_len ;
};
struct kioctx;
union __anonunion_ki_obj_135 {
   void *user ;
   struct task_struct *tsk ;
};
struct eventfd_ctx;
struct kiocb {
   struct list_head ki_run_list ;
   unsigned long ki_flags ;
   int ki_users ;
   unsigned int ki_key ;
   struct file *ki_filp ;
   struct kioctx *ki_ctx ;
   int (*ki_cancel)(struct kiocb * , struct io_event * ) ;
   ssize_t (*ki_retry)(struct kiocb * ) ;
   void (*ki_dtor)(struct kiocb * ) ;
   union __anonunion_ki_obj_135 ki_obj ;
   __u64 ki_user_data ;
   wait_queue_t ki_wait ;
   loff_t ki_pos ;
   void *private ;
   unsigned short ki_opcode ;
   size_t ki_nbytes ;
   char *ki_buf ;
   size_t ki_left ;
   struct iovec ki_inline_vec ;
   struct iovec *ki_iovec ;
   unsigned long ki_nr_segs ;
   unsigned long ki_cur_seg ;
   struct list_head ki_list ;
   struct eventfd_ctx *ki_eventfd ;
};
struct aio_ring_info {
   unsigned long mmap_base ;
   unsigned long mmap_size ;
   struct page **ring_pages ;
   spinlock_t ring_lock ;
   long nr_pages ;
   unsigned int nr ;
   unsigned int tail ;
   struct page *internal_pages[8U] ;
};
struct kioctx {
   atomic_t users ;
   int dead ;
   struct mm_struct *mm ;
   unsigned long user_id ;
   struct hlist_node list ;
   wait_queue_head_t wait ;
   spinlock_t ctx_lock ;
   int reqs_active ;
   struct list_head active_reqs ;
   struct list_head run_list ;
   unsigned int max_reqs ;
   struct aio_ring_info ring_info ;
   struct delayed_work wq ;
   struct rcu_head rcu_head ;
};
struct sighand_struct {
   atomic_t count ;
   struct k_sigaction action[64U] ;
   spinlock_t siglock ;
   wait_queue_head_t signalfd_wqh ;
};
struct pacct_struct {
   int ac_flag ;
   long ac_exitcode ;
   unsigned long ac_mem ;
   cputime_t ac_utime ;
   cputime_t ac_stime ;
   unsigned long ac_minflt ;
   unsigned long ac_majflt ;
};
struct task_cputime {
   cputime_t utime ;
   cputime_t stime ;
   unsigned long long sum_exec_runtime ;
};
struct thread_group_cputimer {
   struct task_cputime cputime ;
   int running ;
   spinlock_t lock ;
};
struct tty_struct;
struct taskstats;
struct tty_audit_buf;
struct signal_struct {
   atomic_t count ;
   atomic_t live ;
   wait_queue_head_t wait_chldexit ;
   struct task_struct *curr_target ;
   struct sigpending shared_pending ;
   int group_exit_code ;
   int notify_count ;
   struct task_struct *group_exit_task ;
   int group_stop_count ;
   unsigned int flags ;
   struct list_head posix_timers ;
   struct hrtimer real_timer ;
   struct pid *leader_pid ;
   ktime_t it_real_incr ;
   cputime_t it_prof_expires ;
   cputime_t it_virt_expires ;
   cputime_t it_prof_incr ;
   cputime_t it_virt_incr ;
   struct thread_group_cputimer cputimer ;
   struct task_cputime cputime_expires ;
   struct list_head cpu_timers[3U] ;
   struct pid *tty_old_pgrp ;
   int leader ;
   struct tty_struct *tty ;
   cputime_t utime ;
   cputime_t stime ;
   cputime_t cutime ;
   cputime_t cstime ;
   cputime_t gtime ;
   cputime_t cgtime ;
   unsigned long nvcsw ;
   unsigned long nivcsw ;
   unsigned long cnvcsw ;
   unsigned long cnivcsw ;
   unsigned long min_flt ;
   unsigned long maj_flt ;
   unsigned long cmin_flt ;
   unsigned long cmaj_flt ;
   unsigned long inblock ;
   unsigned long oublock ;
   unsigned long cinblock ;
   unsigned long coublock ;
   unsigned long maxrss ;
   unsigned long cmaxrss ;
   struct task_io_accounting ioac ;
   unsigned long long sum_sched_runtime ;
   struct rlimit rlim[16U] ;
   struct pacct_struct pacct ;
   struct taskstats *stats ;
   unsigned int audit_tty ;
   struct tty_audit_buf *tty_audit_buf ;
   int oom_adj ;
};
struct user_struct {
   atomic_t __count ;
   atomic_t processes ;
   atomic_t files ;
   atomic_t sigpending ;
   atomic_t inotify_watches ;
   atomic_t inotify_devs ;
   atomic_t epoll_watches ;
   unsigned long mq_bytes ;
   unsigned long locked_shm ;
   struct key *uid_keyring ;
   struct key *session_keyring ;
   struct hlist_node uidhash_node ;
   uid_t uid ;
   struct user_namespace *user_ns ;
   struct task_group *tg ;
   struct kobject kobj ;
   struct delayed_work work ;
   atomic_long_t locked_vm ;
};
struct backing_dev_info;
struct reclaim_state;
struct sched_info {
   unsigned long pcount ;
   unsigned long long run_delay ;
   unsigned long long last_arrival ;
   unsigned long long last_queued ;
   unsigned int bkl_count ;
};
struct task_delay_info {
   spinlock_t lock ;
   unsigned int flags ;
   struct timespec blkio_start ;
   struct timespec blkio_end ;
   u64 blkio_delay ;
   u64 swapin_delay ;
   u32 blkio_count ;
   u32 swapin_count ;
   struct timespec freepages_start ;
   struct timespec freepages_end ;
   u64 freepages_delay ;
   u32 freepages_count ;
};
enum cpu_idle_type {
    CPU_IDLE = 0,
    CPU_NOT_IDLE = 1,
    CPU_NEWLY_IDLE = 2,
    CPU_MAX_IDLE_TYPES = 3
} ;
struct sched_group {
   struct sched_group *next ;
   unsigned int cpu_power ;
   unsigned long cpumask[0U] ;
};
enum sched_domain_level {
    SD_LV_NONE = 0,
    SD_LV_SIBLING = 1,
    SD_LV_MC = 2,
    SD_LV_CPU = 3,
    SD_LV_NODE = 4,
    SD_LV_ALLNODES = 5,
    SD_LV_MAX = 6
} ;
struct sched_domain {
   struct sched_domain *parent ;
   struct sched_domain *child ;
   struct sched_group *groups ;
   unsigned long min_interval ;
   unsigned long max_interval ;
   unsigned int busy_factor ;
   unsigned int imbalance_pct ;
   unsigned int cache_nice_tries ;
   unsigned int busy_idx ;
   unsigned int idle_idx ;
   unsigned int newidle_idx ;
   unsigned int wake_idx ;
   unsigned int forkexec_idx ;
   unsigned int smt_gain ;
   int flags ;
   enum sched_domain_level level ;
   unsigned long last_balance ;
   unsigned int balance_interval ;
   unsigned int nr_balance_failed ;
   u64 last_update ;
   unsigned int lb_count[3U] ;
   unsigned int lb_failed[3U] ;
   unsigned int lb_balanced[3U] ;
   unsigned int lb_imbalance[3U] ;
   unsigned int lb_gained[3U] ;
   unsigned int lb_hot_gained[3U] ;
   unsigned int lb_nobusyg[3U] ;
   unsigned int lb_nobusyq[3U] ;
   unsigned int alb_count ;
   unsigned int alb_failed ;
   unsigned int alb_pushed ;
   unsigned int sbe_count ;
   unsigned int sbe_balanced ;
   unsigned int sbe_pushed ;
   unsigned int sbf_count ;
   unsigned int sbf_balanced ;
   unsigned int sbf_pushed ;
   unsigned int ttwu_wake_remote ;
   unsigned int ttwu_move_affine ;
   unsigned int ttwu_move_balance ;
   char *name ;
   unsigned long span[0U] ;
};
struct io_context;
struct pipe_inode_info;
struct rq;
struct sched_class {
   struct sched_class  const  *next ;
   void (*enqueue_task)(struct rq * , struct task_struct * , int  ) ;
   void (*dequeue_task)(struct rq * , struct task_struct * , int  ) ;
   void (*yield_task)(struct rq * ) ;
   void (*check_preempt_curr)(struct rq * , struct task_struct * , int  ) ;
   struct task_struct *(*pick_next_task)(struct rq * ) ;
   void (*put_prev_task)(struct rq * , struct task_struct * ) ;
   int (*select_task_rq)(struct task_struct * , int  , int  ) ;
   unsigned long (*load_balance)(struct rq * , int  , struct rq * , unsigned long  ,
                                 struct sched_domain * , enum cpu_idle_type  , int * ,
                                 int * ) ;
   int (*move_one_task)(struct rq * , int  , struct rq * , struct sched_domain * ,
                        enum cpu_idle_type  ) ;
   void (*pre_schedule)(struct rq * , struct task_struct * ) ;
   void (*post_schedule)(struct rq * ) ;
   void (*task_wake_up)(struct rq * , struct task_struct * ) ;
   void (*set_cpus_allowed)(struct task_struct * , struct cpumask  const  * ) ;
   void (*rq_online)(struct rq * ) ;
   void (*rq_offline)(struct rq * ) ;
   void (*set_curr_task)(struct rq * ) ;
   void (*task_tick)(struct rq * , struct task_struct * , int  ) ;
   void (*task_new)(struct rq * , struct task_struct * ) ;
   void (*switched_from)(struct rq * , struct task_struct * , int  ) ;
   void (*switched_to)(struct rq * , struct task_struct * , int  ) ;
   void (*prio_changed)(struct rq * , struct task_struct * , int  , int  ) ;
   unsigned int (*get_rr_interval)(struct task_struct * ) ;
   void (*moved_group)(struct task_struct * ) ;
};
struct load_weight {
   unsigned long weight ;
   unsigned long inv_weight ;
};
struct sched_entity {
   struct load_weight load ;
   struct rb_node run_node ;
   struct list_head group_node ;
   unsigned int on_rq ;
   u64 exec_start ;
   u64 sum_exec_runtime ;
   u64 vruntime ;
   u64 prev_sum_exec_runtime ;
   u64 last_wakeup ;
   u64 avg_overlap ;
   u64 nr_migrations ;
   u64 start_runtime ;
   u64 avg_wakeup ;
   u64 avg_running ;
   u64 wait_start ;
   u64 wait_max ;
   u64 wait_count ;
   u64 wait_sum ;
   u64 iowait_count ;
   u64 iowait_sum ;
   u64 sleep_start ;
   u64 sleep_max ;
   s64 sum_sleep_runtime ;
   u64 block_start ;
   u64 block_max ;
   u64 exec_max ;
   u64 slice_max ;
   u64 nr_migrations_cold ;
   u64 nr_failed_migrations_affine ;
   u64 nr_failed_migrations_running ;
   u64 nr_failed_migrations_hot ;
   u64 nr_forced_migrations ;
   u64 nr_forced2_migrations ;
   u64 nr_wakeups ;
   u64 nr_wakeups_sync ;
   u64 nr_wakeups_migrate ;
   u64 nr_wakeups_local ;
   u64 nr_wakeups_remote ;
   u64 nr_wakeups_affine ;
   u64 nr_wakeups_affine_attempts ;
   u64 nr_wakeups_passive ;
   u64 nr_wakeups_idle ;
   struct sched_entity *parent ;
   struct cfs_rq *cfs_rq ;
   struct cfs_rq *my_q ;
};
struct rt_rq;
struct sched_rt_entity {
   struct list_head run_list ;
   unsigned long timeout ;
   unsigned int time_slice ;
   int nr_cpus_allowed ;
   struct sched_rt_entity *back ;
   struct sched_rt_entity *parent ;
   struct rt_rq *rt_rq ;
   struct rt_rq *my_q ;
};
struct linux_binfmt;
struct files_struct;
struct css_set;
struct compat_robust_list_head;
struct task_struct {
   long volatile   state ;
   void *stack ;
   atomic_t usage ;
   unsigned int flags ;
   unsigned int ptrace ;
   int lock_depth ;
   int prio ;
   int static_prio ;
   int normal_prio ;
   unsigned int rt_priority ;
   struct sched_class  const  *sched_class ;
   struct sched_entity se ;
   struct sched_rt_entity rt ;
   struct hlist_head preempt_notifiers ;
   unsigned char fpu_counter ;
   unsigned int policy ;
   cpumask_t cpus_allowed ;
   struct sched_info sched_info ;
   struct list_head tasks ;
   struct plist_node pushable_tasks ;
   struct mm_struct *mm ;
   struct mm_struct *active_mm ;
   struct linux_binfmt *binfmt ;
   int exit_state ;
   int exit_code ;
   int exit_signal ;
   int pdeath_signal ;
   unsigned int personality ;
   unsigned char did_exec : 1 ;
   unsigned char in_execve : 1 ;
   unsigned char in_iowait : 1 ;
   unsigned char sched_reset_on_fork : 1 ;
   pid_t pid ;
   pid_t tgid ;
   unsigned long stack_canary ;
   struct task_struct *real_parent ;
   struct task_struct *parent ;
   struct list_head children ;
   struct list_head sibling ;
   struct task_struct *group_leader ;
   struct list_head ptraced ;
   struct list_head ptrace_entry ;
   struct bts_context *bts ;
   struct pid_link pids[3U] ;
   struct list_head thread_group ;
   struct completion *vfork_done ;
   int *set_child_tid ;
   int *clear_child_tid ;
   cputime_t utime ;
   cputime_t stime ;
   cputime_t utimescaled ;
   cputime_t stimescaled ;
   cputime_t gtime ;
   cputime_t prev_utime ;
   cputime_t prev_stime ;
   unsigned long nvcsw ;
   unsigned long nivcsw ;
   struct timespec start_time ;
   struct timespec real_start_time ;
   unsigned long min_flt ;
   unsigned long maj_flt ;
   struct task_cputime cputime_expires ;
   struct list_head cpu_timers[3U] ;
   struct cred  const  *real_cred ;
   struct cred  const  *cred ;
   struct mutex cred_guard_mutex ;
   struct cred *replacement_session_keyring ;
   char comm[16U] ;
   int link_count ;
   int total_link_count ;
   struct sysv_sem sysvsem ;
   unsigned long last_switch_count ;
   struct thread_struct thread ;
   struct fs_struct *fs ;
   struct files_struct *files ;
   struct nsproxy *nsproxy ;
   struct signal_struct *signal ;
   struct sighand_struct *sighand ;
   sigset_t blocked ;
   sigset_t real_blocked ;
   sigset_t saved_sigmask ;
   struct sigpending pending ;
   unsigned long sas_ss_sp ;
   size_t sas_ss_size ;
   int (*notifier)(void * ) ;
   void *notifier_data ;
   sigset_t *notifier_mask ;
   struct audit_context *audit_context ;
   uid_t loginuid ;
   unsigned int sessionid ;
   seccomp_t seccomp ;
   u32 parent_exec_id ;
   u32 self_exec_id ;
   spinlock_t alloc_lock ;
   struct irqaction *irqaction ;
   spinlock_t pi_lock ;
   struct plist_head pi_waiters ;
   struct rt_mutex_waiter *pi_blocked_on ;
   struct mutex_waiter *blocked_on ;
   unsigned int irq_events ;
   int hardirqs_enabled ;
   unsigned long hardirq_enable_ip ;
   unsigned int hardirq_enable_event ;
   unsigned long hardirq_disable_ip ;
   unsigned int hardirq_disable_event ;
   int softirqs_enabled ;
   unsigned long softirq_disable_ip ;
   unsigned int softirq_disable_event ;
   unsigned long softirq_enable_ip ;
   unsigned int softirq_enable_event ;
   int hardirq_context ;
   int softirq_context ;
   u64 curr_chain_key ;
   int lockdep_depth ;
   unsigned int lockdep_recursion ;
   struct held_lock held_locks[48U] ;
   gfp_t lockdep_reclaim_gfp ;
   void *journal_info ;
   struct bio *bio_list ;
   struct bio **bio_tail ;
   struct reclaim_state *reclaim_state ;
   struct backing_dev_info *backing_dev_info ;
   struct io_context *io_context ;
   unsigned long ptrace_message ;
   siginfo_t *last_siginfo ;
   struct task_io_accounting ioac ;
   u64 acct_rss_mem1 ;
   u64 acct_vm_mem1 ;
   cputime_t acct_timexpd ;
   nodemask_t mems_allowed ;
   int cpuset_mem_spread_rotor ;
   struct css_set *cgroups ;
   struct list_head cg_list ;
   struct robust_list_head *robust_list ;
   struct compat_robust_list_head *compat_robust_list ;
   struct list_head pi_state_list ;
   struct futex_pi_state *pi_state_cache ;
   struct perf_event_context *perf_event_ctxp ;
   struct mutex perf_event_mutex ;
   struct list_head perf_event_list ;
   struct mempolicy *mempolicy ;
   short il_next ;
   atomic_t fs_excl ;
   struct rcu_head rcu ;
   struct pipe_inode_info *splice_pipe ;
   struct task_delay_info *delays ;
   int make_it_fail ;
   struct prop_local_single dirties ;
   int latency_record_count ;
   struct latency_record latency_record[32U] ;
   unsigned long timer_slack_ns ;
   unsigned long default_timer_slack_ns ;
   struct list_head *scm_work_list ;
   unsigned long trace ;
   unsigned long trace_recursion ;
   unsigned long stack_start ;
};
struct irqaction {
   irqreturn_t (*handler)(int  , void * ) ;
   unsigned long flags ;
   cpumask_t mask ;
   char const   *name ;
   void *dev_id ;
   struct irqaction *next ;
   int irq ;
   struct proc_dir_entry *dir ;
   irqreturn_t (*thread_fn)(int  , void * ) ;
   struct task_struct *thread ;
   unsigned long thread_flags ;
};
struct seq_file {
   char *buf ;
   size_t size ;
   size_t from ;
   size_t count ;
   loff_t index ;
   loff_t read_pos ;
   u64 version ;
   struct mutex lock ;
   struct seq_operations  const  *op ;
   void *private ;
};
struct seq_operations {
   void *(*start)(struct seq_file * , loff_t * ) ;
   void (*stop)(struct seq_file * , void * ) ;
   void *(*next)(struct seq_file * , void * , loff_t * ) ;
   int (*show)(struct seq_file * , void * ) ;
};
struct file_operations;
struct cdev {
   struct kobject kobj ;
   struct module *owner ;
   struct file_operations  const  *ops ;
   struct list_head list ;
   dev_t dev ;
   unsigned int count ;
};
struct pollfd {
   int fd ;
   short events ;
   short revents ;
};
struct nameidata;
struct qstr {
   unsigned int hash ;
   unsigned int len ;
   unsigned char const   *name ;
};
union __anonunion_d_u_136 {
   struct list_head d_child ;
   struct rcu_head d_rcu ;
};
struct dentry_operations;
struct super_block;
struct dentry {
   atomic_t d_count ;
   unsigned int d_flags ;
   spinlock_t d_lock ;
   int d_mounted ;
   struct inode *d_inode ;
   struct hlist_node d_hash ;
   struct dentry *d_parent ;
   struct qstr d_name ;
   struct list_head d_lru ;
   union __anonunion_d_u_136 d_u ;
   struct list_head d_subdirs ;
   struct list_head d_alias ;
   unsigned long d_time ;
   struct dentry_operations  const  *d_op ;
   struct super_block *d_sb ;
   void *d_fsdata ;
   unsigned char d_iname[32U] ;
};
struct dentry_operations {
   int (*d_revalidate)(struct dentry * , struct nameidata * ) ;
   int (*d_hash)(struct dentry * , struct qstr * ) ;
   int (*d_compare)(struct dentry * , struct qstr * , struct qstr * ) ;
   int (*d_delete)(struct dentry * ) ;
   void (*d_release)(struct dentry * ) ;
   void (*d_iput)(struct dentry * , struct inode * ) ;
   char *(*d_dname)(struct dentry * , char * , int  ) ;
};
struct radix_tree_node;
struct radix_tree_root {
   unsigned int height ;
   gfp_t gfp_mask ;
   struct radix_tree_node *rnode ;
};
struct fiemap_extent {
   __u64 fe_logical ;
   __u64 fe_physical ;
   __u64 fe_length ;
   __u64 fe_reserved64[2U] ;
   __u32 fe_flags ;
   __u32 fe_reserved[3U] ;
};
struct export_operations;
struct poll_table_struct;
struct kstatfs;
struct iattr {
   unsigned int ia_valid ;
   umode_t ia_mode ;
   uid_t ia_uid ;
   gid_t ia_gid ;
   loff_t ia_size ;
   struct timespec ia_atime ;
   struct timespec ia_mtime ;
   struct timespec ia_ctime ;
   struct file *ia_file ;
};
struct if_dqblk {
   __u64 dqb_bhardlimit ;
   __u64 dqb_bsoftlimit ;
   __u64 dqb_curspace ;
   __u64 dqb_ihardlimit ;
   __u64 dqb_isoftlimit ;
   __u64 dqb_curinodes ;
   __u64 dqb_btime ;
   __u64 dqb_itime ;
   __u32 dqb_valid ;
};
struct if_dqinfo {
   __u64 dqi_bgrace ;
   __u64 dqi_igrace ;
   __u32 dqi_flags ;
   __u32 dqi_valid ;
};
struct fs_disk_quota {
   __s8 d_version ;
   __s8 d_flags ;
   __u16 d_fieldmask ;
   __u32 d_id ;
   __u64 d_blk_hardlimit ;
   __u64 d_blk_softlimit ;
   __u64 d_ino_hardlimit ;
   __u64 d_ino_softlimit ;
   __u64 d_bcount ;
   __u64 d_icount ;
   __s32 d_itimer ;
   __s32 d_btimer ;
   __u16 d_iwarns ;
   __u16 d_bwarns ;
   __s32 d_padding2 ;
   __u64 d_rtb_hardlimit ;
   __u64 d_rtb_softlimit ;
   __u64 d_rtbcount ;
   __s32 d_rtbtimer ;
   __u16 d_rtbwarns ;
   __s16 d_padding3 ;
   char d_padding4[8U] ;
};
struct fs_qfilestat {
   __u64 qfs_ino ;
   __u64 qfs_nblks ;
   __u32 qfs_nextents ;
};
typedef struct fs_qfilestat fs_qfilestat_t;
struct fs_quota_stat {
   __s8 qs_version ;
   __u16 qs_flags ;
   __s8 qs_pad ;
   fs_qfilestat_t qs_uquota ;
   fs_qfilestat_t qs_gquota ;
   __u32 qs_incoredqs ;
   __s32 qs_btimelimit ;
   __s32 qs_itimelimit ;
   __s32 qs_rtbtimelimit ;
   __u16 qs_bwarnlimit ;
   __u16 qs_iwarnlimit ;
};
struct dquot;
typedef __kernel_uid32_t qid_t;
typedef long long qsize_t;
struct mem_dqblk {
   qsize_t dqb_bhardlimit ;
   qsize_t dqb_bsoftlimit ;
   qsize_t dqb_curspace ;
   qsize_t dqb_rsvspace ;
   qsize_t dqb_ihardlimit ;
   qsize_t dqb_isoftlimit ;
   qsize_t dqb_curinodes ;
   time_t dqb_btime ;
   time_t dqb_itime ;
};
struct quota_format_type;
struct mem_dqinfo {
   struct quota_format_type *dqi_format ;
   int dqi_fmt_id ;
   struct list_head dqi_dirty_list ;
   unsigned long dqi_flags ;
   unsigned int dqi_bgrace ;
   unsigned int dqi_igrace ;
   qsize_t dqi_maxblimit ;
   qsize_t dqi_maxilimit ;
   void *dqi_priv ;
};
struct dquot {
   struct hlist_node dq_hash ;
   struct list_head dq_inuse ;
   struct list_head dq_free ;
   struct list_head dq_dirty ;
   struct mutex dq_lock ;
   atomic_t dq_count ;
   wait_queue_head_t dq_wait_unused ;
   struct super_block *dq_sb ;
   unsigned int dq_id ;
   loff_t dq_off ;
   unsigned long dq_flags ;
   short dq_type ;
   struct mem_dqblk dq_dqb ;
};
struct quota_format_ops {
   int (*check_quota_file)(struct super_block * , int  ) ;
   int (*read_file_info)(struct super_block * , int  ) ;
   int (*write_file_info)(struct super_block * , int  ) ;
   int (*free_file_info)(struct super_block * , int  ) ;
   int (*read_dqblk)(struct dquot * ) ;
   int (*commit_dqblk)(struct dquot * ) ;
   int (*release_dqblk)(struct dquot * ) ;
};
struct dquot_operations {
   int (*initialize)(struct inode * , int  ) ;
   int (*drop)(struct inode * ) ;
   int (*alloc_space)(struct inode * , qsize_t  , int  ) ;
   int (*alloc_inode)(struct inode  const  * , qsize_t  ) ;
   int (*free_space)(struct inode * , qsize_t  ) ;
   int (*free_inode)(struct inode  const  * , qsize_t  ) ;
   int (*transfer)(struct inode * , struct iattr * ) ;
   int (*write_dquot)(struct dquot * ) ;
   struct dquot *(*alloc_dquot)(struct super_block * , int  ) ;
   void (*destroy_dquot)(struct dquot * ) ;
   int (*acquire_dquot)(struct dquot * ) ;
   int (*release_dquot)(struct dquot * ) ;
   int (*mark_dirty)(struct dquot * ) ;
   int (*write_info)(struct super_block * , int  ) ;
   int (*reserve_space)(struct inode * , qsize_t  , int  ) ;
   int (*claim_space)(struct inode * , qsize_t  ) ;
   void (*release_rsv)(struct inode * , qsize_t  ) ;
   qsize_t (*get_reserved_space)(struct inode * ) ;
};
struct quotactl_ops {
   int (*quota_on)(struct super_block * , int  , int  , char * , int  ) ;
   int (*quota_off)(struct super_block * , int  , int  ) ;
   int (*quota_sync)(struct super_block * , int  ) ;
   int (*get_info)(struct super_block * , int  , struct if_dqinfo * ) ;
   int (*set_info)(struct super_block * , int  , struct if_dqinfo * ) ;
   int (*get_dqblk)(struct super_block * , int  , qid_t  , struct if_dqblk * ) ;
   int (*set_dqblk)(struct super_block * , int  , qid_t  , struct if_dqblk * ) ;
   int (*get_xstate)(struct super_block * , struct fs_quota_stat * ) ;
   int (*set_xstate)(struct super_block * , unsigned int  , int  ) ;
   int (*get_xquota)(struct super_block * , int  , qid_t  , struct fs_disk_quota * ) ;
   int (*set_xquota)(struct super_block * , int  , qid_t  , struct fs_disk_quota * ) ;
};
struct quota_format_type {
   int qf_fmt_id ;
   struct quota_format_ops *qf_ops ;
   struct module *qf_owner ;
   struct quota_format_type *qf_next ;
};
struct quota_info {
   unsigned int flags ;
   struct mutex dqio_mutex ;
   struct mutex dqonoff_mutex ;
   struct rw_semaphore dqptr_sem ;
   struct inode *files[2U] ;
   struct mem_dqinfo info[2U] ;
   struct quota_format_ops *ops[2U] ;
};
struct writeback_control;
union __anonunion_arg_138 {
   char *buf ;
   void *data ;
};
struct __anonstruct_read_descriptor_t_137 {
   size_t written ;
   size_t count ;
   union __anonunion_arg_138 arg ;
   int error ;
};
typedef struct __anonstruct_read_descriptor_t_137 read_descriptor_t;
struct address_space_operations {
   int (*writepage)(struct page * , struct writeback_control * ) ;
   int (*readpage)(struct file * , struct page * ) ;
   void (*sync_page)(struct page * ) ;
   int (*writepages)(struct address_space * , struct writeback_control * ) ;
   int (*set_page_dirty)(struct page * ) ;
   int (*readpages)(struct file * , struct address_space * , struct list_head * ,
                    unsigned int  ) ;
   int (*write_begin)(struct file * , struct address_space * , loff_t  , unsigned int  ,
                      unsigned int  , struct page ** , void ** ) ;
   int (*write_end)(struct file * , struct address_space * , loff_t  , unsigned int  ,
                    unsigned int  , struct page * , void * ) ;
   sector_t (*bmap)(struct address_space * , sector_t  ) ;
   void (*invalidatepage)(struct page * , unsigned long  ) ;
   int (*releasepage)(struct page * , gfp_t  ) ;
   ssize_t (*direct_IO)(int  , struct kiocb * , struct iovec  const  * , loff_t  ,
                        unsigned long  ) ;
   int (*get_xip_mem)(struct address_space * , unsigned long  , int  , void ** , unsigned long * ) ;
   int (*migratepage)(struct address_space * , struct page * , struct page * ) ;
   int (*launder_page)(struct page * ) ;
   int (*is_partially_uptodate)(struct page * , read_descriptor_t * , unsigned long  ) ;
};
struct address_space {
   struct inode *host ;
   struct radix_tree_root page_tree ;
   spinlock_t tree_lock ;
   unsigned int i_mmap_writable ;
   struct prio_tree_root i_mmap ;
   struct list_head i_mmap_nonlinear ;
   spinlock_t i_mmap_lock ;
   unsigned int truncate_count ;
   unsigned long nrpages ;
   unsigned long writeback_index ;
   struct address_space_operations  const  *a_ops ;
   unsigned long flags ;
   struct backing_dev_info *backing_dev_info ;
   spinlock_t private_lock ;
   struct list_head private_list ;
   struct address_space *assoc_mapping ;
};
struct hd_struct;
struct gendisk;
struct block_device {
   dev_t bd_dev ;
   struct inode *bd_inode ;
   struct super_block *bd_super ;
   int bd_openers ;
   struct mutex bd_mutex ;
   struct semaphore bd_mount_sem ;
   struct list_head bd_inodes ;
   void *bd_holder ;
   int bd_holders ;
   struct list_head bd_holder_list ;
   struct block_device *bd_contains ;
   unsigned int bd_block_size ;
   struct hd_struct *bd_part ;
   unsigned int bd_part_count ;
   int bd_invalidated ;
   struct gendisk *bd_disk ;
   struct list_head bd_list ;
   unsigned long bd_private ;
   int bd_fsfreeze_count ;
   struct mutex bd_fsfreeze_mutex ;
};
struct posix_acl;
struct inode_operations;
struct file_lock;
union __anonunion_ldv_18230_139 {
   struct pipe_inode_info *i_pipe ;
   struct block_device *i_bdev ;
   struct cdev *i_cdev ;
};
struct inode {
   struct hlist_node i_hash ;
   struct list_head i_list ;
   struct list_head i_sb_list ;
   struct list_head i_dentry ;
   unsigned long i_ino ;
   atomic_t i_count ;
   unsigned int i_nlink ;
   uid_t i_uid ;
   gid_t i_gid ;
   dev_t i_rdev ;
   u64 i_version ;
   loff_t i_size ;
   struct timespec i_atime ;
   struct timespec i_mtime ;
   struct timespec i_ctime ;
   blkcnt_t i_blocks ;
   unsigned int i_blkbits ;
   unsigned short i_bytes ;
   umode_t i_mode ;
   spinlock_t i_lock ;
   struct mutex i_mutex ;
   struct rw_semaphore i_alloc_sem ;
   struct inode_operations  const  *i_op ;
   struct file_operations  const  *i_fop ;
   struct super_block *i_sb ;
   struct file_lock *i_flock ;
   struct address_space *i_mapping ;
   struct address_space i_data ;
   struct dquot *i_dquot[2U] ;
   struct list_head i_devices ;
   union __anonunion_ldv_18230_139 ldv_18230 ;
   __u32 i_generation ;
   __u32 i_fsnotify_mask ;
   struct hlist_head i_fsnotify_mark_entries ;
   struct list_head inotify_watches ;
   struct mutex inotify_mutex ;
   unsigned long i_state ;
   unsigned long dirtied_when ;
   unsigned int i_flags ;
   atomic_t i_writecount ;
   void *i_security ;
   struct posix_acl *i_acl ;
   struct posix_acl *i_default_acl ;
   void *i_private ;
};
struct fown_struct {
   rwlock_t lock ;
   struct pid *pid ;
   enum pid_type pid_type ;
   uid_t uid ;
   uid_t euid ;
   int signum ;
};
struct file_ra_state {
   unsigned long start ;
   unsigned int size ;
   unsigned int async_size ;
   unsigned int ra_pages ;
   unsigned int mmap_miss ;
   loff_t prev_pos ;
};
union __anonunion_f_u_140 {
   struct list_head fu_list ;
   struct rcu_head fu_rcuhead ;
};
struct file {
   union __anonunion_f_u_140 f_u ;
   struct path f_path ;
   struct file_operations  const  *f_op ;
   spinlock_t f_lock ;
   atomic_long_t f_count ;
   unsigned int f_flags ;
   fmode_t f_mode ;
   loff_t f_pos ;
   struct fown_struct f_owner ;
   struct cred  const  *f_cred ;
   struct file_ra_state f_ra ;
   u64 f_version ;
   void *f_security ;
   void *private_data ;
   struct list_head f_ep_links ;
   struct address_space *f_mapping ;
   unsigned long f_mnt_write_state ;
};
typedef struct files_struct *fl_owner_t;
struct file_lock_operations {
   void (*fl_copy_lock)(struct file_lock * , struct file_lock * ) ;
   void (*fl_release_private)(struct file_lock * ) ;
};
struct lock_manager_operations {
   int (*fl_compare_owner)(struct file_lock * , struct file_lock * ) ;
   void (*fl_notify)(struct file_lock * ) ;
   int (*fl_grant)(struct file_lock * , struct file_lock * , int  ) ;
   void (*fl_copy_lock)(struct file_lock * , struct file_lock * ) ;
   void (*fl_release_private)(struct file_lock * ) ;
   void (*fl_break)(struct file_lock * ) ;
   int (*fl_mylease)(struct file_lock * , struct file_lock * ) ;
   int (*fl_change)(struct file_lock ** , int  ) ;
};
struct nlm_lockowner;
struct nfs_lock_info {
   u32 state ;
   struct nlm_lockowner *owner ;
   struct list_head list ;
};
struct nfs4_lock_state;
struct nfs4_lock_info {
   struct nfs4_lock_state *owner ;
};
struct fasync_struct;
struct __anonstruct_afs_142 {
   struct list_head link ;
   int state ;
};
union __anonunion_fl_u_141 {
   struct nfs_lock_info nfs_fl ;
   struct nfs4_lock_info nfs4_fl ;
   struct __anonstruct_afs_142 afs ;
};
struct file_lock {
   struct file_lock *fl_next ;
   struct list_head fl_link ;
   struct list_head fl_block ;
   fl_owner_t fl_owner ;
   unsigned char fl_flags ;
   unsigned char fl_type ;
   unsigned int fl_pid ;
   struct pid *fl_nspid ;
   wait_queue_head_t fl_wait ;
   struct file *fl_file ;
   loff_t fl_start ;
   loff_t fl_end ;
   struct fasync_struct *fl_fasync ;
   unsigned long fl_break_time ;
   struct file_lock_operations  const  *fl_ops ;
   struct lock_manager_operations  const  *fl_lmops ;
   union __anonunion_fl_u_141 fl_u ;
};
struct fasync_struct {
   int magic ;
   int fa_fd ;
   struct fasync_struct *fa_next ;
   struct file *fa_file ;
};
struct file_system_type;
struct super_operations;
struct xattr_handler;
struct mtd_info;
struct super_block {
   struct list_head s_list ;
   dev_t s_dev ;
   unsigned long s_blocksize ;
   unsigned char s_blocksize_bits ;
   unsigned char s_dirt ;
   unsigned long long s_maxbytes ;
   struct file_system_type *s_type ;
   struct super_operations  const  *s_op ;
   struct dquot_operations  const  *dq_op ;
   struct quotactl_ops  const  *s_qcop ;
   struct export_operations  const  *s_export_op ;
   unsigned long s_flags ;
   unsigned long s_magic ;
   struct dentry *s_root ;
   struct rw_semaphore s_umount ;
   struct mutex s_lock ;
   int s_count ;
   int s_need_sync ;
   atomic_t s_active ;
   void *s_security ;
   struct xattr_handler **s_xattr ;
   struct list_head s_inodes ;
   struct hlist_head s_anon ;
   struct list_head s_files ;
   struct list_head s_dentry_lru ;
   int s_nr_dentry_unused ;
   struct block_device *s_bdev ;
   struct backing_dev_info *s_bdi ;
   struct mtd_info *s_mtd ;
   struct list_head s_instances ;
   struct quota_info s_dquot ;
   int s_frozen ;
   wait_queue_head_t s_wait_unfrozen ;
   char s_id[32U] ;
   void *s_fs_info ;
   fmode_t s_mode ;
   struct mutex s_vfs_rename_mutex ;
   u32 s_time_gran ;
   char *s_subtype ;
   char *s_options ;
};
struct fiemap_extent_info {
   unsigned int fi_flags ;
   unsigned int fi_extents_mapped ;
   unsigned int fi_extents_max ;
   struct fiemap_extent *fi_extents_start ;
};
struct file_operations {
   struct module *owner ;
   loff_t (*llseek)(struct file * , loff_t  , int  ) ;
   ssize_t (*read)(struct file * , char * , size_t  , loff_t * ) ;
   ssize_t (*write)(struct file * , char const   * , size_t  , loff_t * ) ;
   ssize_t (*aio_read)(struct kiocb * , struct iovec  const  * , unsigned long  ,
                       loff_t  ) ;
   ssize_t (*aio_write)(struct kiocb * , struct iovec  const  * , unsigned long  ,
                        loff_t  ) ;
   int (*readdir)(struct file * , void * , int (*)(void * , char const   * , int  ,
                                                   loff_t  , u64  , unsigned int  ) ) ;
   unsigned int (*poll)(struct file * , struct poll_table_struct * ) ;
   int (*ioctl)(struct inode * , struct file * , unsigned int  , unsigned long  ) ;
   long (*unlocked_ioctl)(struct file * , unsigned int  , unsigned long  ) ;
   long (*compat_ioctl)(struct file * , unsigned int  , unsigned long  ) ;
   int (*mmap)(struct file * , struct vm_area_struct * ) ;
   int (*open)(struct inode * , struct file * ) ;
   int (*flush)(struct file * , fl_owner_t  ) ;
   int (*release)(struct inode * , struct file * ) ;
   int (*fsync)(struct file * , struct dentry * , int  ) ;
   int (*aio_fsync)(struct kiocb * , int  ) ;
   int (*fasync)(int  , struct file * , int  ) ;
   int (*lock)(struct file * , int  , struct file_lock * ) ;
   ssize_t (*sendpage)(struct file * , struct page * , int  , size_t  , loff_t * ,
                       int  ) ;
   unsigned long (*get_unmapped_area)(struct file * , unsigned long  , unsigned long  ,
                                      unsigned long  , unsigned long  ) ;
   int (*check_flags)(int  ) ;
   int (*flock)(struct file * , int  , struct file_lock * ) ;
   ssize_t (*splice_write)(struct pipe_inode_info * , struct file * , loff_t * , size_t  ,
                           unsigned int  ) ;
   ssize_t (*splice_read)(struct file * , loff_t * , struct pipe_inode_info * , size_t  ,
                          unsigned int  ) ;
   int (*setlease)(struct file * , long  , struct file_lock ** ) ;
};
struct inode_operations {
   int (*create)(struct inode * , struct dentry * , int  , struct nameidata * ) ;
   struct dentry *(*lookup)(struct inode * , struct dentry * , struct nameidata * ) ;
   int (*link)(struct dentry * , struct inode * , struct dentry * ) ;
   int (*unlink)(struct inode * , struct dentry * ) ;
   int (*symlink)(struct inode * , struct dentry * , char const   * ) ;
   int (*mkdir)(struct inode * , struct dentry * , int  ) ;
   int (*rmdir)(struct inode * , struct dentry * ) ;
   int (*mknod)(struct inode * , struct dentry * , int  , dev_t  ) ;
   int (*rename)(struct inode * , struct dentry * , struct inode * , struct dentry * ) ;
   int (*readlink)(struct dentry * , char * , int  ) ;
   void *(*follow_link)(struct dentry * , struct nameidata * ) ;
   void (*put_link)(struct dentry * , struct nameidata * , void * ) ;
   void (*truncate)(struct inode * ) ;
   int (*permission)(struct inode * , int  ) ;
   int (*check_acl)(struct inode * , int  ) ;
   int (*setattr)(struct dentry * , struct iattr * ) ;
   int (*getattr)(struct vfsmount * , struct dentry * , struct kstat * ) ;
   int (*setxattr)(struct dentry * , char const   * , void const   * , size_t  , int  ) ;
   ssize_t (*getxattr)(struct dentry * , char const   * , void * , size_t  ) ;
   ssize_t (*listxattr)(struct dentry * , char * , size_t  ) ;
   int (*removexattr)(struct dentry * , char const   * ) ;
   void (*truncate_range)(struct inode * , loff_t  , loff_t  ) ;
   long (*fallocate)(struct inode * , int  , loff_t  , loff_t  ) ;
   int (*fiemap)(struct inode * , struct fiemap_extent_info * , u64  , u64  ) ;
};
struct super_operations {
   struct inode *(*alloc_inode)(struct super_block * ) ;
   void (*destroy_inode)(struct inode * ) ;
   void (*dirty_inode)(struct inode * ) ;
   int (*write_inode)(struct inode * , int  ) ;
   void (*drop_inode)(struct inode * ) ;
   void (*delete_inode)(struct inode * ) ;
   void (*put_super)(struct super_block * ) ;
   void (*write_super)(struct super_block * ) ;
   int (*sync_fs)(struct super_block * , int  ) ;
   int (*freeze_fs)(struct super_block * ) ;
   int (*unfreeze_fs)(struct super_block * ) ;
   int (*statfs)(struct dentry * , struct kstatfs * ) ;
   int (*remount_fs)(struct super_block * , int * , char * ) ;
   void (*clear_inode)(struct inode * ) ;
   void (*umount_begin)(struct super_block * ) ;
   int (*show_options)(struct seq_file * , struct vfsmount * ) ;
   int (*show_stats)(struct seq_file * , struct vfsmount * ) ;
   ssize_t (*quota_read)(struct super_block * , int  , char * , size_t  , loff_t  ) ;
   ssize_t (*quota_write)(struct super_block * , int  , char const   * , size_t  ,
                          loff_t  ) ;
   int (*bdev_try_to_free_page)(struct super_block * , struct page * , gfp_t  ) ;
};
struct file_system_type {
   char const   *name ;
   int fs_flags ;
   int (*get_sb)(struct file_system_type * , int  , char const   * , void * , struct vfsmount * ) ;
   void (*kill_sb)(struct super_block * ) ;
   struct module *owner ;
   struct file_system_type *next ;
   struct list_head fs_supers ;
   struct lock_class_key s_lock_key ;
   struct lock_class_key s_umount_key ;
   struct lock_class_key i_lock_key ;
   struct lock_class_key i_mutex_key ;
   struct lock_class_key i_mutex_dir_key ;
   struct lock_class_key i_alloc_sem_key ;
};
struct exception_table_entry {
   unsigned long insn ;
   unsigned long fixup ;
};
struct poll_table_struct {
   void (*qproc)(struct file * , wait_queue_head_t * , struct poll_table_struct * ) ;
   unsigned long key ;
};
struct rtc_class_ops {
   int (*open)(struct device * ) ;
   void (*release)(struct device * ) ;
   int (*ioctl)(struct device * , unsigned int  , unsigned long  ) ;
   int (*read_time)(struct device * , struct rtc_time * ) ;
   int (*set_time)(struct device * , struct rtc_time * ) ;
   int (*read_alarm)(struct device * , struct rtc_wkalrm * ) ;
   int (*set_alarm)(struct device * , struct rtc_wkalrm * ) ;
   int (*proc)(struct device * , struct seq_file * ) ;
   int (*set_mmss)(struct device * , unsigned long  ) ;
   int (*irq_set_state)(struct device * , int  ) ;
   int (*irq_set_freq)(struct device * , int  ) ;
   int (*read_callback)(struct device * , int  ) ;
   int (*alarm_irq_enable)(struct device * , unsigned int  ) ;
   int (*update_irq_enable)(struct device * , unsigned int  ) ;
};
struct rtc_task;
struct rtc_device {
   struct device dev ;
   struct module *owner ;
   int id ;
   char name[20U] ;
   struct rtc_class_ops  const  *ops ;
   struct mutex ops_lock ;
   struct cdev char_dev ;
   unsigned long flags ;
   unsigned long irq_data ;
   spinlock_t irq_lock ;
   wait_queue_head_t irq_queue ;
   struct fasync_struct *async_queue ;
   struct rtc_task *irq_task ;
   spinlock_t irq_task_lock ;
   int irq_freq ;
   int max_user_freq ;
   struct work_struct uie_task ;
   struct timer_list uie_timer ;
   unsigned int oldsecs ;
   unsigned char uie_irq_active : 1 ;
   unsigned char stop_uie_polling : 1 ;
   unsigned char uie_task_active : 1 ;
   unsigned char uie_timer_active : 1 ;
};
struct rtc_task {
   void (*func)(void * ) ;
   void *private_data ;
};
struct spi_master;
struct spi_device {
   struct device dev ;
   struct spi_master *master ;
   u32 max_speed_hz ;
   u8 chip_select ;
   u8 mode ;
   u8 bits_per_word ;
   int irq ;
   void *controller_state ;
   void *controller_data ;
   char modalias[32U] ;
};
struct spi_message;
struct spi_driver {
   struct spi_device_id  const  *id_table ;
   int (*probe)(struct spi_device * ) ;
   int (*remove)(struct spi_device * ) ;
   void (*shutdown)(struct spi_device * ) ;
   int (*suspend)(struct spi_device * , pm_message_t  ) ;
   int (*resume)(struct spi_device * ) ;
   struct device_driver driver ;
};
struct spi_master {
   struct device dev ;
   s16 bus_num ;
   u16 num_chipselect ;
   u16 dma_alignment ;
   u16 mode_bits ;
   u16 flags ;
   int (*setup)(struct spi_device * ) ;
   int (*transfer)(struct spi_device * , struct spi_message * ) ;
   void (*cleanup)(struct spi_device * ) ;
};
struct spi_message {
   struct list_head transfers ;
   struct spi_device *spi ;
   unsigned char is_dma_mapped : 1 ;
   void (*complete)(void * ) ;
   void *context ;
   unsigned int actual_length ;
   int status ;
   struct list_head queue ;
   void *state ;
};
long ldv__builtin_expect(long exp , long c ) ;
 static long PTR_ERR(void const   *ptr ) 
{ 


  {
  return ((long )ptr);
}
}
 static long IS_ERR(void const   *ptr ) 
{ 
  long tmp ;

  {
  tmp = ldv__builtin_expect((unsigned long )ptr > 0xfffffffffffff000UL, 0L);
  return (tmp);
}
}
extern struct module __this_module ;
extern void driver_unregister(struct device_driver * ) ;
extern void *dev_get_drvdata(struct device  const  * ) ;
extern int rtc_valid_tm(struct rtc_time * ) ;
extern struct rtc_device *rtc_device_register(char const   * , struct device * , struct rtc_class_ops  const  * ,
                                              struct module * ) ;
extern void rtc_device_unregister(struct rtc_device * ) ;
extern struct bus_type spi_bus_type ;
 static struct spi_device *to_spi_device(struct device *dev ) 
{ 
  struct device  const  *__mptr ;
  struct spi_device *tmp ;

  {
  if ((unsigned long )dev != (unsigned long )((struct device *)0)) {
    __mptr = (struct device  const  *)dev;
    tmp = (struct spi_device *)__mptr;
  } else {
    tmp = 0;
  }
  return (tmp);
}
}
extern int spi_register_driver(struct spi_driver * ) ;
 static void spi_unregister_driver(struct spi_driver *sdrv ) 
{ 


  {
  if ((unsigned long )sdrv != (unsigned long )((struct spi_driver *)0)) {
    driver_unregister(& sdrv->driver);
  } else {

  }
  return;
}
}
extern int spi_setup(struct spi_device * ) ;
extern int spi_write_then_read(struct spi_device * , u8 const   * , unsigned int  ,
                               u8 * , unsigned int  ) ;
extern unsigned int bcd2bin(unsigned char  ) ;
extern unsigned char bin2bcd(unsigned int  ) ;
static int max6902_set_reg(struct device *dev , unsigned char address , unsigned char data ) 
{ 
  struct spi_device *spi ;
  struct spi_device *tmp ;
  unsigned char buf[2U] ;
  int tmp___0 ;

  {
  tmp = to_spi_device(dev);
  spi = tmp;
  buf[0] = (unsigned int )address & 127U;
  buf[1] = data;
  tmp___0 = spi_write_then_read(spi, (u8 const   *)(& buf), 2U, 0, 0U);
  return (tmp___0);
}
}
static int max6902_get_reg(struct device *dev , unsigned char address , unsigned char *data ) 
{ 
  struct spi_device *spi ;
  struct spi_device *tmp ;
  int tmp___0 ;

  {
  tmp = to_spi_device(dev);
  spi = tmp;
  *data = (unsigned int )address | 128U;
  tmp___0 = spi_write_then_read(spi, (u8 const   *)data, 1U, data, 1U);
  return (tmp___0);
}
}
static int max6902_read_time(struct device *dev , struct rtc_time *dt ) 
{ 
  int err ;
  int century ;
  struct spi_device *spi ;
  struct spi_device *tmp ;
  unsigned char buf[8U] ;
  unsigned int tmp___0 ;
  unsigned int tmp___1 ;
  unsigned int tmp___2 ;
  unsigned int tmp___3 ;
  unsigned int tmp___4 ;
  unsigned int tmp___5 ;
  unsigned int tmp___6 ;
  unsigned int tmp___7 ;
  int tmp___8 ;

  {
  tmp = to_spi_device(dev);
  spi = tmp;
  buf[0] = 191U;
  err = spi_write_then_read(spi, (u8 const   *)(& buf), 1U, (u8 *)(& buf), 8U);
  if (err != 0) {
    return (err);
  } else {

  }
  tmp___0 = bcd2bin((int )buf[0]);
  dt->tm_sec = (int )tmp___0;
  tmp___1 = bcd2bin((int )buf[1]);
  dt->tm_min = (int )tmp___1;
  tmp___2 = bcd2bin((int )buf[2]);
  dt->tm_hour = (int )tmp___2;
  tmp___3 = bcd2bin((int )buf[3]);
  dt->tm_mday = (int )tmp___3;
  tmp___4 = bcd2bin((int )buf[4]);
  dt->tm_mon = (int )(tmp___4 - 1U);
  tmp___5 = bcd2bin((int )buf[5]);
  dt->tm_wday = (int )tmp___5;
  tmp___6 = bcd2bin((int )buf[6]);
  dt->tm_year = (int )tmp___6;
  err = max6902_get_reg(dev, 19, (unsigned char *)(& buf));
  if (err != 0) {
    return (err);
  } else {

  }
  tmp___7 = bcd2bin((int )buf[0]);
  century = (int )(tmp___7 * 100U);
  dt->tm_year = dt->tm_year + century;
  dt->tm_year = dt->tm_year + -1900;
  tmp___8 = rtc_valid_tm(dt);
  return (tmp___8);
}
}
static int max6902_set_time(struct device *dev , struct rtc_time *dt ) 
{ 
  unsigned char tmp ;
  unsigned char tmp___0 ;
  unsigned char tmp___1 ;
  unsigned char tmp___2 ;
  unsigned char tmp___3 ;
  unsigned char tmp___4 ;
  unsigned char tmp___5 ;
  unsigned char tmp___6 ;

  {
  dt->tm_year = dt->tm_year + 1900;
  max6902_set_reg(dev, 15, 0);
  tmp = bin2bcd((unsigned int )dt->tm_sec);
  max6902_set_reg(dev, 1, (int )tmp);
  tmp___0 = bin2bcd((unsigned int )dt->tm_min);
  max6902_set_reg(dev, 3, (int )tmp___0);
  tmp___1 = bin2bcd((unsigned int )dt->tm_hour);
  max6902_set_reg(dev, 5, (int )tmp___1);
  tmp___2 = bin2bcd((unsigned int )dt->tm_mday);
  max6902_set_reg(dev, 7, (int )tmp___2);
  tmp___3 = bin2bcd((unsigned int )(dt->tm_mon + 1));
  max6902_set_reg(dev, 9, (int )tmp___3);
  tmp___4 = bin2bcd((unsigned int )dt->tm_wday);
  max6902_set_reg(dev, 11, (int )tmp___4);
  tmp___5 = bin2bcd((unsigned int )(dt->tm_year % 100));
  max6902_set_reg(dev, 13, (int )tmp___5);
  tmp___6 = bin2bcd((unsigned int )(dt->tm_year / 100));
  max6902_set_reg(dev, 19, (int )tmp___6);
  max6902_set_reg(dev, 15, 128);
  return (0);
}
}
static struct rtc_class_ops  const  max6902_rtc_ops  = 
     {0, 0, 0, & max6902_read_time, & max6902_set_time, 0, 0, 0, 0, 0, 0, 0, 0, 0};
static int max6902_probe(struct spi_device *spi ) 
{ 
  struct rtc_device *rtc ;
  unsigned char tmp ;
  int res ;
  long tmp___0 ;
  long tmp___1 ;

  {
  spi->mode = 3U;
  spi->bits_per_word = 8U;
  spi_setup(spi);
  res = max6902_get_reg(& spi->dev, 1, & tmp);
  if (res != 0) {
    return (res);
  } else {

  }
  rtc = rtc_device_register("max6902", & spi->dev, & max6902_rtc_ops, & __this_module);
  tmp___1 = IS_ERR((void const   *)rtc);
  if (tmp___1 != 0L) {
    tmp___0 = PTR_ERR((void const   *)rtc);
    return ((int )tmp___0);
  } else {

  }
  return (0);
}
}
static int max6902_remove(struct spi_device *spi ) 
{ 
  struct rtc_device *rtc ;
  void *tmp ;

  {
  tmp = dev_get_drvdata((struct device  const  *)(& spi->dev));
  rtc = (struct rtc_device *)tmp;
  rtc_device_unregister(rtc);
  return (0);
}
}
static struct spi_driver max6902_driver  =    {0, & max6902_probe, & max6902_remove, 0, 0, 0, {"rtc-max6902", & spi_bus_type,
                                                    & __this_module, 0, 0, 0, 0, 0,
                                                    0, 0, 0, 0}};
static int max6902_init(void) 
{ 
  int tmp ;

  {
  tmp = spi_register_driver(& max6902_driver);
  return (tmp);
}
}
static void max6902_exit(void) 
{ 


  {
  spi_unregister_driver(& max6902_driver);
  return;
}
}
void ldv_check_final_state(void) ;
extern void ldv_check_return_value(int  ) ;
extern void ldv_check_return_value_probe(int  ) ;
void ldv_initialize(void) ;
extern void ldv_handler_precall(void) ;
extern int nondet_int(void) ;
int LDV_IN_INTERRUPT  ;
int main(void) 
{ 
  struct device *var_group1 ;
  struct rtc_time *var_group2 ;
  struct spi_device *var_group3 ;
  int res_max6902_probe_4 ;
  int ldv_s_max6902_driver_spi_driver ;
  int tmp ;
  int tmp___0 ;
  int tmp___1 ;

  {
  ldv_s_max6902_driver_spi_driver = 0;
  LDV_IN_INTERRUPT = 1;
  ldv_initialize();
  ldv_handler_precall();
  tmp = max6902_init();
  if (tmp != 0) {
    goto ldv_final;
  } else {

  }
  goto ldv_20823;
  ldv_20822: 
  tmp___0 = nondet_int();
  switch (tmp___0) {
  case 0: 
  ldv_handler_precall();
  max6902_read_time(var_group1, var_group2);
  goto ldv_20816;
  case 1: 
  ldv_handler_precall();
  max6902_set_time(var_group1, var_group2);
  goto ldv_20816;
  case 2: ;
  if (ldv_s_max6902_driver_spi_driver == 0) {
    res_max6902_probe_4 = max6902_probe(var_group3);
    ldv_check_return_value(res_max6902_probe_4);
    ldv_check_return_value_probe(res_max6902_probe_4);
    if (res_max6902_probe_4 != 0) {
      goto ldv_module_exit;
    } else {

    }
    ldv_s_max6902_driver_spi_driver = ldv_s_max6902_driver_spi_driver + 1;
  } else {

  }
  goto ldv_20816;
  case 3: ;
  if (ldv_s_max6902_driver_spi_driver == 1) {
    ldv_handler_precall();
    max6902_remove(var_group3);
    ldv_s_max6902_driver_spi_driver = 0;
  } else {

  }
  goto ldv_20816;
  default: ;
  goto ldv_20816;
  }
  ldv_20816: ;
  ldv_20823: 
  tmp___1 = nondet_int();
  if (tmp___1 != 0 || ldv_s_max6902_driver_spi_driver != 0) {
    goto ldv_20822;
  } else {

  }

  ldv_module_exit: 
  ldv_handler_precall();
  max6902_exit();
  ldv_final: 
  ldv_check_final_state();
  return 0;
}
}
long ldv__builtin_expect(long exp , long c ) 
{ 


  {
  return (exp);
}
}
void ldv_initialize(void) 
{ 


  {
  return;
}
}
void ldv_check_final_state(void) 
{ 


  {
  return;
}
}
