extern void abort(void);
extern void __assert_fail(const char *, const char *, unsigned int, const char *) __attribute__ ((__nothrow__ , __leaf__)) __attribute__ ((__noreturn__));
void reach_error() { __assert_fail("0", "drivers--usb--otg--ab8500-usb.ko_003.8675381.39_7a.cil_true-unreach-call.i", 3, "reach_error"); }

/* Generated by CIL v. 1.5.1 */
/* print_CIL_Input is false */

typedef unsigned char __u8;
typedef unsigned short __u16;
typedef int __s32;
typedef unsigned int __u32;
typedef unsigned long long __u64;
typedef unsigned char u8;
typedef unsigned short u16;
typedef unsigned int u32;
typedef long long s64;
typedef unsigned long long u64;
typedef int __kernel_pid_t;
typedef unsigned int __kernel_uid_t;
typedef unsigned int __kernel_gid_t;
typedef unsigned long __kernel_size_t;
typedef long __kernel_ssize_t;
typedef long __kernel_time_t;
typedef long __kernel_clock_t;
typedef int __kernel_timer_t;
typedef int __kernel_clockid_t;
typedef long long __kernel_loff_t;
typedef __kernel_uid_t __kernel_uid32_t;
typedef __kernel_gid_t __kernel_gid32_t;
typedef __u32 __kernel_dev_t;
typedef __kernel_dev_t dev_t;
typedef unsigned short umode_t;
typedef __kernel_pid_t pid_t;
typedef __kernel_clockid_t clockid_t;
typedef _Bool bool;
typedef __kernel_uid32_t uid_t;
typedef __kernel_gid32_t gid_t;
typedef __kernel_loff_t loff_t;
typedef __kernel_size_t size_t;
typedef __kernel_ssize_t ssize_t;
typedef __kernel_time_t time_t;
typedef __s32 int32_t;
typedef __u32 uint32_t;
typedef unsigned int gfp_t;
typedef u64 phys_addr_t;
typedef phys_addr_t resource_size_t;
struct __anonstruct_atomic_t_6 {
   int counter ;
};
typedef struct __anonstruct_atomic_t_6 atomic_t;
struct __anonstruct_atomic64_t_7 {
   long counter ;
};
typedef struct __anonstruct_atomic64_t_7 atomic64_t;
struct list_head {
   struct list_head *next ;
   struct list_head *prev ;
};
struct hlist_node;
struct hlist_head {
   struct hlist_node *first ;
};
struct hlist_node {
   struct hlist_node *next ;
   struct hlist_node **pprev ;
};
struct rcu_head {
   struct rcu_head *next ;
   void (*func)(struct rcu_head * ) ;
};
struct module;
typedef void (*ctor_fn_t)(void);
struct device;
struct bug_entry {
   int bug_addr_disp ;
   int file_disp ;
   unsigned short line ;
   unsigned short flags ;
};
struct completion;
struct pt_regs;
struct atomic_notifier_head;
struct pid;
struct timespec;
struct page;
struct task_struct;
struct mm_struct;
struct pt_regs {
   unsigned long r15 ;
   unsigned long r14 ;
   unsigned long r13 ;
   unsigned long r12 ;
   unsigned long bp ;
   unsigned long bx ;
   unsigned long r11 ;
   unsigned long r10 ;
   unsigned long r9 ;
   unsigned long r8 ;
   unsigned long ax ;
   unsigned long cx ;
   unsigned long dx ;
   unsigned long si ;
   unsigned long di ;
   unsigned long orig_ax ;
   unsigned long ip ;
   unsigned long cs ;
   unsigned long flags ;
   unsigned long sp ;
   unsigned long ss ;
};
struct __anonstruct_ldv_2040_13 {
   unsigned int a ;
   unsigned int b ;
};
struct __anonstruct_ldv_2055_14 {
   u16 limit0 ;
   u16 base0 ;
   unsigned char base1 ;
   unsigned char type : 4 ;
   unsigned char s : 1 ;
   unsigned char dpl : 2 ;
   unsigned char p : 1 ;
   unsigned char limit : 4 ;
   unsigned char avl : 1 ;
   unsigned char l : 1 ;
   unsigned char d : 1 ;
   unsigned char g : 1 ;
   unsigned char base2 ;
};
union __anonunion_ldv_2056_12 {
   struct __anonstruct_ldv_2040_13 ldv_2040 ;
   struct __anonstruct_ldv_2055_14 ldv_2055 ;
};
struct desc_struct {
   union __anonunion_ldv_2056_12 ldv_2056 ;
};
typedef unsigned long pgdval_t;
typedef unsigned long pgprotval_t;
struct pgprot {
   pgprotval_t pgprot ;
};
typedef struct pgprot pgprot_t;
struct __anonstruct_pgd_t_16 {
   pgdval_t pgd ;
};
typedef struct __anonstruct_pgd_t_16 pgd_t;
typedef struct page *pgtable_t;
struct file;
struct thread_struct;
struct cpumask;
struct arch_spinlock;
struct kernel_vm86_regs {
   struct pt_regs pt ;
   unsigned short es ;
   unsigned short __esh ;
   unsigned short ds ;
   unsigned short __dsh ;
   unsigned short fs ;
   unsigned short __fsh ;
   unsigned short gs ;
   unsigned short __gsh ;
};
union __anonunion_ldv_2688_19 {
   struct pt_regs *regs ;
   struct kernel_vm86_regs *vm86 ;
};
struct math_emu_info {
   long ___orig_eip ;
   union __anonunion_ldv_2688_19 ldv_2688 ;
};
struct cpumask {
   unsigned long bits[64U] ;
};
typedef struct cpumask cpumask_t;
typedef struct cpumask *cpumask_var_t;
struct jump_label_key;
struct i387_fsave_struct {
   u32 cwd ;
   u32 swd ;
   u32 twd ;
   u32 fip ;
   u32 fcs ;
   u32 foo ;
   u32 fos ;
   u32 st_space[20U] ;
   u32 status ;
};
struct __anonstruct_ldv_5057_24 {
   u64 rip ;
   u64 rdp ;
};
struct __anonstruct_ldv_5063_25 {
   u32 fip ;
   u32 fcs ;
   u32 foo ;
   u32 fos ;
};
union __anonunion_ldv_5064_23 {
   struct __anonstruct_ldv_5057_24 ldv_5057 ;
   struct __anonstruct_ldv_5063_25 ldv_5063 ;
};
union __anonunion_ldv_5073_26 {
   u32 padding1[12U] ;
   u32 sw_reserved[12U] ;
};
struct i387_fxsave_struct {
   u16 cwd ;
   u16 swd ;
   u16 twd ;
   u16 fop ;
   union __anonunion_ldv_5064_23 ldv_5064 ;
   u32 mxcsr ;
   u32 mxcsr_mask ;
   u32 st_space[32U] ;
   u32 xmm_space[64U] ;
   u32 padding[12U] ;
   union __anonunion_ldv_5073_26 ldv_5073 ;
};
struct i387_soft_struct {
   u32 cwd ;
   u32 swd ;
   u32 twd ;
   u32 fip ;
   u32 fcs ;
   u32 foo ;
   u32 fos ;
   u32 st_space[20U] ;
   u8 ftop ;
   u8 changed ;
   u8 lookahead ;
   u8 no_update ;
   u8 rm ;
   u8 alimit ;
   struct math_emu_info *info ;
   u32 entry_eip ;
};
struct ymmh_struct {
   u32 ymmh_space[64U] ;
};
struct xsave_hdr_struct {
   u64 xstate_bv ;
   u64 reserved1[2U] ;
   u64 reserved2[5U] ;
};
struct xsave_struct {
   struct i387_fxsave_struct i387 ;
   struct xsave_hdr_struct xsave_hdr ;
   struct ymmh_struct ymmh ;
};
union thread_xstate {
   struct i387_fsave_struct fsave ;
   struct i387_fxsave_struct fxsave ;
   struct i387_soft_struct soft ;
   struct xsave_struct xsave ;
};
struct fpu {
   union thread_xstate *state ;
};
struct kmem_cache;
struct perf_event;
struct thread_struct {
   struct desc_struct tls_array[3U] ;
   unsigned long sp0 ;
   unsigned long sp ;
   unsigned long usersp ;
   unsigned short es ;
   unsigned short ds ;
   unsigned short fsindex ;
   unsigned short gsindex ;
   unsigned long fs ;
   unsigned long gs ;
   struct perf_event *ptrace_bps[4U] ;
   unsigned long debugreg6 ;
   unsigned long ptrace_dr7 ;
   unsigned long cr2 ;
   unsigned long trap_no ;
   unsigned long error_code ;
   struct fpu fpu ;
   unsigned long *io_bitmap_ptr ;
   unsigned long iopl ;
   unsigned int io_bitmap_max ;
};
typedef atomic64_t atomic_long_t;
typedef u16 __ticket_t;
typedef u32 __ticketpair_t;
struct __raw_tickets {
   __ticket_t head ;
   __ticket_t tail ;
};
union __anonunion_ldv_5908_29 {
   __ticketpair_t head_tail ;
   struct __raw_tickets tickets ;
};
struct arch_spinlock {
   union __anonunion_ldv_5908_29 ldv_5908 ;
};
typedef struct arch_spinlock arch_spinlock_t;
struct lockdep_map;
struct stack_trace {
   unsigned int nr_entries ;
   unsigned int max_entries ;
   unsigned long *entries ;
   int skip ;
};
struct lockdep_subclass_key {
   char __one_byte ;
};
struct lock_class_key {
   struct lockdep_subclass_key subkeys[8U] ;
};
struct lock_class {
   struct list_head hash_entry ;
   struct list_head lock_entry ;
   struct lockdep_subclass_key *key ;
   unsigned int subclass ;
   unsigned int dep_gen_id ;
   unsigned long usage_mask ;
   struct stack_trace usage_traces[13U] ;
   struct list_head locks_after ;
   struct list_head locks_before ;
   unsigned int version ;
   unsigned long ops ;
   char const   *name ;
   int name_version ;
   unsigned long contention_point[4U] ;
   unsigned long contending_point[4U] ;
};
struct lockdep_map {
   struct lock_class_key *key ;
   struct lock_class *class_cache[2U] ;
   char const   *name ;
   int cpu ;
   unsigned long ip ;
};
struct held_lock {
   u64 prev_chain_key ;
   unsigned long acquire_ip ;
   struct lockdep_map *instance ;
   struct lockdep_map *nest_lock ;
   u64 waittime_stamp ;
   u64 holdtime_stamp ;
   unsigned short class_idx : 13 ;
   unsigned char irq_context : 2 ;
   unsigned char trylock : 1 ;
   unsigned char read : 2 ;
   unsigned char check : 2 ;
   unsigned char hardirqs_off : 1 ;
   unsigned short references : 11 ;
};
struct raw_spinlock {
   arch_spinlock_t raw_lock ;
   unsigned int magic ;
   unsigned int owner_cpu ;
   void *owner ;
   struct lockdep_map dep_map ;
};
typedef struct raw_spinlock raw_spinlock_t;
struct __anonstruct_ldv_6123_33 {
   u8 __padding[24U] ;
   struct lockdep_map dep_map ;
};
union __anonunion_ldv_6124_32 {
   struct raw_spinlock rlock ;
   struct __anonstruct_ldv_6123_33 ldv_6123 ;
};
struct spinlock {
   union __anonunion_ldv_6124_32 ldv_6124 ;
};
typedef struct spinlock spinlock_t;
struct timespec {
   __kernel_time_t tv_sec ;
   long tv_nsec ;
};
struct __wait_queue_head {
   spinlock_t lock ;
   struct list_head task_list ;
};
typedef struct __wait_queue_head wait_queue_head_t;
struct __anonstruct_nodemask_t_36 {
   unsigned long bits[16U] ;
};
typedef struct __anonstruct_nodemask_t_36 nodemask_t;
struct mutex {
   atomic_t count ;
   spinlock_t wait_lock ;
   struct list_head wait_list ;
   struct task_struct *owner ;
   char const   *name ;
   void *magic ;
   struct lockdep_map dep_map ;
};
struct mutex_waiter {
   struct list_head list ;
   struct task_struct *task ;
   void *magic ;
};
struct rw_semaphore;
struct rw_semaphore {
   long count ;
   raw_spinlock_t wait_lock ;
   struct list_head wait_list ;
   struct lockdep_map dep_map ;
};
struct completion {
   unsigned int done ;
   wait_queue_head_t wait ;
};
struct notifier_block;
struct notifier_block {
   int (*notifier_call)(struct notifier_block * , unsigned long  , void * ) ;
   struct notifier_block *next ;
   int priority ;
};
struct atomic_notifier_head {
   spinlock_t lock ;
   struct notifier_block *head ;
};
struct resource {
   resource_size_t start ;
   resource_size_t end ;
   char const   *name ;
   unsigned long flags ;
   struct resource *parent ;
   struct resource *sibling ;
   struct resource *child ;
};
union ktime {
   s64 tv64 ;
};
typedef union ktime ktime_t;
struct tvec_base;
struct timer_list {
   struct list_head entry ;
   unsigned long expires ;
   struct tvec_base *base ;
   void (*function)(unsigned long  ) ;
   unsigned long data ;
   int slack ;
   int start_pid ;
   void *start_site ;
   char start_comm[16U] ;
   struct lockdep_map lockdep_map ;
};
struct hrtimer;
enum hrtimer_restart;
struct work_struct;
struct work_struct {
   atomic_long_t data ;
   struct list_head entry ;
   void (*func)(struct work_struct * ) ;
   struct lockdep_map lockdep_map ;
};
struct delayed_work {
   struct work_struct work ;
   struct timer_list timer ;
};
struct pm_message {
   int event ;
};
typedef struct pm_message pm_message_t;
struct dev_pm_ops {
   int (*prepare)(struct device * ) ;
   void (*complete)(struct device * ) ;
   int (*suspend)(struct device * ) ;
   int (*resume)(struct device * ) ;
   int (*freeze)(struct device * ) ;
   int (*thaw)(struct device * ) ;
   int (*poweroff)(struct device * ) ;
   int (*restore)(struct device * ) ;
   int (*suspend_noirq)(struct device * ) ;
   int (*resume_noirq)(struct device * ) ;
   int (*freeze_noirq)(struct device * ) ;
   int (*thaw_noirq)(struct device * ) ;
   int (*poweroff_noirq)(struct device * ) ;
   int (*restore_noirq)(struct device * ) ;
   int (*runtime_suspend)(struct device * ) ;
   int (*runtime_resume)(struct device * ) ;
   int (*runtime_idle)(struct device * ) ;
};
enum rpm_status {
    RPM_ACTIVE = 0,
    RPM_RESUMING = 1,
    RPM_SUSPENDED = 2,
    RPM_SUSPENDING = 3
} ;
enum rpm_request {
    RPM_REQ_NONE = 0,
    RPM_REQ_IDLE = 1,
    RPM_REQ_SUSPEND = 2,
    RPM_REQ_AUTOSUSPEND = 3,
    RPM_REQ_RESUME = 4
} ;
struct wakeup_source;
struct pm_subsys_data {
   spinlock_t lock ;
   unsigned int refcount ;
};
struct pm_qos_constraints;
struct dev_pm_info {
   pm_message_t power_state ;
   unsigned char can_wakeup : 1 ;
   unsigned char async_suspend : 1 ;
   bool is_prepared ;
   bool is_suspended ;
   bool ignore_children ;
   spinlock_t lock ;
   struct list_head entry ;
   struct completion completion ;
   struct wakeup_source *wakeup ;
   bool wakeup_path ;
   struct timer_list suspend_timer ;
   unsigned long timer_expires ;
   struct work_struct work ;
   wait_queue_head_t wait_queue ;
   atomic_t usage_count ;
   atomic_t child_count ;
   unsigned char disable_depth : 3 ;
   unsigned char idle_notification : 1 ;
   unsigned char request_pending : 1 ;
   unsigned char deferred_resume : 1 ;
   unsigned char run_wake : 1 ;
   unsigned char runtime_auto : 1 ;
   unsigned char no_callbacks : 1 ;
   unsigned char irq_safe : 1 ;
   unsigned char use_autosuspend : 1 ;
   unsigned char timer_autosuspends : 1 ;
   enum rpm_request request ;
   enum rpm_status runtime_status ;
   int runtime_error ;
   int autosuspend_delay ;
   unsigned long last_busy ;
   unsigned long active_jiffies ;
   unsigned long suspended_jiffies ;
   unsigned long accounting_timestamp ;
   ktime_t suspend_time ;
   s64 max_time_suspended_ns ;
   struct pm_subsys_data *subsys_data ;
   struct pm_qos_constraints *constraints ;
};
struct dev_pm_domain {
   struct dev_pm_ops ops ;
};
struct __anonstruct_mm_context_t_101 {
   void *ldt ;
   int size ;
   unsigned short ia32_compat ;
   struct mutex lock ;
   void *vdso ;
};
typedef struct __anonstruct_mm_context_t_101 mm_context_t;
struct vm_area_struct;
struct nsproxy;
struct cred;
typedef __u64 Elf64_Addr;
typedef __u16 Elf64_Half;
typedef __u32 Elf64_Word;
typedef __u64 Elf64_Xword;
struct elf64_sym {
   Elf64_Word st_name ;
   unsigned char st_info ;
   unsigned char st_other ;
   Elf64_Half st_shndx ;
   Elf64_Addr st_value ;
   Elf64_Xword st_size ;
};
typedef struct elf64_sym Elf64_Sym;
struct sock;
struct kobject;
enum kobj_ns_type {
    KOBJ_NS_TYPE_NONE = 0,
    KOBJ_NS_TYPE_NET = 1,
    KOBJ_NS_TYPES = 2
} ;
struct kobj_ns_type_operations {
   enum kobj_ns_type type ;
   void *(*grab_current_ns)(void) ;
   void const   *(*netlink_ns)(struct sock * ) ;
   void const   *(*initial_ns)(void) ;
   void (*drop_ns)(void * ) ;
};
struct attribute {
   char const   *name ;
   umode_t mode ;
   struct lock_class_key *key ;
   struct lock_class_key skey ;
};
struct attribute_group {
   char const   *name ;
   umode_t (*is_visible)(struct kobject * , struct attribute * , int  ) ;
   struct attribute **attrs ;
};
struct bin_attribute {
   struct attribute attr ;
   size_t size ;
   void *private ;
   ssize_t (*read)(struct file * , struct kobject * , struct bin_attribute * , char * ,
                   loff_t  , size_t  ) ;
   ssize_t (*write)(struct file * , struct kobject * , struct bin_attribute * , char * ,
                    loff_t  , size_t  ) ;
   int (*mmap)(struct file * , struct kobject * , struct bin_attribute * , struct vm_area_struct * ) ;
};
struct sysfs_ops {
   ssize_t (*show)(struct kobject * , struct attribute * , char * ) ;
   ssize_t (*store)(struct kobject * , struct attribute * , char const   * , size_t  ) ;
   void const   *(*namespace)(struct kobject * , struct attribute  const  * ) ;
};
struct sysfs_dirent;
struct kref {
   atomic_t refcount ;
};
struct kset;
struct kobj_type;
struct kobject {
   char const   *name ;
   struct list_head entry ;
   struct kobject *parent ;
   struct kset *kset ;
   struct kobj_type *ktype ;
   struct sysfs_dirent *sd ;
   struct kref kref ;
   unsigned char state_initialized : 1 ;
   unsigned char state_in_sysfs : 1 ;
   unsigned char state_add_uevent_sent : 1 ;
   unsigned char state_remove_uevent_sent : 1 ;
   unsigned char uevent_suppress : 1 ;
};
struct kobj_type {
   void (*release)(struct kobject * ) ;
   struct sysfs_ops  const  *sysfs_ops ;
   struct attribute **default_attrs ;
   struct kobj_ns_type_operations  const  *(*child_ns_type)(struct kobject * ) ;
   void const   *(*namespace)(struct kobject * ) ;
};
struct kobj_uevent_env {
   char *envp[32U] ;
   int envp_idx ;
   char buf[2048U] ;
   int buflen ;
};
struct kset_uevent_ops {
   int (* const  filter)(struct kset * , struct kobject * ) ;
   char const   *(* const  name)(struct kset * , struct kobject * ) ;
   int (* const  uevent)(struct kset * , struct kobject * , struct kobj_uevent_env * ) ;
};
struct kset {
   struct list_head list ;
   spinlock_t list_lock ;
   struct kobject kobj ;
   struct kset_uevent_ops  const  *uevent_ops ;
};
struct kernel_param;
struct kernel_param_ops {
   int (*set)(char const   * , struct kernel_param  const  * ) ;
   int (*get)(char * , struct kernel_param  const  * ) ;
   void (*free)(void * ) ;
};
struct kparam_string;
struct kparam_array;
union __anonunion_ldv_13364_134 {
   void *arg ;
   struct kparam_string  const  *str ;
   struct kparam_array  const  *arr ;
};
struct kernel_param {
   char const   *name ;
   struct kernel_param_ops  const  *ops ;
   u16 perm ;
   u16 flags ;
   union __anonunion_ldv_13364_134 ldv_13364 ;
};
struct kparam_string {
   unsigned int maxlen ;
   char *string ;
};
struct kparam_array {
   unsigned int max ;
   unsigned int elemsize ;
   unsigned int *num ;
   struct kernel_param_ops  const  *ops ;
   void *elem ;
};
struct jump_label_key {
   atomic_t enabled ;
};
struct tracepoint;
struct tracepoint_func {
   void *func ;
   void *data ;
};
struct tracepoint {
   char const   *name ;
   struct jump_label_key key ;
   void (*regfunc)(void) ;
   void (*unregfunc)(void) ;
   struct tracepoint_func *funcs ;
};
struct kernel_symbol {
   unsigned long value ;
   char const   *name ;
};
struct mod_arch_specific {

};
struct module_param_attrs;
struct module_kobject {
   struct kobject kobj ;
   struct module *mod ;
   struct kobject *drivers_dir ;
   struct module_param_attrs *mp ;
};
struct module_attribute {
   struct attribute attr ;
   ssize_t (*show)(struct module_attribute * , struct module_kobject * , char * ) ;
   ssize_t (*store)(struct module_attribute * , struct module_kobject * , char const   * ,
                    size_t  ) ;
   void (*setup)(struct module * , char const   * ) ;
   int (*test)(struct module * ) ;
   void (*free)(struct module * ) ;
};
struct exception_table_entry;
enum module_state {
    MODULE_STATE_LIVE = 0,
    MODULE_STATE_COMING = 1,
    MODULE_STATE_GOING = 2
} ;
struct module_ref {
   unsigned long incs ;
   unsigned long decs ;
};
struct module_sect_attrs;
struct module_notes_attrs;
struct ftrace_event_call;
struct module {
   enum module_state state ;
   struct list_head list ;
   char name[56U] ;
   struct module_kobject mkobj ;
   struct module_attribute *modinfo_attrs ;
   char const   *version ;
   char const   *srcversion ;
   struct kobject *holders_dir ;
   struct kernel_symbol  const  *syms ;
   unsigned long const   *crcs ;
   unsigned int num_syms ;
   struct kernel_param *kp ;
   unsigned int num_kp ;
   unsigned int num_gpl_syms ;
   struct kernel_symbol  const  *gpl_syms ;
   unsigned long const   *gpl_crcs ;
   struct kernel_symbol  const  *unused_syms ;
   unsigned long const   *unused_crcs ;
   unsigned int num_unused_syms ;
   unsigned int num_unused_gpl_syms ;
   struct kernel_symbol  const  *unused_gpl_syms ;
   unsigned long const   *unused_gpl_crcs ;
   struct kernel_symbol  const  *gpl_future_syms ;
   unsigned long const   *gpl_future_crcs ;
   unsigned int num_gpl_future_syms ;
   unsigned int num_exentries ;
   struct exception_table_entry *extable ;
   int (*init)(void) ;
   void *module_init ;
   void *module_core ;
   unsigned int init_size ;
   unsigned int core_size ;
   unsigned int init_text_size ;
   unsigned int core_text_size ;
   unsigned int init_ro_size ;
   unsigned int core_ro_size ;
   struct mod_arch_specific arch ;
   unsigned int taints ;
   unsigned int num_bugs ;
   struct list_head bug_list ;
   struct bug_entry *bug_table ;
   Elf64_Sym *symtab ;
   Elf64_Sym *core_symtab ;
   unsigned int num_symtab ;
   unsigned int core_num_syms ;
   char *strtab ;
   char *core_strtab ;
   struct module_sect_attrs *sect_attrs ;
   struct module_notes_attrs *notes_attrs ;
   char *args ;
   void *percpu ;
   unsigned int percpu_size ;
   unsigned int num_tracepoints ;
   struct tracepoint * const  *tracepoints_ptrs ;
   unsigned int num_trace_bprintk_fmt ;
   char const   **trace_bprintk_fmt_start ;
   struct ftrace_event_call **trace_events ;
   unsigned int num_trace_events ;
   struct list_head source_list ;
   struct list_head target_list ;
   struct task_struct *waiter ;
   void (*exit)(void) ;
   struct module_ref *refptr ;
   ctor_fn_t (**ctors)(void) ;
   unsigned int num_ctors ;
};
struct klist_node;
struct klist_node {
   void *n_klist ;
   struct list_head n_node ;
   struct kref n_ref ;
};
struct dma_map_ops;
struct dev_archdata {
   void *acpi_handle ;
   struct dma_map_ops *dma_ops ;
   void *iommu ;
};
struct pdev_archdata {

};
struct device_private;
struct device_driver;
struct driver_private;
struct class;
struct subsys_private;
struct bus_type;
struct device_node;
struct iommu_ops;
struct bus_attribute {
   struct attribute attr ;
   ssize_t (*show)(struct bus_type * , char * ) ;
   ssize_t (*store)(struct bus_type * , char const   * , size_t  ) ;
};
struct device_attribute;
struct driver_attribute;
struct bus_type {
   char const   *name ;
   char const   *dev_name ;
   struct device *dev_root ;
   struct bus_attribute *bus_attrs ;
   struct device_attribute *dev_attrs ;
   struct driver_attribute *drv_attrs ;
   int (*match)(struct device * , struct device_driver * ) ;
   int (*uevent)(struct device * , struct kobj_uevent_env * ) ;
   int (*probe)(struct device * ) ;
   int (*remove)(struct device * ) ;
   void (*shutdown)(struct device * ) ;
   int (*suspend)(struct device * , pm_message_t  ) ;
   int (*resume)(struct device * ) ;
   struct dev_pm_ops  const  *pm ;
   struct iommu_ops *iommu_ops ;
   struct subsys_private *p ;
};
struct device_type;
struct of_device_id;
struct device_driver {
   char const   *name ;
   struct bus_type *bus ;
   struct module *owner ;
   char const   *mod_name ;
   bool suppress_bind_attrs ;
   struct of_device_id  const  *of_match_table ;
   int (*probe)(struct device * ) ;
   int (*remove)(struct device * ) ;
   void (*shutdown)(struct device * ) ;
   int (*suspend)(struct device * , pm_message_t  ) ;
   int (*resume)(struct device * ) ;
   struct attribute_group  const  **groups ;
   struct dev_pm_ops  const  *pm ;
   struct driver_private *p ;
};
struct driver_attribute {
   struct attribute attr ;
   ssize_t (*show)(struct device_driver * , char * ) ;
   ssize_t (*store)(struct device_driver * , char const   * , size_t  ) ;
};
struct class_attribute;
struct class {
   char const   *name ;
   struct module *owner ;
   struct class_attribute *class_attrs ;
   struct device_attribute *dev_attrs ;
   struct bin_attribute *dev_bin_attrs ;
   struct kobject *dev_kobj ;
   int (*dev_uevent)(struct device * , struct kobj_uevent_env * ) ;
   char *(*devnode)(struct device * , umode_t * ) ;
   void (*class_release)(struct class * ) ;
   void (*dev_release)(struct device * ) ;
   int (*suspend)(struct device * , pm_message_t  ) ;
   int (*resume)(struct device * ) ;
   struct kobj_ns_type_operations  const  *ns_type ;
   void const   *(*namespace)(struct device * ) ;
   struct dev_pm_ops  const  *pm ;
   struct subsys_private *p ;
};
struct class_attribute {
   struct attribute attr ;
   ssize_t (*show)(struct class * , struct class_attribute * , char * ) ;
   ssize_t (*store)(struct class * , struct class_attribute * , char const   * , size_t  ) ;
   void const   *(*namespace)(struct class * , struct class_attribute  const  * ) ;
};
struct device_type {
   char const   *name ;
   struct attribute_group  const  **groups ;
   int (*uevent)(struct device * , struct kobj_uevent_env * ) ;
   char *(*devnode)(struct device * , umode_t * ) ;
   void (*release)(struct device * ) ;
   struct dev_pm_ops  const  *pm ;
};
struct device_attribute {
   struct attribute attr ;
   ssize_t (*show)(struct device * , struct device_attribute * , char * ) ;
   ssize_t (*store)(struct device * , struct device_attribute * , char const   * ,
                    size_t  ) ;
};
struct device_dma_parameters {
   unsigned int max_segment_size ;
   unsigned long segment_boundary_mask ;
};
struct dma_coherent_mem;
struct device {
   struct device *parent ;
   struct device_private *p ;
   struct kobject kobj ;
   char const   *init_name ;
   struct device_type  const  *type ;
   struct mutex mutex ;
   struct bus_type *bus ;
   struct device_driver *driver ;
   void *platform_data ;
   struct dev_pm_info power ;
   struct dev_pm_domain *pm_domain ;
   int numa_node ;
   u64 *dma_mask ;
   u64 coherent_dma_mask ;
   struct device_dma_parameters *dma_parms ;
   struct list_head dma_pools ;
   struct dma_coherent_mem *dma_mem ;
   struct dev_archdata archdata ;
   struct device_node *of_node ;
   dev_t devt ;
   u32 id ;
   spinlock_t devres_lock ;
   struct list_head devres_head ;
   struct klist_node knode_class ;
   struct class *class ;
   struct attribute_group  const  **groups ;
   void (*release)(struct device * ) ;
};
struct wakeup_source {
   char *name ;
   struct list_head entry ;
   spinlock_t lock ;
   struct timer_list timer ;
   unsigned long timer_expires ;
   ktime_t total_time ;
   ktime_t max_time ;
   ktime_t last_time ;
   unsigned long event_count ;
   unsigned long active_count ;
   unsigned long relax_count ;
   unsigned long hit_count ;
   unsigned char active : 1 ;
};
typedef unsigned long kernel_ulong_t;
struct of_device_id {
   char name[32U] ;
   char type[32U] ;
   char compatible[128U] ;
   void *data ;
};
struct platform_device_id {
   char name[20U] ;
   kernel_ulong_t driver_data ;
};
struct mfd_cell;
struct platform_device {
   char const   *name ;
   int id ;
   struct device dev ;
   u32 num_resources ;
   struct resource *resource ;
   struct platform_device_id  const  *id_entry ;
   struct mfd_cell *mfd_cell ;
   struct pdev_archdata archdata ;
};
struct platform_driver {
   int (*probe)(struct platform_device * ) ;
   int (*remove)(struct platform_device * ) ;
   void (*shutdown)(struct platform_device * ) ;
   int (*suspend)(struct platform_device * , pm_message_t  ) ;
   int (*resume)(struct platform_device * ) ;
   struct device_driver driver ;
   struct platform_device_id  const  *id_table ;
};
enum usb_otg_state {
    OTG_STATE_UNDEFINED = 0,
    OTG_STATE_B_IDLE = 1,
    OTG_STATE_B_SRP_INIT = 2,
    OTG_STATE_B_PERIPHERAL = 3,
    OTG_STATE_B_WAIT_ACON = 4,
    OTG_STATE_B_HOST = 5,
    OTG_STATE_A_IDLE = 6,
    OTG_STATE_A_WAIT_VRISE = 7,
    OTG_STATE_A_WAIT_BCON = 8,
    OTG_STATE_A_HOST = 9,
    OTG_STATE_A_SUSPEND = 10,
    OTG_STATE_A_PERIPHERAL = 11,
    OTG_STATE_A_WAIT_VFALL = 12,
    OTG_STATE_A_VBUS_ERR = 13
} ;
enum usb_xceiv_events {
    USB_EVENT_NONE = 0,
    USB_EVENT_VBUS = 1,
    USB_EVENT_ID = 2,
    USB_EVENT_CHARGER = 3,
    USB_EVENT_ENUMERATED = 4
} ;
struct usb_phy;
struct otg_io_access_ops {
   int (*read)(struct usb_phy * , u32  ) ;
   int (*write)(struct usb_phy * , u32  , u32  ) ;
};
struct usb_bus;
struct usb_gadget;
struct usb_phy {
   struct device *dev ;
   char const   *label ;
   unsigned int flags ;
   u8 default_a ;
   enum usb_otg_state state ;
   enum usb_xceiv_events last_event ;
   struct usb_bus *host ;
   struct usb_gadget *gadget ;
   struct otg_io_access_ops *io_ops ;
   void *io_priv ;
   struct atomic_notifier_head notifier ;
   u16 port_status ;
   u16 port_change ;
   int (*init)(struct usb_phy * ) ;
   void (*shutdown)(struct usb_phy * ) ;
   int (*set_host)(struct usb_phy * , struct usb_bus * ) ;
   int (*set_peripheral)(struct usb_phy * , struct usb_gadget * ) ;
   int (*set_power)(struct usb_phy * , unsigned int  ) ;
   int (*set_vbus)(struct usb_phy * , bool  ) ;
   int (*set_suspend)(struct usb_phy * , int  ) ;
   int (*start_srp)(struct usb_phy * ) ;
   int (*start_hnp)(struct usb_phy * ) ;
};
struct kmem_cache_cpu {
   void **freelist ;
   unsigned long tid ;
   struct page *page ;
   struct page *partial ;
   int node ;
   unsigned int stat[24U] ;
};
struct kmem_cache_node {
   spinlock_t list_lock ;
   unsigned long nr_partial ;
   struct list_head partial ;
   atomic_long_t nr_slabs ;
   atomic_long_t total_objects ;
   struct list_head full ;
};
struct kmem_cache_order_objects {
   unsigned long x ;
};
struct kmem_cache {
   struct kmem_cache_cpu *cpu_slab ;
   unsigned long flags ;
   unsigned long min_partial ;
   int size ;
   int objsize ;
   int offset ;
   int cpu_partial ;
   struct kmem_cache_order_objects oo ;
   struct kmem_cache_order_objects max ;
   struct kmem_cache_order_objects min ;
   gfp_t allocflags ;
   int refcount ;
   void (*ctor)(void * ) ;
   int inuse ;
   int align ;
   int reserved ;
   char const   *name ;
   struct list_head list ;
   struct kobject kobj ;
   int remote_node_defrag_ratio ;
   struct kmem_cache_node *node[1024U] ;
};
enum irqreturn {
    IRQ_NONE = 0,
    IRQ_HANDLED = 1,
    IRQ_WAKE_THREAD = 2
} ;
typedef enum irqreturn irqreturn_t;
struct proc_dir_entry;
struct irqaction;
struct exception_table_entry {
   unsigned long insn ;
   unsigned long fixup ;
};
struct rb_node {
   unsigned long rb_parent_color ;
   struct rb_node *rb_right ;
   struct rb_node *rb_left ;
};
struct rb_root {
   struct rb_node *rb_node ;
};
struct timerqueue_node {
   struct rb_node node ;
   ktime_t expires ;
};
struct timerqueue_head {
   struct rb_root head ;
   struct timerqueue_node *next ;
};
struct hrtimer_clock_base;
struct hrtimer_cpu_base;
enum hrtimer_restart {
    HRTIMER_NORESTART = 0,
    HRTIMER_RESTART = 1
} ;
struct hrtimer {
   struct timerqueue_node node ;
   ktime_t _softexpires ;
   enum hrtimer_restart (*function)(struct hrtimer * ) ;
   struct hrtimer_clock_base *base ;
   unsigned long state ;
   int start_pid ;
   void *start_site ;
   char start_comm[16U] ;
};
struct hrtimer_clock_base {
   struct hrtimer_cpu_base *cpu_base ;
   int index ;
   clockid_t clockid ;
   struct timerqueue_head active ;
   ktime_t resolution ;
   ktime_t (*get_time)(void) ;
   ktime_t softirq_time ;
   ktime_t offset ;
};
struct hrtimer_cpu_base {
   raw_spinlock_t lock ;
   unsigned long active_bases ;
   ktime_t expires_next ;
   int hres_active ;
   int hang_detected ;
   unsigned long nr_events ;
   unsigned long nr_retries ;
   unsigned long nr_hangs ;
   ktime_t max_hang_time ;
   struct hrtimer_clock_base clock_base[3U] ;
};
struct irqaction {
   irqreturn_t (*handler)(int  , void * ) ;
   unsigned long flags ;
   void *dev_id ;
   void *percpu_dev_id ;
   struct irqaction *next ;
   int irq ;
   irqreturn_t (*thread_fn)(int  , void * ) ;
   struct task_struct *thread ;
   unsigned long thread_flags ;
   unsigned long thread_mask ;
   char const   *name ;
   struct proc_dir_entry *dir ;
};
struct kernel_cap_struct {
   __u32 cap[2U] ;
};
typedef struct kernel_cap_struct kernel_cap_t;
struct dentry;
struct user_namespace;
struct prio_tree_node;
struct raw_prio_tree_node {
   struct prio_tree_node *left ;
   struct prio_tree_node *right ;
   struct prio_tree_node *parent ;
};
struct prio_tree_node {
   struct prio_tree_node *left ;
   struct prio_tree_node *right ;
   struct prio_tree_node *parent ;
   unsigned long start ;
   unsigned long last ;
};
struct address_space;
union __anonunion_ldv_17708_139 {
   unsigned long index ;
   void *freelist ;
};
struct __anonstruct_ldv_17718_143 {
   unsigned short inuse ;
   unsigned short objects : 15 ;
   unsigned char frozen : 1 ;
};
union __anonunion_ldv_17719_142 {
   atomic_t _mapcount ;
   struct __anonstruct_ldv_17718_143 ldv_17718 ;
};
struct __anonstruct_ldv_17721_141 {
   union __anonunion_ldv_17719_142 ldv_17719 ;
   atomic_t _count ;
};
union __anonunion_ldv_17722_140 {
   unsigned long counters ;
   struct __anonstruct_ldv_17721_141 ldv_17721 ;
};
struct __anonstruct_ldv_17723_138 {
   union __anonunion_ldv_17708_139 ldv_17708 ;
   union __anonunion_ldv_17722_140 ldv_17722 ;
};
struct __anonstruct_ldv_17730_145 {
   struct page *next ;
   int pages ;
   int pobjects ;
};
union __anonunion_ldv_17731_144 {
   struct list_head lru ;
   struct __anonstruct_ldv_17730_145 ldv_17730 ;
};
union __anonunion_ldv_17736_146 {
   unsigned long private ;
   struct kmem_cache *slab ;
   struct page *first_page ;
};
struct page {
   unsigned long flags ;
   struct address_space *mapping ;
   struct __anonstruct_ldv_17723_138 ldv_17723 ;
   union __anonunion_ldv_17731_144 ldv_17731 ;
   union __anonunion_ldv_17736_146 ldv_17736 ;
   unsigned long debug_flags ;
};
struct __anonstruct_vm_set_148 {
   struct list_head list ;
   void *parent ;
   struct vm_area_struct *head ;
};
union __anonunion_shared_147 {
   struct __anonstruct_vm_set_148 vm_set ;
   struct raw_prio_tree_node prio_tree_node ;
};
struct anon_vma;
struct vm_operations_struct;
struct mempolicy;
struct vm_area_struct {
   struct mm_struct *vm_mm ;
   unsigned long vm_start ;
   unsigned long vm_end ;
   struct vm_area_struct *vm_next ;
   struct vm_area_struct *vm_prev ;
   pgprot_t vm_page_prot ;
   unsigned long vm_flags ;
   struct rb_node vm_rb ;
   union __anonunion_shared_147 shared ;
   struct list_head anon_vma_chain ;
   struct anon_vma *anon_vma ;
   struct vm_operations_struct  const  *vm_ops ;
   unsigned long vm_pgoff ;
   struct file *vm_file ;
   void *vm_private_data ;
   struct mempolicy *vm_policy ;
};
struct core_thread {
   struct task_struct *task ;
   struct core_thread *next ;
};
struct core_state {
   atomic_t nr_threads ;
   struct core_thread dumper ;
   struct completion startup ;
};
struct mm_rss_stat {
   atomic_long_t count[3U] ;
};
struct linux_binfmt;
struct mmu_notifier_mm;
struct mm_struct {
   struct vm_area_struct *mmap ;
   struct rb_root mm_rb ;
   struct vm_area_struct *mmap_cache ;
   unsigned long (*get_unmapped_area)(struct file * , unsigned long  , unsigned long  ,
                                      unsigned long  , unsigned long  ) ;
   void (*unmap_area)(struct mm_struct * , unsigned long  ) ;
   unsigned long mmap_base ;
   unsigned long task_size ;
   unsigned long cached_hole_size ;
   unsigned long free_area_cache ;
   pgd_t *pgd ;
   atomic_t mm_users ;
   atomic_t mm_count ;
   int map_count ;
   spinlock_t page_table_lock ;
   struct rw_semaphore mmap_sem ;
   struct list_head mmlist ;
   unsigned long hiwater_rss ;
   unsigned long hiwater_vm ;
   unsigned long total_vm ;
   unsigned long locked_vm ;
   unsigned long pinned_vm ;
   unsigned long shared_vm ;
   unsigned long exec_vm ;
   unsigned long stack_vm ;
   unsigned long reserved_vm ;
   unsigned long def_flags ;
   unsigned long nr_ptes ;
   unsigned long start_code ;
   unsigned long end_code ;
   unsigned long start_data ;
   unsigned long end_data ;
   unsigned long start_brk ;
   unsigned long brk ;
   unsigned long start_stack ;
   unsigned long arg_start ;
   unsigned long arg_end ;
   unsigned long env_start ;
   unsigned long env_end ;
   unsigned long saved_auxv[44U] ;
   struct mm_rss_stat rss_stat ;
   struct linux_binfmt *binfmt ;
   cpumask_var_t cpu_vm_mask_var ;
   mm_context_t context ;
   unsigned int faultstamp ;
   unsigned int token_priority ;
   unsigned int last_interval ;
   unsigned long flags ;
   struct core_state *core_state ;
   spinlock_t ioctx_lock ;
   struct hlist_head ioctx_list ;
   struct task_struct *owner ;
   struct file *exe_file ;
   unsigned long num_exe_file_vmas ;
   struct mmu_notifier_mm *mmu_notifier_mm ;
   pgtable_t pmd_huge_pte ;
   struct cpumask cpumask_allocation ;
};
typedef unsigned long cputime_t;
struct sem_undo_list;
struct sysv_sem {
   struct sem_undo_list *undo_list ;
};
struct siginfo;
struct __anonstruct_sigset_t_149 {
   unsigned long sig[1U] ;
};
typedef struct __anonstruct_sigset_t_149 sigset_t;
typedef void __signalfn_t(int  );
typedef __signalfn_t *__sighandler_t;
typedef void __restorefn_t(void);
typedef __restorefn_t *__sigrestore_t;
struct sigaction {
   __sighandler_t sa_handler ;
   unsigned long sa_flags ;
   __sigrestore_t sa_restorer ;
   sigset_t sa_mask ;
};
struct k_sigaction {
   struct sigaction sa ;
};
union sigval {
   int sival_int ;
   void *sival_ptr ;
};
typedef union sigval sigval_t;
struct __anonstruct__kill_151 {
   __kernel_pid_t _pid ;
   __kernel_uid32_t _uid ;
};
struct __anonstruct__timer_152 {
   __kernel_timer_t _tid ;
   int _overrun ;
   char _pad[0U] ;
   sigval_t _sigval ;
   int _sys_private ;
};
struct __anonstruct__rt_153 {
   __kernel_pid_t _pid ;
   __kernel_uid32_t _uid ;
   sigval_t _sigval ;
};
struct __anonstruct__sigchld_154 {
   __kernel_pid_t _pid ;
   __kernel_uid32_t _uid ;
   int _status ;
   __kernel_clock_t _utime ;
   __kernel_clock_t _stime ;
};
struct __anonstruct__sigfault_155 {
   void *_addr ;
   short _addr_lsb ;
};
struct __anonstruct__sigpoll_156 {
   long _band ;
   int _fd ;
};
union __anonunion__sifields_150 {
   int _pad[28U] ;
   struct __anonstruct__kill_151 _kill ;
   struct __anonstruct__timer_152 _timer ;
   struct __anonstruct__rt_153 _rt ;
   struct __anonstruct__sigchld_154 _sigchld ;
   struct __anonstruct__sigfault_155 _sigfault ;
   struct __anonstruct__sigpoll_156 _sigpoll ;
};
struct siginfo {
   int si_signo ;
   int si_errno ;
   int si_code ;
   union __anonunion__sifields_150 _sifields ;
};
typedef struct siginfo siginfo_t;
struct user_struct;
struct sigpending {
   struct list_head list ;
   sigset_t signal ;
};
struct pid_namespace;
struct upid {
   int nr ;
   struct pid_namespace *ns ;
   struct hlist_node pid_chain ;
};
struct pid {
   atomic_t count ;
   unsigned int level ;
   struct hlist_head tasks[3U] ;
   struct rcu_head rcu ;
   struct upid numbers[1U] ;
};
struct pid_link {
   struct hlist_node node ;
   struct pid *pid ;
};
struct __anonstruct_seccomp_t_159 {
   int mode ;
};
typedef struct __anonstruct_seccomp_t_159 seccomp_t;
struct plist_head {
   struct list_head node_list ;
};
struct plist_node {
   int prio ;
   struct list_head prio_list ;
   struct list_head node_list ;
};
struct rt_mutex_waiter;
struct rlimit {
   unsigned long rlim_cur ;
   unsigned long rlim_max ;
};
struct task_io_accounting {
   u64 rchar ;
   u64 wchar ;
   u64 syscr ;
   u64 syscw ;
   u64 read_bytes ;
   u64 write_bytes ;
   u64 cancelled_write_bytes ;
};
struct latency_record {
   unsigned long backtrace[12U] ;
   unsigned int count ;
   unsigned long time ;
   unsigned long max ;
};
typedef int32_t key_serial_t;
typedef uint32_t key_perm_t;
struct key;
struct signal_struct;
struct key_type;
struct keyring_list;
struct key_user;
union __anonunion_ldv_18733_160 {
   time_t expiry ;
   time_t revoked_at ;
};
union __anonunion_type_data_161 {
   struct list_head link ;
   unsigned long x[2U] ;
   void *p[2U] ;
   int reject_error ;
};
union __anonunion_payload_162 {
   unsigned long value ;
   void *rcudata ;
   void *data ;
   struct keyring_list *subscriptions ;
};
struct key {
   atomic_t usage ;
   key_serial_t serial ;
   struct rb_node serial_node ;
   struct key_type *type ;
   struct rw_semaphore sem ;
   struct key_user *user ;
   void *security ;
   union __anonunion_ldv_18733_160 ldv_18733 ;
   uid_t uid ;
   gid_t gid ;
   key_perm_t perm ;
   unsigned short quotalen ;
   unsigned short datalen ;
   unsigned long flags ;
   char *description ;
   union __anonunion_type_data_161 type_data ;
   union __anonunion_payload_162 payload ;
};
struct audit_context;
struct group_info {
   atomic_t usage ;
   int ngroups ;
   int nblocks ;
   gid_t small_block[32U] ;
   gid_t *blocks[0U] ;
};
struct thread_group_cred {
   atomic_t usage ;
   pid_t tgid ;
   spinlock_t lock ;
   struct key *session_keyring ;
   struct key *process_keyring ;
   struct rcu_head rcu ;
};
struct cred {
   atomic_t usage ;
   atomic_t subscribers ;
   void *put_addr ;
   unsigned int magic ;
   uid_t uid ;
   gid_t gid ;
   uid_t suid ;
   gid_t sgid ;
   uid_t euid ;
   gid_t egid ;
   uid_t fsuid ;
   gid_t fsgid ;
   unsigned int securebits ;
   kernel_cap_t cap_inheritable ;
   kernel_cap_t cap_permitted ;
   kernel_cap_t cap_effective ;
   kernel_cap_t cap_bset ;
   unsigned char jit_keyring ;
   struct key *thread_keyring ;
   struct key *request_key_auth ;
   struct thread_group_cred *tgcred ;
   void *security ;
   struct user_struct *user ;
   struct user_namespace *user_ns ;
   struct group_info *group_info ;
   struct rcu_head rcu ;
};
struct llist_node;
struct llist_node {
   struct llist_node *next ;
};
struct futex_pi_state;
struct robust_list_head;
struct bio_list;
struct fs_struct;
struct perf_event_context;
struct blk_plug;
struct cfs_rq;
struct sighand_struct {
   atomic_t count ;
   struct k_sigaction action[64U] ;
   spinlock_t siglock ;
   wait_queue_head_t signalfd_wqh ;
};
struct pacct_struct {
   int ac_flag ;
   long ac_exitcode ;
   unsigned long ac_mem ;
   cputime_t ac_utime ;
   cputime_t ac_stime ;
   unsigned long ac_minflt ;
   unsigned long ac_majflt ;
};
struct cpu_itimer {
   cputime_t expires ;
   cputime_t incr ;
   u32 error ;
   u32 incr_error ;
};
struct task_cputime {
   cputime_t utime ;
   cputime_t stime ;
   unsigned long long sum_exec_runtime ;
};
struct thread_group_cputimer {
   struct task_cputime cputime ;
   int running ;
   raw_spinlock_t lock ;
};
struct autogroup;
struct tty_struct;
struct taskstats;
struct tty_audit_buf;
struct signal_struct {
   atomic_t sigcnt ;
   atomic_t live ;
   int nr_threads ;
   wait_queue_head_t wait_chldexit ;
   struct task_struct *curr_target ;
   struct sigpending shared_pending ;
   int group_exit_code ;
   int notify_count ;
   struct task_struct *group_exit_task ;
   int group_stop_count ;
   unsigned int flags ;
   struct list_head posix_timers ;
   struct hrtimer real_timer ;
   struct pid *leader_pid ;
   ktime_t it_real_incr ;
   struct cpu_itimer it[2U] ;
   struct thread_group_cputimer cputimer ;
   struct task_cputime cputime_expires ;
   struct list_head cpu_timers[3U] ;
   struct pid *tty_old_pgrp ;
   int leader ;
   struct tty_struct *tty ;
   struct autogroup *autogroup ;
   cputime_t utime ;
   cputime_t stime ;
   cputime_t cutime ;
   cputime_t cstime ;
   cputime_t gtime ;
   cputime_t cgtime ;
   cputime_t prev_utime ;
   cputime_t prev_stime ;
   unsigned long nvcsw ;
   unsigned long nivcsw ;
   unsigned long cnvcsw ;
   unsigned long cnivcsw ;
   unsigned long min_flt ;
   unsigned long maj_flt ;
   unsigned long cmin_flt ;
   unsigned long cmaj_flt ;
   unsigned long inblock ;
   unsigned long oublock ;
   unsigned long cinblock ;
   unsigned long coublock ;
   unsigned long maxrss ;
   unsigned long cmaxrss ;
   struct task_io_accounting ioac ;
   unsigned long long sum_sched_runtime ;
   struct rlimit rlim[16U] ;
   struct pacct_struct pacct ;
   struct taskstats *stats ;
   unsigned int audit_tty ;
   struct tty_audit_buf *tty_audit_buf ;
   struct rw_semaphore group_rwsem ;
   int oom_adj ;
   int oom_score_adj ;
   int oom_score_adj_min ;
   struct mutex cred_guard_mutex ;
};
struct user_struct {
   atomic_t __count ;
   atomic_t processes ;
   atomic_t files ;
   atomic_t sigpending ;
   atomic_t inotify_watches ;
   atomic_t inotify_devs ;
   atomic_t fanotify_listeners ;
   atomic_long_t epoll_watches ;
   unsigned long mq_bytes ;
   unsigned long locked_shm ;
   struct key *uid_keyring ;
   struct key *session_keyring ;
   struct hlist_node uidhash_node ;
   uid_t uid ;
   struct user_namespace *user_ns ;
   atomic_long_t locked_vm ;
};
struct backing_dev_info;
struct reclaim_state;
struct sched_info {
   unsigned long pcount ;
   unsigned long long run_delay ;
   unsigned long long last_arrival ;
   unsigned long long last_queued ;
};
struct task_delay_info {
   spinlock_t lock ;
   unsigned int flags ;
   struct timespec blkio_start ;
   struct timespec blkio_end ;
   u64 blkio_delay ;
   u64 swapin_delay ;
   u32 blkio_count ;
   u32 swapin_count ;
   struct timespec freepages_start ;
   struct timespec freepages_end ;
   u64 freepages_delay ;
   u32 freepages_count ;
};
struct io_context;
struct pipe_inode_info;
struct rq;
struct sched_class {
   struct sched_class  const  *next ;
   void (*enqueue_task)(struct rq * , struct task_struct * , int  ) ;
   void (*dequeue_task)(struct rq * , struct task_struct * , int  ) ;
   void (*yield_task)(struct rq * ) ;
   bool (*yield_to_task)(struct rq * , struct task_struct * , bool  ) ;
   void (*check_preempt_curr)(struct rq * , struct task_struct * , int  ) ;
   struct task_struct *(*pick_next_task)(struct rq * ) ;
   void (*put_prev_task)(struct rq * , struct task_struct * ) ;
   int (*select_task_rq)(struct task_struct * , int  , int  ) ;
   void (*pre_schedule)(struct rq * , struct task_struct * ) ;
   void (*post_schedule)(struct rq * ) ;
   void (*task_waking)(struct task_struct * ) ;
   void (*task_woken)(struct rq * , struct task_struct * ) ;
   void (*set_cpus_allowed)(struct task_struct * , struct cpumask  const  * ) ;
   void (*rq_online)(struct rq * ) ;
   void (*rq_offline)(struct rq * ) ;
   void (*set_curr_task)(struct rq * ) ;
   void (*task_tick)(struct rq * , struct task_struct * , int  ) ;
   void (*task_fork)(struct task_struct * ) ;
   void (*switched_from)(struct rq * , struct task_struct * ) ;
   void (*switched_to)(struct rq * , struct task_struct * ) ;
   void (*prio_changed)(struct rq * , struct task_struct * , int  ) ;
   unsigned int (*get_rr_interval)(struct rq * , struct task_struct * ) ;
   void (*task_move_group)(struct task_struct * , int  ) ;
};
struct load_weight {
   unsigned long weight ;
   unsigned long inv_weight ;
};
struct sched_statistics {
   u64 wait_start ;
   u64 wait_max ;
   u64 wait_count ;
   u64 wait_sum ;
   u64 iowait_count ;
   u64 iowait_sum ;
   u64 sleep_start ;
   u64 sleep_max ;
   s64 sum_sleep_runtime ;
   u64 block_start ;
   u64 block_max ;
   u64 exec_max ;
   u64 slice_max ;
   u64 nr_migrations_cold ;
   u64 nr_failed_migrations_affine ;
   u64 nr_failed_migrations_running ;
   u64 nr_failed_migrations_hot ;
   u64 nr_forced_migrations ;
   u64 nr_wakeups ;
   u64 nr_wakeups_sync ;
   u64 nr_wakeups_migrate ;
   u64 nr_wakeups_local ;
   u64 nr_wakeups_remote ;
   u64 nr_wakeups_affine ;
   u64 nr_wakeups_affine_attempts ;
   u64 nr_wakeups_passive ;
   u64 nr_wakeups_idle ;
};
struct sched_entity {
   struct load_weight load ;
   struct rb_node run_node ;
   struct list_head group_node ;
   unsigned int on_rq ;
   u64 exec_start ;
   u64 sum_exec_runtime ;
   u64 vruntime ;
   u64 prev_sum_exec_runtime ;
   u64 nr_migrations ;
   struct sched_statistics statistics ;
   struct sched_entity *parent ;
   struct cfs_rq *cfs_rq ;
   struct cfs_rq *my_q ;
};
struct rt_rq;
struct sched_rt_entity {
   struct list_head run_list ;
   unsigned long timeout ;
   unsigned int time_slice ;
   int nr_cpus_allowed ;
   struct sched_rt_entity *back ;
   struct sched_rt_entity *parent ;
   struct rt_rq *rt_rq ;
   struct rt_rq *my_q ;
};
struct mem_cgroup;
struct memcg_batch_info {
   int do_batch ;
   struct mem_cgroup *memcg ;
   unsigned long nr_pages ;
   unsigned long memsw_nr_pages ;
};
struct files_struct;
struct css_set;
struct compat_robust_list_head;
struct task_struct {
   long volatile   state ;
   void *stack ;
   atomic_t usage ;
   unsigned int flags ;
   unsigned int ptrace ;
   struct llist_node wake_entry ;
   int on_cpu ;
   int on_rq ;
   int prio ;
   int static_prio ;
   int normal_prio ;
   unsigned int rt_priority ;
   struct sched_class  const  *sched_class ;
   struct sched_entity se ;
   struct sched_rt_entity rt ;
   struct hlist_head preempt_notifiers ;
   unsigned char fpu_counter ;
   unsigned int policy ;
   cpumask_t cpus_allowed ;
   struct sched_info sched_info ;
   struct list_head tasks ;
   struct plist_node pushable_tasks ;
   struct mm_struct *mm ;
   struct mm_struct *active_mm ;
   unsigned char brk_randomized : 1 ;
   int exit_state ;
   int exit_code ;
   int exit_signal ;
   int pdeath_signal ;
   unsigned int jobctl ;
   unsigned int personality ;
   unsigned char did_exec : 1 ;
   unsigned char in_execve : 1 ;
   unsigned char in_iowait : 1 ;
   unsigned char sched_reset_on_fork : 1 ;
   unsigned char sched_contributes_to_load : 1 ;
   pid_t pid ;
   pid_t tgid ;
   unsigned long stack_canary ;
   struct task_struct *real_parent ;
   struct task_struct *parent ;
   struct list_head children ;
   struct list_head sibling ;
   struct task_struct *group_leader ;
   struct list_head ptraced ;
   struct list_head ptrace_entry ;
   struct pid_link pids[3U] ;
   struct list_head thread_group ;
   struct completion *vfork_done ;
   int *set_child_tid ;
   int *clear_child_tid ;
   cputime_t utime ;
   cputime_t stime ;
   cputime_t utimescaled ;
   cputime_t stimescaled ;
   cputime_t gtime ;
   cputime_t prev_utime ;
   cputime_t prev_stime ;
   unsigned long nvcsw ;
   unsigned long nivcsw ;
   struct timespec start_time ;
   struct timespec real_start_time ;
   unsigned long min_flt ;
   unsigned long maj_flt ;
   struct task_cputime cputime_expires ;
   struct list_head cpu_timers[3U] ;
   struct cred  const  *real_cred ;
   struct cred  const  *cred ;
   struct cred *replacement_session_keyring ;
   char comm[16U] ;
   int link_count ;
   int total_link_count ;
   struct sysv_sem sysvsem ;
   unsigned long last_switch_count ;
   struct thread_struct thread ;
   struct fs_struct *fs ;
   struct files_struct *files ;
   struct nsproxy *nsproxy ;
   struct signal_struct *signal ;
   struct sighand_struct *sighand ;
   sigset_t blocked ;
   sigset_t real_blocked ;
   sigset_t saved_sigmask ;
   struct sigpending pending ;
   unsigned long sas_ss_sp ;
   size_t sas_ss_size ;
   int (*notifier)(void * ) ;
   void *notifier_data ;
   sigset_t *notifier_mask ;
   struct audit_context *audit_context ;
   uid_t loginuid ;
   unsigned int sessionid ;
   seccomp_t seccomp ;
   u32 parent_exec_id ;
   u32 self_exec_id ;
   spinlock_t alloc_lock ;
   struct irqaction *irqaction ;
   raw_spinlock_t pi_lock ;
   struct plist_head pi_waiters ;
   struct rt_mutex_waiter *pi_blocked_on ;
   struct mutex_waiter *blocked_on ;
   unsigned int irq_events ;
   unsigned long hardirq_enable_ip ;
   unsigned long hardirq_disable_ip ;
   unsigned int hardirq_enable_event ;
   unsigned int hardirq_disable_event ;
   int hardirqs_enabled ;
   int hardirq_context ;
   unsigned long softirq_disable_ip ;
   unsigned long softirq_enable_ip ;
   unsigned int softirq_disable_event ;
   unsigned int softirq_enable_event ;
   int softirqs_enabled ;
   int softirq_context ;
   u64 curr_chain_key ;
   int lockdep_depth ;
   unsigned int lockdep_recursion ;
   struct held_lock held_locks[48U] ;
   gfp_t lockdep_reclaim_gfp ;
   void *journal_info ;
   struct bio_list *bio_list ;
   struct blk_plug *plug ;
   struct reclaim_state *reclaim_state ;
   struct backing_dev_info *backing_dev_info ;
   struct io_context *io_context ;
   unsigned long ptrace_message ;
   siginfo_t *last_siginfo ;
   struct task_io_accounting ioac ;
   u64 acct_rss_mem1 ;
   u64 acct_vm_mem1 ;
   cputime_t acct_timexpd ;
   nodemask_t mems_allowed ;
   int mems_allowed_change_disable ;
   int cpuset_mem_spread_rotor ;
   int cpuset_slab_spread_rotor ;
   struct css_set *cgroups ;
   struct list_head cg_list ;
   struct robust_list_head *robust_list ;
   struct compat_robust_list_head *compat_robust_list ;
   struct list_head pi_state_list ;
   struct futex_pi_state *pi_state_cache ;
   struct perf_event_context *perf_event_ctxp[2U] ;
   struct mutex perf_event_mutex ;
   struct list_head perf_event_list ;
   struct mempolicy *mempolicy ;
   short il_next ;
   short pref_node_fork ;
   struct rcu_head rcu ;
   struct pipe_inode_info *splice_pipe ;
   struct task_delay_info *delays ;
   int make_it_fail ;
   int nr_dirtied ;
   int nr_dirtied_pause ;
   unsigned long dirty_paused_when ;
   int latency_record_count ;
   struct latency_record latency_record[32U] ;
   unsigned long timer_slack_ns ;
   unsigned long default_timer_slack_ns ;
   struct list_head *scm_work_list ;
   unsigned long trace ;
   unsigned long trace_recursion ;
   struct memcg_batch_info memcg_batch ;
   atomic_t ptrace_bp_refcnt ;
};
struct taskstats {
   __u16 version ;
   __u32 ac_exitcode ;
   __u8 ac_flag ;
   __u8 ac_nice ;
   __u64 cpu_count ;
   __u64 cpu_delay_total ;
   __u64 blkio_count ;
   __u64 blkio_delay_total ;
   __u64 swapin_count ;
   __u64 swapin_delay_total ;
   __u64 cpu_run_real_total ;
   __u64 cpu_run_virtual_total ;
   char ac_comm[32U] ;
   __u8 ac_sched ;
   __u8 ac_pad[3U] ;
   __u32 ac_uid ;
   __u32 ac_gid ;
   __u32 ac_pid ;
   __u32 ac_ppid ;
   __u32 ac_btime ;
   __u64 ac_etime ;
   __u64 ac_utime ;
   __u64 ac_stime ;
   __u64 ac_minflt ;
   __u64 ac_majflt ;
   __u64 coremem ;
   __u64 virtmem ;
   __u64 hiwater_rss ;
   __u64 hiwater_vm ;
   __u64 read_char ;
   __u64 write_char ;
   __u64 read_syscalls ;
   __u64 write_syscalls ;
   __u64 read_bytes ;
   __u64 write_bytes ;
   __u64 cancelled_write_bytes ;
   __u64 nvcsw ;
   __u64 nivcsw ;
   __u64 ac_utimescaled ;
   __u64 ac_stimescaled ;
   __u64 cpu_scaled_run_real_total ;
   __u64 freepages_count ;
   __u64 freepages_delay_total ;
};
struct cgroupfs_root;
struct cgroup;
struct css_id;
struct cgroup_subsys_state {
   struct cgroup *cgroup ;
   atomic_t refcnt ;
   unsigned long flags ;
   struct css_id *id ;
};
struct cgroup {
   unsigned long flags ;
   atomic_t count ;
   struct list_head sibling ;
   struct list_head children ;
   struct cgroup *parent ;
   struct dentry *dentry ;
   struct cgroup_subsys_state *subsys[64U] ;
   struct cgroupfs_root *root ;
   struct cgroup *top_cgroup ;
   struct list_head css_sets ;
   struct list_head release_list ;
   struct list_head pidlists ;
   struct mutex pidlist_mutex ;
   struct rcu_head rcu_head ;
   struct list_head event_list ;
   spinlock_t event_list_lock ;
};
struct css_set {
   atomic_t refcount ;
   struct hlist_node hlist ;
   struct list_head tasks ;
   struct list_head cg_links ;
   struct cgroup_subsys_state *subsys[64U] ;
   struct rcu_head rcu_head ;
};
struct reclaim_state {
   unsigned long reclaimed_slab ;
};
struct vm_fault {
   unsigned int flags ;
   unsigned long pgoff ;
   void *virtual_address ;
   struct page *page ;
};
struct vm_operations_struct {
   void (*open)(struct vm_area_struct * ) ;
   void (*close)(struct vm_area_struct * ) ;
   int (*fault)(struct vm_area_struct * , struct vm_fault * ) ;
   int (*page_mkwrite)(struct vm_area_struct * , struct vm_fault * ) ;
   int (*access)(struct vm_area_struct * , unsigned long  , void * , int  , int  ) ;
   int (*set_policy)(struct vm_area_struct * , struct mempolicy * ) ;
   struct mempolicy *(*get_policy)(struct vm_area_struct * , unsigned long  ) ;
   int (*migrate)(struct vm_area_struct * , nodemask_t const   * , nodemask_t const   * ,
                  unsigned long  ) ;
};
enum ab8500_usb_link_status {
    USB_LINK_NOT_CONFIGURED = 0,
    USB_LINK_STD_HOST_NC = 1,
    USB_LINK_STD_HOST_C_NS = 2,
    USB_LINK_STD_HOST_C_S = 3,
    USB_LINK_HOST_CHG_NM = 4,
    USB_LINK_HOST_CHG_HS = 5,
    USB_LINK_HOST_CHG_HS_CHIRP = 6,
    USB_LINK_DEDICATED_CHG = 7,
    USB_LINK_ACA_RID_A = 8,
    USB_LINK_ACA_RID_B = 9,
    USB_LINK_ACA_RID_C_NM = 10,
    USB_LINK_ACA_RID_C_HS = 11,
    USB_LINK_ACA_RID_C_HS_CHIRP = 12,
    USB_LINK_HM_IDGND = 13,
    USB_LINK_RESERVED = 14,
    USB_LINK_NOT_VALID_LINK = 15
} ;
struct ab8500_usb {
   struct usb_phy otg ;
   struct device *dev ;
   int irq_num_id_rise ;
   int irq_num_id_fall ;
   int irq_num_vbus_rise ;
   int irq_num_vbus_fall ;
   int irq_num_link_status ;
   unsigned int vbus_draw ;
   struct delayed_work dwork ;
   struct work_struct phy_dis_work ;
   unsigned long link_status_wait ;
   int rev ;
};
 static void INIT_LIST_HEAD(struct list_head *list ) 
{ 


  {
  list->next = list;
  list->prev = list;
  return;
}
}
extern void lockdep_init_map(struct lockdep_map * , char const   * , struct lock_class_key * ,
                             int  ) ;
extern void __raw_spin_lock_init(raw_spinlock_t * , char const   * , struct lock_class_key * ) ;
 static raw_spinlock_t *spinlock_check(spinlock_t *lock ) 
{ 


  {
  return (& lock->ldv_6124.rlock);
}
}
extern void __ldv_spin_lock(spinlock_t * ) ;
void ldv___ldv_spin_lock_4(spinlock_t *ldv_func_arg1 ) ;
void ldv___ldv_spin_lock_6(spinlock_t *ldv_func_arg1 ) ;
void ldv_spin_lock_node_size_lock_of_pglist_data(void) ;
void ldv_spin_lock_siglock_of_sighand_struct(void) ;
extern int atomic_notifier_call_chain(struct atomic_notifier_head * , unsigned long  ,
                                      void * ) ;
extern void init_timer_key(struct timer_list * , char const   * , struct lock_class_key * ) ;
extern void __init_work(struct work_struct * , int  ) ;
extern int schedule_work(struct work_struct * ) ;
extern int schedule_delayed_work(struct delayed_work * , unsigned long  ) ;
extern bool cancel_work_sync(struct work_struct * ) ;
extern bool cancel_delayed_work_sync(struct delayed_work * ) ;
extern struct module __this_module ;
extern void *dev_get_drvdata(struct device  const  * ) ;
extern int dev_set_drvdata(struct device * , void * ) ;
extern int dev_err(struct device  const  * , char const   *  , ...) ;
extern int _dev_info(struct device  const  * , char const   *  , ...) ;
extern int platform_get_irq_byname(struct platform_device * , char const   * ) ;
extern int platform_driver_register(struct platform_driver * ) ;
extern void platform_driver_unregister(struct platform_driver * ) ;
 static void *platform_get_drvdata(struct platform_device  const  *pdev ) 
{ 
  void *tmp ;

  {
  tmp = dev_get_drvdata(& pdev->dev);
  return (tmp);
}
}
 static void platform_set_drvdata(struct platform_device *pdev , void *data ) 
{ 


  {
  dev_set_drvdata(& pdev->dev, data);
  return;
}
}
extern int otg_set_transceiver(struct usb_phy * ) ;
extern void kfree(void const   * ) ;
extern void *__kmalloc(size_t  , gfp_t  ) ;
 static void *kmalloc(size_t size , gfp_t flags ) 
{ 
  void *tmp___2 ;

  {
  tmp___2 = __kmalloc(size, flags);
  return (tmp___2);
}
}
 static void *kzalloc(size_t size , gfp_t flags ) 
{ 
  void *tmp ;

  {
  tmp = kmalloc(size, flags | 32768U);
  return (tmp);
}
}
extern int request_threaded_irq(unsigned int  , irqreturn_t (*)(int  , void * ) ,
                                irqreturn_t (*)(int  , void * ) , unsigned long  ,
                                char const   * , void * ) ;
extern void free_irq(unsigned int  , void * ) ;
extern void __const_udelay(unsigned long  ) ;
extern void msleep(unsigned int  ) ;
extern int abx500_set_register_interruptible(struct device * , u8  , u8  , u8  ) ;
extern int abx500_get_register_interruptible(struct device * , u8  , u8  , u8 * ) ;
extern int abx500_get_chip_id(struct device * ) ;
 static struct ab8500_usb *xceiv_to_ab(struct usb_phy *x ) 
{ 
  struct usb_phy  const  *__mptr ;

  {
  __mptr = (struct usb_phy  const  *)x;
  return ((struct ab8500_usb *)__mptr);
}
}
static void ab8500_usb_wd_workaround(struct ab8500_usb *ab ) 
{ 


  {
  abx500_set_register_interruptible(ab->dev, 2, 1, 1);
  __const_udelay(429500UL);
  abx500_set_register_interruptible(ab->dev, 2, 1, 3);
  if (ab->rev > 16) {
    __const_udelay(429500UL);
  } else {
    msleep(100U);
  }
  abx500_set_register_interruptible(ab->dev, 2, 1, 0);
  return;
}
}
static void ab8500_usb_phy_ctrl(struct ab8500_usb *ab , bool sel_host , bool enable ) 
{ 
  u8 ctrl_reg ;

  {
  abx500_get_register_interruptible(ab->dev, 5, 138, & ctrl_reg);
  if ((int )sel_host) {
    if ((int )enable) {
      ctrl_reg = (u8 )((unsigned int )ctrl_reg | 1U);
    } else {
      ctrl_reg = (unsigned int )ctrl_reg & 254U;
    }
  } else
  if ((int )enable) {
    ctrl_reg = (u8 )((unsigned int )ctrl_reg | 2U);
  } else {
    ctrl_reg = (unsigned int )ctrl_reg & 253U;
  }
  abx500_set_register_interruptible(ab->dev, 5, 138, (int )ctrl_reg);
  if ((int )enable) {
    ab8500_usb_wd_workaround(ab);
  } else {

  }
  return;
}
}
static int ab8500_usb_link_status_update(struct ab8500_usb *ab ) 
{ 
  u8 reg ;
  enum ab8500_usb_link_status lsts ;
  void *v ;
  enum usb_xceiv_events event ;

  {
  v = 0;
  abx500_get_register_interruptible(ab->dev, 5, 128, & reg);
  lsts = (enum ab8500_usb_link_status )(((int )reg >> 3) & 15);
  switch ((unsigned int )lsts) {
  case 0U: ;
  case 14U: ;
  case 15U: 
  ab8500_usb_phy_ctrl(ab, 1, 0);
  ab8500_usb_phy_ctrl(ab, 0, 0);
  ab->otg.state = OTG_STATE_B_IDLE;
  ab->otg.default_a = 0U;
  ab->vbus_draw = 0U;
  event = USB_EVENT_NONE;
  goto ldv_24357;
  case 1U: ;
  case 2U: ;
  case 3U: ;
  case 4U: ;
  case 5U: ;
  case 6U: ;
  if ((unsigned long )ab->otg.gadget != (unsigned long )((struct usb_gadget *)0)) {
    ab8500_usb_phy_ctrl(ab, 0, 1);
    v = (void *)ab->otg.gadget;
  } else {

  }
  event = USB_EVENT_VBUS;
  goto ldv_24357;
  case 13U: ;
  if ((unsigned long )ab->otg.host != (unsigned long )((struct usb_bus *)0)) {
    ab8500_usb_phy_ctrl(ab, 1, 1);
    v = (void *)ab->otg.host;
  } else {

  }
  ab->otg.state = OTG_STATE_A_IDLE;
  ab->otg.default_a = 1U;
  event = USB_EVENT_ID;
  goto ldv_24357;
  case 8U: ;
  case 9U: ;
  case 10U: ;
  case 11U: ;
  case 12U: ;
  case 7U: 
  event = USB_EVENT_CHARGER;
  goto ldv_24357;
  }
  ldv_24357: 
  atomic_notifier_call_chain(& ab->otg.notifier, (unsigned long )event, v);
  return (0);
}
}
static void ab8500_usb_delayed_work(struct work_struct *work ) 
{ 
  struct ab8500_usb *ab ;
  struct work_struct  const  *__mptr ;

  {
  __mptr = (struct work_struct  const  *)work;
  ab = (struct ab8500_usb *)__mptr + 0xffffffffffffff00UL;
  ab8500_usb_link_status_update(ab);
  return;
}
}
static irqreturn_t ab8500_usb_v1x_common_irq(int irq , void *data ) 
{ 
  struct ab8500_usb *ab ;

  {
  ab = (struct ab8500_usb *)data;
  schedule_delayed_work(& ab->dwork, ab->link_status_wait);
  return (IRQ_HANDLED);
}
}
static irqreturn_t ab8500_usb_v1x_vbus_fall_irq(int irq , void *data ) 
{ 
  struct ab8500_usb *ab ;

  {
  ab = (struct ab8500_usb *)data;
  ab8500_usb_phy_ctrl(ab, 0, 0);
  schedule_delayed_work(& ab->dwork, ab->link_status_wait);
  return (IRQ_HANDLED);
}
}
static irqreturn_t ab8500_usb_v20_irq(int irq , void *data ) 
{ 
  struct ab8500_usb *ab ;

  {
  ab = (struct ab8500_usb *)data;
  ab8500_usb_link_status_update(ab);
  return (IRQ_HANDLED);
}
}
static void ab8500_usb_phy_disable_work(struct work_struct *work ) 
{ 
  struct ab8500_usb *ab ;
  struct work_struct  const  *__mptr ;

  {
  __mptr = (struct work_struct  const  *)work;
  ab = (struct ab8500_usb *)__mptr + 0xfffffffffffffe30UL;
  if ((unsigned long )ab->otg.host == (unsigned long )((struct usb_bus *)0)) {
    ab8500_usb_phy_ctrl(ab, 1, 0);
  } else {

  }
  if ((unsigned long )ab->otg.gadget == (unsigned long )((struct usb_gadget *)0)) {
    ab8500_usb_phy_ctrl(ab, 0, 0);
  } else {

  }
  return;
}
}
static int ab8500_usb_set_power(struct usb_phy *otg , unsigned int mA ) 
{ 
  struct ab8500_usb *ab ;

  {
  if ((unsigned long )otg == (unsigned long )((struct usb_phy *)0)) {
    return (-19);
  } else {

  }
  ab = xceiv_to_ab(otg);
  ab->vbus_draw = mA;
  if (mA != 0U) {
    atomic_notifier_call_chain(& ab->otg.notifier, 4UL, (void *)ab->otg.gadget);
  } else {

  }
  return (0);
}
}
static int ab8500_usb_set_suspend(struct usb_phy *x , int suspend ) 
{ 


  {
  return (0);
}
}
static int ab8500_usb_set_peripheral(struct usb_phy *otg , struct usb_gadget *gadget ) 
{ 
  struct ab8500_usb *ab ;

  {
  if ((unsigned long )otg == (unsigned long )((struct usb_phy *)0)) {
    return (-19);
  } else {

  }
  ab = xceiv_to_ab(otg);
  if ((unsigned long )gadget == (unsigned long )((struct usb_gadget *)0)) {
    ab->otg.gadget = 0;
    schedule_work(& ab->phy_dis_work);
  } else {
    ab->otg.gadget = gadget;
    ab->otg.state = OTG_STATE_B_IDLE;
    schedule_delayed_work(& ab->dwork, ab->link_status_wait);
  }
  return (0);
}
}
static int ab8500_usb_set_host(struct usb_phy *otg , struct usb_bus *host ) 
{ 
  struct ab8500_usb *ab ;

  {
  if ((unsigned long )otg == (unsigned long )((struct usb_phy *)0)) {
    return (-19);
  } else {

  }
  ab = xceiv_to_ab(otg);
  if ((unsigned long )host == (unsigned long )((struct usb_bus *)0)) {
    ab->otg.host = 0;
    schedule_work(& ab->phy_dis_work);
  } else {
    ab->otg.host = host;
    schedule_delayed_work(& ab->dwork, ab->link_status_wait);
  }
  return (0);
}
}
static void ab8500_usb_irq_free(struct ab8500_usb *ab ) 
{ 


  {
  if (ab->rev <= 31) {
    free_irq((unsigned int )ab->irq_num_id_rise, (void *)ab);
    free_irq((unsigned int )ab->irq_num_id_fall, (void *)ab);
    free_irq((unsigned int )ab->irq_num_vbus_rise, (void *)ab);
    free_irq((unsigned int )ab->irq_num_vbus_fall, (void *)ab);
  } else {
    free_irq((unsigned int )ab->irq_num_link_status, (void *)ab);
  }
  return;
}
}
static int ab8500_usb_v1x_res_setup(struct platform_device *pdev , struct ab8500_usb *ab ) 
{ 
  int err ;

  {
  ab->irq_num_id_rise = platform_get_irq_byname(pdev, "ID_WAKEUP_R");
  if (ab->irq_num_id_rise < 0) {
    dev_err((struct device  const  *)(& pdev->dev), "ID rise irq not found\n");
    return (ab->irq_num_id_rise);
  } else {

  }
  err = request_threaded_irq((unsigned int )ab->irq_num_id_rise, 0, & ab8500_usb_v1x_common_irq,
                             16512UL, "usb-id-rise", (void *)ab);
  if (err < 0) {
    dev_err((struct device  const  *)ab->dev, "request_irq failed for ID rise irq\n");
    goto fail0;
  } else {

  }
  ab->irq_num_id_fall = platform_get_irq_byname(pdev, "ID_WAKEUP_F");
  if (ab->irq_num_id_fall < 0) {
    dev_err((struct device  const  *)(& pdev->dev), "ID fall irq not found\n");
    return (ab->irq_num_id_fall);
  } else {

  }
  err = request_threaded_irq((unsigned int )ab->irq_num_id_fall, 0, & ab8500_usb_v1x_common_irq,
                             16512UL, "usb-id-fall", (void *)ab);
  if (err < 0) {
    dev_err((struct device  const  *)ab->dev, "request_irq failed for ID fall irq\n");
    goto fail1;
  } else {

  }
  ab->irq_num_vbus_rise = platform_get_irq_byname(pdev, "VBUS_DET_R");
  if (ab->irq_num_vbus_rise < 0) {
    dev_err((struct device  const  *)(& pdev->dev), "VBUS rise irq not found\n");
    return (ab->irq_num_vbus_rise);
  } else {

  }
  err = request_threaded_irq((unsigned int )ab->irq_num_vbus_rise, 0, & ab8500_usb_v1x_common_irq,
                             16512UL, "usb-vbus-rise", (void *)ab);
  if (err < 0) {
    dev_err((struct device  const  *)ab->dev, "request_irq failed for Vbus rise irq\n");
    goto fail2;
  } else {

  }
  ab->irq_num_vbus_fall = platform_get_irq_byname(pdev, "VBUS_DET_F");
  if (ab->irq_num_vbus_fall < 0) {
    dev_err((struct device  const  *)(& pdev->dev), "VBUS fall irq not found\n");
    return (ab->irq_num_vbus_fall);
  } else {

  }
  err = request_threaded_irq((unsigned int )ab->irq_num_vbus_fall, 0, & ab8500_usb_v1x_vbus_fall_irq,
                             16512UL, "usb-vbus-fall", (void *)ab);
  if (err < 0) {
    dev_err((struct device  const  *)ab->dev, "request_irq failed for Vbus fall irq\n");
    goto fail3;
  } else {

  }
  return (0);
  fail3: 
  free_irq((unsigned int )ab->irq_num_vbus_rise, (void *)ab);
  fail2: 
  free_irq((unsigned int )ab->irq_num_id_fall, (void *)ab);
  fail1: 
  free_irq((unsigned int )ab->irq_num_id_rise, (void *)ab);
  fail0: ;
  return (err);
}
}
static int ab8500_usb_v2_res_setup(struct platform_device *pdev , struct ab8500_usb *ab ) 
{ 
  int err ;

  {
  ab->irq_num_link_status = platform_get_irq_byname(pdev, "USB_LINK_STATUS");
  if (ab->irq_num_link_status < 0) {
    dev_err((struct device  const  *)(& pdev->dev), "Link status irq not found\n");
    return (ab->irq_num_link_status);
  } else {

  }
  err = request_threaded_irq((unsigned int )ab->irq_num_link_status, 0, & ab8500_usb_v20_irq,
                             16512UL, "usb-link-status", (void *)ab);
  if (err < 0) {
    dev_err((struct device  const  *)ab->dev, "request_irq failed for link status irq\n");
    return (err);
  } else {

  }
  return (0);
}
}
static int ab8500_usb_probe(struct platform_device *pdev ) 
{ 
  struct ab8500_usb *ab ;
  int err ;
  int rev ;
  void *tmp ;
  struct lock_class_key __key ;
  struct lock_class_key __key___0 ;
  atomic_long_t __constr_expr_0 ;
  struct lock_class_key __key___1 ;
  struct lock_class_key __key___2 ;
  atomic_long_t __constr_expr_1 ;

  {
  rev = abx500_get_chip_id(& pdev->dev);
  if (rev < 0) {
    dev_err((struct device  const  *)(& pdev->dev), "Chip id read failed\n");
    return (rev);
  } else
  if (rev <= 15) {
    dev_err((struct device  const  *)(& pdev->dev), "Unsupported AB8500 chip\n");
    return (-19);
  } else {

  }
  tmp = kzalloc(560UL, 208U);
  ab = (struct ab8500_usb *)tmp;
  if ((unsigned long )ab == (unsigned long )((struct ab8500_usb *)0)) {
    return (-12);
  } else {

  }
  ab->dev = & pdev->dev;
  ab->rev = rev;
  ab->otg.dev = ab->dev;
  ab->otg.label = "ab8500";
  ab->otg.state = OTG_STATE_UNDEFINED;
  ab->otg.set_host = & ab8500_usb_set_host;
  ab->otg.set_peripheral = & ab8500_usb_set_peripheral;
  ab->otg.set_suspend = & ab8500_usb_set_suspend;
  ab->otg.set_power = & ab8500_usb_set_power;
  platform_set_drvdata(pdev, (void *)ab);
  spinlock_check(& ab->otg.notifier.lock);
  __raw_spin_lock_init(& ab->otg.notifier.lock.ldv_6124.rlock, "&(&(&ab->otg.notifier)->lock)->rlock",
                       & __key);
  ab->otg.notifier.head = 0;
  __init_work(& ab->dwork.work, 0);
  __constr_expr_0.counter = 2097664L;
  ab->dwork.work.data = __constr_expr_0;
  lockdep_init_map(& ab->dwork.work.lockdep_map, "(&(&ab->dwork)->work)", & __key___0,
                   0);
  INIT_LIST_HEAD(& ab->dwork.work.entry);
  ab->dwork.work.func = & ab8500_usb_delayed_work;
  init_timer_key(& ab->dwork.timer, "&(&ab->dwork)->timer", & __key___1);
  __init_work(& ab->phy_dis_work, 0);
  __constr_expr_1.counter = 2097664L;
  ab->phy_dis_work.data = __constr_expr_1;
  lockdep_init_map(& ab->phy_dis_work.lockdep_map, "(&ab->phy_dis_work)", & __key___2,
                   0);
  INIT_LIST_HEAD(& ab->phy_dis_work.entry);
  ab->phy_dis_work.func = & ab8500_usb_phy_disable_work;
  if (ab->rev <= 31) {
    err = ab8500_usb_v1x_res_setup(pdev, ab);
    ab->link_status_wait = 25UL;
  } else {
    err = ab8500_usb_v2_res_setup(pdev, ab);
  }
  if (err < 0) {
    goto fail0;
  } else {

  }
  err = otg_set_transceiver(& ab->otg);
  if (err != 0) {
    dev_err((struct device  const  *)(& pdev->dev), "Can\'t register transceiver\n");
    goto fail1;
  } else {

  }
  _dev_info((struct device  const  *)(& pdev->dev), "AB8500 usb driver initialized\n");
  return (0);
  fail1: 
  ab8500_usb_irq_free(ab);
  fail0: 
  kfree((void const   *)ab);
  return (err);
}
}
static int ab8500_usb_remove(struct platform_device *pdev ) 
{ 
  struct ab8500_usb *ab ;
  void *tmp ;

  {
  tmp = platform_get_drvdata((struct platform_device  const  *)pdev);
  ab = (struct ab8500_usb *)tmp;
  ab8500_usb_irq_free(ab);
  cancel_delayed_work_sync(& ab->dwork);
  cancel_work_sync(& ab->phy_dis_work);
  otg_set_transceiver(0);
  ab8500_usb_phy_ctrl(ab, 1, 0);
  ab8500_usb_phy_ctrl(ab, 0, 0);
  platform_set_drvdata(pdev, 0);
  kfree((void const   *)ab);
  return (0);
}
}
static struct platform_driver ab8500_usb_driver  =    {& ab8500_usb_probe, & ab8500_usb_remove, 0, 0, 0, {"ab8500-usb", 0, & __this_module,
                                                       0, (_Bool)0, 0, 0, 0, 0, 0,
                                                       0, 0, 0, 0}, 0};
static int ab8500_usb_init(void) 
{ 
  int tmp ;

  {
  tmp = platform_driver_register(& ab8500_usb_driver);
  return (tmp);
}
}
static void ab8500_usb_exit(void) 
{ 


  {
  platform_driver_unregister(& ab8500_usb_driver);
  return;
}
}
void ldv_check_final_state(void) ;
extern void ldv_check_return_value(int  ) ;
extern void ldv_check_return_value_probe(int  ) ;
void ldv_initialize(void) ;
extern void ldv_handler_precall(void) ;
extern int nondet_int(void) ;
int LDV_IN_INTERRUPT  ;
int main(void) 
{ 
  struct platform_device *var_group1 ;
  int res_ab8500_usb_probe_16 ;
  int var_ab8500_usb_v1x_common_irq_5_p0 ;
  void *var_ab8500_usb_v1x_common_irq_5_p1 ;
  int var_ab8500_usb_v1x_vbus_fall_irq_6_p0 ;
  void *var_ab8500_usb_v1x_vbus_fall_irq_6_p1 ;
  int var_ab8500_usb_v20_irq_7_p0 ;
  void *var_ab8500_usb_v20_irq_7_p1 ;
  int ldv_s_ab8500_usb_driver_platform_driver ;
  int tmp ;
  int tmp___0 ;
  int tmp___1 ;

  {
  ldv_s_ab8500_usb_driver_platform_driver = 0;
  LDV_IN_INTERRUPT = 1;
  ldv_initialize();
  ldv_handler_precall();
  tmp = ab8500_usb_init();
  if (tmp != 0) {
    goto ldv_final;
  } else {

  }
  goto ldv_24508;
  ldv_24507: 
  tmp___0 = nondet_int();
  switch (tmp___0) {
  case 0: ;
  if (ldv_s_ab8500_usb_driver_platform_driver == 0) {
    res_ab8500_usb_probe_16 = ab8500_usb_probe(var_group1);
    ldv_check_return_value(res_ab8500_usb_probe_16);
    ldv_check_return_value_probe(res_ab8500_usb_probe_16);
    if (res_ab8500_usb_probe_16 != 0) {
      goto ldv_module_exit;
    } else {

    }
    ldv_s_ab8500_usb_driver_platform_driver = ldv_s_ab8500_usb_driver_platform_driver + 1;
  } else {

  }
  goto ldv_24501;
  case 1: ;
  if (ldv_s_ab8500_usb_driver_platform_driver == 1) {
    ldv_handler_precall();
    ab8500_usb_remove(var_group1);
    ldv_s_ab8500_usb_driver_platform_driver = 0;
  } else {

  }
  goto ldv_24501;
  case 2: 
  LDV_IN_INTERRUPT = 2;
  ldv_handler_precall();
  ab8500_usb_v1x_common_irq(var_ab8500_usb_v1x_common_irq_5_p0, var_ab8500_usb_v1x_common_irq_5_p1);
  LDV_IN_INTERRUPT = 1;
  goto ldv_24501;
  case 3: 
  LDV_IN_INTERRUPT = 2;
  ldv_handler_precall();
  ab8500_usb_v1x_vbus_fall_irq(var_ab8500_usb_v1x_vbus_fall_irq_6_p0, var_ab8500_usb_v1x_vbus_fall_irq_6_p1);
  LDV_IN_INTERRUPT = 1;
  goto ldv_24501;
  case 4: 
  LDV_IN_INTERRUPT = 2;
  ldv_handler_precall();
  ab8500_usb_v20_irq(var_ab8500_usb_v20_irq_7_p0, var_ab8500_usb_v20_irq_7_p1);
  LDV_IN_INTERRUPT = 1;
  goto ldv_24501;
  default: ;
  goto ldv_24501;
  }
  ldv_24501: ;
  ldv_24508: 
  tmp___1 = nondet_int();
  if (tmp___1 != 0 || ldv_s_ab8500_usb_driver_platform_driver != 0) {
    goto ldv_24507;
  } else {

  }

  ldv_module_exit: 
  ldv_handler_precall();
  ab8500_usb_exit();
  ldv_final: 
  ldv_check_final_state();
  return 0;
}
}
void ldv___ldv_spin_lock_4(spinlock_t *ldv_func_arg1 ) 
{ 


  {
  ldv_spin_lock_node_size_lock_of_pglist_data();
  __ldv_spin_lock(ldv_func_arg1);
  return;
}
}
void ldv___ldv_spin_lock_6(spinlock_t *ldv_func_arg1 ) 
{ 


  {
  ldv_spin_lock_siglock_of_sighand_struct();
  __ldv_spin_lock(ldv_func_arg1);
  return;
}
}
long ldv__builtin_expect(long exp , long c ) ;
 static void ldv_error(void)  __attribute__((__no_instrument_function__)) ;
 static void ldv_error(void) 
{ 


  {
  LDV_ERROR: {reach_error();abort();}
}
}
extern int ldv_undef_int(void) ;
long ldv__builtin_expect(long exp , long c ) 
{ 


  {
  return (exp);
}
}
static int ldv_spin_alloc_lock_of_task_struct  ;
void ldv_spin_lock_alloc_lock_of_task_struct(void) 
{ 


  {
  if (ldv_spin_alloc_lock_of_task_struct == 1) {

  } else {
    ldv_error();
  }
  ldv_spin_alloc_lock_of_task_struct = 2;
  return;
}
}
void ldv_spin_unlock_alloc_lock_of_task_struct(void) 
{ 


  {
  if (ldv_spin_alloc_lock_of_task_struct == 2) {

  } else {
    ldv_error();
  }
  ldv_spin_alloc_lock_of_task_struct = 1;
  return;
}
}
int ldv_spin_trylock_alloc_lock_of_task_struct(void) 
{ 
  int is_spin_held_by_another_thread ;

  {
  if (ldv_spin_alloc_lock_of_task_struct == 1) {

  } else {
    ldv_error();
  }
  is_spin_held_by_another_thread = ldv_undef_int();
  if (is_spin_held_by_another_thread) {
    return (0);
  } else {
    ldv_spin_alloc_lock_of_task_struct = 2;
    return (1);
  }
}
}
void ldv_spin_unlock_wait_alloc_lock_of_task_struct(void) 
{ 


  {
  if (ldv_spin_alloc_lock_of_task_struct == 1) {

  } else {
    ldv_error();
  }
  return;
}
}
int ldv_spin_is_locked_alloc_lock_of_task_struct(void) 
{ 
  int is_spin_held_by_another_thread ;

  {
  is_spin_held_by_another_thread = ldv_undef_int();
  if (ldv_spin_alloc_lock_of_task_struct == 1 && ! is_spin_held_by_another_thread) {
    return (0);
  } else {
    return (1);
  }
}
}
int ldv_spin_can_lock_alloc_lock_of_task_struct(void) 
{ 
  int tmp ;
  int tmp___0 ;

  {
  tmp = ldv_spin_is_locked_alloc_lock_of_task_struct();
  if (tmp) {
    tmp___0 = 0;
  } else {
    tmp___0 = 1;
  }
  return (tmp___0);
}
}
int ldv_spin_is_contended_alloc_lock_of_task_struct(void) 
{ 
  int is_spin_contended ;

  {
  is_spin_contended = ldv_undef_int();
  if (is_spin_contended) {
    return (0);
  } else {
    return (1);
  }
}
}
int ldv_atomic_dec_and_lock_alloc_lock_of_task_struct(void) 
{ 
  int atomic_value_after_dec ;

  {
  if (ldv_spin_alloc_lock_of_task_struct == 1) {

  } else {
    ldv_error();
  }
  atomic_value_after_dec = ldv_undef_int();
  if (atomic_value_after_dec == 0) {
    ldv_spin_alloc_lock_of_task_struct = 2;
    return (1);
  } else {

  }
  return (0);
}
}
static int ldv_spin_lock_of_NOT_ARG_SIGN  ;
void ldv_spin_lock_lock_of_NOT_ARG_SIGN(void) 
{ 


  {
  if (ldv_spin_lock_of_NOT_ARG_SIGN == 1) {

  } else {
    ldv_error();
  }
  ldv_spin_lock_of_NOT_ARG_SIGN = 2;
  return;
}
}
void ldv_spin_unlock_lock_of_NOT_ARG_SIGN(void) 
{ 


  {
  if (ldv_spin_lock_of_NOT_ARG_SIGN == 2) {

  } else {
    ldv_error();
  }
  ldv_spin_lock_of_NOT_ARG_SIGN = 1;
  return;
}
}
int ldv_spin_trylock_lock_of_NOT_ARG_SIGN(void) 
{ 
  int is_spin_held_by_another_thread ;

  {
  if (ldv_spin_lock_of_NOT_ARG_SIGN == 1) {

  } else {
    ldv_error();
  }
  is_spin_held_by_another_thread = ldv_undef_int();
  if (is_spin_held_by_another_thread) {
    return (0);
  } else {
    ldv_spin_lock_of_NOT_ARG_SIGN = 2;
    return (1);
  }
}
}
void ldv_spin_unlock_wait_lock_of_NOT_ARG_SIGN(void) 
{ 


  {
  if (ldv_spin_lock_of_NOT_ARG_SIGN == 1) {

  } else {
    ldv_error();
  }
  return;
}
}
int ldv_spin_is_locked_lock_of_NOT_ARG_SIGN(void) 
{ 
  int is_spin_held_by_another_thread ;

  {
  is_spin_held_by_another_thread = ldv_undef_int();
  if (ldv_spin_lock_of_NOT_ARG_SIGN == 1 && ! is_spin_held_by_another_thread) {
    return (0);
  } else {
    return (1);
  }
}
}
int ldv_spin_can_lock_lock_of_NOT_ARG_SIGN(void) 
{ 
  int tmp ;
  int tmp___0 ;

  {
  tmp = ldv_spin_is_locked_lock_of_NOT_ARG_SIGN();
  if (tmp) {
    tmp___0 = 0;
  } else {
    tmp___0 = 1;
  }
  return (tmp___0);
}
}
int ldv_spin_is_contended_lock_of_NOT_ARG_SIGN(void) 
{ 
  int is_spin_contended ;

  {
  is_spin_contended = ldv_undef_int();
  if (is_spin_contended) {
    return (0);
  } else {
    return (1);
  }
}
}
int ldv_atomic_dec_and_lock_lock_of_NOT_ARG_SIGN(void) 
{ 
  int atomic_value_after_dec ;

  {
  if (ldv_spin_lock_of_NOT_ARG_SIGN == 1) {

  } else {
    ldv_error();
  }
  atomic_value_after_dec = ldv_undef_int();
  if (atomic_value_after_dec == 0) {
    ldv_spin_lock_of_NOT_ARG_SIGN = 2;
    return (1);
  } else {

  }
  return (0);
}
}
static int ldv_spin_node_size_lock_of_pglist_data  ;
void ldv_spin_lock_node_size_lock_of_pglist_data(void) 
{ 


  {
  if (ldv_spin_node_size_lock_of_pglist_data == 1) {

  } else {
    ldv_error();
  }
  ldv_spin_node_size_lock_of_pglist_data = 2;
  return;
}
}
void ldv_spin_unlock_node_size_lock_of_pglist_data(void) 
{ 


  {
  if (ldv_spin_node_size_lock_of_pglist_data == 2) {

  } else {
    ldv_error();
  }
  ldv_spin_node_size_lock_of_pglist_data = 1;
  return;
}
}
int ldv_spin_trylock_node_size_lock_of_pglist_data(void) 
{ 
  int is_spin_held_by_another_thread ;

  {
  if (ldv_spin_node_size_lock_of_pglist_data == 1) {

  } else {
    ldv_error();
  }
  is_spin_held_by_another_thread = ldv_undef_int();
  if (is_spin_held_by_another_thread) {
    return (0);
  } else {
    ldv_spin_node_size_lock_of_pglist_data = 2;
    return (1);
  }
}
}
void ldv_spin_unlock_wait_node_size_lock_of_pglist_data(void) 
{ 


  {
  if (ldv_spin_node_size_lock_of_pglist_data == 1) {

  } else {
    ldv_error();
  }
  return;
}
}
int ldv_spin_is_locked_node_size_lock_of_pglist_data(void) 
{ 
  int is_spin_held_by_another_thread ;

  {
  is_spin_held_by_another_thread = ldv_undef_int();
  if (ldv_spin_node_size_lock_of_pglist_data == 1 && ! is_spin_held_by_another_thread) {
    return (0);
  } else {
    return (1);
  }
}
}
int ldv_spin_can_lock_node_size_lock_of_pglist_data(void) 
{ 
  int tmp ;
  int tmp___0 ;

  {
  tmp = ldv_spin_is_locked_node_size_lock_of_pglist_data();
  if (tmp) {
    tmp___0 = 0;
  } else {
    tmp___0 = 1;
  }
  return (tmp___0);
}
}
int ldv_spin_is_contended_node_size_lock_of_pglist_data(void) 
{ 
  int is_spin_contended ;

  {
  is_spin_contended = ldv_undef_int();
  if (is_spin_contended) {
    return (0);
  } else {
    return (1);
  }
}
}
int ldv_atomic_dec_and_lock_node_size_lock_of_pglist_data(void) 
{ 
  int atomic_value_after_dec ;

  {
  if (ldv_spin_node_size_lock_of_pglist_data == 1) {

  } else {
    ldv_error();
  }
  atomic_value_after_dec = ldv_undef_int();
  if (atomic_value_after_dec == 0) {
    ldv_spin_node_size_lock_of_pglist_data = 2;
    return (1);
  } else {

  }
  return (0);
}
}
static int ldv_spin_siglock_of_sighand_struct  ;
void ldv_spin_lock_siglock_of_sighand_struct(void) 
{ 


  {
  if (ldv_spin_siglock_of_sighand_struct == 1) {

  } else {
    ldv_error();
  }
  ldv_spin_siglock_of_sighand_struct = 2;
  return;
}
}
void ldv_spin_unlock_siglock_of_sighand_struct(void) 
{ 


  {
  if (ldv_spin_siglock_of_sighand_struct == 2) {

  } else {
    ldv_error();
  }
  ldv_spin_siglock_of_sighand_struct = 1;
  return;
}
}
int ldv_spin_trylock_siglock_of_sighand_struct(void) 
{ 
  int is_spin_held_by_another_thread ;

  {
  if (ldv_spin_siglock_of_sighand_struct == 1) {

  } else {
    ldv_error();
  }
  is_spin_held_by_another_thread = ldv_undef_int();
  if (is_spin_held_by_another_thread) {
    return (0);
  } else {
    ldv_spin_siglock_of_sighand_struct = 2;
    return (1);
  }
}
}
void ldv_spin_unlock_wait_siglock_of_sighand_struct(void) 
{ 


  {
  if (ldv_spin_siglock_of_sighand_struct == 1) {

  } else {
    ldv_error();
  }
  return;
}
}
int ldv_spin_is_locked_siglock_of_sighand_struct(void) 
{ 
  int is_spin_held_by_another_thread ;

  {
  is_spin_held_by_another_thread = ldv_undef_int();
  if (ldv_spin_siglock_of_sighand_struct == 1 && ! is_spin_held_by_another_thread) {
    return (0);
  } else {
    return (1);
  }
}
}
int ldv_spin_can_lock_siglock_of_sighand_struct(void) 
{ 
  int tmp ;
  int tmp___0 ;

  {
  tmp = ldv_spin_is_locked_siglock_of_sighand_struct();
  if (tmp) {
    tmp___0 = 0;
  } else {
    tmp___0 = 1;
  }
  return (tmp___0);
}
}
int ldv_spin_is_contended_siglock_of_sighand_struct(void) 
{ 
  int is_spin_contended ;

  {
  is_spin_contended = ldv_undef_int();
  if (is_spin_contended) {
    return (0);
  } else {
    return (1);
  }
}
}
int ldv_atomic_dec_and_lock_siglock_of_sighand_struct(void) 
{ 
  int atomic_value_after_dec ;

  {
  if (ldv_spin_siglock_of_sighand_struct == 1) {

  } else {
    ldv_error();
  }
  atomic_value_after_dec = ldv_undef_int();
  if (atomic_value_after_dec == 0) {
    ldv_spin_siglock_of_sighand_struct = 2;
    return (1);
  } else {

  }
  return (0);
}
}
void ldv_initialize(void) 
{ 


  {
  ldv_spin_alloc_lock_of_task_struct = 1;
  ldv_spin_lock_of_NOT_ARG_SIGN = 1;
  ldv_spin_node_size_lock_of_pglist_data = 1;
  ldv_spin_siglock_of_sighand_struct = 1;
  return;
}
}
void ldv_check_final_state(void) 
{ 


  {
  if (ldv_spin_alloc_lock_of_task_struct == 1) {

  } else {
    ldv_error();
  }
  if (ldv_spin_lock_of_NOT_ARG_SIGN == 1) {

  } else {
    ldv_error();
  }
  if (ldv_spin_node_size_lock_of_pglist_data == 1) {

  } else {
    ldv_error();
  }
  if (ldv_spin_siglock_of_sighand_struct == 1) {

  } else {
    ldv_error();
  }
  return;
}
}
