extern void abort(void);
extern void __assert_fail(const char *, const char *, unsigned int, const char *) __attribute__ ((__nothrow__ , __leaf__)) __attribute__ ((__noreturn__));
void reach_error() { __assert_fail("0", "drivers--regulator--gpio-regulator.ko_007.7d4be2f.32_7a.cil_true-unreach-call.i", 3, "reach_error"); }

/* Generated by CIL v. 1.5.1 */
/* print_CIL_Input is false */

typedef unsigned char __u8;
typedef unsigned short __u16;
typedef int __s32;
typedef unsigned int __u32;
typedef unsigned long long __u64;
typedef unsigned char u8;
typedef short s16;
typedef unsigned short u16;
typedef unsigned int u32;
typedef long long s64;
typedef unsigned long long u64;
typedef long __kernel_long_t;
typedef unsigned long __kernel_ulong_t;
typedef int __kernel_pid_t;
typedef unsigned int __kernel_uid32_t;
typedef unsigned int __kernel_gid32_t;
typedef __kernel_ulong_t __kernel_size_t;
typedef __kernel_long_t __kernel_ssize_t;
typedef long long __kernel_loff_t;
typedef __kernel_long_t __kernel_time_t;
typedef __kernel_long_t __kernel_clock_t;
typedef int __kernel_timer_t;
typedef int __kernel_clockid_t;
typedef __u32 __kernel_dev_t;
typedef __kernel_dev_t dev_t;
typedef unsigned short umode_t;
typedef __kernel_pid_t pid_t;
typedef __kernel_clockid_t clockid_t;
typedef _Bool bool;
typedef __kernel_uid32_t uid_t;
typedef __kernel_gid32_t gid_t;
typedef __kernel_loff_t loff_t;
typedef __kernel_size_t size_t;
typedef __kernel_ssize_t ssize_t;
typedef __kernel_time_t time_t;
typedef __s32 int32_t;
typedef __u32 uint32_t;
typedef unsigned int gfp_t;
typedef u64 phys_addr_t;
typedef phys_addr_t resource_size_t;
struct __anonstruct_atomic_t_6 {
   int counter ;
};
typedef struct __anonstruct_atomic_t_6 atomic_t;
struct __anonstruct_atomic64_t_7 {
   long counter ;
};
typedef struct __anonstruct_atomic64_t_7 atomic64_t;
struct list_head {
   struct list_head *next ;
   struct list_head *prev ;
};
struct hlist_node;
struct hlist_head {
   struct hlist_node *first ;
};
struct hlist_node {
   struct hlist_node *next ;
   struct hlist_node **pprev ;
};
struct rcu_head {
   struct rcu_head *next ;
   void (*func)(struct rcu_head * ) ;
};
struct module;
typedef void (*ctor_fn_t)(void);
struct device;
struct completion;
struct pt_regs;
struct pid;
typedef u16 __ticket_t;
typedef u32 __ticketpair_t;
struct __raw_tickets {
   __ticket_t head ;
   __ticket_t tail ;
};
union __anonunion_ldv_2008_8 {
   __ticketpair_t head_tail ;
   struct __raw_tickets tickets ;
};
struct arch_spinlock {
   union __anonunion_ldv_2008_8 ldv_2008 ;
};
typedef struct arch_spinlock arch_spinlock_t;
struct task_struct;
struct lockdep_map;
struct mm_struct;
struct pt_regs {
   unsigned long r15 ;
   unsigned long r14 ;
   unsigned long r13 ;
   unsigned long r12 ;
   unsigned long bp ;
   unsigned long bx ;
   unsigned long r11 ;
   unsigned long r10 ;
   unsigned long r9 ;
   unsigned long r8 ;
   unsigned long ax ;
   unsigned long cx ;
   unsigned long dx ;
   unsigned long si ;
   unsigned long di ;
   unsigned long orig_ax ;
   unsigned long ip ;
   unsigned long cs ;
   unsigned long flags ;
   unsigned long sp ;
   unsigned long ss ;
};
struct __anonstruct_ldv_2132_12 {
   unsigned int a ;
   unsigned int b ;
};
struct __anonstruct_ldv_2147_13 {
   u16 limit0 ;
   u16 base0 ;
   unsigned char base1 ;
   unsigned char type : 4 ;
   unsigned char s : 1 ;
   unsigned char dpl : 2 ;
   unsigned char p : 1 ;
   unsigned char limit : 4 ;
   unsigned char avl : 1 ;
   unsigned char l : 1 ;
   unsigned char d : 1 ;
   unsigned char g : 1 ;
   unsigned char base2 ;
};
union __anonunion_ldv_2148_11 {
   struct __anonstruct_ldv_2132_12 ldv_2132 ;
   struct __anonstruct_ldv_2147_13 ldv_2147 ;
};
struct desc_struct {
   union __anonunion_ldv_2148_11 ldv_2148 ;
};
typedef unsigned long pgdval_t;
typedef unsigned long pgprotval_t;
struct pgprot {
   pgprotval_t pgprot ;
};
typedef struct pgprot pgprot_t;
struct __anonstruct_pgd_t_15 {
   pgdval_t pgd ;
};
typedef struct __anonstruct_pgd_t_15 pgd_t;
struct page;
typedef struct page *pgtable_t;
struct file;
struct thread_struct;
struct cpumask;
struct kernel_vm86_regs {
   struct pt_regs pt ;
   unsigned short es ;
   unsigned short __esh ;
   unsigned short ds ;
   unsigned short __dsh ;
   unsigned short fs ;
   unsigned short __fsh ;
   unsigned short gs ;
   unsigned short __gsh ;
};
union __anonunion_ldv_2776_18 {
   struct pt_regs *regs ;
   struct kernel_vm86_regs *vm86 ;
};
struct math_emu_info {
   long ___orig_eip ;
   union __anonunion_ldv_2776_18 ldv_2776 ;
};
struct bug_entry {
   int bug_addr_disp ;
   int file_disp ;
   unsigned short line ;
   unsigned short flags ;
};
struct cpumask {
   unsigned long bits[64U] ;
};
typedef struct cpumask cpumask_t;
typedef struct cpumask *cpumask_var_t;
struct static_key;
struct i387_fsave_struct {
   u32 cwd ;
   u32 swd ;
   u32 twd ;
   u32 fip ;
   u32 fcs ;
   u32 foo ;
   u32 fos ;
   u32 st_space[20U] ;
   u32 status ;
};
struct __anonstruct_ldv_5150_23 {
   u64 rip ;
   u64 rdp ;
};
struct __anonstruct_ldv_5156_24 {
   u32 fip ;
   u32 fcs ;
   u32 foo ;
   u32 fos ;
};
union __anonunion_ldv_5157_22 {
   struct __anonstruct_ldv_5150_23 ldv_5150 ;
   struct __anonstruct_ldv_5156_24 ldv_5156 ;
};
union __anonunion_ldv_5166_25 {
   u32 padding1[12U] ;
   u32 sw_reserved[12U] ;
};
struct i387_fxsave_struct {
   u16 cwd ;
   u16 swd ;
   u16 twd ;
   u16 fop ;
   union __anonunion_ldv_5157_22 ldv_5157 ;
   u32 mxcsr ;
   u32 mxcsr_mask ;
   u32 st_space[32U] ;
   u32 xmm_space[64U] ;
   u32 padding[12U] ;
   union __anonunion_ldv_5166_25 ldv_5166 ;
};
struct i387_soft_struct {
   u32 cwd ;
   u32 swd ;
   u32 twd ;
   u32 fip ;
   u32 fcs ;
   u32 foo ;
   u32 fos ;
   u32 st_space[20U] ;
   u8 ftop ;
   u8 changed ;
   u8 lookahead ;
   u8 no_update ;
   u8 rm ;
   u8 alimit ;
   struct math_emu_info *info ;
   u32 entry_eip ;
};
struct ymmh_struct {
   u32 ymmh_space[64U] ;
};
struct xsave_hdr_struct {
   u64 xstate_bv ;
   u64 reserved1[2U] ;
   u64 reserved2[5U] ;
};
struct xsave_struct {
   struct i387_fxsave_struct i387 ;
   struct xsave_hdr_struct xsave_hdr ;
   struct ymmh_struct ymmh ;
};
union thread_xstate {
   struct i387_fsave_struct fsave ;
   struct i387_fxsave_struct fxsave ;
   struct i387_soft_struct soft ;
   struct xsave_struct xsave ;
};
struct fpu {
   unsigned int last_cpu ;
   unsigned int has_fpu ;
   union thread_xstate *state ;
};
struct kmem_cache;
struct perf_event;
struct thread_struct {
   struct desc_struct tls_array[3U] ;
   unsigned long sp0 ;
   unsigned long sp ;
   unsigned long usersp ;
   unsigned short es ;
   unsigned short ds ;
   unsigned short fsindex ;
   unsigned short gsindex ;
   unsigned long fs ;
   unsigned long gs ;
   struct perf_event *ptrace_bps[4U] ;
   unsigned long debugreg6 ;
   unsigned long ptrace_dr7 ;
   unsigned long cr2 ;
   unsigned long trap_nr ;
   unsigned long error_code ;
   struct fpu fpu ;
   unsigned long *io_bitmap_ptr ;
   unsigned long iopl ;
   unsigned int io_bitmap_max ;
};
typedef atomic64_t atomic_long_t;
struct stack_trace {
   unsigned int nr_entries ;
   unsigned int max_entries ;
   unsigned long *entries ;
   int skip ;
};
struct lockdep_subclass_key {
   char __one_byte ;
} __attribute__((__packed__)) ;
struct lock_class_key {
   struct lockdep_subclass_key subkeys[8U] ;
};
struct lock_class {
   struct list_head hash_entry ;
   struct list_head lock_entry ;
   struct lockdep_subclass_key *key ;
   unsigned int subclass ;
   unsigned int dep_gen_id ;
   unsigned long usage_mask ;
   struct stack_trace usage_traces[13U] ;
   struct list_head locks_after ;
   struct list_head locks_before ;
   unsigned int version ;
   unsigned long ops ;
   char const   *name ;
   int name_version ;
   unsigned long contention_point[4U] ;
   unsigned long contending_point[4U] ;
};
struct lockdep_map {
   struct lock_class_key *key ;
   struct lock_class *class_cache[2U] ;
   char const   *name ;
   int cpu ;
   unsigned long ip ;
};
struct held_lock {
   u64 prev_chain_key ;
   unsigned long acquire_ip ;
   struct lockdep_map *instance ;
   struct lockdep_map *nest_lock ;
   u64 waittime_stamp ;
   u64 holdtime_stamp ;
   unsigned short class_idx : 13 ;
   unsigned char irq_context : 2 ;
   unsigned char trylock : 1 ;
   unsigned char read : 2 ;
   unsigned char check : 2 ;
   unsigned char hardirqs_off : 1 ;
   unsigned short references : 11 ;
};
struct raw_spinlock {
   arch_spinlock_t raw_lock ;
   unsigned int magic ;
   unsigned int owner_cpu ;
   void *owner ;
   struct lockdep_map dep_map ;
};
typedef struct raw_spinlock raw_spinlock_t;
struct __anonstruct_ldv_5988_29 {
   u8 __padding[24U] ;
   struct lockdep_map dep_map ;
};
union __anonunion_ldv_5989_28 {
   struct raw_spinlock rlock ;
   struct __anonstruct_ldv_5988_29 ldv_5988 ;
};
struct spinlock {
   union __anonunion_ldv_5989_28 ldv_5989 ;
};
typedef struct spinlock spinlock_t;
struct mutex {
   atomic_t count ;
   spinlock_t wait_lock ;
   struct list_head wait_list ;
   struct task_struct *owner ;
   char const   *name ;
   void *magic ;
   struct lockdep_map dep_map ;
};
struct mutex_waiter {
   struct list_head list ;
   struct task_struct *task ;
   void *magic ;
};
struct timespec;
struct seqcount {
   unsigned int sequence ;
};
typedef struct seqcount seqcount_t;
struct timespec {
   __kernel_time_t tv_sec ;
   long tv_nsec ;
};
struct user_namespace;
typedef uid_t kuid_t;
typedef gid_t kgid_t;
struct __wait_queue_head {
   spinlock_t lock ;
   struct list_head task_list ;
};
typedef struct __wait_queue_head wait_queue_head_t;
struct __anonstruct_nodemask_t_36 {
   unsigned long bits[16U] ;
};
typedef struct __anonstruct_nodemask_t_36 nodemask_t;
struct rw_semaphore;
struct rw_semaphore {
   long count ;
   raw_spinlock_t wait_lock ;
   struct list_head wait_list ;
   struct lockdep_map dep_map ;
};
struct completion {
   unsigned int done ;
   wait_queue_head_t wait ;
};
struct notifier_block;
union ktime {
   s64 tv64 ;
};
typedef union ktime ktime_t;
struct tvec_base;
struct timer_list {
   struct list_head entry ;
   unsigned long expires ;
   struct tvec_base *base ;
   void (*function)(unsigned long  ) ;
   unsigned long data ;
   int slack ;
   int start_pid ;
   void *start_site ;
   char start_comm[16U] ;
   struct lockdep_map lockdep_map ;
};
struct hrtimer;
enum hrtimer_restart;
struct work_struct;
struct work_struct {
   atomic_long_t data ;
   struct list_head entry ;
   void (*func)(struct work_struct * ) ;
   struct lockdep_map lockdep_map ;
};
struct delayed_work {
   struct work_struct work ;
   struct timer_list timer ;
};
struct notifier_block {
   int (*notifier_call)(struct notifier_block * , unsigned long  , void * ) ;
   struct notifier_block *next ;
   int priority ;
};
struct blocking_notifier_head {
   struct rw_semaphore rwsem ;
   struct notifier_block *head ;
};
struct resource {
   resource_size_t start ;
   resource_size_t end ;
   char const   *name ;
   unsigned long flags ;
   struct resource *parent ;
   struct resource *sibling ;
   struct resource *child ;
};
struct pm_message {
   int event ;
};
typedef struct pm_message pm_message_t;
struct dev_pm_ops {
   int (*prepare)(struct device * ) ;
   void (*complete)(struct device * ) ;
   int (*suspend)(struct device * ) ;
   int (*resume)(struct device * ) ;
   int (*freeze)(struct device * ) ;
   int (*thaw)(struct device * ) ;
   int (*poweroff)(struct device * ) ;
   int (*restore)(struct device * ) ;
   int (*suspend_late)(struct device * ) ;
   int (*resume_early)(struct device * ) ;
   int (*freeze_late)(struct device * ) ;
   int (*thaw_early)(struct device * ) ;
   int (*poweroff_late)(struct device * ) ;
   int (*restore_early)(struct device * ) ;
   int (*suspend_noirq)(struct device * ) ;
   int (*resume_noirq)(struct device * ) ;
   int (*freeze_noirq)(struct device * ) ;
   int (*thaw_noirq)(struct device * ) ;
   int (*poweroff_noirq)(struct device * ) ;
   int (*restore_noirq)(struct device * ) ;
   int (*runtime_suspend)(struct device * ) ;
   int (*runtime_resume)(struct device * ) ;
   int (*runtime_idle)(struct device * ) ;
};
enum rpm_status {
    RPM_ACTIVE = 0,
    RPM_RESUMING = 1,
    RPM_SUSPENDED = 2,
    RPM_SUSPENDING = 3
} ;
enum rpm_request {
    RPM_REQ_NONE = 0,
    RPM_REQ_IDLE = 1,
    RPM_REQ_SUSPEND = 2,
    RPM_REQ_AUTOSUSPEND = 3,
    RPM_REQ_RESUME = 4
} ;
struct wakeup_source;
struct pm_subsys_data {
   spinlock_t lock ;
   unsigned int refcount ;
};
struct dev_pm_qos_request;
struct pm_qos_constraints;
struct dev_pm_info {
   pm_message_t power_state ;
   unsigned char can_wakeup : 1 ;
   unsigned char async_suspend : 1 ;
   bool is_prepared ;
   bool is_suspended ;
   bool ignore_children ;
   spinlock_t lock ;
   struct list_head entry ;
   struct completion completion ;
   struct wakeup_source *wakeup ;
   bool wakeup_path ;
   struct timer_list suspend_timer ;
   unsigned long timer_expires ;
   struct work_struct work ;
   wait_queue_head_t wait_queue ;
   atomic_t usage_count ;
   atomic_t child_count ;
   unsigned char disable_depth : 3 ;
   unsigned char idle_notification : 1 ;
   unsigned char request_pending : 1 ;
   unsigned char deferred_resume : 1 ;
   unsigned char run_wake : 1 ;
   unsigned char runtime_auto : 1 ;
   unsigned char no_callbacks : 1 ;
   unsigned char irq_safe : 1 ;
   unsigned char use_autosuspend : 1 ;
   unsigned char timer_autosuspends : 1 ;
   enum rpm_request request ;
   enum rpm_status runtime_status ;
   int runtime_error ;
   int autosuspend_delay ;
   unsigned long last_busy ;
   unsigned long active_jiffies ;
   unsigned long suspended_jiffies ;
   unsigned long accounting_timestamp ;
   struct dev_pm_qos_request *pq_req ;
   struct pm_subsys_data *subsys_data ;
   struct pm_qos_constraints *constraints ;
};
struct dev_pm_domain {
   struct dev_pm_ops ops ;
};
struct __anonstruct_mm_context_t_101 {
   void *ldt ;
   int size ;
   unsigned short ia32_compat ;
   struct mutex lock ;
   void *vdso ;
};
typedef struct __anonstruct_mm_context_t_101 mm_context_t;
struct vm_area_struct;
struct rb_node {
   unsigned long rb_parent_color ;
   struct rb_node *rb_right ;
   struct rb_node *rb_left ;
};
struct rb_root {
   struct rb_node *rb_node ;
};
struct nsproxy;
struct cred;
typedef __u64 Elf64_Addr;
typedef __u16 Elf64_Half;
typedef __u32 Elf64_Word;
typedef __u64 Elf64_Xword;
struct elf64_sym {
   Elf64_Word st_name ;
   unsigned char st_info ;
   unsigned char st_other ;
   Elf64_Half st_shndx ;
   Elf64_Addr st_value ;
   Elf64_Xword st_size ;
};
typedef struct elf64_sym Elf64_Sym;
struct sock;
struct kobject;
enum kobj_ns_type {
    KOBJ_NS_TYPE_NONE = 0,
    KOBJ_NS_TYPE_NET = 1,
    KOBJ_NS_TYPES = 2
} ;
struct kobj_ns_type_operations {
   enum kobj_ns_type type ;
   void *(*grab_current_ns)(void) ;
   void const   *(*netlink_ns)(struct sock * ) ;
   void const   *(*initial_ns)(void) ;
   void (*drop_ns)(void * ) ;
};
struct attribute {
   char const   *name ;
   umode_t mode ;
   bool ignore_lockdep ;
   struct lock_class_key *key ;
   struct lock_class_key skey ;
};
struct attribute_group {
   char const   *name ;
   umode_t (*is_visible)(struct kobject * , struct attribute * , int  ) ;
   struct attribute **attrs ;
};
struct bin_attribute {
   struct attribute attr ;
   size_t size ;
   void *private ;
   ssize_t (*read)(struct file * , struct kobject * , struct bin_attribute * , char * ,
                   loff_t  , size_t  ) ;
   ssize_t (*write)(struct file * , struct kobject * , struct bin_attribute * , char * ,
                    loff_t  , size_t  ) ;
   int (*mmap)(struct file * , struct kobject * , struct bin_attribute * , struct vm_area_struct * ) ;
};
struct sysfs_ops {
   ssize_t (*show)(struct kobject * , struct attribute * , char * ) ;
   ssize_t (*store)(struct kobject * , struct attribute * , char const   * , size_t  ) ;
   void const   *(*namespace)(struct kobject * , struct attribute  const  * ) ;
};
struct sysfs_dirent;
struct kref {
   atomic_t refcount ;
};
struct kset;
struct kobj_type;
struct kobject {
   char const   *name ;
   struct list_head entry ;
   struct kobject *parent ;
   struct kset *kset ;
   struct kobj_type *ktype ;
   struct sysfs_dirent *sd ;
   struct kref kref ;
   unsigned char state_initialized : 1 ;
   unsigned char state_in_sysfs : 1 ;
   unsigned char state_add_uevent_sent : 1 ;
   unsigned char state_remove_uevent_sent : 1 ;
   unsigned char uevent_suppress : 1 ;
};
struct kobj_type {
   void (*release)(struct kobject * ) ;
   struct sysfs_ops  const  *sysfs_ops ;
   struct attribute **default_attrs ;
   struct kobj_ns_type_operations  const  *(*child_ns_type)(struct kobject * ) ;
   void const   *(*namespace)(struct kobject * ) ;
};
struct kobj_uevent_env {
   char *envp[32U] ;
   int envp_idx ;
   char buf[2048U] ;
   int buflen ;
};
struct kset_uevent_ops {
   int (* const  filter)(struct kset * , struct kobject * ) ;
   char const   *(* const  name)(struct kset * , struct kobject * ) ;
   int (* const  uevent)(struct kset * , struct kobject * , struct kobj_uevent_env * ) ;
};
struct kset {
   struct list_head list ;
   spinlock_t list_lock ;
   struct kobject kobj ;
   struct kset_uevent_ops  const  *uevent_ops ;
};
struct kernel_param;
struct kernel_param_ops {
   int (*set)(char const   * , struct kernel_param  const  * ) ;
   int (*get)(char * , struct kernel_param  const  * ) ;
   void (*free)(void * ) ;
};
struct kparam_string;
struct kparam_array;
union __anonunion_ldv_13612_134 {
   void *arg ;
   struct kparam_string  const  *str ;
   struct kparam_array  const  *arr ;
};
struct kernel_param {
   char const   *name ;
   struct kernel_param_ops  const  *ops ;
   u16 perm ;
   s16 level ;
   union __anonunion_ldv_13612_134 ldv_13612 ;
};
struct kparam_string {
   unsigned int maxlen ;
   char *string ;
};
struct kparam_array {
   unsigned int max ;
   unsigned int elemsize ;
   unsigned int *num ;
   struct kernel_param_ops  const  *ops ;
   void *elem ;
};
struct static_key {
   atomic_t enabled ;
};
struct tracepoint;
struct tracepoint_func {
   void *func ;
   void *data ;
};
struct tracepoint {
   char const   *name ;
   struct static_key key ;
   void (*regfunc)(void) ;
   void (*unregfunc)(void) ;
   struct tracepoint_func *funcs ;
};
struct kernel_symbol {
   unsigned long value ;
   char const   *name ;
};
struct mod_arch_specific {

};
struct module_param_attrs;
struct module_kobject {
   struct kobject kobj ;
   struct module *mod ;
   struct kobject *drivers_dir ;
   struct module_param_attrs *mp ;
};
struct module_attribute {
   struct attribute attr ;
   ssize_t (*show)(struct module_attribute * , struct module_kobject * , char * ) ;
   ssize_t (*store)(struct module_attribute * , struct module_kobject * , char const   * ,
                    size_t  ) ;
   void (*setup)(struct module * , char const   * ) ;
   int (*test)(struct module * ) ;
   void (*free)(struct module * ) ;
};
struct exception_table_entry;
enum module_state {
    MODULE_STATE_LIVE = 0,
    MODULE_STATE_COMING = 1,
    MODULE_STATE_GOING = 2
} ;
struct module_ref {
   unsigned long incs ;
   unsigned long decs ;
};
struct module_sect_attrs;
struct module_notes_attrs;
struct ftrace_event_call;
struct module {
   enum module_state state ;
   struct list_head list ;
   char name[56U] ;
   struct module_kobject mkobj ;
   struct module_attribute *modinfo_attrs ;
   char const   *version ;
   char const   *srcversion ;
   struct kobject *holders_dir ;
   struct kernel_symbol  const  *syms ;
   unsigned long const   *crcs ;
   unsigned int num_syms ;
   struct kernel_param *kp ;
   unsigned int num_kp ;
   unsigned int num_gpl_syms ;
   struct kernel_symbol  const  *gpl_syms ;
   unsigned long const   *gpl_crcs ;
   struct kernel_symbol  const  *unused_syms ;
   unsigned long const   *unused_crcs ;
   unsigned int num_unused_syms ;
   unsigned int num_unused_gpl_syms ;
   struct kernel_symbol  const  *unused_gpl_syms ;
   unsigned long const   *unused_gpl_crcs ;
   struct kernel_symbol  const  *gpl_future_syms ;
   unsigned long const   *gpl_future_crcs ;
   unsigned int num_gpl_future_syms ;
   unsigned int num_exentries ;
   struct exception_table_entry *extable ;
   int (*init)(void) ;
   void *module_init ;
   void *module_core ;
   unsigned int init_size ;
   unsigned int core_size ;
   unsigned int init_text_size ;
   unsigned int core_text_size ;
   unsigned int init_ro_size ;
   unsigned int core_ro_size ;
   struct mod_arch_specific arch ;
   unsigned int taints ;
   unsigned int num_bugs ;
   struct list_head bug_list ;
   struct bug_entry *bug_table ;
   Elf64_Sym *symtab ;
   Elf64_Sym *core_symtab ;
   unsigned int num_symtab ;
   unsigned int core_num_syms ;
   char *strtab ;
   char *core_strtab ;
   struct module_sect_attrs *sect_attrs ;
   struct module_notes_attrs *notes_attrs ;
   char *args ;
   void *percpu ;
   unsigned int percpu_size ;
   unsigned int num_tracepoints ;
   struct tracepoint * const  *tracepoints_ptrs ;
   unsigned int num_trace_bprintk_fmt ;
   char const   **trace_bprintk_fmt_start ;
   struct ftrace_event_call **trace_events ;
   unsigned int num_trace_events ;
   struct list_head source_list ;
   struct list_head target_list ;
   struct task_struct *waiter ;
   void (*exit)(void) ;
   struct module_ref *refptr ;
   ctor_fn_t (**ctors)(void) ;
   unsigned int num_ctors ;
};
struct klist_node;
struct klist_node {
   void *n_klist ;
   struct list_head n_node ;
   struct kref n_ref ;
};
struct dma_map_ops;
struct dev_archdata {
   void *acpi_handle ;
   struct dma_map_ops *dma_ops ;
   void *iommu ;
};
struct pdev_archdata {

};
struct device_private;
struct device_driver;
struct driver_private;
struct class;
struct subsys_private;
struct bus_type;
struct device_node;
struct iommu_ops;
struct bus_attribute {
   struct attribute attr ;
   ssize_t (*show)(struct bus_type * , char * ) ;
   ssize_t (*store)(struct bus_type * , char const   * , size_t  ) ;
};
struct device_attribute;
struct driver_attribute;
struct bus_type {
   char const   *name ;
   char const   *dev_name ;
   struct device *dev_root ;
   struct bus_attribute *bus_attrs ;
   struct device_attribute *dev_attrs ;
   struct driver_attribute *drv_attrs ;
   int (*match)(struct device * , struct device_driver * ) ;
   int (*uevent)(struct device * , struct kobj_uevent_env * ) ;
   int (*probe)(struct device * ) ;
   int (*remove)(struct device * ) ;
   void (*shutdown)(struct device * ) ;
   int (*suspend)(struct device * , pm_message_t  ) ;
   int (*resume)(struct device * ) ;
   struct dev_pm_ops  const  *pm ;
   struct iommu_ops *iommu_ops ;
   struct subsys_private *p ;
};
struct device_type;
struct of_device_id;
struct device_driver {
   char const   *name ;
   struct bus_type *bus ;
   struct module *owner ;
   char const   *mod_name ;
   bool suppress_bind_attrs ;
   struct of_device_id  const  *of_match_table ;
   int (*probe)(struct device * ) ;
   int (*remove)(struct device * ) ;
   void (*shutdown)(struct device * ) ;
   int (*suspend)(struct device * , pm_message_t  ) ;
   int (*resume)(struct device * ) ;
   struct attribute_group  const  **groups ;
   struct dev_pm_ops  const  *pm ;
   struct driver_private *p ;
};
struct driver_attribute {
   struct attribute attr ;
   ssize_t (*show)(struct device_driver * , char * ) ;
   ssize_t (*store)(struct device_driver * , char const   * , size_t  ) ;
};
struct class_attribute;
struct class {
   char const   *name ;
   struct module *owner ;
   struct class_attribute *class_attrs ;
   struct device_attribute *dev_attrs ;
   struct bin_attribute *dev_bin_attrs ;
   struct kobject *dev_kobj ;
   int (*dev_uevent)(struct device * , struct kobj_uevent_env * ) ;
   char *(*devnode)(struct device * , umode_t * ) ;
   void (*class_release)(struct class * ) ;
   void (*dev_release)(struct device * ) ;
   int (*suspend)(struct device * , pm_message_t  ) ;
   int (*resume)(struct device * ) ;
   struct kobj_ns_type_operations  const  *ns_type ;
   void const   *(*namespace)(struct device * ) ;
   struct dev_pm_ops  const  *pm ;
   struct subsys_private *p ;
};
struct class_attribute {
   struct attribute attr ;
   ssize_t (*show)(struct class * , struct class_attribute * , char * ) ;
   ssize_t (*store)(struct class * , struct class_attribute * , char const   * , size_t  ) ;
   void const   *(*namespace)(struct class * , struct class_attribute  const  * ) ;
};
struct device_type {
   char const   *name ;
   struct attribute_group  const  **groups ;
   int (*uevent)(struct device * , struct kobj_uevent_env * ) ;
   char *(*devnode)(struct device * , umode_t * ) ;
   void (*release)(struct device * ) ;
   struct dev_pm_ops  const  *pm ;
};
struct device_attribute {
   struct attribute attr ;
   ssize_t (*show)(struct device * , struct device_attribute * , char * ) ;
   ssize_t (*store)(struct device * , struct device_attribute * , char const   * ,
                    size_t  ) ;
};
struct device_dma_parameters {
   unsigned int max_segment_size ;
   unsigned long segment_boundary_mask ;
};
struct dma_coherent_mem;
struct device {
   struct device *parent ;
   struct device_private *p ;
   struct kobject kobj ;
   char const   *init_name ;
   struct device_type  const  *type ;
   struct mutex mutex ;
   struct bus_type *bus ;
   struct device_driver *driver ;
   void *platform_data ;
   struct dev_pm_info power ;
   struct dev_pm_domain *pm_domain ;
   int numa_node ;
   u64 *dma_mask ;
   u64 coherent_dma_mask ;
   struct device_dma_parameters *dma_parms ;
   struct list_head dma_pools ;
   struct dma_coherent_mem *dma_mem ;
   struct dev_archdata archdata ;
   struct device_node *of_node ;
   dev_t devt ;
   u32 id ;
   spinlock_t devres_lock ;
   struct list_head devres_head ;
   struct klist_node knode_class ;
   struct class *class ;
   struct attribute_group  const  **groups ;
   void (*release)(struct device * ) ;
};
struct wakeup_source {
   char const   *name ;
   struct list_head entry ;
   spinlock_t lock ;
   struct timer_list timer ;
   unsigned long timer_expires ;
   ktime_t total_time ;
   ktime_t max_time ;
   ktime_t last_time ;
   ktime_t start_prevent_time ;
   ktime_t prevent_sleep_time ;
   unsigned long event_count ;
   unsigned long active_count ;
   unsigned long relax_count ;
   unsigned long expire_count ;
   unsigned long wakeup_count ;
   bool active ;
   bool autosleep_enabled ;
};
typedef unsigned long kernel_ulong_t;
struct of_device_id {
   char name[32U] ;
   char type[32U] ;
   char compatible[128U] ;
   void *data ;
};
struct platform_device_id {
   char name[20U] ;
   kernel_ulong_t driver_data ;
};
struct mfd_cell;
struct platform_device {
   char const   *name ;
   int id ;
   struct device dev ;
   u32 num_resources ;
   struct resource *resource ;
   struct platform_device_id  const  *id_entry ;
   struct mfd_cell *mfd_cell ;
   struct pdev_archdata archdata ;
};
struct platform_driver {
   int (*probe)(struct platform_device * ) ;
   int (*remove)(struct platform_device * ) ;
   void (*shutdown)(struct platform_device * ) ;
   int (*suspend)(struct platform_device * , pm_message_t  ) ;
   int (*resume)(struct platform_device * ) ;
   struct device_driver driver ;
   struct platform_device_id  const  *id_table ;
};
struct regulator;
struct regmap;
struct regulator_dev;
struct regulator_init_data;
struct regulator_ops {
   int (*list_voltage)(struct regulator_dev * , unsigned int  ) ;
   int (*set_voltage)(struct regulator_dev * , int  , int  , unsigned int * ) ;
   int (*map_voltage)(struct regulator_dev * , int  , int  ) ;
   int (*set_voltage_sel)(struct regulator_dev * , unsigned int  ) ;
   int (*get_voltage)(struct regulator_dev * ) ;
   int (*get_voltage_sel)(struct regulator_dev * ) ;
   int (*set_current_limit)(struct regulator_dev * , int  , int  ) ;
   int (*get_current_limit)(struct regulator_dev * ) ;
   int (*enable)(struct regulator_dev * ) ;
   int (*disable)(struct regulator_dev * ) ;
   int (*is_enabled)(struct regulator_dev * ) ;
   int (*set_mode)(struct regulator_dev * , unsigned int  ) ;
   unsigned int (*get_mode)(struct regulator_dev * ) ;
   int (*enable_time)(struct regulator_dev * ) ;
   int (*set_voltage_time_sel)(struct regulator_dev * , unsigned int  , unsigned int  ) ;
   int (*get_status)(struct regulator_dev * ) ;
   unsigned int (*get_optimum_mode)(struct regulator_dev * , int  , int  , int  ) ;
   int (*set_suspend_voltage)(struct regulator_dev * , int  ) ;
   int (*set_suspend_enable)(struct regulator_dev * ) ;
   int (*set_suspend_disable)(struct regulator_dev * ) ;
   int (*set_suspend_mode)(struct regulator_dev * , unsigned int  ) ;
};
enum regulator_type {
    REGULATOR_VOLTAGE = 0,
    REGULATOR_CURRENT = 1
} ;
struct regulator_desc {
   char const   *name ;
   char const   *supply_name ;
   int id ;
   unsigned int n_voltages ;
   struct regulator_ops *ops ;
   int irq ;
   enum regulator_type type ;
   struct module *owner ;
   unsigned int min_uV ;
   unsigned int uV_step ;
   unsigned int vsel_reg ;
   unsigned int vsel_mask ;
   unsigned int enable_reg ;
   unsigned int enable_mask ;
};
struct regulator_config {
   struct device *dev ;
   struct regulator_init_data  const  *init_data ;
   void *driver_data ;
   struct device_node *of_node ;
   struct regmap *regmap ;
};
struct regulation_constraints;
struct dentry;
struct regulator_dev {
   struct regulator_desc  const  *desc ;
   int exclusive ;
   u32 use_count ;
   u32 open_count ;
   struct list_head list ;
   struct list_head consumer_list ;
   struct blocking_notifier_head notifier ;
   struct mutex mutex ;
   struct module *owner ;
   struct device dev ;
   struct regulation_constraints *constraints ;
   struct regulator *supply ;
   struct regmap *regmap ;
   struct delayed_work disable_work ;
   int deferred_disables ;
   void *reg_data ;
   struct dentry *debugfs ;
};
struct kernel_cap_struct {
   __u32 cap[2U] ;
};
typedef struct kernel_cap_struct kernel_cap_t;
struct prio_tree_node;
struct raw_prio_tree_node {
   struct prio_tree_node *left ;
   struct prio_tree_node *right ;
   struct prio_tree_node *parent ;
};
struct prio_tree_node {
   struct prio_tree_node *left ;
   struct prio_tree_node *right ;
   struct prio_tree_node *parent ;
   unsigned long start ;
   unsigned long last ;
};
struct arch_uprobe_task {
   unsigned long saved_trap_nr ;
   unsigned long saved_scratch_register ;
};
enum uprobe_task_state {
    UTASK_RUNNING = 0,
    UTASK_BP_HIT = 1,
    UTASK_SSTEP = 2,
    UTASK_SSTEP_ACK = 3,
    UTASK_SSTEP_TRAPPED = 4
} ;
struct uprobe;
struct uprobe_task {
   enum uprobe_task_state state ;
   struct arch_uprobe_task autask ;
   struct uprobe *active_uprobe ;
   unsigned long xol_vaddr ;
   unsigned long vaddr ;
};
struct xol_area {
   wait_queue_head_t wq ;
   atomic_t slot_count ;
   unsigned long *bitmap ;
   struct page *page ;
   unsigned long vaddr ;
};
struct uprobes_state {
   struct xol_area *xol_area ;
   atomic_t count ;
};
struct address_space;
union __anonunion_ldv_15778_138 {
   unsigned long index ;
   void *freelist ;
};
struct __anonstruct_ldv_15788_142 {
   unsigned short inuse ;
   unsigned short objects : 15 ;
   unsigned char frozen : 1 ;
};
union __anonunion_ldv_15789_141 {
   atomic_t _mapcount ;
   struct __anonstruct_ldv_15788_142 ldv_15788 ;
};
struct __anonstruct_ldv_15791_140 {
   union __anonunion_ldv_15789_141 ldv_15789 ;
   atomic_t _count ;
};
union __anonunion_ldv_15792_139 {
   unsigned long counters ;
   struct __anonstruct_ldv_15791_140 ldv_15791 ;
};
struct __anonstruct_ldv_15793_137 {
   union __anonunion_ldv_15778_138 ldv_15778 ;
   union __anonunion_ldv_15792_139 ldv_15792 ;
};
struct __anonstruct_ldv_15800_144 {
   struct page *next ;
   int pages ;
   int pobjects ;
};
union __anonunion_ldv_15801_143 {
   struct list_head lru ;
   struct __anonstruct_ldv_15800_144 ldv_15800 ;
};
union __anonunion_ldv_15806_145 {
   unsigned long private ;
   struct kmem_cache *slab ;
   struct page *first_page ;
};
struct page {
   unsigned long flags ;
   struct address_space *mapping ;
   struct __anonstruct_ldv_15793_137 ldv_15793 ;
   union __anonunion_ldv_15801_143 ldv_15801 ;
   union __anonunion_ldv_15806_145 ldv_15806 ;
   unsigned long debug_flags ;
};
struct __anonstruct_vm_set_147 {
   struct list_head list ;
   void *parent ;
   struct vm_area_struct *head ;
};
union __anonunion_shared_146 {
   struct __anonstruct_vm_set_147 vm_set ;
   struct raw_prio_tree_node prio_tree_node ;
};
struct anon_vma;
struct vm_operations_struct;
struct mempolicy;
struct vm_area_struct {
   struct mm_struct *vm_mm ;
   unsigned long vm_start ;
   unsigned long vm_end ;
   struct vm_area_struct *vm_next ;
   struct vm_area_struct *vm_prev ;
   pgprot_t vm_page_prot ;
   unsigned long vm_flags ;
   struct rb_node vm_rb ;
   union __anonunion_shared_146 shared ;
   struct list_head anon_vma_chain ;
   struct anon_vma *anon_vma ;
   struct vm_operations_struct  const  *vm_ops ;
   unsigned long vm_pgoff ;
   struct file *vm_file ;
   void *vm_private_data ;
   struct mempolicy *vm_policy ;
};
struct core_thread {
   struct task_struct *task ;
   struct core_thread *next ;
};
struct core_state {
   atomic_t nr_threads ;
   struct core_thread dumper ;
   struct completion startup ;
};
struct mm_rss_stat {
   atomic_long_t count[3U] ;
};
struct linux_binfmt;
struct mmu_notifier_mm;
struct mm_struct {
   struct vm_area_struct *mmap ;
   struct rb_root mm_rb ;
   struct vm_area_struct *mmap_cache ;
   unsigned long (*get_unmapped_area)(struct file * , unsigned long  , unsigned long  ,
                                      unsigned long  , unsigned long  ) ;
   void (*unmap_area)(struct mm_struct * , unsigned long  ) ;
   unsigned long mmap_base ;
   unsigned long task_size ;
   unsigned long cached_hole_size ;
   unsigned long free_area_cache ;
   pgd_t *pgd ;
   atomic_t mm_users ;
   atomic_t mm_count ;
   int map_count ;
   spinlock_t page_table_lock ;
   struct rw_semaphore mmap_sem ;
   struct list_head mmlist ;
   unsigned long hiwater_rss ;
   unsigned long hiwater_vm ;
   unsigned long total_vm ;
   unsigned long locked_vm ;
   unsigned long pinned_vm ;
   unsigned long shared_vm ;
   unsigned long exec_vm ;
   unsigned long stack_vm ;
   unsigned long reserved_vm ;
   unsigned long def_flags ;
   unsigned long nr_ptes ;
   unsigned long start_code ;
   unsigned long end_code ;
   unsigned long start_data ;
   unsigned long end_data ;
   unsigned long start_brk ;
   unsigned long brk ;
   unsigned long start_stack ;
   unsigned long arg_start ;
   unsigned long arg_end ;
   unsigned long env_start ;
   unsigned long env_end ;
   unsigned long saved_auxv[44U] ;
   struct mm_rss_stat rss_stat ;
   struct linux_binfmt *binfmt ;
   cpumask_var_t cpu_vm_mask_var ;
   mm_context_t context ;
   unsigned long flags ;
   struct core_state *core_state ;
   spinlock_t ioctx_lock ;
   struct hlist_head ioctx_list ;
   struct task_struct *owner ;
   struct file *exe_file ;
   unsigned long num_exe_file_vmas ;
   struct mmu_notifier_mm *mmu_notifier_mm ;
   pgtable_t pmd_huge_pte ;
   struct cpumask cpumask_allocation ;
   struct uprobes_state uprobes_state ;
};
typedef unsigned long cputime_t;
struct sem_undo_list;
struct sysv_sem {
   struct sem_undo_list *undo_list ;
};
struct siginfo;
struct __anonstruct_sigset_t_148 {
   unsigned long sig[1U] ;
};
typedef struct __anonstruct_sigset_t_148 sigset_t;
typedef void __signalfn_t(int  );
typedef __signalfn_t *__sighandler_t;
typedef void __restorefn_t(void);
typedef __restorefn_t *__sigrestore_t;
struct sigaction {
   __sighandler_t sa_handler ;
   unsigned long sa_flags ;
   __sigrestore_t sa_restorer ;
   sigset_t sa_mask ;
};
struct k_sigaction {
   struct sigaction sa ;
};
union sigval {
   int sival_int ;
   void *sival_ptr ;
};
typedef union sigval sigval_t;
struct __anonstruct__kill_150 {
   __kernel_pid_t _pid ;
   __kernel_uid32_t _uid ;
};
struct __anonstruct__timer_151 {
   __kernel_timer_t _tid ;
   int _overrun ;
   char _pad[0U] ;
   sigval_t _sigval ;
   int _sys_private ;
};
struct __anonstruct__rt_152 {
   __kernel_pid_t _pid ;
   __kernel_uid32_t _uid ;
   sigval_t _sigval ;
};
struct __anonstruct__sigchld_153 {
   __kernel_pid_t _pid ;
   __kernel_uid32_t _uid ;
   int _status ;
   __kernel_clock_t _utime ;
   __kernel_clock_t _stime ;
};
struct __anonstruct__sigfault_154 {
   void *_addr ;
   short _addr_lsb ;
};
struct __anonstruct__sigpoll_155 {
   long _band ;
   int _fd ;
};
struct __anonstruct__sigsys_156 {
   void *_call_addr ;
   int _syscall ;
   unsigned int _arch ;
};
union __anonunion__sifields_149 {
   int _pad[28U] ;
   struct __anonstruct__kill_150 _kill ;
   struct __anonstruct__timer_151 _timer ;
   struct __anonstruct__rt_152 _rt ;
   struct __anonstruct__sigchld_153 _sigchld ;
   struct __anonstruct__sigfault_154 _sigfault ;
   struct __anonstruct__sigpoll_155 _sigpoll ;
   struct __anonstruct__sigsys_156 _sigsys ;
};
struct siginfo {
   int si_signo ;
   int si_errno ;
   int si_code ;
   union __anonunion__sifields_149 _sifields ;
};
typedef struct siginfo siginfo_t;
struct user_struct;
struct sigpending {
   struct list_head list ;
   sigset_t signal ;
};
struct pid_namespace;
struct upid {
   int nr ;
   struct pid_namespace *ns ;
   struct hlist_node pid_chain ;
};
struct pid {
   atomic_t count ;
   unsigned int level ;
   struct hlist_head tasks[3U] ;
   struct rcu_head rcu ;
   struct upid numbers[1U] ;
};
struct pid_link {
   struct hlist_node node ;
   struct pid *pid ;
};
struct seccomp_filter;
struct seccomp {
   int mode ;
   struct seccomp_filter *filter ;
};
struct plist_head {
   struct list_head node_list ;
};
struct plist_node {
   int prio ;
   struct list_head prio_list ;
   struct list_head node_list ;
};
struct rt_mutex_waiter;
struct rlimit {
   unsigned long rlim_cur ;
   unsigned long rlim_max ;
};
struct timerqueue_node {
   struct rb_node node ;
   ktime_t expires ;
};
struct timerqueue_head {
   struct rb_root head ;
   struct timerqueue_node *next ;
};
struct hrtimer_clock_base;
struct hrtimer_cpu_base;
enum hrtimer_restart {
    HRTIMER_NORESTART = 0,
    HRTIMER_RESTART = 1
} ;
struct hrtimer {
   struct timerqueue_node node ;
   ktime_t _softexpires ;
   enum hrtimer_restart (*function)(struct hrtimer * ) ;
   struct hrtimer_clock_base *base ;
   unsigned long state ;
   int start_pid ;
   void *start_site ;
   char start_comm[16U] ;
};
struct hrtimer_clock_base {
   struct hrtimer_cpu_base *cpu_base ;
   int index ;
   clockid_t clockid ;
   struct timerqueue_head active ;
   ktime_t resolution ;
   ktime_t (*get_time)(void) ;
   ktime_t softirq_time ;
   ktime_t offset ;
};
struct hrtimer_cpu_base {
   raw_spinlock_t lock ;
   unsigned long active_bases ;
   ktime_t expires_next ;
   int hres_active ;
   int hang_detected ;
   unsigned long nr_events ;
   unsigned long nr_retries ;
   unsigned long nr_hangs ;
   ktime_t max_hang_time ;
   struct hrtimer_clock_base clock_base[3U] ;
};
struct task_io_accounting {
   u64 rchar ;
   u64 wchar ;
   u64 syscr ;
   u64 syscw ;
   u64 read_bytes ;
   u64 write_bytes ;
   u64 cancelled_write_bytes ;
};
struct latency_record {
   unsigned long backtrace[12U] ;
   unsigned int count ;
   unsigned long time ;
   unsigned long max ;
};
typedef int32_t key_serial_t;
typedef uint32_t key_perm_t;
struct key;
struct signal_struct;
struct key_type;
struct keyring_list;
union __anonunion_ldv_17061_159 {
   struct list_head graveyard_link ;
   struct rb_node serial_node ;
};
struct key_user;
union __anonunion_ldv_17070_160 {
   time_t expiry ;
   time_t revoked_at ;
};
union __anonunion_type_data_161 {
   struct list_head link ;
   unsigned long x[2U] ;
   void *p[2U] ;
   int reject_error ;
};
union __anonunion_payload_162 {
   unsigned long value ;
   void *rcudata ;
   void *data ;
   struct keyring_list *subscriptions ;
};
struct key {
   atomic_t usage ;
   key_serial_t serial ;
   union __anonunion_ldv_17061_159 ldv_17061 ;
   struct key_type *type ;
   struct rw_semaphore sem ;
   struct key_user *user ;
   void *security ;
   union __anonunion_ldv_17070_160 ldv_17070 ;
   time_t last_used_at ;
   uid_t uid ;
   gid_t gid ;
   key_perm_t perm ;
   unsigned short quotalen ;
   unsigned short datalen ;
   unsigned long flags ;
   char *description ;
   union __anonunion_type_data_161 type_data ;
   union __anonunion_payload_162 payload ;
};
struct audit_context;
struct group_info {
   atomic_t usage ;
   int ngroups ;
   int nblocks ;
   kgid_t small_block[32U] ;
   kgid_t *blocks[0U] ;
};
struct thread_group_cred {
   atomic_t usage ;
   pid_t tgid ;
   spinlock_t lock ;
   struct key *session_keyring ;
   struct key *process_keyring ;
   struct rcu_head rcu ;
};
struct cred {
   atomic_t usage ;
   atomic_t subscribers ;
   void *put_addr ;
   unsigned int magic ;
   kuid_t uid ;
   kgid_t gid ;
   kuid_t suid ;
   kgid_t sgid ;
   kuid_t euid ;
   kgid_t egid ;
   kuid_t fsuid ;
   kgid_t fsgid ;
   unsigned int securebits ;
   kernel_cap_t cap_inheritable ;
   kernel_cap_t cap_permitted ;
   kernel_cap_t cap_effective ;
   kernel_cap_t cap_bset ;
   unsigned char jit_keyring ;
   struct key *thread_keyring ;
   struct key *request_key_auth ;
   struct thread_group_cred *tgcred ;
   void *security ;
   struct user_struct *user ;
   struct user_namespace *user_ns ;
   struct group_info *group_info ;
   struct rcu_head rcu ;
};
struct llist_node;
struct llist_node {
   struct llist_node *next ;
};
struct futex_pi_state;
struct robust_list_head;
struct bio_list;
struct fs_struct;
struct perf_event_context;
struct blk_plug;
struct cfs_rq;
struct sighand_struct {
   atomic_t count ;
   struct k_sigaction action[64U] ;
   spinlock_t siglock ;
   wait_queue_head_t signalfd_wqh ;
};
struct pacct_struct {
   int ac_flag ;
   long ac_exitcode ;
   unsigned long ac_mem ;
   cputime_t ac_utime ;
   cputime_t ac_stime ;
   unsigned long ac_minflt ;
   unsigned long ac_majflt ;
};
struct cpu_itimer {
   cputime_t expires ;
   cputime_t incr ;
   u32 error ;
   u32 incr_error ;
};
struct task_cputime {
   cputime_t utime ;
   cputime_t stime ;
   unsigned long long sum_exec_runtime ;
};
struct thread_group_cputimer {
   struct task_cputime cputime ;
   int running ;
   raw_spinlock_t lock ;
};
struct autogroup;
struct tty_struct;
struct taskstats;
struct tty_audit_buf;
struct signal_struct {
   atomic_t sigcnt ;
   atomic_t live ;
   int nr_threads ;
   wait_queue_head_t wait_chldexit ;
   struct task_struct *curr_target ;
   struct sigpending shared_pending ;
   int group_exit_code ;
   int notify_count ;
   struct task_struct *group_exit_task ;
   int group_stop_count ;
   unsigned int flags ;
   unsigned char is_child_subreaper : 1 ;
   unsigned char has_child_subreaper : 1 ;
   struct list_head posix_timers ;
   struct hrtimer real_timer ;
   struct pid *leader_pid ;
   ktime_t it_real_incr ;
   struct cpu_itimer it[2U] ;
   struct thread_group_cputimer cputimer ;
   struct task_cputime cputime_expires ;
   struct list_head cpu_timers[3U] ;
   struct pid *tty_old_pgrp ;
   int leader ;
   struct tty_struct *tty ;
   struct autogroup *autogroup ;
   cputime_t utime ;
   cputime_t stime ;
   cputime_t cutime ;
   cputime_t cstime ;
   cputime_t gtime ;
   cputime_t cgtime ;
   cputime_t prev_utime ;
   cputime_t prev_stime ;
   unsigned long nvcsw ;
   unsigned long nivcsw ;
   unsigned long cnvcsw ;
   unsigned long cnivcsw ;
   unsigned long min_flt ;
   unsigned long maj_flt ;
   unsigned long cmin_flt ;
   unsigned long cmaj_flt ;
   unsigned long inblock ;
   unsigned long oublock ;
   unsigned long cinblock ;
   unsigned long coublock ;
   unsigned long maxrss ;
   unsigned long cmaxrss ;
   struct task_io_accounting ioac ;
   unsigned long long sum_sched_runtime ;
   struct rlimit rlim[16U] ;
   struct pacct_struct pacct ;
   struct taskstats *stats ;
   unsigned int audit_tty ;
   struct tty_audit_buf *tty_audit_buf ;
   struct rw_semaphore group_rwsem ;
   int oom_adj ;
   int oom_score_adj ;
   int oom_score_adj_min ;
   struct mutex cred_guard_mutex ;
};
struct user_struct {
   atomic_t __count ;
   atomic_t processes ;
   atomic_t files ;
   atomic_t sigpending ;
   atomic_t inotify_watches ;
   atomic_t inotify_devs ;
   atomic_t fanotify_listeners ;
   atomic_long_t epoll_watches ;
   unsigned long mq_bytes ;
   unsigned long locked_shm ;
   struct key *uid_keyring ;
   struct key *session_keyring ;
   struct hlist_node uidhash_node ;
   kuid_t uid ;
   atomic_long_t locked_vm ;
};
struct backing_dev_info;
struct reclaim_state;
struct sched_info {
   unsigned long pcount ;
   unsigned long long run_delay ;
   unsigned long long last_arrival ;
   unsigned long long last_queued ;
};
struct task_delay_info {
   spinlock_t lock ;
   unsigned int flags ;
   struct timespec blkio_start ;
   struct timespec blkio_end ;
   u64 blkio_delay ;
   u64 swapin_delay ;
   u32 blkio_count ;
   u32 swapin_count ;
   struct timespec freepages_start ;
   struct timespec freepages_end ;
   u64 freepages_delay ;
   u32 freepages_count ;
};
struct io_context;
struct pipe_inode_info;
struct rq;
struct sched_class {
   struct sched_class  const  *next ;
   void (*enqueue_task)(struct rq * , struct task_struct * , int  ) ;
   void (*dequeue_task)(struct rq * , struct task_struct * , int  ) ;
   void (*yield_task)(struct rq * ) ;
   bool (*yield_to_task)(struct rq * , struct task_struct * , bool  ) ;
   void (*check_preempt_curr)(struct rq * , struct task_struct * , int  ) ;
   struct task_struct *(*pick_next_task)(struct rq * ) ;
   void (*put_prev_task)(struct rq * , struct task_struct * ) ;
   int (*select_task_rq)(struct task_struct * , int  , int  ) ;
   void (*pre_schedule)(struct rq * , struct task_struct * ) ;
   void (*post_schedule)(struct rq * ) ;
   void (*task_waking)(struct task_struct * ) ;
   void (*task_woken)(struct rq * , struct task_struct * ) ;
   void (*set_cpus_allowed)(struct task_struct * , struct cpumask  const  * ) ;
   void (*rq_online)(struct rq * ) ;
   void (*rq_offline)(struct rq * ) ;
   void (*set_curr_task)(struct rq * ) ;
   void (*task_tick)(struct rq * , struct task_struct * , int  ) ;
   void (*task_fork)(struct task_struct * ) ;
   void (*switched_from)(struct rq * , struct task_struct * ) ;
   void (*switched_to)(struct rq * , struct task_struct * ) ;
   void (*prio_changed)(struct rq * , struct task_struct * , int  ) ;
   unsigned int (*get_rr_interval)(struct rq * , struct task_struct * ) ;
   void (*task_move_group)(struct task_struct * , int  ) ;
};
struct load_weight {
   unsigned long weight ;
   unsigned long inv_weight ;
};
struct sched_statistics {
   u64 wait_start ;
   u64 wait_max ;
   u64 wait_count ;
   u64 wait_sum ;
   u64 iowait_count ;
   u64 iowait_sum ;
   u64 sleep_start ;
   u64 sleep_max ;
   s64 sum_sleep_runtime ;
   u64 block_start ;
   u64 block_max ;
   u64 exec_max ;
   u64 slice_max ;
   u64 nr_migrations_cold ;
   u64 nr_failed_migrations_affine ;
   u64 nr_failed_migrations_running ;
   u64 nr_failed_migrations_hot ;
   u64 nr_forced_migrations ;
   u64 nr_wakeups ;
   u64 nr_wakeups_sync ;
   u64 nr_wakeups_migrate ;
   u64 nr_wakeups_local ;
   u64 nr_wakeups_remote ;
   u64 nr_wakeups_affine ;
   u64 nr_wakeups_affine_attempts ;
   u64 nr_wakeups_passive ;
   u64 nr_wakeups_idle ;
};
struct sched_entity {
   struct load_weight load ;
   struct rb_node run_node ;
   struct list_head group_node ;
   unsigned int on_rq ;
   u64 exec_start ;
   u64 sum_exec_runtime ;
   u64 vruntime ;
   u64 prev_sum_exec_runtime ;
   u64 nr_migrations ;
   struct sched_statistics statistics ;
   struct sched_entity *parent ;
   struct cfs_rq *cfs_rq ;
   struct cfs_rq *my_q ;
};
struct rt_rq;
struct sched_rt_entity {
   struct list_head run_list ;
   unsigned long timeout ;
   unsigned int time_slice ;
   int nr_cpus_allowed ;
   struct sched_rt_entity *back ;
   struct sched_rt_entity *parent ;
   struct rt_rq *rt_rq ;
   struct rt_rq *my_q ;
};
struct mem_cgroup;
struct memcg_batch_info {
   int do_batch ;
   struct mem_cgroup *memcg ;
   unsigned long nr_pages ;
   unsigned long memsw_nr_pages ;
};
struct files_struct;
struct css_set;
struct compat_robust_list_head;
struct task_struct {
   long volatile   state ;
   void *stack ;
   atomic_t usage ;
   unsigned int flags ;
   unsigned int ptrace ;
   struct llist_node wake_entry ;
   int on_cpu ;
   int on_rq ;
   int prio ;
   int static_prio ;
   int normal_prio ;
   unsigned int rt_priority ;
   struct sched_class  const  *sched_class ;
   struct sched_entity se ;
   struct sched_rt_entity rt ;
   struct hlist_head preempt_notifiers ;
   unsigned char fpu_counter ;
   unsigned int policy ;
   cpumask_t cpus_allowed ;
   struct sched_info sched_info ;
   struct list_head tasks ;
   struct plist_node pushable_tasks ;
   struct mm_struct *mm ;
   struct mm_struct *active_mm ;
   unsigned char brk_randomized : 1 ;
   int exit_state ;
   int exit_code ;
   int exit_signal ;
   int pdeath_signal ;
   unsigned int jobctl ;
   unsigned int personality ;
   unsigned char did_exec : 1 ;
   unsigned char in_execve : 1 ;
   unsigned char in_iowait : 1 ;
   unsigned char no_new_privs : 1 ;
   unsigned char sched_reset_on_fork : 1 ;
   unsigned char sched_contributes_to_load : 1 ;
   pid_t pid ;
   pid_t tgid ;
   unsigned long stack_canary ;
   struct task_struct *real_parent ;
   struct task_struct *parent ;
   struct list_head children ;
   struct list_head sibling ;
   struct task_struct *group_leader ;
   struct list_head ptraced ;
   struct list_head ptrace_entry ;
   struct pid_link pids[3U] ;
   struct list_head thread_group ;
   struct completion *vfork_done ;
   int *set_child_tid ;
   int *clear_child_tid ;
   cputime_t utime ;
   cputime_t stime ;
   cputime_t utimescaled ;
   cputime_t stimescaled ;
   cputime_t gtime ;
   cputime_t prev_utime ;
   cputime_t prev_stime ;
   unsigned long nvcsw ;
   unsigned long nivcsw ;
   struct timespec start_time ;
   struct timespec real_start_time ;
   unsigned long min_flt ;
   unsigned long maj_flt ;
   struct task_cputime cputime_expires ;
   struct list_head cpu_timers[3U] ;
   struct cred  const  *real_cred ;
   struct cred  const  *cred ;
   char comm[16U] ;
   int link_count ;
   int total_link_count ;
   struct sysv_sem sysvsem ;
   unsigned long last_switch_count ;
   struct thread_struct thread ;
   struct fs_struct *fs ;
   struct files_struct *files ;
   struct nsproxy *nsproxy ;
   struct signal_struct *signal ;
   struct sighand_struct *sighand ;
   sigset_t blocked ;
   sigset_t real_blocked ;
   sigset_t saved_sigmask ;
   struct sigpending pending ;
   unsigned long sas_ss_sp ;
   size_t sas_ss_size ;
   int (*notifier)(void * ) ;
   void *notifier_data ;
   sigset_t *notifier_mask ;
   struct hlist_head task_works ;
   struct audit_context *audit_context ;
   uid_t loginuid ;
   unsigned int sessionid ;
   struct seccomp seccomp ;
   u32 parent_exec_id ;
   u32 self_exec_id ;
   spinlock_t alloc_lock ;
   raw_spinlock_t pi_lock ;
   struct plist_head pi_waiters ;
   struct rt_mutex_waiter *pi_blocked_on ;
   struct mutex_waiter *blocked_on ;
   unsigned int irq_events ;
   unsigned long hardirq_enable_ip ;
   unsigned long hardirq_disable_ip ;
   unsigned int hardirq_enable_event ;
   unsigned int hardirq_disable_event ;
   int hardirqs_enabled ;
   int hardirq_context ;
   unsigned long softirq_disable_ip ;
   unsigned long softirq_enable_ip ;
   unsigned int softirq_disable_event ;
   unsigned int softirq_enable_event ;
   int softirqs_enabled ;
   int softirq_context ;
   u64 curr_chain_key ;
   int lockdep_depth ;
   unsigned int lockdep_recursion ;
   struct held_lock held_locks[48U] ;
   gfp_t lockdep_reclaim_gfp ;
   void *journal_info ;
   struct bio_list *bio_list ;
   struct blk_plug *plug ;
   struct reclaim_state *reclaim_state ;
   struct backing_dev_info *backing_dev_info ;
   struct io_context *io_context ;
   unsigned long ptrace_message ;
   siginfo_t *last_siginfo ;
   struct task_io_accounting ioac ;
   u64 acct_rss_mem1 ;
   u64 acct_vm_mem1 ;
   cputime_t acct_timexpd ;
   nodemask_t mems_allowed ;
   seqcount_t mems_allowed_seq ;
   int cpuset_mem_spread_rotor ;
   int cpuset_slab_spread_rotor ;
   struct css_set *cgroups ;
   struct list_head cg_list ;
   struct robust_list_head *robust_list ;
   struct compat_robust_list_head *compat_robust_list ;
   struct list_head pi_state_list ;
   struct futex_pi_state *pi_state_cache ;
   struct perf_event_context *perf_event_ctxp[2U] ;
   struct mutex perf_event_mutex ;
   struct list_head perf_event_list ;
   struct mempolicy *mempolicy ;
   short il_next ;
   short pref_node_fork ;
   struct rcu_head rcu ;
   struct pipe_inode_info *splice_pipe ;
   struct task_delay_info *delays ;
   int make_it_fail ;
   int nr_dirtied ;
   int nr_dirtied_pause ;
   unsigned long dirty_paused_when ;
   int latency_record_count ;
   struct latency_record latency_record[32U] ;
   unsigned long timer_slack_ns ;
   unsigned long default_timer_slack_ns ;
   struct list_head *scm_work_list ;
   unsigned long trace ;
   unsigned long trace_recursion ;
   struct memcg_batch_info memcg_batch ;
   atomic_t ptrace_bp_refcnt ;
   struct uprobe_task *utask ;
   int uprobe_srcu_id ;
};
struct taskstats {
   __u16 version ;
   __u32 ac_exitcode ;
   __u8 ac_flag ;
   __u8 ac_nice ;
   __u64 cpu_count ;
   __u64 cpu_delay_total ;
   __u64 blkio_count ;
   __u64 blkio_delay_total ;
   __u64 swapin_count ;
   __u64 swapin_delay_total ;
   __u64 cpu_run_real_total ;
   __u64 cpu_run_virtual_total ;
   char ac_comm[32U] ;
   __u8 ac_sched ;
   __u8 ac_pad[3U] ;
   __u32 ac_uid ;
   __u32 ac_gid ;
   __u32 ac_pid ;
   __u32 ac_ppid ;
   __u32 ac_btime ;
   __u64 ac_etime ;
   __u64 ac_utime ;
   __u64 ac_stime ;
   __u64 ac_minflt ;
   __u64 ac_majflt ;
   __u64 coremem ;
   __u64 virtmem ;
   __u64 hiwater_rss ;
   __u64 hiwater_vm ;
   __u64 read_char ;
   __u64 write_char ;
   __u64 read_syscalls ;
   __u64 write_syscalls ;
   __u64 read_bytes ;
   __u64 write_bytes ;
   __u64 cancelled_write_bytes ;
   __u64 nvcsw ;
   __u64 nivcsw ;
   __u64 ac_utimescaled ;
   __u64 ac_stimescaled ;
   __u64 cpu_scaled_run_real_total ;
   __u64 freepages_count ;
   __u64 freepages_delay_total ;
};
struct cgroupfs_root;
struct cgroup;
struct css_id;
struct cgroup_subsys_state {
   struct cgroup *cgroup ;
   atomic_t refcnt ;
   unsigned long flags ;
   struct css_id *id ;
   struct work_struct dput_work ;
};
struct cgroup {
   unsigned long flags ;
   atomic_t count ;
   struct list_head sibling ;
   struct list_head children ;
   struct list_head files ;
   struct cgroup *parent ;
   struct dentry *dentry ;
   struct cgroup_subsys_state *subsys[64U] ;
   struct cgroupfs_root *root ;
   struct cgroup *top_cgroup ;
   struct list_head css_sets ;
   struct list_head allcg_node ;
   struct list_head cft_q_node ;
   struct list_head release_list ;
   struct list_head pidlists ;
   struct mutex pidlist_mutex ;
   struct rcu_head rcu_head ;
   struct list_head event_list ;
   spinlock_t event_list_lock ;
};
struct css_set {
   atomic_t refcount ;
   struct hlist_node hlist ;
   struct list_head tasks ;
   struct list_head cg_links ;
   struct cgroup_subsys_state *subsys[64U] ;
   struct rcu_head rcu_head ;
};
struct reclaim_state {
   unsigned long reclaimed_slab ;
};
struct vm_fault {
   unsigned int flags ;
   unsigned long pgoff ;
   void *virtual_address ;
   struct page *page ;
};
struct vm_operations_struct {
   void (*open)(struct vm_area_struct * ) ;
   void (*close)(struct vm_area_struct * ) ;
   int (*fault)(struct vm_area_struct * , struct vm_fault * ) ;
   int (*page_mkwrite)(struct vm_area_struct * , struct vm_fault * ) ;
   int (*access)(struct vm_area_struct * , unsigned long  , void * , int  , int  ) ;
   int (*set_policy)(struct vm_area_struct * , struct mempolicy * ) ;
   struct mempolicy *(*get_policy)(struct vm_area_struct * , unsigned long  ) ;
   int (*migrate)(struct vm_area_struct * , nodemask_t const   * , nodemask_t const   * ,
                  unsigned long  ) ;
};
typedef int suspend_state_t;
struct regulator_state {
   int uV ;
   unsigned int mode ;
   int enabled ;
   int disabled ;
};
struct regulation_constraints {
   char const   *name ;
   int min_uV ;
   int max_uV ;
   int uV_offset ;
   int min_uA ;
   int max_uA ;
   unsigned int valid_modes_mask ;
   unsigned int valid_ops_mask ;
   int input_uV ;
   struct regulator_state state_disk ;
   struct regulator_state state_mem ;
   struct regulator_state state_standby ;
   suspend_state_t initial_state ;
   unsigned int initial_mode ;
   unsigned char always_on : 1 ;
   unsigned char boot_on : 1 ;
   unsigned char apply_uV : 1 ;
};
struct regulator_consumer_supply {
   char const   *dev_name ;
   char const   *supply ;
};
struct regulator_init_data {
   char const   *supply_regulator ;
   struct regulation_constraints constraints ;
   int num_consumer_supplies ;
   struct regulator_consumer_supply *consumer_supplies ;
   int (*regulator_init)(void * ) ;
   void *driver_data ;
};
struct gpio_regulator_state {
   int value ;
   int gpios ;
};
struct gpio;
struct gpio_regulator_config {
   char const   *supply_name ;
   int enable_gpio ;
   unsigned char enable_high : 1 ;
   unsigned char enabled_at_boot : 1 ;
   unsigned int startup_delay ;
   struct gpio *gpios ;
   int nr_gpios ;
   struct gpio_regulator_state *states ;
   int nr_states ;
   enum regulator_type type ;
   struct regulator_init_data *init_data ;
};
struct gpio {
   unsigned int gpio ;
   unsigned long flags ;
   char const   *label ;
};
typedef u32 phandle;
struct property {
   char *name ;
   int length ;
   void *value ;
   struct property *next ;
   unsigned long _flags ;
   unsigned int unique_id ;
};
struct proc_dir_entry;
struct device_node {
   char const   *name ;
   char const   *type ;
   phandle phandle ;
   char *full_name ;
   struct property *properties ;
   struct property *deadprops ;
   struct device_node *parent ;
   struct device_node *child ;
   struct device_node *sibling ;
   struct device_node *next ;
   struct device_node *allnext ;
   struct proc_dir_entry *pde ;
   struct kref kref ;
   unsigned long _flags ;
   void *data ;
};
struct kmem_cache_cpu {
   void **freelist ;
   unsigned long tid ;
   struct page *page ;
   struct page *partial ;
   int node ;
   unsigned int stat[26U] ;
};
struct kmem_cache_node {
   spinlock_t list_lock ;
   unsigned long nr_partial ;
   struct list_head partial ;
   atomic_long_t nr_slabs ;
   atomic_long_t total_objects ;
   struct list_head full ;
};
struct kmem_cache_order_objects {
   unsigned long x ;
};
struct kmem_cache {
   struct kmem_cache_cpu *cpu_slab ;
   unsigned long flags ;
   unsigned long min_partial ;
   int size ;
   int objsize ;
   int offset ;
   int cpu_partial ;
   struct kmem_cache_order_objects oo ;
   struct kmem_cache_order_objects max ;
   struct kmem_cache_order_objects min ;
   gfp_t allocflags ;
   int refcount ;
   void (*ctor)(void * ) ;
   int inuse ;
   int align ;
   int reserved ;
   char const   *name ;
   struct list_head list ;
   struct kobject kobj ;
   int remote_node_defrag_ratio ;
   struct kmem_cache_node *node[1024U] ;
};
struct gpio_regulator_data {
   struct regulator_desc desc ;
   struct regulator_dev *dev ;
   int enable_gpio ;
   bool enable_high ;
   bool is_enabled ;
   unsigned int startup_delay ;
   struct gpio *gpios ;
   int nr_gpios ;
   struct gpio_regulator_state *states ;
   int nr_states ;
   int state ;
};
typedef int ldv_func_ret_type___0;
long ldv__builtin_expect(long exp , long c ) ;
extern char *kstrdup(char const   * , gfp_t  ) ;
extern void *kmemdup(void const   * , size_t  , gfp_t  ) ;
 static long PTR_ERR(void const   *ptr ) 
{ 


  {
  return ((long )ptr);
}
}
 static long IS_ERR(void const   *ptr ) 
{ 
  long tmp ;

  {
  tmp = ldv__builtin_expect((unsigned long )ptr > 0xfffffffffffff000UL, 0L);
  return (tmp);
}
}
extern int mutex_trylock(struct mutex * ) ;
int ldv_mutex_trylock_2(struct mutex *ldv_func_arg1 ) ;
extern void mutex_unlock(struct mutex * ) ;
void ldv_mutex_unlock_3(struct mutex *ldv_func_arg1 ) ;
void ldv_mutex_unlock_5(struct mutex *ldv_func_arg1 ) ;
void ldv_mutex_unlock_7(struct mutex *ldv_func_arg1 ) ;
extern void mutex_lock(struct mutex * ) ;
void ldv_mutex_lock_1(struct mutex *ldv_func_arg1 ) ;
void ldv_mutex_lock_4(struct mutex *ldv_func_arg1 ) ;
void ldv_mutex_lock_6(struct mutex *ldv_func_arg1 ) ;
void ldv_mutex_lock_cred_guard_mutex_of_signal_struct(struct mutex *lock ) ;
void ldv_mutex_unlock_cred_guard_mutex_of_signal_struct(struct mutex *lock ) ;
void ldv_mutex_lock_mutex_of_device(struct mutex *lock ) ;
int ldv_mutex_trylock_mutex_of_device(struct mutex *lock ) ;
void ldv_mutex_unlock_mutex_of_device(struct mutex *lock ) ;
void ldv_mutex_lock_pm_mutex(struct mutex *lock ) ;
void ldv_mutex_unlock_pm_mutex(struct mutex *lock ) ;
extern struct module __this_module ;
extern void *devm_kzalloc(struct device * , size_t  , gfp_t  ) ;
extern void *dev_get_drvdata(struct device  const  * ) ;
extern int dev_set_drvdata(struct device * , void * ) ;
extern int dev_err(struct device  const  * , char const   *  , ...) ;
extern int platform_driver_register(struct platform_driver * ) ;
extern void platform_driver_unregister(struct platform_driver * ) ;
 static void *platform_get_drvdata(struct platform_device  const  *pdev ) 
{ 
  void *tmp ;

  {
  tmp = dev_get_drvdata(& pdev->dev);
  return (tmp);
}
}
 static void platform_set_drvdata(struct platform_device *pdev , void *data ) 
{ 


  {
  dev_set_drvdata(& pdev->dev, data);
  return;
}
}
extern struct regulator_dev *regulator_register(struct regulator_desc  const  * ,
                                                struct regulator_config  const  * ) ;
extern void regulator_unregister(struct regulator_dev * ) ;
extern void *rdev_get_drvdata(struct regulator_dev * ) ;
 static bool gpio_is_valid(int number ) 
{ 


  {
  return ((bool )(number >= 0 && number <= 255));
}
}
extern int gpio_request(unsigned int  , char const   * ) ;
extern void gpio_free(unsigned int  ) ;
extern int gpio_direction_output(unsigned int  , int  ) ;
extern void gpio_set_value_cansleep(unsigned int  , int  ) ;
extern void __gpio_set_value(unsigned int  , int  ) ;
extern int gpio_request_array(struct gpio  const  * , size_t  ) ;
extern void gpio_free_array(struct gpio  const  * , size_t  ) ;
 static void gpio_set_value(unsigned int gpio , int value ) 
{ 


  {
  __gpio_set_value(gpio, value);
  return;
}
}
extern void kfree(void const   * ) ;
static int gpio_regulator_is_enabled(struct regulator_dev *dev ) 
{ 
  struct gpio_regulator_data *data ;
  void *tmp ;

  {
  tmp = rdev_get_drvdata(dev);
  data = (struct gpio_regulator_data *)tmp;
  return ((int )data->is_enabled);
}
}
static int gpio_regulator_enable(struct regulator_dev *dev ) 
{ 
  struct gpio_regulator_data *data ;
  void *tmp ;
  bool tmp___0 ;

  {
  tmp = rdev_get_drvdata(dev);
  data = (struct gpio_regulator_data *)tmp;
  tmp___0 = gpio_is_valid(data->enable_gpio);
  if ((int )tmp___0) {
    gpio_set_value_cansleep((unsigned int )data->enable_gpio, (int )data->enable_high);
    data->is_enabled = 1;
  } else {

  }
  return (0);
}
}
static int gpio_regulator_disable(struct regulator_dev *dev ) 
{ 
  struct gpio_regulator_data *data ;
  void *tmp ;
  bool tmp___0 ;

  {
  tmp = rdev_get_drvdata(dev);
  data = (struct gpio_regulator_data *)tmp;
  tmp___0 = gpio_is_valid(data->enable_gpio);
  if ((int )tmp___0) {
    gpio_set_value_cansleep((unsigned int )data->enable_gpio, ! data->enable_high);
    data->is_enabled = 0;
  } else {

  }
  return (0);
}
}
static int gpio_regulator_enable_time(struct regulator_dev *dev ) 
{ 
  struct gpio_regulator_data *data ;
  void *tmp ;

  {
  tmp = rdev_get_drvdata(dev);
  data = (struct gpio_regulator_data *)tmp;
  return ((int )data->startup_delay);
}
}
static int gpio_regulator_get_value(struct regulator_dev *dev ) 
{ 
  struct gpio_regulator_data *data ;
  void *tmp ;
  int ptr ;

  {
  tmp = rdev_get_drvdata(dev);
  data = (struct gpio_regulator_data *)tmp;
  ptr = 0;
  goto ldv_23043;
  ldv_23042: ;
  if ((data->states + (unsigned long )ptr)->gpios == data->state) {
    return ((data->states + (unsigned long )ptr)->value);
  } else {

  }
  ptr = ptr + 1;
  ldv_23043: ;
  if (data->nr_states > ptr) {
    goto ldv_23042;
  } else {

  }

  return (-22);
}
}
static int gpio_regulator_set_value(struct regulator_dev *dev , int min , int max ) 
{ 
  struct gpio_regulator_data *data ;
  void *tmp ;
  int ptr ;
  int target ;
  int state ;
  int best_val ;

  {
  tmp = rdev_get_drvdata(dev);
  data = (struct gpio_regulator_data *)tmp;
  best_val = 2147483647;
  ptr = 0;
  goto ldv_23056;
  ldv_23055: ;
  if (((data->states + (unsigned long )ptr)->value < best_val && (data->states + (unsigned long )ptr)->value >= min) && (data->states + (unsigned long )ptr)->value <= max) {
    target = (data->states + (unsigned long )ptr)->gpios;
  } else {

  }
  ptr = ptr + 1;
  ldv_23056: ;
  if (data->nr_states > ptr) {
    goto ldv_23055;
  } else {

  }

  if (best_val == 2147483647) {
    return (-22);
  } else {

  }
  ptr = 0;
  goto ldv_23059;
  ldv_23058: 
  state = ((1 << ptr) & target) >> ptr;
  gpio_set_value((data->gpios + (unsigned long )ptr)->gpio, state);
  ptr = ptr + 1;
  ldv_23059: ;
  if (data->nr_gpios > ptr) {
    goto ldv_23058;
  } else {

  }
  data->state = target;
  return (0);
}
}
static int gpio_regulator_set_voltage(struct regulator_dev *dev , int min_uV , int max_uV ,
                                      unsigned int *selector ) 
{ 
  int tmp ;

  {
  tmp = gpio_regulator_set_value(dev, min_uV, max_uV);
  return (tmp);
}
}
static int gpio_regulator_list_voltage(struct regulator_dev *dev , unsigned int selector ) 
{ 
  struct gpio_regulator_data *data ;
  void *tmp ;

  {
  tmp = rdev_get_drvdata(dev);
  data = (struct gpio_regulator_data *)tmp;
  if ((unsigned int )data->nr_states <= selector) {
    return (-22);
  } else {

  }
  return ((data->states + (unsigned long )selector)->value);
}
}
static int gpio_regulator_set_current_limit(struct regulator_dev *dev , int min_uA ,
                                            int max_uA ) 
{ 
  int tmp ;

  {
  tmp = gpio_regulator_set_value(dev, min_uA, max_uA);
  return (tmp);
}
}
static struct regulator_ops gpio_regulator_voltage_ops  = 
     {& gpio_regulator_list_voltage, & gpio_regulator_set_voltage, 0, 0, & gpio_regulator_get_value,
    0, 0, 0, & gpio_regulator_enable, & gpio_regulator_disable, & gpio_regulator_is_enabled,
    0, 0, & gpio_regulator_enable_time, 0, 0, 0, 0, 0, 0, 0};
static struct regulator_ops gpio_regulator_current_ops  = 
     {0, 0, 0, 0, 0, 0, & gpio_regulator_set_current_limit, & gpio_regulator_get_value,
    & gpio_regulator_enable, & gpio_regulator_disable, & gpio_regulator_is_enabled,
    0, 0, & gpio_regulator_enable_time, 0, 0, 0, 0, 0, 0, 0};
static int gpio_regulator_probe(struct platform_device *pdev ) 
{ 
  struct gpio_regulator_config *config ;
  struct gpio_regulator_data *drvdata ;
  struct regulator_config cfg ;
  int ptr ;
  int ret ;
  int state ;
  void *tmp ;
  char *tmp___0 ;
  void *tmp___1 ;
  void *tmp___2 ;
  bool tmp___3 ;
  long tmp___4 ;
  long tmp___5 ;
  bool tmp___6 ;

  {
  config = (struct gpio_regulator_config *)pdev->dev.platform_data;
  cfg.dev = 0;
  cfg.init_data = 0;
  cfg.driver_data = 0;
  cfg.of_node = 0;
  cfg.regmap = 0;
  tmp = devm_kzalloc(& pdev->dev, 128UL, 208U);
  drvdata = (struct gpio_regulator_data *)tmp;
  if ((unsigned long )drvdata == (unsigned long )((struct gpio_regulator_data *)0)) {
    dev_err((struct device  const  *)(& pdev->dev), "Failed to allocate device data\n");
    return (-12);
  } else {

  }
  tmp___0 = kstrdup(config->supply_name, 208U);
  drvdata->desc.name = (char const   *)tmp___0;
  if ((unsigned long )drvdata->desc.name == (unsigned long )((char const   *)0)) {
    dev_err((struct device  const  *)(& pdev->dev), "Failed to allocate supply name\n");
    ret = -12;
    goto err;
  } else {

  }
  tmp___1 = kmemdup((void const   *)config->gpios, (unsigned long )config->nr_gpios * 24UL,
                    208U);
  drvdata->gpios = (struct gpio *)tmp___1;
  if ((unsigned long )drvdata->gpios == (unsigned long )((struct gpio *)0)) {
    dev_err((struct device  const  *)(& pdev->dev), "Failed to allocate gpio data\n");
    ret = -12;
    goto err_name;
  } else {

  }
  tmp___2 = kmemdup((void const   *)config->states, (unsigned long )config->nr_states * 8UL,
                    208U);
  drvdata->states = (struct gpio_regulator_state *)tmp___2;
  if ((unsigned long )drvdata->states == (unsigned long )((struct gpio_regulator_state *)0)) {
    dev_err((struct device  const  *)(& pdev->dev), "Failed to allocate state data\n");
    ret = -12;
    goto err_memgpio;
  } else {

  }
  drvdata->nr_states = config->nr_states;
  drvdata->desc.owner = & __this_module;
  switch ((unsigned int )config->type) {
  case 0U: 
  drvdata->desc.type = REGULATOR_VOLTAGE;
  drvdata->desc.ops = & gpio_regulator_voltage_ops;
  drvdata->desc.n_voltages = (unsigned int )config->nr_states;
  goto ldv_23092;
  case 1U: 
  drvdata->desc.type = REGULATOR_CURRENT;
  drvdata->desc.ops = & gpio_regulator_current_ops;
  goto ldv_23092;
  default: 
  dev_err((struct device  const  *)(& pdev->dev), "No regulator type set\n");
  ret = -22;
  goto err_memgpio;
  }
  ldv_23092: 
  drvdata->enable_gpio = config->enable_gpio;
  drvdata->startup_delay = config->startup_delay;
  tmp___3 = gpio_is_valid(config->enable_gpio);
  if ((int )tmp___3) {
    drvdata->enable_high = (int )config->enable_high != 0;
    ret = gpio_request((unsigned int )config->enable_gpio, config->supply_name);
    if (ret != 0) {
      dev_err((struct device  const  *)(& pdev->dev), "Could not obtain regulator enable GPIO %d: %d\n",
              config->enable_gpio, ret);
      goto err_memstate;
    } else {

    }
    if ((unsigned int )*((unsigned char *)config + 12UL) != 0U) {
      drvdata->is_enabled = 1;
      ret = gpio_direction_output((unsigned int )config->enable_gpio, (int )config->enable_high);
    } else {
      drvdata->is_enabled = 0;
      ret = gpio_direction_output((unsigned int )config->enable_gpio, (unsigned int )*((unsigned char *)config + 12UL) == 0U);
    }
    if (ret != 0) {
      dev_err((struct device  const  *)(& pdev->dev), "Could not configure regulator enable GPIO %d direction: %d\n",
              config->enable_gpio, ret);
      goto err_enablegpio;
    } else {

    }
  } else {
    drvdata->is_enabled = 1;
  }
  drvdata->nr_gpios = config->nr_gpios;
  ret = gpio_request_array((struct gpio  const  *)drvdata->gpios, (size_t )drvdata->nr_gpios);
  if (ret != 0) {
    dev_err((struct device  const  *)(& pdev->dev), "Could not obtain regulator setting GPIOs: %d\n",
            ret);
    goto err_enablegpio;
  } else {

  }
  state = 0;
  ptr = 0;
  goto ldv_23098;
  ldv_23097: ;
  if (((config->gpios + (unsigned long )ptr)->flags & 2UL) != 0UL) {
    state = (1 << ptr) | state;
  } else {

  }
  ptr = ptr + 1;
  ldv_23098: ;
  if (drvdata->nr_gpios > ptr) {
    goto ldv_23097;
  } else {

  }
  drvdata->state = state;
  cfg.dev = & pdev->dev;
  cfg.init_data = (struct regulator_init_data  const  *)config->init_data;
  cfg.driver_data = (void *)drvdata;
  drvdata->dev = regulator_register((struct regulator_desc  const  *)(& drvdata->desc),
                                    (struct regulator_config  const  *)(& cfg));
  tmp___5 = IS_ERR((void const   *)drvdata->dev);
  if (tmp___5 != 0L) {
    tmp___4 = PTR_ERR((void const   *)drvdata->dev);
    ret = (int )tmp___4;
    dev_err((struct device  const  *)(& pdev->dev), "Failed to register regulator: %d\n",
            ret);
    goto err_stategpio;
  } else {

  }
  platform_set_drvdata(pdev, (void *)drvdata);
  return (0);
  err_stategpio: 
  gpio_free_array((struct gpio  const  *)drvdata->gpios, (size_t )drvdata->nr_gpios);
  err_enablegpio: 
  tmp___6 = gpio_is_valid(config->enable_gpio);
  if ((int )tmp___6) {
    gpio_free((unsigned int )config->enable_gpio);
  } else {

  }
  err_memstate: 
  kfree((void const   *)drvdata->states);
  err_memgpio: 
  kfree((void const   *)drvdata->gpios);
  err_name: 
  kfree((void const   *)drvdata->desc.name);
  err: ;
  return (ret);
}
}
static int gpio_regulator_remove(struct platform_device *pdev ) 
{ 
  struct gpio_regulator_data *drvdata ;
  void *tmp ;
  bool tmp___0 ;

  {
  tmp = platform_get_drvdata((struct platform_device  const  *)pdev);
  drvdata = (struct gpio_regulator_data *)tmp;
  regulator_unregister(drvdata->dev);
  gpio_free_array((struct gpio  const  *)drvdata->gpios, (size_t )drvdata->nr_gpios);
  kfree((void const   *)drvdata->states);
  kfree((void const   *)drvdata->gpios);
  tmp___0 = gpio_is_valid(drvdata->enable_gpio);
  if ((int )tmp___0) {
    gpio_free((unsigned int )drvdata->enable_gpio);
  } else {

  }
  kfree((void const   *)drvdata->desc.name);
  return (0);
}
}
static struct platform_driver gpio_regulator_driver  =    {& gpio_regulator_probe, & gpio_regulator_remove, 0, 0, 0, {"gpio-regulator", 0,
                                                               & __this_module, 0,
                                                               (_Bool)0, 0, 0, 0,
                                                               0, 0, 0, 0, 0, 0},
    0};
static int gpio_regulator_init(void) 
{ 
  int tmp ;

  {
  tmp = platform_driver_register(& gpio_regulator_driver);
  return (tmp);
}
}
static void gpio_regulator_exit(void) 
{ 


  {
  platform_driver_unregister(& gpio_regulator_driver);
  return;
}
}
void ldv_check_final_state(void) ;
extern void ldv_check_return_value(int  ) ;
extern void ldv_check_return_value_probe(int  ) ;
void ldv_initialize(void) ;
extern void ldv_handler_precall(void) ;
extern int nondet_int(void) ;
int LDV_IN_INTERRUPT  ;
int main(void) 
{ 
  struct regulator_dev *var_group1 ;
  int var_gpio_regulator_set_voltage_6_p1 ;
  int var_gpio_regulator_set_voltage_6_p2 ;
  unsigned int *var_gpio_regulator_set_voltage_6_p3 ;
  unsigned int var_gpio_regulator_list_voltage_7_p1 ;
  int var_gpio_regulator_set_current_limit_8_p1 ;
  int var_gpio_regulator_set_current_limit_8_p2 ;
  struct platform_device *var_group2 ;
  int res_gpio_regulator_probe_9 ;
  int ldv_s_gpio_regulator_driver_platform_driver ;
  int tmp ;
  int tmp___0 ;
  int tmp___1 ;

  {
  ldv_s_gpio_regulator_driver_platform_driver = 0;
  LDV_IN_INTERRUPT = 1;
  ldv_initialize();
  ldv_handler_precall();
  tmp = gpio_regulator_init();
  if (tmp != 0) {
    goto ldv_final;
  } else {

  }
  goto ldv_23172;
  ldv_23171: 
  tmp___0 = nondet_int();
  switch (tmp___0) {
  case 0: 
  ldv_handler_precall();
  gpio_regulator_is_enabled(var_group1);
  goto ldv_23154;
  case 1: 
  ldv_handler_precall();
  gpio_regulator_enable(var_group1);
  goto ldv_23154;
  case 2: 
  ldv_handler_precall();
  gpio_regulator_disable(var_group1);
  goto ldv_23154;
  case 3: 
  ldv_handler_precall();
  gpio_regulator_enable_time(var_group1);
  goto ldv_23154;
  case 4: 
  ldv_handler_precall();
  gpio_regulator_get_value(var_group1);
  goto ldv_23154;
  case 5: 
  ldv_handler_precall();
  gpio_regulator_set_voltage(var_group1, var_gpio_regulator_set_voltage_6_p1, var_gpio_regulator_set_voltage_6_p2,
                             var_gpio_regulator_set_voltage_6_p3);
  goto ldv_23154;
  case 6: 
  ldv_handler_precall();
  gpio_regulator_list_voltage(var_group1, var_gpio_regulator_list_voltage_7_p1);
  goto ldv_23154;
  case 7: 
  ldv_handler_precall();
  gpio_regulator_is_enabled(var_group1);
  goto ldv_23154;
  case 8: 
  ldv_handler_precall();
  gpio_regulator_enable(var_group1);
  goto ldv_23154;
  case 9: 
  ldv_handler_precall();
  gpio_regulator_disable(var_group1);
  goto ldv_23154;
  case 10: 
  ldv_handler_precall();
  gpio_regulator_enable_time(var_group1);
  goto ldv_23154;
  case 11: 
  ldv_handler_precall();
  gpio_regulator_get_value(var_group1);
  goto ldv_23154;
  case 12: 
  ldv_handler_precall();
  gpio_regulator_set_current_limit(var_group1, var_gpio_regulator_set_current_limit_8_p1,
                                   var_gpio_regulator_set_current_limit_8_p2);
  goto ldv_23154;
  case 13: ;
  if (ldv_s_gpio_regulator_driver_platform_driver == 0) {
    res_gpio_regulator_probe_9 = gpio_regulator_probe(var_group2);
    ldv_check_return_value(res_gpio_regulator_probe_9);
    ldv_check_return_value_probe(res_gpio_regulator_probe_9);
    if (res_gpio_regulator_probe_9 != 0) {
      goto ldv_module_exit;
    } else {

    }
    ldv_s_gpio_regulator_driver_platform_driver = ldv_s_gpio_regulator_driver_platform_driver + 1;
  } else {

  }
  goto ldv_23154;
  case 14: ;
  if (ldv_s_gpio_regulator_driver_platform_driver == 1) {
    ldv_handler_precall();
    gpio_regulator_remove(var_group2);
    ldv_s_gpio_regulator_driver_platform_driver = 0;
  } else {

  }
  goto ldv_23154;
  default: ;
  goto ldv_23154;
  }
  ldv_23154: ;
  ldv_23172: 
  tmp___1 = nondet_int();
  if (tmp___1 != 0 || ldv_s_gpio_regulator_driver_platform_driver != 0) {
    goto ldv_23171;
  } else {

  }

  ldv_module_exit: 
  ldv_handler_precall();
  gpio_regulator_exit();
  ldv_final: 
  ldv_check_final_state();
  return 0;
}
}
void ldv_mutex_lock_1(struct mutex *ldv_func_arg1 ) 
{ 


  {
  ldv_mutex_lock_mutex_of_device(ldv_func_arg1);
  mutex_lock(ldv_func_arg1);
  return;
}
}
int ldv_mutex_trylock_2(struct mutex *ldv_func_arg1 ) 
{ 
  ldv_func_ret_type___0 ldv_func_res ;
  int tmp ;
  int tmp___0 ;

  {
  tmp = mutex_trylock(ldv_func_arg1);
  ldv_func_res = tmp;
  tmp___0 = ldv_mutex_trylock_mutex_of_device(ldv_func_arg1);
  return (tmp___0);
  return (ldv_func_res);
}
}
void ldv_mutex_unlock_3(struct mutex *ldv_func_arg1 ) 
{ 


  {
  ldv_mutex_unlock_mutex_of_device(ldv_func_arg1);
  mutex_unlock(ldv_func_arg1);
  return;
}
}
void ldv_mutex_lock_4(struct mutex *ldv_func_arg1 ) 
{ 


  {
  ldv_mutex_lock_cred_guard_mutex_of_signal_struct(ldv_func_arg1);
  mutex_lock(ldv_func_arg1);
  return;
}
}
void ldv_mutex_unlock_5(struct mutex *ldv_func_arg1 ) 
{ 


  {
  ldv_mutex_unlock_cred_guard_mutex_of_signal_struct(ldv_func_arg1);
  mutex_unlock(ldv_func_arg1);
  return;
}
}
void ldv_mutex_lock_6(struct mutex *ldv_func_arg1 ) 
{ 


  {
  ldv_mutex_lock_pm_mutex(ldv_func_arg1);
  mutex_lock(ldv_func_arg1);
  return;
}
}
void ldv_mutex_unlock_7(struct mutex *ldv_func_arg1 ) 
{ 


  {
  ldv_mutex_unlock_pm_mutex(ldv_func_arg1);
  mutex_unlock(ldv_func_arg1);
  return;
}
}
 static void ldv_error(void)  __attribute__((__no_instrument_function__)) ;
 static void ldv_error(void) 
{ 


  {
  LDV_ERROR: {reach_error();abort();}
}
}
extern int ldv_undef_int(void) ;
long ldv__builtin_expect(long exp , long c ) 
{ 


  {
  return (exp);
}
}
static int ldv_mutex_cred_guard_mutex_of_signal_struct  ;
int ldv_mutex_lock_interruptible_cred_guard_mutex_of_signal_struct(struct mutex *lock ) 
{ 
  int nondetermined ;

  {
  if (ldv_mutex_cred_guard_mutex_of_signal_struct == 1) {

  } else {
    ldv_error();
  }
  nondetermined = ldv_undef_int();
  if (nondetermined) {
    ldv_mutex_cred_guard_mutex_of_signal_struct = 2;
    return (0);
  } else {
    return (-4);
  }
}
}
int ldv_mutex_lock_killable_cred_guard_mutex_of_signal_struct(struct mutex *lock ) 
{ 
  int nondetermined ;

  {
  if (ldv_mutex_cred_guard_mutex_of_signal_struct == 1) {

  } else {
    ldv_error();
  }
  nondetermined = ldv_undef_int();
  if (nondetermined) {
    ldv_mutex_cred_guard_mutex_of_signal_struct = 2;
    return (0);
  } else {
    return (-4);
  }
}
}
void ldv_mutex_lock_cred_guard_mutex_of_signal_struct(struct mutex *lock ) 
{ 


  {
  if (ldv_mutex_cred_guard_mutex_of_signal_struct == 1) {

  } else {
    ldv_error();
  }
  ldv_mutex_cred_guard_mutex_of_signal_struct = 2;
  return;
}
}
int ldv_mutex_trylock_cred_guard_mutex_of_signal_struct(struct mutex *lock ) 
{ 
  int is_mutex_held_by_another_thread ;

  {
  if (ldv_mutex_cred_guard_mutex_of_signal_struct == 1) {

  } else {
    ldv_error();
  }
  is_mutex_held_by_another_thread = ldv_undef_int();
  if (is_mutex_held_by_another_thread) {
    return (0);
  } else {
    ldv_mutex_cred_guard_mutex_of_signal_struct = 2;
    return (1);
  }
}
}
int ldv_atomic_dec_and_mutex_lock_cred_guard_mutex_of_signal_struct(atomic_t *cnt ,
                                                                    struct mutex *lock ) 
{ 
  int atomic_value_after_dec ;

  {
  if (ldv_mutex_cred_guard_mutex_of_signal_struct == 1) {

  } else {
    ldv_error();
  }
  atomic_value_after_dec = ldv_undef_int();
  if (atomic_value_after_dec == 0) {
    ldv_mutex_cred_guard_mutex_of_signal_struct = 2;
    return (1);
  } else {

  }
  return (0);
}
}
int ldv_mutex_is_locked_cred_guard_mutex_of_signal_struct(struct mutex *lock ) 
{ 
  int nondetermined ;

  {
  if (ldv_mutex_cred_guard_mutex_of_signal_struct == 1) {
    nondetermined = ldv_undef_int();
    if (nondetermined) {
      return (0);
    } else {
      return (1);
    }
  } else {
    return (1);
  }
}
}
void ldv_mutex_unlock_cred_guard_mutex_of_signal_struct(struct mutex *lock ) 
{ 


  {
  if (ldv_mutex_cred_guard_mutex_of_signal_struct == 2) {

  } else {
    ldv_error();
  }
  ldv_mutex_cred_guard_mutex_of_signal_struct = 1;
  return;
}
}
static int ldv_mutex_mutex_of_device  ;
int ldv_mutex_lock_interruptible_mutex_of_device(struct mutex *lock ) 
{ 
  int nondetermined ;

  {
  if (ldv_mutex_mutex_of_device == 1) {

  } else {
    ldv_error();
  }
  nondetermined = ldv_undef_int();
  if (nondetermined) {
    ldv_mutex_mutex_of_device = 2;
    return (0);
  } else {
    return (-4);
  }
}
}
int ldv_mutex_lock_killable_mutex_of_device(struct mutex *lock ) 
{ 
  int nondetermined ;

  {
  if (ldv_mutex_mutex_of_device == 1) {

  } else {
    ldv_error();
  }
  nondetermined = ldv_undef_int();
  if (nondetermined) {
    ldv_mutex_mutex_of_device = 2;
    return (0);
  } else {
    return (-4);
  }
}
}
void ldv_mutex_lock_mutex_of_device(struct mutex *lock ) 
{ 


  {
  if (ldv_mutex_mutex_of_device == 1) {

  } else {
    ldv_error();
  }
  ldv_mutex_mutex_of_device = 2;
  return;
}
}
int ldv_mutex_trylock_mutex_of_device(struct mutex *lock ) 
{ 
  int is_mutex_held_by_another_thread ;

  {
  if (ldv_mutex_mutex_of_device == 1) {

  } else {
    ldv_error();
  }
  is_mutex_held_by_another_thread = ldv_undef_int();
  if (is_mutex_held_by_another_thread) {
    return (0);
  } else {
    ldv_mutex_mutex_of_device = 2;
    return (1);
  }
}
}
int ldv_atomic_dec_and_mutex_lock_mutex_of_device(atomic_t *cnt , struct mutex *lock ) 
{ 
  int atomic_value_after_dec ;

  {
  if (ldv_mutex_mutex_of_device == 1) {

  } else {
    ldv_error();
  }
  atomic_value_after_dec = ldv_undef_int();
  if (atomic_value_after_dec == 0) {
    ldv_mutex_mutex_of_device = 2;
    return (1);
  } else {

  }
  return (0);
}
}
int ldv_mutex_is_locked_mutex_of_device(struct mutex *lock ) 
{ 
  int nondetermined ;

  {
  if (ldv_mutex_mutex_of_device == 1) {
    nondetermined = ldv_undef_int();
    if (nondetermined) {
      return (0);
    } else {
      return (1);
    }
  } else {
    return (1);
  }
}
}
void ldv_mutex_unlock_mutex_of_device(struct mutex *lock ) 
{ 


  {
  if (ldv_mutex_mutex_of_device == 2) {

  } else {
    ldv_error();
  }
  ldv_mutex_mutex_of_device = 1;
  return;
}
}
static int ldv_mutex_pm_mutex  ;
int ldv_mutex_lock_interruptible_pm_mutex(struct mutex *lock ) 
{ 
  int nondetermined ;

  {
  if (ldv_mutex_pm_mutex == 1) {

  } else {
    ldv_error();
  }
  nondetermined = ldv_undef_int();
  if (nondetermined) {
    ldv_mutex_pm_mutex = 2;
    return (0);
  } else {
    return (-4);
  }
}
}
int ldv_mutex_lock_killable_pm_mutex(struct mutex *lock ) 
{ 
  int nondetermined ;

  {
  if (ldv_mutex_pm_mutex == 1) {

  } else {
    ldv_error();
  }
  nondetermined = ldv_undef_int();
  if (nondetermined) {
    ldv_mutex_pm_mutex = 2;
    return (0);
  } else {
    return (-4);
  }
}
}
void ldv_mutex_lock_pm_mutex(struct mutex *lock ) 
{ 


  {
  if (ldv_mutex_pm_mutex == 1) {

  } else {
    ldv_error();
  }
  ldv_mutex_pm_mutex = 2;
  return;
}
}
int ldv_mutex_trylock_pm_mutex(struct mutex *lock ) 
{ 
  int is_mutex_held_by_another_thread ;

  {
  if (ldv_mutex_pm_mutex == 1) {

  } else {
    ldv_error();
  }
  is_mutex_held_by_another_thread = ldv_undef_int();
  if (is_mutex_held_by_another_thread) {
    return (0);
  } else {
    ldv_mutex_pm_mutex = 2;
    return (1);
  }
}
}
int ldv_atomic_dec_and_mutex_lock_pm_mutex(atomic_t *cnt , struct mutex *lock ) 
{ 
  int atomic_value_after_dec ;

  {
  if (ldv_mutex_pm_mutex == 1) {

  } else {
    ldv_error();
  }
  atomic_value_after_dec = ldv_undef_int();
  if (atomic_value_after_dec == 0) {
    ldv_mutex_pm_mutex = 2;
    return (1);
  } else {

  }
  return (0);
}
}
int ldv_mutex_is_locked_pm_mutex(struct mutex *lock ) 
{ 
  int nondetermined ;

  {
  if (ldv_mutex_pm_mutex == 1) {
    nondetermined = ldv_undef_int();
    if (nondetermined) {
      return (0);
    } else {
      return (1);
    }
  } else {
    return (1);
  }
}
}
void ldv_mutex_unlock_pm_mutex(struct mutex *lock ) 
{ 


  {
  if (ldv_mutex_pm_mutex == 2) {

  } else {
    ldv_error();
  }
  ldv_mutex_pm_mutex = 1;
  return;
}
}
void ldv_initialize(void) 
{ 


  {
  ldv_mutex_cred_guard_mutex_of_signal_struct = 1;
  ldv_mutex_mutex_of_device = 1;
  ldv_mutex_pm_mutex = 1;
  return;
}
}
void ldv_check_final_state(void) 
{ 


  {
  if (ldv_mutex_cred_guard_mutex_of_signal_struct == 1) {

  } else {
    ldv_error();
  }
  if (ldv_mutex_mutex_of_device == 1) {

  } else {
    ldv_error();
  }
  if (ldv_mutex_pm_mutex == 1) {

  } else {
    ldv_error();
  }
  return;
}
}
