extern void abort(void);
extern void __assert_fail(const char *, const char *, unsigned int, const char *) __attribute__ ((__nothrow__ , __leaf__)) __attribute__ ((__noreturn__));
void reach_error() { __assert_fail("0", "drivers--net--tokenring--abyss.ko_008.726a645.43_1a.cil_true-unreach-call.i", 3, "reach_error"); }

/* Generated by CIL v. 1.5.1 */
/* print_CIL_Input is false */

typedef unsigned int __kernel_mode_t;
typedef int __kernel_pid_t;
typedef unsigned int __kernel_uid_t;
typedef unsigned int __kernel_gid_t;
typedef unsigned long __kernel_size_t;
typedef long __kernel_ssize_t;
typedef long __kernel_time_t;
typedef long __kernel_clock_t;
typedef int __kernel_timer_t;
typedef int __kernel_clockid_t;
typedef long long __kernel_loff_t;
typedef __kernel_uid_t __kernel_uid32_t;
typedef __kernel_gid_t __kernel_gid32_t;
typedef unsigned char __u8;
typedef unsigned short __u16;
typedef int __s32;
typedef unsigned int __u32;
typedef unsigned long long __u64;
typedef signed char s8;
typedef unsigned char u8;
typedef unsigned short u16;
typedef int s32;
typedef unsigned int u32;
typedef long long s64;
typedef unsigned long long u64;
typedef u64 dma_addr_t;
typedef __u32 __kernel_dev_t;
typedef __kernel_dev_t dev_t;
typedef __kernel_mode_t mode_t;
typedef __kernel_pid_t pid_t;
typedef __kernel_timer_t timer_t;
typedef __kernel_clockid_t clockid_t;
typedef __kernel_uid32_t uid_t;
typedef __kernel_gid32_t gid_t;
typedef __kernel_loff_t loff_t;
typedef __kernel_size_t size_t;
typedef __kernel_ssize_t ssize_t;
typedef __kernel_time_t time_t;
typedef __kernel_clock_t clock_t;
typedef __u8 u_int8_t;
typedef __u16 u_int16_t;
typedef __u32 u_int32_t;
typedef __u16 __be16;
typedef __u32 __be32;
typedef __u32 __wsum;
typedef unsigned int gfp_t;
typedef u64 resource_size_t;
struct module;
struct bug_entry {
   unsigned long bug_addr ;
   char const   *file ;
   unsigned short line ;
   unsigned short flags ;
};
struct completion;
struct pt_regs;
struct pid;
struct pt_regs {
   unsigned long r15 ;
   unsigned long r14 ;
   unsigned long r13 ;
   unsigned long r12 ;
   unsigned long bp ;
   unsigned long bx ;
   unsigned long r11 ;
   unsigned long r10 ;
   unsigned long r9 ;
   unsigned long r8 ;
   unsigned long ax ;
   unsigned long cx ;
   unsigned long dx ;
   unsigned long si ;
   unsigned long di ;
   unsigned long orig_ax ;
   unsigned long ip ;
   unsigned long cs ;
   unsigned long flags ;
   unsigned long sp ;
   unsigned long ss ;
};
struct task_struct;
struct mm_struct;
struct info {
   long ___orig_eip ;
   long ___ebx ;
   long ___ecx ;
   long ___edx ;
   long ___esi ;
   long ___edi ;
   long ___ebp ;
   long ___eax ;
   long ___ds ;
   long ___es ;
   long ___fs ;
   long ___orig_eax ;
   long ___eip ;
   long ___cs ;
   long ___eflags ;
   long ___esp ;
   long ___ss ;
   long ___vm86_es ;
   long ___vm86_ds ;
   long ___vm86_fs ;
   long ___vm86_gs ;
};
typedef unsigned long pgdval_t;
typedef unsigned long pgprotval_t;
struct page;
struct __anonstruct_pgd_t_6 {
   pgdval_t pgd ;
};
typedef struct __anonstruct_pgd_t_6 pgd_t;
struct __anonstruct_pgprot_t_7 {
   pgprotval_t pgprot ;
};
typedef struct __anonstruct_pgprot_t_7 pgprot_t;
struct __anonstruct_ldv_1814_11 {
   unsigned int a ;
   unsigned int b ;
};
struct __anonstruct_ldv_1829_12 {
   u16 limit0 ;
   u16 base0 ;
   unsigned char base1 ;
   unsigned char type : 4 ;
   unsigned char s : 1 ;
   unsigned char dpl : 2 ;
   unsigned char p : 1 ;
   unsigned char limit : 4 ;
   unsigned char avl : 1 ;
   unsigned char l : 1 ;
   unsigned char d : 1 ;
   unsigned char g : 1 ;
   unsigned char base2 ;
};
union __anonunion_ldv_1830_10 {
   struct __anonstruct_ldv_1814_11 ldv_1814 ;
   struct __anonstruct_ldv_1829_12 ldv_1829 ;
};
struct desc_struct {
   union __anonunion_ldv_1830_10 ldv_1830 ;
};
struct __anonstruct_cpumask_t_13 {
   unsigned long bits[1U] ;
};
typedef struct __anonstruct_cpumask_t_13 cpumask_t;
struct thread_struct;
struct exec_domain;
struct map_segment;
struct exec_domain {
   char const   *name ;
   void (*handler)(int  , struct pt_regs * ) ;
   unsigned char pers_low ;
   unsigned char pers_high ;
   unsigned long *signal_map ;
   unsigned long *signal_invmap ;
   struct map_segment *err_map ;
   struct map_segment *socktype_map ;
   struct map_segment *sockopt_map ;
   struct map_segment *af_map ;
   struct module *module ;
   struct exec_domain *next ;
};
struct i387_fsave_struct {
   u32 cwd ;
   u32 swd ;
   u32 twd ;
   u32 fip ;
   u32 fcs ;
   u32 foo ;
   u32 fos ;
   u32 st_space[20U] ;
   u32 status ;
};
struct __anonstruct_ldv_3895_15 {
   u64 rip ;
   u64 rdp ;
};
struct __anonstruct_ldv_3901_16 {
   u32 fip ;
   u32 fcs ;
   u32 foo ;
   u32 fos ;
};
union __anonunion_ldv_3902_14 {
   struct __anonstruct_ldv_3895_15 ldv_3895 ;
   struct __anonstruct_ldv_3901_16 ldv_3901 ;
};
struct i387_fxsave_struct {
   u16 cwd ;
   u16 swd ;
   u16 twd ;
   u16 fop ;
   union __anonunion_ldv_3902_14 ldv_3902 ;
   u32 mxcsr ;
   u32 mxcsr_mask ;
   u32 st_space[32U] ;
   u32 xmm_space[64U] ;
   u32 padding[24U] ;
};
struct i387_soft_struct {
   u32 cwd ;
   u32 swd ;
   u32 twd ;
   u32 fip ;
   u32 fcs ;
   u32 foo ;
   u32 fos ;
   u32 st_space[20U] ;
   u8 ftop ;
   u8 changed ;
   u8 lookahead ;
   u8 no_update ;
   u8 rm ;
   u8 alimit ;
   struct info *info ;
   u32 entry_eip ;
};
union i387_union {
   struct i387_fsave_struct fsave ;
   struct i387_fxsave_struct fxsave ;
   struct i387_soft_struct soft ;
};
struct thread_struct {
   struct desc_struct tls_array[3U] ;
   unsigned long sp0 ;
   unsigned long sp ;
   unsigned long usersp ;
   unsigned short es ;
   unsigned short ds ;
   unsigned short fsindex ;
   unsigned short gsindex ;
   unsigned long ip ;
   unsigned long fs ;
   unsigned long gs ;
   unsigned long debugreg0 ;
   unsigned long debugreg1 ;
   unsigned long debugreg2 ;
   unsigned long debugreg3 ;
   unsigned long debugreg6 ;
   unsigned long debugreg7 ;
   unsigned long cr2 ;
   unsigned long trap_no ;
   unsigned long error_code ;
   union i387_union i387 ;
   unsigned long *io_bitmap_ptr ;
   unsigned long iopl ;
   unsigned int io_bitmap_max ;
   unsigned long debugctlmsr ;
   unsigned long ds_area_msr ;
};
struct __anonstruct_mm_segment_t_17 {
   unsigned long seg ;
};
typedef struct __anonstruct_mm_segment_t_17 mm_segment_t;
struct list_head {
   struct list_head *next ;
   struct list_head *prev ;
};
struct hlist_node;
struct hlist_head {
   struct hlist_node *first ;
};
struct hlist_node {
   struct hlist_node *next ;
   struct hlist_node **pprev ;
};
struct __anonstruct_ldv_4342_19 {
   unsigned long arg0 ;
   unsigned long arg1 ;
   unsigned long arg2 ;
   unsigned long arg3 ;
};
struct __anonstruct_futex_20 {
   u32 *uaddr ;
   u32 val ;
   u32 flags ;
   u32 bitset ;
   u64 time ;
};
union __anonunion_ldv_4350_18 {
   struct __anonstruct_ldv_4342_19 ldv_4342 ;
   struct __anonstruct_futex_20 futex ;
};
struct restart_block {
   long (*fn)(struct restart_block * ) ;
   union __anonunion_ldv_4350_18 ldv_4350 ;
};
struct thread_info {
   struct task_struct *task ;
   struct exec_domain *exec_domain ;
   __u32 flags ;
   __u32 status ;
   __u32 cpu ;
   int preempt_count ;
   mm_segment_t addr_limit ;
   struct restart_block restart_block ;
   void *sysenter_return ;
};
struct __anonstruct_raw_spinlock_t_21 {
   unsigned int slock ;
};
typedef struct __anonstruct_raw_spinlock_t_21 raw_spinlock_t;
struct __anonstruct_raw_rwlock_t_22 {
   unsigned int lock ;
};
typedef struct __anonstruct_raw_rwlock_t_22 raw_rwlock_t;
struct lockdep_map;
struct stack_trace {
   unsigned int nr_entries ;
   unsigned int max_entries ;
   unsigned long *entries ;
   int skip ;
};
struct lockdep_subclass_key {
   char __one_byte ;
};
struct lock_class_key {
   struct lockdep_subclass_key subkeys[8U] ;
};
struct lock_class {
   struct list_head hash_entry ;
   struct list_head lock_entry ;
   struct lockdep_subclass_key *key ;
   unsigned int subclass ;
   unsigned long usage_mask ;
   struct stack_trace usage_traces[9U] ;
   struct list_head locks_after ;
   struct list_head locks_before ;
   unsigned int version ;
   unsigned long ops ;
   char const   *name ;
   int name_version ;
   unsigned long contention_point[4U] ;
};
struct lockdep_map {
   struct lock_class_key *key ;
   struct lock_class *class_cache ;
   char const   *name ;
   int cpu ;
};
struct held_lock {
   u64 prev_chain_key ;
   struct lock_class *class ;
   unsigned long acquire_ip ;
   struct lockdep_map *instance ;
   u64 waittime_stamp ;
   u64 holdtime_stamp ;
   int irq_context ;
   int trylock ;
   int read ;
   int check ;
   int hardirqs_off ;
};
struct __anonstruct_spinlock_t_23 {
   raw_spinlock_t raw_lock ;
   unsigned int magic ;
   unsigned int owner_cpu ;
   void *owner ;
   struct lockdep_map dep_map ;
};
typedef struct __anonstruct_spinlock_t_23 spinlock_t;
struct __anonstruct_rwlock_t_24 {
   raw_rwlock_t raw_lock ;
   unsigned int magic ;
   unsigned int owner_cpu ;
   void *owner ;
   struct lockdep_map dep_map ;
};
typedef struct __anonstruct_rwlock_t_24 rwlock_t;
struct __anonstruct_atomic_t_25 {
   int counter ;
};
typedef struct __anonstruct_atomic_t_25 atomic_t;
struct __anonstruct_atomic64_t_26 {
   long counter ;
};
typedef struct __anonstruct_atomic64_t_26 atomic64_t;
typedef atomic64_t atomic_long_t;
struct __anonstruct_seqlock_t_27 {
   unsigned int sequence ;
   spinlock_t lock ;
};
typedef struct __anonstruct_seqlock_t_27 seqlock_t;
struct timespec {
   time_t tv_sec ;
   long tv_nsec ;
};
struct key;
struct file;
typedef __u64 Elf64_Addr;
typedef __u16 Elf64_Half;
typedef __u32 Elf64_Word;
typedef __u64 Elf64_Xword;
struct elf64_sym {
   Elf64_Word st_name ;
   unsigned char st_info ;
   unsigned char st_other ;
   Elf64_Half st_shndx ;
   Elf64_Addr st_value ;
   Elf64_Xword st_size ;
};
typedef struct elf64_sym Elf64_Sym;
struct kobject;
struct attribute {
   char const   *name ;
   struct module *owner ;
   mode_t mode ;
};
struct attribute_group {
   char const   *name ;
   int (*is_visible)(struct kobject * , struct attribute * , int  ) ;
   struct attribute **attrs ;
};
struct vm_area_struct;
struct bin_attribute {
   struct attribute attr ;
   size_t size ;
   void *private ;
   ssize_t (*read)(struct kobject * , struct bin_attribute * , char * , loff_t  ,
                   size_t  ) ;
   ssize_t (*write)(struct kobject * , struct bin_attribute * , char * , loff_t  ,
                    size_t  ) ;
   int (*mmap)(struct kobject * , struct bin_attribute * , struct vm_area_struct * ) ;
};
struct sysfs_ops {
   ssize_t (*show)(struct kobject * , struct attribute * , char * ) ;
   ssize_t (*store)(struct kobject * , struct attribute * , char const   * , size_t  ) ;
};
struct kref {
   atomic_t refcount ;
};
struct __wait_queue_head {
   spinlock_t lock ;
   struct list_head task_list ;
};
typedef struct __wait_queue_head wait_queue_head_t;
struct kset;
struct kobj_type;
struct sysfs_dirent;
struct kobject {
   char const   *name ;
   struct kref kref ;
   struct list_head entry ;
   struct kobject *parent ;
   struct kset *kset ;
   struct kobj_type *ktype ;
   struct sysfs_dirent *sd ;
   unsigned char state_initialized : 1 ;
   unsigned char state_in_sysfs : 1 ;
   unsigned char state_add_uevent_sent : 1 ;
   unsigned char state_remove_uevent_sent : 1 ;
};
struct kobj_type {
   void (*release)(struct kobject * ) ;
   struct sysfs_ops *sysfs_ops ;
   struct attribute **default_attrs ;
};
struct kobj_uevent_env {
   char *envp[32U] ;
   int envp_idx ;
   char buf[2048U] ;
   int buflen ;
};
struct kset_uevent_ops {
   int (*filter)(struct kset * , struct kobject * ) ;
   char const   *(*name)(struct kset * , struct kobject * ) ;
   int (*uevent)(struct kset * , struct kobject * , struct kobj_uevent_env * ) ;
};
struct kset {
   struct list_head list ;
   spinlock_t list_lock ;
   struct kobject kobj ;
   struct kset_uevent_ops *uevent_ops ;
};
struct marker;
typedef void marker_probe_func(struct marker  const  * , void * , char const   * 
                               , ...);
struct marker {
   char const   *name ;
   char const   *format ;
   char state ;
   marker_probe_func *call ;
   void *private ;
};
struct __anonstruct_nodemask_t_33 {
   unsigned long bits[1U] ;
};
typedef struct __anonstruct_nodemask_t_33 nodemask_t;
struct mutex {
   atomic_t count ;
   spinlock_t wait_lock ;
   struct list_head wait_list ;
   struct thread_info *owner ;
   char const   *name ;
   void *magic ;
   struct lockdep_map dep_map ;
};
struct mutex_waiter {
   struct list_head list ;
   struct task_struct *task ;
   struct mutex *lock ;
   void *magic ;
};
struct rw_semaphore;
struct rw_semaphore {
   __s32 activity ;
   spinlock_t wait_lock ;
   struct list_head wait_list ;
   struct lockdep_map dep_map ;
};
struct ctl_table;
struct device;
struct pm_message {
   int event ;
};
typedef struct pm_message pm_message_t;
struct dev_pm_info {
   pm_message_t power_state ;
   unsigned char can_wakeup : 1 ;
   unsigned char should_wakeup : 1 ;
   struct list_head entry ;
};
struct kmem_cache;
union ktime {
   s64 tv64 ;
};
typedef union ktime ktime_t;
struct tvec_base;
struct timer_list {
   struct list_head entry ;
   unsigned long expires ;
   void (*function)(unsigned long  ) ;
   unsigned long data ;
   struct tvec_base *base ;
   void *start_site ;
   char start_comm[16U] ;
   int start_pid ;
};
struct hrtimer;
enum hrtimer_restart;
struct work_struct;
struct work_struct {
   atomic_long_t data ;
   struct list_head entry ;
   void (*func)(struct work_struct * ) ;
   struct lockdep_map lockdep_map ;
};
struct delayed_work {
   struct work_struct work ;
   struct timer_list timer ;
};
struct kmem_cache_cpu {
   void **freelist ;
   struct page *page ;
   int node ;
   unsigned int offset ;
   unsigned int objsize ;
};
struct kmem_cache_node {
   spinlock_t list_lock ;
   unsigned long nr_partial ;
   atomic_long_t nr_slabs ;
   struct list_head partial ;
   struct list_head full ;
};
struct kmem_cache {
   unsigned long flags ;
   int size ;
   int objsize ;
   int offset ;
   int order ;
   struct kmem_cache_node local_node ;
   int objects ;
   int refcount ;
   void (*ctor)(struct kmem_cache * , void * ) ;
   int inuse ;
   int align ;
   char const   *name ;
   struct list_head list ;
   struct kobject kobj ;
   int defrag_ratio ;
   struct kmem_cache_node *node[64U] ;
   struct kmem_cache_cpu *cpu_slab[8U] ;
};
struct __anonstruct_local_t_84 {
   atomic_long_t a ;
};
typedef struct __anonstruct_local_t_84 local_t;
struct mod_arch_specific {

};
struct kernel_symbol {
   unsigned long value ;
   char const   *name ;
};
struct module_attribute {
   struct attribute attr ;
   ssize_t (*show)(struct module_attribute * , struct module * , char * ) ;
   ssize_t (*store)(struct module_attribute * , struct module * , char const   * ,
                    size_t  ) ;
   void (*setup)(struct module * , char const   * ) ;
   int (*test)(struct module * ) ;
   void (*free)(struct module * ) ;
};
struct module_kobject {
   struct kobject kobj ;
   struct module *mod ;
   struct kobject *drivers_dir ;
};
struct exception_table_entry;
struct module_ref {
   local_t count ;
};
enum module_state {
    MODULE_STATE_LIVE = 0,
    MODULE_STATE_COMING = 1,
    MODULE_STATE_GOING = 2
} ;
struct module_sect_attr {
   struct module_attribute mattr ;
   char *name ;
   unsigned long address ;
};
struct module_sect_attrs {
   struct attribute_group grp ;
   int nsections ;
   struct module_sect_attr attrs[0U] ;
};
struct module_param_attrs;
struct module_notes_attrs;
struct module {
   enum module_state state ;
   struct list_head list ;
   char name[56U] ;
   struct module_kobject mkobj ;
   struct module_param_attrs *param_attrs ;
   struct module_attribute *modinfo_attrs ;
   char const   *version ;
   char const   *srcversion ;
   struct kobject *holders_dir ;
   struct kernel_symbol  const  *syms ;
   unsigned int num_syms ;
   unsigned long const   *crcs ;
   struct kernel_symbol  const  *gpl_syms ;
   unsigned int num_gpl_syms ;
   unsigned long const   *gpl_crcs ;
   struct kernel_symbol  const  *unused_syms ;
   unsigned int num_unused_syms ;
   unsigned long const   *unused_crcs ;
   struct kernel_symbol  const  *unused_gpl_syms ;
   unsigned int num_unused_gpl_syms ;
   unsigned long const   *unused_gpl_crcs ;
   struct kernel_symbol  const  *gpl_future_syms ;
   unsigned int num_gpl_future_syms ;
   unsigned long const   *gpl_future_crcs ;
   unsigned int num_exentries ;
   struct exception_table_entry  const  *extable ;
   int (*init)(void) ;
   void *module_init ;
   void *module_core ;
   unsigned long init_size ;
   unsigned long core_size ;
   unsigned long init_text_size ;
   unsigned long core_text_size ;
   void *unwind_info ;
   struct mod_arch_specific arch ;
   unsigned int taints ;
   struct list_head bug_list ;
   struct bug_entry *bug_table ;
   unsigned int num_bugs ;
   struct module_ref ref[8U] ;
   struct list_head modules_which_use_me ;
   struct task_struct *waiter ;
   void (*exit)(void) ;
   Elf64_Sym *symtab ;
   unsigned long num_symtab ;
   char *strtab ;
   struct module_sect_attrs *sect_attrs ;
   struct module_notes_attrs *notes_attrs ;
   void *percpu ;
   char *args ;
   struct marker *markers ;
   unsigned int num_markers ;
};
struct device_driver;
typedef unsigned long kernel_ulong_t;
struct pci_device_id {
   __u32 vendor ;
   __u32 device ;
   __u32 subvendor ;
   __u32 subdevice ;
   __u32 class ;
   __u32 class_mask ;
   kernel_ulong_t driver_data ;
};
struct resource {
   resource_size_t start ;
   resource_size_t end ;
   char const   *name ;
   unsigned long flags ;
   struct resource *parent ;
   struct resource *sibling ;
   struct resource *child ;
};
struct pci_dev;
struct completion {
   unsigned int done ;
   wait_queue_head_t wait ;
};
struct klist_node;
struct klist {
   spinlock_t k_lock ;
   struct list_head k_list ;
   void (*get)(struct klist_node * ) ;
   void (*put)(struct klist_node * ) ;
};
struct klist_node {
   struct klist *n_klist ;
   struct list_head n_node ;
   struct kref n_ref ;
   struct completion n_removed ;
};
struct semaphore {
   atomic_t count ;
   int sleepers ;
   wait_queue_head_t wait ;
};
struct dev_archdata {
   void *acpi_handle ;
   void *iommu ;
};
struct driver_private;
struct class;
struct class_device;
struct bus_type;
struct bus_type_private;
struct bus_attribute {
   struct attribute attr ;
   ssize_t (*show)(struct bus_type * , char * ) ;
   ssize_t (*store)(struct bus_type * , char const   * , size_t  ) ;
};
struct device_attribute;
struct driver_attribute;
struct bus_type {
   char const   *name ;
   struct bus_attribute *bus_attrs ;
   struct device_attribute *dev_attrs ;
   struct driver_attribute *drv_attrs ;
   int (*match)(struct device * , struct device_driver * ) ;
   int (*uevent)(struct device * , struct kobj_uevent_env * ) ;
   int (*probe)(struct device * ) ;
   int (*remove)(struct device * ) ;
   void (*shutdown)(struct device * ) ;
   int (*suspend)(struct device * , pm_message_t  ) ;
   int (*suspend_late)(struct device * , pm_message_t  ) ;
   int (*resume_early)(struct device * ) ;
   int (*resume)(struct device * ) ;
   struct bus_type_private *p ;
};
struct device_driver {
   char const   *name ;
   struct bus_type *bus ;
   struct module *owner ;
   char const   *mod_name ;
   int (*probe)(struct device * ) ;
   int (*remove)(struct device * ) ;
   void (*shutdown)(struct device * ) ;
   int (*suspend)(struct device * , pm_message_t  ) ;
   int (*resume)(struct device * ) ;
   struct attribute_group **groups ;
   struct driver_private *p ;
};
struct driver_attribute {
   struct attribute attr ;
   ssize_t (*show)(struct device_driver * , char * ) ;
   ssize_t (*store)(struct device_driver * , char const   * , size_t  ) ;
};
struct class_attribute;
struct class_device_attribute;
struct class {
   char const   *name ;
   struct module *owner ;
   struct kset subsys ;
   struct list_head children ;
   struct list_head devices ;
   struct list_head interfaces ;
   struct kset class_dirs ;
   struct semaphore sem ;
   struct class_attribute *class_attrs ;
   struct class_device_attribute *class_dev_attrs ;
   struct device_attribute *dev_attrs ;
   int (*uevent)(struct class_device * , struct kobj_uevent_env * ) ;
   int (*dev_uevent)(struct device * , struct kobj_uevent_env * ) ;
   void (*release)(struct class_device * ) ;
   void (*class_release)(struct class * ) ;
   void (*dev_release)(struct device * ) ;
   int (*suspend)(struct device * , pm_message_t  ) ;
   int (*resume)(struct device * ) ;
};
struct class_attribute {
   struct attribute attr ;
   ssize_t (*show)(struct class * , char * ) ;
   ssize_t (*store)(struct class * , char const   * , size_t  ) ;
};
struct class_device_attribute {
   struct attribute attr ;
   ssize_t (*show)(struct class_device * , char * ) ;
   ssize_t (*store)(struct class_device * , char const   * , size_t  ) ;
};
struct class_device {
   struct list_head node ;
   struct kobject kobj ;
   struct class *class ;
   dev_t devt ;
   struct device *dev ;
   void *class_data ;
   struct class_device *parent ;
   struct attribute_group **groups ;
   void (*release)(struct class_device * ) ;
   int (*uevent)(struct class_device * , struct kobj_uevent_env * ) ;
   char class_id[20U] ;
};
struct device_type {
   char const   *name ;
   struct attribute_group **groups ;
   int (*uevent)(struct device * , struct kobj_uevent_env * ) ;
   void (*release)(struct device * ) ;
   int (*suspend)(struct device * , pm_message_t  ) ;
   int (*resume)(struct device * ) ;
};
struct device_attribute {
   struct attribute attr ;
   ssize_t (*show)(struct device * , struct device_attribute * , char * ) ;
   ssize_t (*store)(struct device * , struct device_attribute * , char const   * ,
                    size_t  ) ;
};
struct dma_coherent_mem;
struct device {
   struct klist klist_children ;
   struct klist_node knode_parent ;
   struct klist_node knode_driver ;
   struct klist_node knode_bus ;
   struct device *parent ;
   struct kobject kobj ;
   char bus_id[20U] ;
   struct device_type *type ;
   unsigned char is_registered : 1 ;
   unsigned char uevent_suppress : 1 ;
   struct semaphore sem ;
   struct bus_type *bus ;
   struct device_driver *driver ;
   void *driver_data ;
   void *platform_data ;
   struct dev_pm_info power ;
   int numa_node ;
   u64 *dma_mask ;
   u64 coherent_dma_mask ;
   struct list_head dma_pools ;
   struct dma_coherent_mem *dma_mem ;
   struct dev_archdata archdata ;
   spinlock_t devres_lock ;
   struct list_head devres_head ;
   struct list_head node ;
   struct class *class ;
   dev_t devt ;
   struct attribute_group **groups ;
   void (*release)(struct device * ) ;
};
typedef int pci_power_t;
typedef unsigned int pci_channel_state_t;
enum pci_channel_state {
    pci_channel_io_normal = 1,
    pci_channel_io_frozen = 2,
    pci_channel_io_perm_failure = 3
} ;
typedef unsigned short pci_dev_flags_t;
typedef unsigned short pci_bus_flags_t;
struct pcie_link_state;
struct pci_bus;
struct proc_dir_entry;
struct pci_driver;
struct pci_dev {
   struct list_head global_list ;
   struct list_head bus_list ;
   struct pci_bus *bus ;
   struct pci_bus *subordinate ;
   void *sysdata ;
   struct proc_dir_entry *procent ;
   unsigned int devfn ;
   unsigned short vendor ;
   unsigned short device ;
   unsigned short subsystem_vendor ;
   unsigned short subsystem_device ;
   unsigned int class ;
   u8 revision ;
   u8 hdr_type ;
   u8 pcie_type ;
   u8 rom_base_reg ;
   u8 pin ;
   struct pci_driver *driver ;
   u64 dma_mask ;
   pci_power_t current_state ;
   struct pcie_link_state *link_state ;
   pci_channel_state_t error_state ;
   struct device dev ;
   int cfg_size ;
   unsigned int irq ;
   struct resource resource[12U] ;
   unsigned char transparent : 1 ;
   unsigned char multifunction : 1 ;
   unsigned char is_busmaster : 1 ;
   unsigned char no_msi : 1 ;
   unsigned char no_d1d2 : 1 ;
   unsigned char block_ucfg_access : 1 ;
   unsigned char broken_parity_status : 1 ;
   unsigned char msi_enabled : 1 ;
   unsigned char msix_enabled : 1 ;
   unsigned char is_managed : 1 ;
   unsigned char is_pcie : 1 ;
   pci_dev_flags_t dev_flags ;
   atomic_t enable_cnt ;
   u32 saved_config_space[16U] ;
   struct hlist_head saved_cap_space ;
   struct bin_attribute *rom_attr ;
   int rom_attr_enabled ;
   struct bin_attribute *res_attr[12U] ;
   struct list_head msi_list ;
};
struct pci_ops;
struct pci_bus {
   struct list_head node ;
   struct pci_bus *parent ;
   struct list_head children ;
   struct list_head devices ;
   struct pci_dev *self ;
   struct resource *resource[8U] ;
   struct pci_ops *ops ;
   void *sysdata ;
   struct proc_dir_entry *procdir ;
   unsigned char number ;
   unsigned char primary ;
   unsigned char secondary ;
   unsigned char subordinate ;
   char name[48U] ;
   unsigned short bridge_ctl ;
   pci_bus_flags_t bus_flags ;
   struct device *bridge ;
   struct device dev ;
   struct bin_attribute *legacy_io ;
   struct bin_attribute *legacy_mem ;
};
struct pci_ops {
   int (*read)(struct pci_bus * , unsigned int  , int  , int  , u32 * ) ;
   int (*write)(struct pci_bus * , unsigned int  , int  , int  , u32  ) ;
};
struct pci_dynids {
   spinlock_t lock ;
   struct list_head list ;
   unsigned char use_driver_data : 1 ;
};
typedef unsigned int pci_ers_result_t;
struct pci_error_handlers {
   pci_ers_result_t (*error_detected)(struct pci_dev * , enum pci_channel_state  ) ;
   pci_ers_result_t (*mmio_enabled)(struct pci_dev * ) ;
   pci_ers_result_t (*link_reset)(struct pci_dev * ) ;
   pci_ers_result_t (*slot_reset)(struct pci_dev * ) ;
   void (*resume)(struct pci_dev * ) ;
};
struct pci_driver {
   struct list_head node ;
   char *name ;
   struct pci_device_id  const  *id_table ;
   int (*probe)(struct pci_dev * , struct pci_device_id  const  * ) ;
   void (*remove)(struct pci_dev * ) ;
   int (*suspend)(struct pci_dev * , pm_message_t  ) ;
   int (*suspend_late)(struct pci_dev * , pm_message_t  ) ;
   int (*resume_early)(struct pci_dev * ) ;
   int (*resume)(struct pci_dev * ) ;
   void (*shutdown)(struct pci_dev * ) ;
   struct pci_error_handlers *err_handler ;
   struct device_driver driver ;
   struct pci_dynids dynids ;
};
struct rb_node {
   unsigned long rb_parent_color ;
   struct rb_node *rb_right ;
   struct rb_node *rb_left ;
};
struct rb_root {
   struct rb_node *rb_node ;
};
struct prio_tree_node;
struct raw_prio_tree_node {
   struct prio_tree_node *left ;
   struct prio_tree_node *right ;
   struct prio_tree_node *parent ;
};
struct prio_tree_node {
   struct prio_tree_node *left ;
   struct prio_tree_node *right ;
   struct prio_tree_node *parent ;
   unsigned long start ;
   unsigned long last ;
};
struct __anonstruct_mm_context_t_86 {
   void *ldt ;
   rwlock_t ldtlock ;
   int size ;
   struct mutex lock ;
   void *vdso ;
};
typedef struct __anonstruct_mm_context_t_86 mm_context_t;
struct address_space;
typedef atomic_long_t mm_counter_t;
union __anonunion_ldv_10208_87 {
   atomic_t _mapcount ;
   unsigned int inuse ;
};
struct __anonstruct_ldv_10213_89 {
   unsigned long private ;
   struct address_space *mapping ;
};
union __anonunion_ldv_10217_88 {
   struct __anonstruct_ldv_10213_89 ldv_10213 ;
   spinlock_t ptl ;
   struct kmem_cache *slab ;
   struct page *first_page ;
};
union __anonunion_ldv_10221_90 {
   unsigned long index ;
   void *freelist ;
};
struct page {
   unsigned long flags ;
   atomic_t _count ;
   union __anonunion_ldv_10208_87 ldv_10208 ;
   union __anonunion_ldv_10217_88 ldv_10217 ;
   union __anonunion_ldv_10221_90 ldv_10221 ;
   struct list_head lru ;
};
struct __anonstruct_vm_set_92 {
   struct list_head list ;
   void *parent ;
   struct vm_area_struct *head ;
};
union __anonunion_shared_91 {
   struct __anonstruct_vm_set_92 vm_set ;
   struct raw_prio_tree_node prio_tree_node ;
};
struct anon_vma;
struct vm_operations_struct;
struct mempolicy;
struct vm_area_struct {
   struct mm_struct *vm_mm ;
   unsigned long vm_start ;
   unsigned long vm_end ;
   struct vm_area_struct *vm_next ;
   pgprot_t vm_page_prot ;
   unsigned long vm_flags ;
   struct rb_node vm_rb ;
   union __anonunion_shared_91 shared ;
   struct list_head anon_vma_node ;
   struct anon_vma *anon_vma ;
   struct vm_operations_struct *vm_ops ;
   unsigned long vm_pgoff ;
   struct file *vm_file ;
   void *vm_private_data ;
   unsigned long vm_truncate_count ;
   struct mempolicy *vm_policy ;
};
struct kioctx;
struct mm_struct {
   struct vm_area_struct *mmap ;
   struct rb_root mm_rb ;
   struct vm_area_struct *mmap_cache ;
   unsigned long (*get_unmapped_area)(struct file * , unsigned long  , unsigned long  ,
                                      unsigned long  , unsigned long  ) ;
   void (*unmap_area)(struct mm_struct * , unsigned long  ) ;
   unsigned long mmap_base ;
   unsigned long task_size ;
   unsigned long cached_hole_size ;
   unsigned long free_area_cache ;
   pgd_t *pgd ;
   atomic_t mm_users ;
   atomic_t mm_count ;
   int map_count ;
   struct rw_semaphore mmap_sem ;
   spinlock_t page_table_lock ;
   struct list_head mmlist ;
   mm_counter_t _file_rss ;
   mm_counter_t _anon_rss ;
   unsigned long hiwater_rss ;
   unsigned long hiwater_vm ;
   unsigned long total_vm ;
   unsigned long locked_vm ;
   unsigned long shared_vm ;
   unsigned long exec_vm ;
   unsigned long stack_vm ;
   unsigned long reserved_vm ;
   unsigned long def_flags ;
   unsigned long nr_ptes ;
   unsigned long start_code ;
   unsigned long end_code ;
   unsigned long start_data ;
   unsigned long end_data ;
   unsigned long start_brk ;
   unsigned long brk ;
   unsigned long start_stack ;
   unsigned long arg_start ;
   unsigned long arg_end ;
   unsigned long env_start ;
   unsigned long env_end ;
   unsigned long saved_auxv[38U] ;
   cpumask_t cpu_vm_mask ;
   mm_context_t context ;
   unsigned int faultstamp ;
   unsigned int token_priority ;
   unsigned int last_interval ;
   unsigned long flags ;
   int core_waiters ;
   struct completion *core_startup_done ;
   struct completion core_done ;
   rwlock_t ioctx_list_lock ;
   struct kioctx *ioctx_list ;
};
struct user_struct;
struct vm_fault {
   unsigned int flags ;
   unsigned long pgoff ;
   void *virtual_address ;
   struct page *page ;
};
struct vm_operations_struct {
   void (*open)(struct vm_area_struct * ) ;
   void (*close)(struct vm_area_struct * ) ;
   int (*fault)(struct vm_area_struct * , struct vm_fault * ) ;
   struct page *(*nopage)(struct vm_area_struct * , unsigned long  , int * ) ;
   unsigned long (*nopfn)(struct vm_area_struct * , unsigned long  ) ;
   int (*page_mkwrite)(struct vm_area_struct * , struct page * ) ;
   int (*set_policy)(struct vm_area_struct * , struct mempolicy * ) ;
   struct mempolicy *(*get_policy)(struct vm_area_struct * , unsigned long  ) ;
   int (*migrate)(struct vm_area_struct * , nodemask_t const   * , nodemask_t const   * ,
                  unsigned long  ) ;
};
typedef unsigned short sa_family_t;
struct sockaddr {
   sa_family_t sa_family ;
   char sa_data[14U] ;
};
struct __anonstruct_sync_serial_settings_93 {
   unsigned int clock_rate ;
   unsigned int clock_type ;
   unsigned short loopback ;
};
typedef struct __anonstruct_sync_serial_settings_93 sync_serial_settings;
struct __anonstruct_te1_settings_94 {
   unsigned int clock_rate ;
   unsigned int clock_type ;
   unsigned short loopback ;
   unsigned int slot_map ;
};
typedef struct __anonstruct_te1_settings_94 te1_settings;
struct __anonstruct_raw_hdlc_proto_95 {
   unsigned short encoding ;
   unsigned short parity ;
};
typedef struct __anonstruct_raw_hdlc_proto_95 raw_hdlc_proto;
struct __anonstruct_fr_proto_96 {
   unsigned int t391 ;
   unsigned int t392 ;
   unsigned int n391 ;
   unsigned int n392 ;
   unsigned int n393 ;
   unsigned short lmi ;
   unsigned short dce ;
};
typedef struct __anonstruct_fr_proto_96 fr_proto;
struct __anonstruct_fr_proto_pvc_97 {
   unsigned int dlci ;
};
typedef struct __anonstruct_fr_proto_pvc_97 fr_proto_pvc;
struct __anonstruct_fr_proto_pvc_info_98 {
   unsigned int dlci ;
   char master[16U] ;
};
typedef struct __anonstruct_fr_proto_pvc_info_98 fr_proto_pvc_info;
struct __anonstruct_cisco_proto_99 {
   unsigned int interval ;
   unsigned int timeout ;
};
typedef struct __anonstruct_cisco_proto_99 cisco_proto;
struct ifmap {
   unsigned long mem_start ;
   unsigned long mem_end ;
   unsigned short base_addr ;
   unsigned char irq ;
   unsigned char dma ;
   unsigned char port ;
};
union __anonunion_ifs_ifsu_100 {
   raw_hdlc_proto *raw_hdlc ;
   cisco_proto *cisco ;
   fr_proto *fr ;
   fr_proto_pvc *fr_pvc ;
   fr_proto_pvc_info *fr_pvc_info ;
   sync_serial_settings *sync ;
   te1_settings *te1 ;
};
struct if_settings {
   unsigned int type ;
   unsigned int size ;
   union __anonunion_ifs_ifsu_100 ifs_ifsu ;
};
union __anonunion_ifr_ifrn_101 {
   char ifrn_name[16U] ;
};
union __anonunion_ifr_ifru_102 {
   struct sockaddr ifru_addr ;
   struct sockaddr ifru_dstaddr ;
   struct sockaddr ifru_broadaddr ;
   struct sockaddr ifru_netmask ;
   struct sockaddr ifru_hwaddr ;
   short ifru_flags ;
   int ifru_ivalue ;
   int ifru_mtu ;
   struct ifmap ifru_map ;
   char ifru_slave[16U] ;
   char ifru_newname[16U] ;
   void *ifru_data ;
   struct if_settings ifru_settings ;
};
struct ifreq {
   union __anonunion_ifr_ifrn_101 ifr_ifrn ;
   union __anonunion_ifr_ifru_102 ifr_ifru ;
};
struct pipe_inode_info;
struct net;
struct sock;
struct nsproxy;
struct ctl_table_header;
typedef int ctl_handler(struct ctl_table * , int * , int  , void * , size_t * , void * ,
                        size_t  );
typedef int proc_handler(struct ctl_table * , int  , struct file * , void * , size_t * ,
                         loff_t * );
struct ctl_table {
   int ctl_name ;
   char const   *procname ;
   void *data ;
   int maxlen ;
   mode_t mode ;
   struct ctl_table *child ;
   struct ctl_table *parent ;
   proc_handler *proc_handler ;
   ctl_handler *strategy ;
   void *extra1 ;
   void *extra2 ;
};
struct ctl_table_root {
   struct list_head root_list ;
   struct list_head header_list ;
   struct list_head *(*lookup)(struct ctl_table_root * , struct nsproxy * ) ;
};
struct ctl_table_header {
   struct ctl_table *ctl_table ;
   struct list_head ctl_entry ;
   int used ;
   struct completion *unregistering ;
   struct ctl_table *ctl_table_arg ;
   struct ctl_table_root *root ;
};
struct exception_table_entry {
   unsigned long insn ;
   unsigned long fixup ;
};
struct sk_buff;
struct rcu_head {
   struct rcu_head *next ;
   void (*func)(struct rcu_head * ) ;
};
typedef s32 dma_cookie_t;
struct hrtimer_clock_base;
struct hrtimer_cpu_base;
enum hrtimer_restart {
    HRTIMER_NORESTART = 0,
    HRTIMER_RESTART = 1
} ;
enum hrtimer_cb_mode {
    HRTIMER_CB_SOFTIRQ = 0,
    HRTIMER_CB_IRQSAFE = 1,
    HRTIMER_CB_IRQSAFE_NO_RESTART = 2,
    HRTIMER_CB_IRQSAFE_NO_SOFTIRQ = 3
} ;
struct hrtimer {
   struct rb_node node ;
   ktime_t expires ;
   enum hrtimer_restart (*function)(struct hrtimer * ) ;
   struct hrtimer_clock_base *base ;
   unsigned long state ;
   enum hrtimer_cb_mode cb_mode ;
   struct list_head cb_entry ;
   void *start_site ;
   char start_comm[16U] ;
   int start_pid ;
};
struct hrtimer_clock_base {
   struct hrtimer_cpu_base *cpu_base ;
   clockid_t index ;
   struct rb_root active ;
   struct rb_node *first ;
   ktime_t resolution ;
   ktime_t (*get_time)(void) ;
   ktime_t (*get_softirq_time)(void) ;
   ktime_t softirq_time ;
   ktime_t offset ;
   int (*reprogram)(struct hrtimer * , struct hrtimer_clock_base * , ktime_t  ) ;
};
struct hrtimer_cpu_base {
   spinlock_t lock ;
   struct lock_class_key lock_key ;
   struct hrtimer_clock_base clock_base[2U] ;
   struct list_head cb_pending ;
   ktime_t expires_next ;
   int hres_active ;
   unsigned long nr_events ;
};
struct net_device;
struct nf_conntrack {
   atomic_t use ;
};
struct nf_bridge_info {
   atomic_t use ;
   struct net_device *physindev ;
   struct net_device *physoutdev ;
   unsigned int mask ;
   unsigned long data[4U] ;
};
typedef unsigned int sk_buff_data_t;
struct dst_entry;
struct sec_path;
struct __anonstruct_ldv_14152_106 {
   __u16 csum_start ;
   __u16 csum_offset ;
};
union __anonunion_ldv_14153_105 {
   __wsum csum ;
   struct __anonstruct_ldv_14152_106 ldv_14152 ;
};
struct sk_buff {
   struct sk_buff *next ;
   struct sk_buff *prev ;
   struct sock *sk ;
   ktime_t tstamp ;
   struct net_device *dev ;
   struct dst_entry *dst ;
   struct sec_path *sp ;
   char cb[48U] ;
   unsigned int len ;
   unsigned int data_len ;
   __u16 mac_len ;
   __u16 hdr_len ;
   union __anonunion_ldv_14153_105 ldv_14153 ;
   __u32 priority ;
   unsigned char local_df : 1 ;
   unsigned char cloned : 1 ;
   unsigned char ip_summed : 2 ;
   unsigned char nohdr : 1 ;
   unsigned char nfctinfo : 3 ;
   unsigned char pkt_type : 3 ;
   unsigned char fclone : 2 ;
   unsigned char ipvs_property : 1 ;
   unsigned char peeked : 1 ;
   unsigned char nf_trace : 1 ;
   __be16 protocol ;
   void (*destructor)(struct sk_buff * ) ;
   struct nf_conntrack *nfct ;
   struct sk_buff *nfct_reasm ;
   struct nf_bridge_info *nf_bridge ;
   int iif ;
   __u16 queue_mapping ;
   __u16 tc_index ;
   __u16 tc_verd ;
   dma_cookie_t dma_cookie ;
   __u32 secmark ;
   __u32 mark ;
   sk_buff_data_t transport_header ;
   sk_buff_data_t network_header ;
   sk_buff_data_t mac_header ;
   sk_buff_data_t tail ;
   sk_buff_data_t end ;
   unsigned char *head ;
   unsigned char *data ;
   unsigned int truesize ;
   atomic_t users ;
};
struct netns_unix {
   int sysctl_max_dgram_qlen ;
   struct ctl_table_header *ctl ;
};
struct netns_packet {
   rwlock_t sklist_lock ;
   struct hlist_head sklist ;
};
struct netns_frags {
   int nqueues ;
   atomic_t mem ;
   struct list_head lru_list ;
   int timeout ;
   int high_thresh ;
   int low_thresh ;
};
struct ipv4_devconf;
struct fib_rules_ops;
struct xt_table;
struct netns_ipv4 {
   struct ctl_table_header *forw_hdr ;
   struct ctl_table_header *frags_hdr ;
   struct ipv4_devconf *devconf_all ;
   struct ipv4_devconf *devconf_dflt ;
   struct fib_rules_ops *rules_ops ;
   struct hlist_head *fib_table_hash ;
   struct sock *fibnl ;
   struct netns_frags frags ;
   struct xt_table *iptable_filter ;
   struct xt_table *iptable_mangle ;
   struct xt_table *iptable_raw ;
   struct xt_table *arptable_filter ;
};
struct netns_sysctl_ipv6 {
   struct ctl_table_header *table ;
   struct ctl_table_header *frags_hdr ;
   int bindv6only ;
   int flush_delay ;
   int ip6_rt_max_size ;
   int ip6_rt_gc_min_interval ;
   int ip6_rt_gc_timeout ;
   int ip6_rt_gc_interval ;
   int ip6_rt_gc_elasticity ;
   int ip6_rt_mtu_expires ;
   int ip6_rt_min_advmss ;
   int icmpv6_time ;
};
struct ipv6_devconf;
struct netns_ipv6 {
   struct netns_sysctl_ipv6 sysctl ;
   struct ipv6_devconf *devconf_all ;
   struct ipv6_devconf *devconf_dflt ;
   struct netns_frags frags ;
   struct xt_table *ip6table_filter ;
   struct xt_table *ip6table_mangle ;
   struct xt_table *ip6table_raw ;
};
struct netns_xt {
   struct list_head tables[34U] ;
};
struct net {
   atomic_t count ;
   atomic_t use_count ;
   struct list_head list ;
   struct work_struct work ;
   struct proc_dir_entry *proc_net ;
   struct proc_dir_entry *proc_net_stat ;
   struct proc_dir_entry *proc_net_root ;
   struct list_head sysctl_table_headers ;
   struct net_device *loopback_dev ;
   struct list_head dev_base_head ;
   struct hlist_head *dev_name_head ;
   struct hlist_head *dev_index_head ;
   struct list_head rules_ops ;
   spinlock_t rules_mod_lock ;
   struct sock *rtnl ;
   struct ctl_table_header *sysctl_core_hdr ;
   int sysctl_somaxconn ;
   struct netns_packet packet ;
   struct netns_unix unx ;
   struct netns_ipv4 ipv4 ;
   struct netns_ipv6 ipv6 ;
   struct netns_xt xt ;
};
struct vlan_group;
struct ethtool_ops;
struct netpoll_info;
struct wireless_dev;
struct net_device_subqueue {
   unsigned long state ;
};
struct net_device_stats {
   unsigned long rx_packets ;
   unsigned long tx_packets ;
   unsigned long rx_bytes ;
   unsigned long tx_bytes ;
   unsigned long rx_errors ;
   unsigned long tx_errors ;
   unsigned long rx_dropped ;
   unsigned long tx_dropped ;
   unsigned long multicast ;
   unsigned long collisions ;
   unsigned long rx_length_errors ;
   unsigned long rx_over_errors ;
   unsigned long rx_crc_errors ;
   unsigned long rx_frame_errors ;
   unsigned long rx_fifo_errors ;
   unsigned long rx_missed_errors ;
   unsigned long tx_aborted_errors ;
   unsigned long tx_carrier_errors ;
   unsigned long tx_fifo_errors ;
   unsigned long tx_heartbeat_errors ;
   unsigned long tx_window_errors ;
   unsigned long rx_compressed ;
   unsigned long tx_compressed ;
};
struct neighbour;
struct neigh_parms;
struct dev_addr_list {
   struct dev_addr_list *next ;
   u8 da_addr[32U] ;
   u8 da_addrlen ;
   u8 da_synced ;
   int da_users ;
   int da_gusers ;
};
struct hh_cache {
   struct hh_cache *hh_next ;
   atomic_t hh_refcnt ;
   __be16 hh_type ;
   u16 hh_len ;
   int (*hh_output)(struct sk_buff * ) ;
   seqlock_t hh_lock ;
   unsigned long hh_data[12U] ;
};
struct header_ops {
   int (*create)(struct sk_buff * , struct net_device * , unsigned short  , void const   * ,
                 void const   * , unsigned int  ) ;
   int (*parse)(struct sk_buff  const  * , unsigned char * ) ;
   int (*rebuild)(struct sk_buff * ) ;
   int (*cache)(struct neighbour  const  * , struct hh_cache * ) ;
   void (*cache_update)(struct hh_cache * , struct net_device  const  * , unsigned char const   * ) ;
};
enum ldv_13113 {
    NETREG_UNINITIALIZED = 0,
    NETREG_REGISTERED = 1,
    NETREG_UNREGISTERING = 2,
    NETREG_UNREGISTERED = 3,
    NETREG_RELEASED = 4
} ;
struct iw_handler_def;
struct iw_public_data;
struct Qdisc;
struct net_bridge_port;
struct macvlan_port;
struct rtnl_link_ops;
struct net_device {
   char name[16U] ;
   struct hlist_node name_hlist ;
   unsigned long mem_end ;
   unsigned long mem_start ;
   unsigned long base_addr ;
   unsigned int irq ;
   unsigned char if_port ;
   unsigned char dma ;
   unsigned long state ;
   struct list_head dev_list ;
   struct list_head napi_list ;
   int (*init)(struct net_device * ) ;
   unsigned long features ;
   struct net_device *next_sched ;
   int ifindex ;
   int iflink ;
   struct net_device_stats *(*get_stats)(struct net_device * ) ;
   struct net_device_stats stats ;
   struct iw_handler_def  const  *wireless_handlers ;
   struct iw_public_data *wireless_data ;
   struct ethtool_ops  const  *ethtool_ops ;
   struct header_ops  const  *header_ops ;
   unsigned int flags ;
   unsigned short gflags ;
   unsigned short priv_flags ;
   unsigned short padded ;
   unsigned char operstate ;
   unsigned char link_mode ;
   unsigned int mtu ;
   unsigned short type ;
   unsigned short hard_header_len ;
   struct net_device *master ;
   unsigned char perm_addr[32U] ;
   unsigned char addr_len ;
   unsigned short dev_id ;
   struct dev_addr_list *uc_list ;
   int uc_count ;
   int uc_promisc ;
   struct dev_addr_list *mc_list ;
   int mc_count ;
   int promiscuity ;
   int allmulti ;
   void *atalk_ptr ;
   void *ip_ptr ;
   void *dn_ptr ;
   void *ip6_ptr ;
   void *ec_ptr ;
   void *ax25_ptr ;
   struct wireless_dev *ieee80211_ptr ;
   unsigned long last_rx ;
   unsigned char dev_addr[32U] ;
   unsigned char broadcast[32U] ;
   spinlock_t queue_lock ;
   struct Qdisc *qdisc ;
   struct Qdisc *qdisc_sleeping ;
   struct list_head qdisc_list ;
   unsigned long tx_queue_len ;
   struct sk_buff *gso_skb ;
   spinlock_t ingress_lock ;
   struct Qdisc *qdisc_ingress ;
   spinlock_t _xmit_lock ;
   int xmit_lock_owner ;
   void *priv ;
   int (*hard_start_xmit)(struct sk_buff * , struct net_device * ) ;
   unsigned long trans_start ;
   int watchdog_timeo ;
   struct timer_list watchdog_timer ;
   atomic_t refcnt ;
   struct list_head todo_list ;
   struct hlist_node index_hlist ;
   struct net_device *link_watch_next ;
   enum ldv_13113 reg_state ;
   void (*uninit)(struct net_device * ) ;
   void (*destructor)(struct net_device * ) ;
   int (*open)(struct net_device * ) ;
   int (*stop)(struct net_device * ) ;
   void (*change_rx_flags)(struct net_device * , int  ) ;
   void (*set_rx_mode)(struct net_device * ) ;
   void (*set_multicast_list)(struct net_device * ) ;
   int (*set_mac_address)(struct net_device * , void * ) ;
   int (*validate_addr)(struct net_device * ) ;
   int (*do_ioctl)(struct net_device * , struct ifreq * , int  ) ;
   int (*set_config)(struct net_device * , struct ifmap * ) ;
   int (*change_mtu)(struct net_device * , int  ) ;
   void (*tx_timeout)(struct net_device * ) ;
   void (*vlan_rx_register)(struct net_device * , struct vlan_group * ) ;
   void (*vlan_rx_add_vid)(struct net_device * , unsigned short  ) ;
   void (*vlan_rx_kill_vid)(struct net_device * , unsigned short  ) ;
   int (*neigh_setup)(struct net_device * , struct neigh_parms * ) ;
   struct netpoll_info *npinfo ;
   void (*poll_controller)(struct net_device * ) ;
   struct net *nd_net ;
   struct net_bridge_port *br_port ;
   struct macvlan_port *macvlan_port ;
   struct device dev ;
   struct attribute_group *sysfs_groups[3U] ;
   struct rtnl_link_ops  const  *rtnl_link_ops ;
   unsigned int egress_subqueue_count ;
   struct net_device_subqueue egress_subqueue[1U] ;
};
typedef int irqreturn_t;
typedef __u32 kernel_cap_t;
typedef unsigned long cputime_t;
struct sem_undo;
struct sem_undo {
   struct sem_undo *proc_next ;
   struct sem_undo *id_next ;
   int semid ;
   short *semadj ;
};
struct sem_undo_list {
   atomic_t refcnt ;
   spinlock_t lock ;
   struct sem_undo *proc_list ;
};
struct sysv_sem {
   struct sem_undo_list *undo_list ;
};
struct siginfo;
struct __anonstruct_sigset_t_107 {
   unsigned long sig[1U] ;
};
typedef struct __anonstruct_sigset_t_107 sigset_t;
typedef void __signalfn_t(int  );
typedef __signalfn_t *__sighandler_t;
typedef void __restorefn_t(void);
typedef __restorefn_t *__sigrestore_t;
struct sigaction {
   __sighandler_t sa_handler ;
   unsigned long sa_flags ;
   __sigrestore_t sa_restorer ;
   sigset_t sa_mask ;
};
struct k_sigaction {
   struct sigaction sa ;
};
union sigval {
   int sival_int ;
   void *sival_ptr ;
};
typedef union sigval sigval_t;
struct __anonstruct__kill_109 {
   pid_t _pid ;
   uid_t _uid ;
};
struct __anonstruct__timer_110 {
   timer_t _tid ;
   int _overrun ;
   char _pad[0U] ;
   sigval_t _sigval ;
   int _sys_private ;
};
struct __anonstruct__rt_111 {
   pid_t _pid ;
   uid_t _uid ;
   sigval_t _sigval ;
};
struct __anonstruct__sigchld_112 {
   pid_t _pid ;
   uid_t _uid ;
   int _status ;
   clock_t _utime ;
   clock_t _stime ;
};
struct __anonstruct__sigfault_113 {
   void *_addr ;
};
struct __anonstruct__sigpoll_114 {
   long _band ;
   int _fd ;
};
union __anonunion__sifields_108 {
   int _pad[28U] ;
   struct __anonstruct__kill_109 _kill ;
   struct __anonstruct__timer_110 _timer ;
   struct __anonstruct__rt_111 _rt ;
   struct __anonstruct__sigchld_112 _sigchld ;
   struct __anonstruct__sigfault_113 _sigfault ;
   struct __anonstruct__sigpoll_114 _sigpoll ;
};
struct siginfo {
   int si_signo ;
   int si_errno ;
   int si_code ;
   union __anonunion__sifields_108 _sifields ;
};
typedef struct siginfo siginfo_t;
struct sigpending {
   struct list_head list ;
   sigset_t signal ;
};
struct dentry;
struct vfsmount;
struct fs_struct {
   atomic_t count ;
   rwlock_t lock ;
   int umask ;
   struct dentry *root ;
   struct dentry *pwd ;
   struct dentry *altroot ;
   struct vfsmount *rootmnt ;
   struct vfsmount *pwdmnt ;
   struct vfsmount *altrootmnt ;
};
struct pid_namespace;
struct upid {
   int nr ;
   struct pid_namespace *ns ;
   struct hlist_node pid_chain ;
};
struct pid {
   atomic_t count ;
   struct hlist_head tasks[3U] ;
   struct rcu_head rcu ;
   int level ;
   struct upid numbers[1U] ;
};
struct pid_link {
   struct hlist_node node ;
   struct pid *pid ;
};
struct prop_local_single {
   unsigned long events ;
   int shift ;
   unsigned long period ;
   spinlock_t lock ;
};
struct __anonstruct_seccomp_t_117 {
   int mode ;
};
typedef struct __anonstruct_seccomp_t_117 seccomp_t;
struct plist_head {
   struct list_head prio_list ;
   struct list_head node_list ;
   spinlock_t *lock ;
};
struct rt_mutex_waiter;
struct rlimit {
   unsigned long rlim_cur ;
   unsigned long rlim_max ;
};
struct task_io_accounting {
   u64 read_bytes ;
   u64 write_bytes ;
   u64 cancelled_write_bytes ;
};
struct latency_record {
   unsigned long backtrace[12U] ;
   unsigned int count ;
   unsigned long time ;
   unsigned long max ;
};
struct futex_pi_state;
struct robust_list_head;
struct bio;
struct cfs_rq;
struct task_group;
struct aio_ring_info {
   unsigned long mmap_base ;
   unsigned long mmap_size ;
   struct page **ring_pages ;
   spinlock_t ring_lock ;
   long nr_pages ;
   unsigned int nr ;
   unsigned int tail ;
   struct page *internal_pages[8U] ;
};
struct kioctx {
   atomic_t users ;
   int dead ;
   struct mm_struct *mm ;
   unsigned long user_id ;
   struct kioctx *next ;
   wait_queue_head_t wait ;
   spinlock_t ctx_lock ;
   int reqs_active ;
   struct list_head active_reqs ;
   struct list_head run_list ;
   unsigned int max_reqs ;
   struct aio_ring_info ring_info ;
   struct delayed_work wq ;
};
struct sighand_struct {
   atomic_t count ;
   struct k_sigaction action[64U] ;
   spinlock_t siglock ;
   wait_queue_head_t signalfd_wqh ;
};
struct pacct_struct {
   int ac_flag ;
   long ac_exitcode ;
   unsigned long ac_mem ;
   cputime_t ac_utime ;
   cputime_t ac_stime ;
   unsigned long ac_minflt ;
   unsigned long ac_majflt ;
};
union __anonunion_ldv_16535_119 {
   pid_t pgrp ;
   pid_t __pgrp ;
};
union __anonunion_ldv_16540_120 {
   pid_t session ;
   pid_t __session ;
};
struct tty_struct;
struct taskstats;
struct tty_audit_buf;
struct signal_struct {
   atomic_t count ;
   atomic_t live ;
   wait_queue_head_t wait_chldexit ;
   struct task_struct *curr_target ;
   struct sigpending shared_pending ;
   int group_exit_code ;
   struct task_struct *group_exit_task ;
   int notify_count ;
   int group_stop_count ;
   unsigned int flags ;
   struct list_head posix_timers ;
   struct hrtimer real_timer ;
   struct task_struct *tsk ;
   ktime_t it_real_incr ;
   cputime_t it_prof_expires ;
   cputime_t it_virt_expires ;
   cputime_t it_prof_incr ;
   cputime_t it_virt_incr ;
   union __anonunion_ldv_16535_119 ldv_16535 ;
   struct pid *tty_old_pgrp ;
   union __anonunion_ldv_16540_120 ldv_16540 ;
   int leader ;
   struct tty_struct *tty ;
   cputime_t utime ;
   cputime_t stime ;
   cputime_t cutime ;
   cputime_t cstime ;
   cputime_t gtime ;
   cputime_t cgtime ;
   unsigned long nvcsw ;
   unsigned long nivcsw ;
   unsigned long cnvcsw ;
   unsigned long cnivcsw ;
   unsigned long min_flt ;
   unsigned long maj_flt ;
   unsigned long cmin_flt ;
   unsigned long cmaj_flt ;
   unsigned long inblock ;
   unsigned long oublock ;
   unsigned long cinblock ;
   unsigned long coublock ;
   unsigned long long sum_sched_runtime ;
   struct rlimit rlim[16U] ;
   struct list_head cpu_timers[3U] ;
   struct key *session_keyring ;
   struct key *process_keyring ;
   struct pacct_struct pacct ;
   struct taskstats *stats ;
   unsigned int audit_tty ;
   struct tty_audit_buf *tty_audit_buf ;
};
struct user_struct {
   atomic_t __count ;
   atomic_t processes ;
   atomic_t files ;
   atomic_t sigpending ;
   atomic_t inotify_watches ;
   atomic_t inotify_devs ;
   unsigned long mq_bytes ;
   unsigned long locked_shm ;
   struct key *uid_keyring ;
   struct key *session_keyring ;
   struct hlist_node uidhash_node ;
   uid_t uid ;
   struct task_group *tg ;
   struct kobject kobj ;
   struct work_struct work ;
};
struct backing_dev_info;
struct reclaim_state;
struct sched_info {
   unsigned long pcount ;
   unsigned long long cpu_time ;
   unsigned long long run_delay ;
   unsigned long long last_arrival ;
   unsigned long long last_queued ;
   unsigned int bkl_count ;
};
struct task_delay_info {
   spinlock_t lock ;
   unsigned int flags ;
   struct timespec blkio_start ;
   struct timespec blkio_end ;
   u64 blkio_delay ;
   u64 swapin_delay ;
   u32 blkio_count ;
   u32 swapin_count ;
};
enum cpu_idle_type {
    CPU_IDLE = 0,
    CPU_NOT_IDLE = 1,
    CPU_NEWLY_IDLE = 2,
    CPU_MAX_IDLE_TYPES = 3
} ;
struct sched_group {
   struct sched_group *next ;
   cpumask_t cpumask ;
   unsigned int __cpu_power ;
   u32 reciprocal_cpu_power ;
};
struct sched_domain {
   struct sched_domain *parent ;
   struct sched_domain *child ;
   struct sched_group *groups ;
   cpumask_t span ;
   unsigned long min_interval ;
   unsigned long max_interval ;
   unsigned int busy_factor ;
   unsigned int imbalance_pct ;
   unsigned int cache_nice_tries ;
   unsigned int busy_idx ;
   unsigned int idle_idx ;
   unsigned int newidle_idx ;
   unsigned int wake_idx ;
   unsigned int forkexec_idx ;
   int flags ;
   unsigned long last_balance ;
   unsigned int balance_interval ;
   unsigned int nr_balance_failed ;
   unsigned int lb_count[3U] ;
   unsigned int lb_failed[3U] ;
   unsigned int lb_balanced[3U] ;
   unsigned int lb_imbalance[3U] ;
   unsigned int lb_gained[3U] ;
   unsigned int lb_hot_gained[3U] ;
   unsigned int lb_nobusyg[3U] ;
   unsigned int lb_nobusyq[3U] ;
   unsigned int alb_count ;
   unsigned int alb_failed ;
   unsigned int alb_pushed ;
   unsigned int sbe_count ;
   unsigned int sbe_balanced ;
   unsigned int sbe_pushed ;
   unsigned int sbf_count ;
   unsigned int sbf_balanced ;
   unsigned int sbf_pushed ;
   unsigned int ttwu_wake_remote ;
   unsigned int ttwu_move_affine ;
   unsigned int ttwu_move_balance ;
};
struct io_context;
struct group_info {
   int ngroups ;
   atomic_t usage ;
   gid_t small_block[32U] ;
   int nblocks ;
   gid_t *blocks[0U] ;
};
struct audit_context;
struct rq;
struct sched_class {
   struct sched_class  const  *next ;
   void (*enqueue_task)(struct rq * , struct task_struct * , int  ) ;
   void (*dequeue_task)(struct rq * , struct task_struct * , int  ) ;
   void (*yield_task)(struct rq * ) ;
   int (*select_task_rq)(struct task_struct * , int  ) ;
   void (*check_preempt_curr)(struct rq * , struct task_struct * ) ;
   struct task_struct *(*pick_next_task)(struct rq * ) ;
   void (*put_prev_task)(struct rq * , struct task_struct * ) ;
   unsigned long (*load_balance)(struct rq * , int  , struct rq * , unsigned long  ,
                                 struct sched_domain * , enum cpu_idle_type  , int * ,
                                 int * ) ;
   int (*move_one_task)(struct rq * , int  , struct rq * , struct sched_domain * ,
                        enum cpu_idle_type  ) ;
   void (*pre_schedule)(struct rq * , struct task_struct * ) ;
   void (*post_schedule)(struct rq * ) ;
   void (*task_wake_up)(struct rq * , struct task_struct * ) ;
   void (*set_curr_task)(struct rq * ) ;
   void (*task_tick)(struct rq * , struct task_struct * , int  ) ;
   void (*task_new)(struct rq * , struct task_struct * ) ;
   void (*set_cpus_allowed)(struct task_struct * , cpumask_t * ) ;
   void (*join_domain)(struct rq * ) ;
   void (*leave_domain)(struct rq * ) ;
   void (*switched_from)(struct rq * , struct task_struct * , int  ) ;
   void (*switched_to)(struct rq * , struct task_struct * , int  ) ;
   void (*prio_changed)(struct rq * , struct task_struct * , int  , int  ) ;
};
struct load_weight {
   unsigned long weight ;
   unsigned long inv_weight ;
};
struct sched_entity {
   struct load_weight load ;
   struct rb_node run_node ;
   unsigned int on_rq ;
   u64 exec_start ;
   u64 sum_exec_runtime ;
   u64 vruntime ;
   u64 prev_sum_exec_runtime ;
   u64 wait_start ;
   u64 wait_max ;
   u64 wait_count ;
   u64 wait_sum ;
   u64 sleep_start ;
   u64 sleep_max ;
   s64 sum_sleep_runtime ;
   u64 block_start ;
   u64 block_max ;
   u64 exec_max ;
   u64 slice_max ;
   u64 nr_migrations ;
   u64 nr_migrations_cold ;
   u64 nr_failed_migrations_affine ;
   u64 nr_failed_migrations_running ;
   u64 nr_failed_migrations_hot ;
   u64 nr_forced_migrations ;
   u64 nr_forced2_migrations ;
   u64 nr_wakeups ;
   u64 nr_wakeups_sync ;
   u64 nr_wakeups_migrate ;
   u64 nr_wakeups_local ;
   u64 nr_wakeups_remote ;
   u64 nr_wakeups_affine ;
   u64 nr_wakeups_affine_attempts ;
   u64 nr_wakeups_passive ;
   u64 nr_wakeups_idle ;
   struct sched_entity *parent ;
   struct cfs_rq *cfs_rq ;
   struct cfs_rq *my_q ;
};
struct rt_rq;
struct sched_rt_entity {
   struct list_head run_list ;
   unsigned int time_slice ;
   unsigned long timeout ;
   int nr_cpus_allowed ;
   struct sched_rt_entity *parent ;
   struct rt_rq *rt_rq ;
   struct rt_rq *my_q ;
};
struct linux_binfmt;
struct files_struct;
struct css_set;
struct compat_robust_list_head;
struct task_struct {
   long volatile   state ;
   void *stack ;
   atomic_t usage ;
   unsigned int flags ;
   unsigned int ptrace ;
   int lock_depth ;
   int prio ;
   int static_prio ;
   int normal_prio ;
   struct sched_class  const  *sched_class ;
   struct sched_entity se ;
   struct sched_rt_entity rt ;
   struct hlist_head preempt_notifiers ;
   unsigned char fpu_counter ;
   s8 oomkilladj ;
   unsigned int btrace_seq ;
   unsigned int policy ;
   cpumask_t cpus_allowed ;
   struct sched_info sched_info ;
   struct list_head tasks ;
   struct list_head ptrace_children ;
   struct list_head ptrace_list ;
   struct mm_struct *mm ;
   struct mm_struct *active_mm ;
   struct linux_binfmt *binfmt ;
   int exit_state ;
   int exit_code ;
   int exit_signal ;
   int pdeath_signal ;
   unsigned int personality ;
   unsigned char did_exec : 1 ;
   pid_t pid ;
   pid_t tgid ;
   unsigned long stack_canary ;
   struct task_struct *real_parent ;
   struct task_struct *parent ;
   struct list_head children ;
   struct list_head sibling ;
   struct task_struct *group_leader ;
   struct pid_link pids[3U] ;
   struct list_head thread_group ;
   struct completion *vfork_done ;
   int *set_child_tid ;
   int *clear_child_tid ;
   unsigned int rt_priority ;
   cputime_t utime ;
   cputime_t stime ;
   cputime_t utimescaled ;
   cputime_t stimescaled ;
   cputime_t gtime ;
   cputime_t prev_utime ;
   cputime_t prev_stime ;
   unsigned long nvcsw ;
   unsigned long nivcsw ;
   struct timespec start_time ;
   struct timespec real_start_time ;
   unsigned long min_flt ;
   unsigned long maj_flt ;
   cputime_t it_prof_expires ;
   cputime_t it_virt_expires ;
   unsigned long long it_sched_expires ;
   struct list_head cpu_timers[3U] ;
   uid_t uid ;
   uid_t euid ;
   uid_t suid ;
   uid_t fsuid ;
   gid_t gid ;
   gid_t egid ;
   gid_t sgid ;
   gid_t fsgid ;
   struct group_info *group_info ;
   kernel_cap_t cap_effective ;
   kernel_cap_t cap_inheritable ;
   kernel_cap_t cap_permitted ;
   unsigned char keep_capabilities : 1 ;
   struct user_struct *user ;
   struct key *request_key_auth ;
   struct key *thread_keyring ;
   unsigned char jit_keyring ;
   char comm[16U] ;
   int link_count ;
   int total_link_count ;
   struct sysv_sem sysvsem ;
   unsigned long last_switch_timestamp ;
   unsigned long last_switch_count ;
   struct thread_struct thread ;
   struct fs_struct *fs ;
   struct files_struct *files ;
   struct nsproxy *nsproxy ;
   struct signal_struct *signal ;
   struct sighand_struct *sighand ;
   sigset_t blocked ;
   sigset_t real_blocked ;
   sigset_t saved_sigmask ;
   struct sigpending pending ;
   unsigned long sas_ss_sp ;
   size_t sas_ss_size ;
   int (*notifier)(void * ) ;
   void *notifier_data ;
   sigset_t *notifier_mask ;
   void *security ;
   struct audit_context *audit_context ;
   uid_t loginuid ;
   unsigned int sessionid ;
   seccomp_t seccomp ;
   u32 parent_exec_id ;
   u32 self_exec_id ;
   spinlock_t alloc_lock ;
   spinlock_t pi_lock ;
   struct plist_head pi_waiters ;
   struct rt_mutex_waiter *pi_blocked_on ;
   struct mutex_waiter *blocked_on ;
   unsigned int irq_events ;
   int hardirqs_enabled ;
   unsigned long hardirq_enable_ip ;
   unsigned int hardirq_enable_event ;
   unsigned long hardirq_disable_ip ;
   unsigned int hardirq_disable_event ;
   int softirqs_enabled ;
   unsigned long softirq_disable_ip ;
   unsigned int softirq_disable_event ;
   unsigned long softirq_enable_ip ;
   unsigned int softirq_enable_event ;
   int hardirq_context ;
   int softirq_context ;
   u64 curr_chain_key ;
   int lockdep_depth ;
   struct held_lock held_locks[30U] ;
   unsigned int lockdep_recursion ;
   void *journal_info ;
   struct bio *bio_list ;
   struct bio **bio_tail ;
   struct reclaim_state *reclaim_state ;
   struct backing_dev_info *backing_dev_info ;
   struct io_context *io_context ;
   unsigned long ptrace_message ;
   siginfo_t *last_siginfo ;
   u64 rchar ;
   u64 wchar ;
   u64 syscr ;
   u64 syscw ;
   struct task_io_accounting ioac ;
   u64 acct_rss_mem1 ;
   u64 acct_vm_mem1 ;
   cputime_t acct_stimexpd ;
   struct mempolicy *mempolicy ;
   short il_next ;
   nodemask_t mems_allowed ;
   int cpuset_mems_generation ;
   int cpuset_mem_spread_rotor ;
   struct css_set *cgroups ;
   struct list_head cg_list ;
   struct robust_list_head *robust_list ;
   struct compat_robust_list_head *compat_robust_list ;
   struct list_head pi_state_list ;
   struct futex_pi_state *pi_state_cache ;
   atomic_t fs_excl ;
   struct rcu_head rcu ;
   struct pipe_inode_info *splice_pipe ;
   struct task_delay_info *delays ;
   int make_it_fail ;
   struct prop_local_single dirties ;
   int latency_record_count ;
   struct latency_record latency_record[32U] ;
};
struct tr_statistics {
   unsigned long rx_packets ;
   unsigned long tx_packets ;
   unsigned long rx_bytes ;
   unsigned long tx_bytes ;
   unsigned long rx_errors ;
   unsigned long tx_errors ;
   unsigned long rx_dropped ;
   unsigned long tx_dropped ;
   unsigned long multicast ;
   unsigned long transmit_collision ;
   unsigned long line_errors ;
   unsigned long internal_errors ;
   unsigned long burst_errors ;
   unsigned long A_C_errors ;
   unsigned long abort_delimiters ;
   unsigned long lost_frames ;
   unsigned long recv_congest_count ;
   unsigned long frame_copied_errors ;
   unsigned long frequency_errors ;
   unsigned long token_errors ;
   unsigned long dummy1 ;
};
struct __anonstruct_IPB_121 {
   unsigned short Init_Options ;
   u_int8_t CMD_Status_IV ;
   u_int8_t TX_IV ;
   u_int8_t RX_IV ;
   u_int8_t Ring_Status_IV ;
   u_int8_t SCB_Clear_IV ;
   u_int8_t Adapter_CHK_IV ;
   u_int16_t RX_Burst_Size ;
   u_int16_t TX_Burst_Size ;
   u_int16_t DMA_Abort_Thrhld ;
   u_int32_t SCB_Addr ;
   u_int32_t SSB_Addr ;
};
typedef struct __anonstruct_IPB_121 IPB;
struct __anonstruct_OPB_123 {
   u_int16_t OPENOptions ;
   u_int8_t NodeAddr[6U] ;
   u_int32_t GroupAddr ;
   u_int32_t FunctAddr ;
   __be16 RxListSize ;
   __be16 TxListSize ;
   __be16 BufSize ;
   u_int16_t FullDuplex ;
   u_int16_t Reserved ;
   u_int8_t TXBufMin ;
   u_int8_t TXBufMax ;
   u_int16_t ProdIDAddr[2U] ;
};
typedef struct __anonstruct_OPB_123 OPB;
struct __anonstruct_SCB_125 {
   u_int16_t CMD ;
   u_int16_t Parm[2U] ;
};
typedef struct __anonstruct_SCB_125 SCB;
struct __anonstruct_SSB_126 {
   u_int16_t STS ;
   u_int16_t Parm[3U] ;
};
typedef struct __anonstruct_SSB_126 SSB;
struct __anonstruct_INTPTRS_127 {
   unsigned short BurnedInAddrPtr ;
   unsigned short SoftwareLevelPtr ;
   unsigned short AdapterAddrPtr ;
   unsigned short AdapterParmsPtr ;
   unsigned short MACBufferPtr ;
   unsigned short LLCCountersPtr ;
   unsigned short SpeedFlagPtr ;
   unsigned short AdapterRAMPtr ;
};
typedef struct __anonstruct_INTPTRS_127 INTPTRS;
struct __anonstruct_ERRORTAB_128 {
   u_int8_t Line_Error ;
   u_int8_t Internal_Error ;
   u_int8_t Burst_Error ;
   u_int8_t ARI_FCI_Error ;
   u_int8_t AbortDelimeters ;
   u_int8_t Reserved_3 ;
   u_int8_t Lost_Frame_Error ;
   u_int8_t Rx_Congest_Error ;
   u_int8_t Frame_Copied_Error ;
   u_int8_t Frequency_Error ;
   u_int8_t Token_Error ;
   u_int8_t Reserved_5 ;
   u_int8_t DMA_Bus_Error ;
   u_int8_t DMA_Parity_Error ;
};
typedef struct __anonstruct_ERRORTAB_128 ERRORTAB;
struct __anonstruct_Fragment_129 {
   __be16 DataCount ;
   __be32 DataAddr ;
};
typedef struct __anonstruct_Fragment_129 Fragment;
struct s_TPL;
typedef struct s_TPL TPL;
struct s_TPL {
   __be32 NextTPLAddr ;
   u_int16_t volatile   Status ;
   __be16 FrameSize ;
   Fragment FragList[3U] ;
   TPL *NextTPLPtr ;
   unsigned char *MData ;
   struct sk_buff *Skb ;
   unsigned char TPLIndex ;
   unsigned char volatile   BusyFlag ;
   dma_addr_t DMABuff ;
};
enum SKB_STAT;
typedef enum SKB_STAT SKB_STAT;
enum SKB_STAT {
    SKB_UNAVAILABLE = 0,
    SKB_DMA_DIRECT = 1,
    SKB_DATA_COPY = 2
} ;
struct s_RPL;
typedef struct s_RPL RPL;
struct s_RPL {
   __be32 NextRPLAddr ;
   u_int16_t volatile   Status ;
   __be16 volatile   FrameSize ;
   Fragment FragList[1U] ;
   RPL *NextRPLPtr ;
   unsigned char *MData ;
   struct sk_buff *Skb ;
   SKB_STAT SkbStat ;
   int RPLIndex ;
   dma_addr_t DMABuff ;
};
struct net_local {
   IPB ipb ;
   SCB scb ;
   SSB ssb ;
   OPB ocpl ;
   ERRORTAB errorlogtable ;
   unsigned char ProductID[19U] ;
   TPL Tpl[3U] ;
   TPL *TplFree ;
   TPL *TplBusy ;
   unsigned char LocalTxBuffers[3U][4504U] ;
   RPL Rpl[3U] ;
   RPL *RplHead ;
   RPL *RplTail ;
   unsigned char LocalRxBuffers[3U][4504U] ;
   struct device *pdev ;
   int DataRate ;
   unsigned char ScbInUse ;
   unsigned short CMDqueue ;
   unsigned char AdapterOpenFlag : 1 ;
   unsigned char AdapterVirtOpenFlag : 1 ;
   unsigned char OpenCommandIssued : 1 ;
   unsigned char TransmitCommandActive : 1 ;
   unsigned char TransmitHaltScheduled : 1 ;
   unsigned char HaltInProgress : 1 ;
   unsigned char LobeWireFaultLogged : 1 ;
   unsigned char ReOpenInProgress : 1 ;
   unsigned char Sleeping : 1 ;
   unsigned long LastOpenStatus ;
   unsigned short CurrentRingStatus ;
   unsigned long MaxPacketSize ;
   unsigned long StartTime ;
   unsigned long LastSendTime ;
   struct tr_statistics MacStat ;
   unsigned long dmalimit ;
   dma_addr_t dmabuffer ;
   struct timer_list timer ;
   wait_queue_head_t wait_for_tok_int ;
   INTPTRS intptrs ;
   unsigned short (*setnselout)(struct net_device * ) ;
   unsigned short (*sifreadb)(struct net_device * , unsigned short  ) ;
   void (*sifwriteb)(struct net_device * , unsigned short  , unsigned short  ) ;
   unsigned short (*sifreadw)(struct net_device * , unsigned short  ) ;
   void (*sifwritew)(struct net_device * , unsigned short  , unsigned short  ) ;
   spinlock_t lock ;
   void *tmspriv ;
};
enum __anonenum_93 {
    LDV_SPIN_UNLOCKED = 0,
    LDV_SPIN_LOCKED = 1
} ;
void *memcpy(void * , void const   * , unsigned long  ) ;
long ldv__builtin_expect(long exp , long c ) ;
extern int printk(char const   *  , ...) ;
extern void *memcpy(void * , void const   * , size_t  ) ;
extern unsigned long __get_free_pages(gfp_t  , unsigned int  ) ;
unsigned long ldv___get_free_pages_3(gfp_t ldv_func_arg1 , unsigned int ldv_func_arg2 ) ;
extern void *kmem_cache_alloc(struct kmem_cache * , gfp_t  ) ;
void *ldv_kmem_cache_alloc_4(struct kmem_cache *ldv_func_arg1 , gfp_t ldv_func_arg2 ) ;
void *ldv_kmem_cache_alloc_8(struct kmem_cache *ldv_func_arg1 , gfp_t ldv_func_arg2 ) ;
extern struct module __this_module ;
void ldv_check_alloc_flags(gfp_t flags ) ;
extern struct resource ioport_resource ;
extern struct resource *__request_region(struct resource * , resource_size_t  , resource_size_t  ,
                                         char const   * ) ;
extern void __release_region(struct resource * , resource_size_t  , resource_size_t  ) ;
 static void *dev_get_drvdata(struct device *dev ) 
{ 


  {
  return (dev->driver_data);
}
}
 static void dev_set_drvdata(struct device *dev , void *data ) 
{ 


  {
  dev->driver_data = data;
  return;
}
}
extern int pci_enable_device(struct pci_dev * ) ;
extern int __pci_register_driver(struct pci_driver * , struct module * , char const   * ) ;
 static int pci_register_driver(struct pci_driver *driver ) 
{ 
  int tmp ;

  {
  tmp = __pci_register_driver(driver, & __this_module, "abyss");
  return (tmp);
}
}
extern void pci_unregister_driver(struct pci_driver * ) ;
 static unsigned char inb(unsigned short port ) 
{ 
  unsigned char _v ;

  {
  __asm__  volatile   ("inb %w1,%0": "=a" (_v): "Nd" (port));
  return (_v);
}
}
 static unsigned short inw(unsigned short port ) 
{ 
  unsigned short _v ;

  {
  __asm__  volatile   ("inw %w1,%0": "=a" (_v): "Nd" (port));
  return (_v);
}
}
 static void outb(unsigned char value , unsigned short port ) 
{ 


  {
  __asm__  volatile   ("outb %b0,%w1": : "a" (value), "Nd" (port));
  return;
}
}
 static void outw(unsigned short value , unsigned short port ) 
{ 


  {
  __asm__  volatile   ("outw %w0,%w1": : "a" (value), "Nd" (port));
  return;
}
}
 static void *pci_get_drvdata(struct pci_dev *pdev ) 
{ 
  void *tmp ;

  {
  tmp = dev_get_drvdata(& pdev->dev);
  return (tmp);
}
}
 static void pci_set_drvdata(struct pci_dev *pdev , void *data ) 
{ 


  {
  dev_set_drvdata(& pdev->dev, data);
  return;
}
}
extern struct sk_buff *skb_clone(struct sk_buff * , gfp_t  ) ;
struct sk_buff *ldv_skb_clone_13(struct sk_buff *ldv_func_arg1 , gfp_t ldv_func_arg2 ) ;
extern struct sk_buff *skb_copy(struct sk_buff  const  * , gfp_t  ) ;
struct sk_buff *ldv_skb_copy_15(struct sk_buff  const  *ldv_func_arg1 , gfp_t ldv_func_arg2 ) ;
extern int pskb_expand_head(struct sk_buff * , int  , int  , gfp_t  ) ;
int ldv_pskb_expand_head_17(struct sk_buff *ldv_func_arg1 , int ldv_func_arg2 , int ldv_func_arg3 ,
                            gfp_t ldv_func_arg4 ) ;
extern struct sk_buff *__netdev_alloc_skb(struct net_device * , unsigned int  , gfp_t  ) ;
struct sk_buff *ldv___netdev_alloc_skb_16(struct net_device *ldv_func_arg1 , unsigned int ldv_func_arg2 ,
                                          gfp_t ldv_func_arg3 ) ;
extern char *print_mac(char * , unsigned char const   * ) ;
 static void *netdev_priv(struct net_device  const  *dev ) 
{ 


  {
  return ((void *)dev->priv);
}
}
extern int request_irq(unsigned int  , irqreturn_t (*)(int  , void * ) , unsigned long  ,
                       char const   * , void * ) ;
extern void free_irq(unsigned int  , void * ) ;
extern void free_netdev(struct net_device * ) ;
extern int register_netdev(struct net_device * ) ;
extern void unregister_netdev(struct net_device * ) ;
extern struct net_device *alloc_trdev(int  ) ;
extern int tms380tr_open(struct net_device * ) ;
extern int tms380tr_close(struct net_device * ) ;
extern irqreturn_t tms380tr_interrupt(int  , void * ) ;
extern int tmsdev_init(struct net_device * , struct device * ) ;
extern void tmsdev_term(struct net_device * ) ;
extern void tms380tr_wait(unsigned long  ) ;
static char version[44U]  = 
  {      'a',      'b',      'y',      's', 
        's',      '.',      'c',      ':', 
        ' ',      'v',      '1',      '.', 
        '0',      '2',      ' ',      '2', 
        '3',      '/',      '1',      '1', 
        '/',      '2',      '0',      '0', 
        '0',      ' ',      'b',      'y', 
        ' ',      'A',      'd',      'a', 
        'm',      ' ',      'F',      'r', 
        'i',      't',      'z',      'l', 
        'e',      'r',      '\n',      '\000'};
static struct pci_device_id abyss_pci_tbl[2U]  = {      {4278U, 2U, 4294967295U, 4294967295U, 131328U, 16777215U, 0UL}};
struct pci_device_id  const  __mod_pci_device_table  ;
static int abyss_open(struct net_device *dev ) ;
static int abyss_close(struct net_device *dev ) ;
static void abyss_enable(struct net_device *dev ) ;
static int abyss_chipset_init(struct net_device *dev ) ;
static void abyss_read_eeprom(struct net_device *dev ) ;
static unsigned short abyss_setnselout_pins(struct net_device *dev ) ;
static void at24_writedatabyte(unsigned long regaddr , unsigned char byte ) ;
static int at24_sendfullcmd(unsigned long regaddr , unsigned char cmd , unsigned char addr ) ;
static int at24_sendcmd(unsigned long regaddr , unsigned char cmd ) ;
static unsigned char at24_readdatabit(unsigned long regaddr ) ;
static unsigned char at24_readdatabyte(unsigned long regaddr ) ;
static int at24_waitforack(unsigned long regaddr ) ;
static int at24_waitfornack(unsigned long regaddr ) ;
static void at24_setlines(unsigned long regaddr , unsigned char clock , unsigned char data ) ;
static void at24_start(unsigned long regaddr ) ;
static unsigned char at24_readb(unsigned long regaddr , unsigned char addr ) ;
static unsigned short abyss_sifreadb(struct net_device *dev , unsigned short reg ) 
{ 
  unsigned char tmp ;

  {
  tmp = inb((int )((unsigned short )dev->base_addr) + (int )reg);
  return ((unsigned short )tmp);
}
}
static unsigned short abyss_sifreadw(struct net_device *dev , unsigned short reg ) 
{ 
  unsigned short tmp ;

  {
  tmp = inw((int )((unsigned short )dev->base_addr) + (int )reg);
  return (tmp);
}
}
static void abyss_sifwriteb(struct net_device *dev , unsigned short val , unsigned short reg ) 
{ 


  {
  outb((int )((unsigned char )val), (int )((unsigned short )dev->base_addr) + (int )reg);
  return;
}
}
static void abyss_sifwritew(struct net_device *dev , unsigned short val , unsigned short reg ) 
{ 


  {
  outw((int )val, (int )((unsigned short )dev->base_addr) + (int )reg);
  return;
}
}
static int abyss_attach(struct pci_dev *pdev , struct pci_device_id  const  *ent ) 
{ 
  int versionprinted ;
  struct net_device *dev ;
  struct net_local *tp ;
  int ret ;
  int pci_irq_line ;
  unsigned long pci_ioaddr ;
  char mac[18U] ;
  int tmp ;
  int tmp___0 ;
  struct resource *tmp___1 ;
  char *tmp___2 ;
  void *tmp___3 ;
  size_t __len ;
  void *__ret ;

  {
  tmp = versionprinted;
  versionprinted = versionprinted + 1;
  if (tmp == 0) {
    printk("%s", (char *)(& version));
  } else {

  }
  tmp___0 = pci_enable_device(pdev);
  if (tmp___0 != 0) {
    return (-5);
  } else {

  }
  pci_irq_line = (int )pdev->irq;
  pci_ioaddr = (unsigned long )pdev->resource[0].start;
  dev = alloc_trdev(28064);
  if ((unsigned long )dev == (unsigned long )((struct net_device *)0)) {
    return (-12);
  } else {

  }
  tmp___1 = __request_region(& ioport_resource, (resource_size_t )pci_ioaddr, 64ULL,
                             (char const   *)(& dev->name));
  if ((unsigned long )tmp___1 == (unsigned long )((struct resource *)0)) {
    ret = -16;
    goto err_out_trdev;
  } else {

  }
  ret = request_irq(pdev->irq, & tms380tr_interrupt, 128UL, (char const   *)(& dev->name),
                    (void *)dev);
  if (ret != 0) {
    goto err_out_region;
  } else {

  }
  dev->base_addr = pci_ioaddr;
  dev->irq = (unsigned int )pci_irq_line;
  printk("%s: Madge Smart 16/4 PCI Mk2 (Abyss)\n", (char *)(& dev->name));
  printk("%s:    IO: %#4lx  IRQ: %d\n", (char *)(& dev->name), pci_ioaddr, dev->irq);
  dev->base_addr = dev->base_addr + 16UL;
  ret = tmsdev_init(dev, & pdev->dev);
  if (ret != 0) {
    printk("%s: unable to get memory for dev->priv.\n", (char *)(& dev->name));
    goto err_out_irq;
  } else {

  }
  abyss_read_eeprom(dev);
  tmp___2 = print_mac((char *)(& mac), (unsigned char const   *)(& dev->dev_addr));
  printk("%s:    Ring Station Address: %s\n", (char *)(& dev->name), tmp___2);
  tmp___3 = netdev_priv((struct net_device  const  *)dev);
  tp = (struct net_local *)tmp___3;
  tp->setnselout = & abyss_setnselout_pins;
  tp->sifreadb = & abyss_sifreadb;
  tp->sifreadw = & abyss_sifreadw;
  tp->sifwriteb = & abyss_sifwriteb;
  tp->sifwritew = & abyss_sifwritew;
  __len = 19UL;
  if (__len > 63UL) {
    __ret = memcpy((void *)(& tp->ProductID), (void const   *)"Madge PCI 16/4 Mk2",
                     __len);
  } else {
    __ret = memcpy((void *)(& tp->ProductID), (void const   *)"Madge PCI 16/4 Mk2",
                             __len);
  }
  dev->open = & abyss_open;
  dev->stop = & abyss_close;
  pci_set_drvdata(pdev, (void *)dev);
  dev->dev.parent = & pdev->dev;
  ret = register_netdev(dev);
  if (ret != 0) {
    goto err_out_tmsdev;
  } else {

  }
  return (0);
  err_out_tmsdev: 
  pci_set_drvdata(pdev, 0);
  tmsdev_term(dev);
  err_out_irq: 
  free_irq(pdev->irq, (void *)dev);
  err_out_region: 
  __release_region(& ioport_resource, (resource_size_t )pci_ioaddr, 64ULL);
  err_out_trdev: 
  free_netdev(dev);
  return (ret);
}
}
static unsigned short abyss_setnselout_pins(struct net_device *dev ) 
{ 
  unsigned short val ;
  struct net_local *tp ;
  void *tmp ;

  {
  val = 0U;
  tmp = netdev_priv((struct net_device  const  *)dev);
  tp = (struct net_local *)tmp;
  if (tp->DataRate == 4) {
    val = (unsigned int )val | 1U;
  } else {
    val = val;
  }
  return (val);
}
}
static void at24_writedatabyte(unsigned long regaddr , unsigned char byte ) 
{ 
  int i ;

  {
  i = 0;
  goto ldv_18792;
  ldv_18791: 
  at24_setlines(regaddr, 0, (int )((unsigned char )((int )byte >> (7 - i))) & 1);
  at24_setlines(regaddr, 1, (int )((unsigned char )((int )byte >> (7 - i))) & 1);
  at24_setlines(regaddr, 0, (int )((unsigned char )((int )byte >> (7 - i))) & 1);
  i = i + 1;
  ldv_18792: ;
  if (i <= 7) {
    goto ldv_18791;
  } else {

  }

  return;
}
}
static int at24_sendfullcmd(unsigned long regaddr , unsigned char cmd , unsigned char addr ) 
{ 
  int tmp ;
  int tmp___0 ;

  {
  tmp___0 = at24_sendcmd(regaddr, (int )cmd);
  if (tmp___0 != 0) {
    at24_writedatabyte(regaddr, (int )addr);
    tmp = at24_waitforack(regaddr);
    return (tmp);
  } else {

  }
  return (0);
}
}
static int at24_sendcmd(unsigned long regaddr , unsigned char cmd ) 
{ 
  int i ;
  int tmp ;

  {
  i = 0;
  goto ldv_18805;
  ldv_18804: 
  at24_start(regaddr);
  at24_writedatabyte(regaddr, (int )cmd);
  tmp = at24_waitforack(regaddr);
  if (tmp != 0) {
    return (1);
  } else {

  }
  i = i + 1;
  ldv_18805: ;
  if (i <= 9) {
    goto ldv_18804;
  } else {

  }

  return (0);
}
}
static unsigned char at24_readdatabit(unsigned long regaddr ) 
{ 
  unsigned char val ;
  unsigned char tmp ;

  {
  at24_setlines(regaddr, 0, 1);
  at24_setlines(regaddr, 1, 1);
  tmp = inb((int )((unsigned short )regaddr));
  val = ((int )tmp & 2) != 0;
  at24_setlines(regaddr, 1, 1);
  at24_setlines(regaddr, 0, 1);
  return (val);
}
}
static unsigned char at24_readdatabyte(unsigned long regaddr ) 
{ 
  unsigned char data ;
  int i ;
  unsigned char tmp ;

  {
  data = 0U;
  i = 0;
  goto ldv_18817;
  ldv_18816: 
  data = (int )data << 1U;
  tmp = at24_readdatabit(regaddr);
  data = (int )tmp | (int )data;
  i = i + 1;
  ldv_18817: ;
  if (i <= 7) {
    goto ldv_18816;
  } else {

  }

  return (data);
}
}
static int at24_waitforack(unsigned long regaddr ) 
{ 
  int i ;
  unsigned char tmp ;

  {
  i = 0;
  goto ldv_18824;
  ldv_18823: 
  tmp = at24_readdatabit(regaddr);
  if (((int )tmp & 1) == 0) {
    return (1);
  } else {

  }
  i = i + 1;
  ldv_18824: ;
  if (i <= 9) {
    goto ldv_18823;
  } else {

  }

  return (0);
}
}
static int at24_waitfornack(unsigned long regaddr ) 
{ 
  int i ;
  unsigned char tmp ;

  {
  i = 0;
  goto ldv_18831;
  ldv_18830: 
  tmp = at24_readdatabit(regaddr);
  if ((int )tmp & 1) {
    return (1);
  } else {

  }
  i = i + 1;
  ldv_18831: ;
  if (i <= 9) {
    goto ldv_18830;
  } else {

  }

  return (0);
}
}
static void at24_setlines(unsigned long regaddr , unsigned char clock , unsigned char data ) 
{ 
  unsigned char val ;

  {
  val = 4U;
  if ((unsigned int )clock != 0U) {
    val = (unsigned int )val | 1U;
  } else {

  }
  if ((unsigned int )data != 0U) {
    val = (unsigned int )val | 2U;
  } else {

  }
  outb((int )val, (int )((unsigned short )regaddr));
  tms380tr_wait(20UL);
  return;
}
}
static void at24_start(unsigned long regaddr ) 
{ 


  {
  at24_setlines(regaddr, 0, 1);
  at24_setlines(regaddr, 1, 1);
  at24_setlines(regaddr, 1, 0);
  at24_setlines(regaddr, 0, 1);
  return;
}
}
static unsigned char at24_readb(unsigned long regaddr , unsigned char addr ) 
{ 
  unsigned char data ;
  int tmp ;
  int tmp___0 ;
  int tmp___1 ;

  {
  data = 255U;
  tmp___1 = at24_sendfullcmd(regaddr, 160, (int )addr);
  if (tmp___1 != 0) {
    tmp___0 = at24_sendcmd(regaddr, 161);
    if (tmp___0 != 0) {
      data = at24_readdatabyte(regaddr);
      tmp = at24_waitfornack(regaddr);
      if (tmp == 0) {
        data = 255U;
      } else {

      }
    } else {

    }
  } else {

  }
  return (data);
}
}
static void abyss_enable(struct net_device *dev ) 
{ 
  unsigned char reset_reg ;
  unsigned long ioaddr ;

  {
  ioaddr = dev->base_addr;
  reset_reg = inb((int )((unsigned int )((unsigned short )ioaddr) + 65524U));
  reset_reg = (unsigned int )reset_reg | 1U;
  outb((int )reset_reg, (int )((unsigned int )((unsigned short )ioaddr) + 65524U));
  tms380tr_wait(100UL);
  return;
}
}
static int abyss_chipset_init(struct net_device *dev ) 
{ 
  unsigned char reset_reg ;
  unsigned long ioaddr ;

  {
  ioaddr = dev->base_addr;
  reset_reg = inb((int )((unsigned int )((unsigned short )ioaddr) + 65524U));
  reset_reg = (unsigned int )reset_reg | 1U;
  outb((int )reset_reg, (int )((unsigned int )((unsigned short )ioaddr) + 65524U));
  reset_reg = (unsigned int )reset_reg & 248U;
  outb((int )reset_reg, (int )((unsigned int )((unsigned short )ioaddr) + 65524U));
  tms380tr_wait(100UL);
  reset_reg = (unsigned int )reset_reg | 1U;
  outb((int )reset_reg, (int )((unsigned int )((unsigned short )ioaddr) + 65524U));
  reset_reg = (unsigned int )reset_reg | 4U;
  outb((int )reset_reg, (int )((unsigned int )((unsigned short )ioaddr) + 65524U));
  reset_reg = (unsigned int )reset_reg | 2U;
  outb((int )reset_reg, (int )((unsigned int )((unsigned short )ioaddr) + 65524U));
  outb(130, (int )((unsigned int )((unsigned short )ioaddr) + 65522U));
  outb(30, (int )((unsigned int )((unsigned short )ioaddr) + 33U));
  return (0);
}
}
 static void abyss_chipset_close(struct net_device *dev ) 
{ 
  unsigned long ioaddr ;

  {
  ioaddr = dev->base_addr;
  outb(0, (int )((unsigned int )((unsigned short )ioaddr) + 65524U));
  return;
}
}
static void abyss_read_eeprom(struct net_device *dev ) 
{ 
  struct net_local *tp ;
  unsigned long ioaddr ;
  unsigned short val ;
  int i ;
  void *tmp ;
  unsigned char tmp___0 ;
  unsigned char tmp___1 ;

  {
  tmp = netdev_priv((struct net_device  const  *)dev);
  tp = (struct net_local *)tmp;
  ioaddr = dev->base_addr;
  abyss_enable(dev);
  tmp___0 = at24_readb(ioaddr + 0xfffffffffffffff7UL, 24);
  val = (unsigned short )tmp___0;
  tp->DataRate = (unsigned int )val != 0U ? 4 : 16;
  printk("%s:    SEEPROM: ring speed: %dMb/sec\n", (char *)(& dev->name), tp->DataRate);
  tmp___1 = at24_readb(ioaddr + 0xfffffffffffffff7UL, 26);
  val = (unsigned int )((unsigned short )tmp___1) * 128U;
  printk("%s:    SEEPROM: adapter RAM: %dkb\n", (char *)(& dev->name), (int )val);
  dev->addr_len = 6U;
  i = 0;
  goto ldv_18869;
  ldv_18868: 
  dev->dev_addr[i] = at24_readb(ioaddr + 0xfffffffffffffff7UL, (int )((unsigned int )((unsigned char )i) + 18U));
  i = i + 1;
  ldv_18869: ;
  if (i <= 5) {
    goto ldv_18868;
  } else {

  }

  return;
}
}
static int abyss_open(struct net_device *dev ) 
{ 


  {
  abyss_chipset_init(dev);
  tms380tr_open(dev);
  return (0);
}
}
static int abyss_close(struct net_device *dev ) 
{ 


  {
  tms380tr_close(dev);
  abyss_chipset_close(dev);
  return (0);
}
}
static void abyss_detach(struct pci_dev *pdev ) 
{ 
  struct net_device *dev ;
  void *tmp ;
  long tmp___0 ;

  {
  tmp = pci_get_drvdata(pdev);
  dev = (struct net_device *)tmp;
  tmp___0 = ldv__builtin_expect((unsigned long )dev == (unsigned long )((struct net_device *)0),
                             0L);
  if (tmp___0 != 0L) {
    __asm__  volatile   ("1:\tud2\n.pushsection __bug_table,\"a\"\n2:\t.quad 1b, %c0\n\t.word %c1, 0\n\t.org 2b+%c2\n.popsection": : "i" ((char *)"/work/ldvuser/novikov/work/current--X--drivers/net/tokenring/abyss.ko--X--defaultlinux--X--43_1a--X--cpachecker/linux/csd_deg_dscv/11/dscv_tempdir/dscv/ri/43_1a/drivers/net/tokenring/abyss.c.prepared"),
                         "i" (452), "i" (24UL));
    ldv_18881: ;
    goto ldv_18881;
  } else {

  }
  unregister_netdev(dev);
  __release_region(& ioport_resource, (resource_size_t )(dev->base_addr - 16UL), 64ULL);
  free_irq(dev->irq, (void *)dev);
  tmsdev_term(dev);
  free_netdev(dev);
  pci_set_drvdata(pdev, 0);
  return;
}
}
static struct pci_driver abyss_driver  = 
     {{0, 0}, (char *)"abyss", (struct pci_device_id  const  *)(& abyss_pci_tbl), & abyss_attach,
    & abyss_detach, 0, 0, 0, 0, 0, 0, {0, 0, 0, 0, 0, 0, 0, 0, 0, 0, 0}, {{{0U}, 0U,
                                                                           0U, 0,
                                                                           {0, 0,
                                                                            0, 0}},
                                                                          {0, 0},
                                                                          (unsigned char)0}};
static int abyss_init(void) 
{ 
  int tmp ;

  {
  tmp = pci_register_driver(& abyss_driver);
  return (tmp);
}
}
static void abyss_rmmod(void) 
{ 


  {
  pci_unregister_driver(& abyss_driver);
  return;
}
}
extern void ldv_check_final_state(void) ;
extern void ldv_check_return_value(int  ) ;
extern void ldv_check_return_value_probe(int  ) ;
extern void ldv_initialize(void) ;
extern void ldv_handler_precall(void) ;
extern int nondet_int(void) ;
int LDV_IN_INTERRUPT  ;
int main(void) 
{ 
  struct pci_dev *var_group1 ;
  struct pci_device_id  const  *var_abyss_attach_4_p1 ;
  int res_abyss_attach_4 ;
  int ldv_s_abyss_driver_pci_driver ;
  int tmp ;
  int tmp___0 ;
  int tmp___1 ;

  {
  ldv_s_abyss_driver_pci_driver = 0;
  LDV_IN_INTERRUPT = 1;
  ldv_initialize();
  ldv_handler_precall();
  tmp = abyss_init();
  if (tmp != 0) {
    goto ldv_final;
  } else {

  }
  goto ldv_18926;
  ldv_18925: 
  tmp___0 = nondet_int();
  switch (tmp___0) {
  case 0: ;
  if (ldv_s_abyss_driver_pci_driver == 0) {
    res_abyss_attach_4 = abyss_attach(var_group1, var_abyss_attach_4_p1);
    ldv_check_return_value(res_abyss_attach_4);
    ldv_check_return_value_probe(res_abyss_attach_4);
    if (res_abyss_attach_4 != 0) {
      goto ldv_module_exit;
    } else {

    }
    ldv_s_abyss_driver_pci_driver = ldv_s_abyss_driver_pci_driver + 1;
  } else {

  }
  goto ldv_18922;
  case 1: ;
  if (ldv_s_abyss_driver_pci_driver == 1) {
    ldv_handler_precall();
    abyss_detach(var_group1);
    ldv_s_abyss_driver_pci_driver = 0;
  } else {

  }
  goto ldv_18922;
  default: ;
  goto ldv_18922;
  }
  ldv_18922: ;
  ldv_18926: 
  tmp___1 = nondet_int();
  if (tmp___1 != 0 || ldv_s_abyss_driver_pci_driver != 0) {
    goto ldv_18925;
  } else {

  }

  ldv_module_exit: 
  ldv_handler_precall();
  abyss_rmmod();
  ldv_final: 
  ldv_check_final_state();
  return 0;
}
}
unsigned long ldv___get_free_pages_3(gfp_t ldv_func_arg1 , unsigned int ldv_func_arg2 ) 
{ 
  unsigned long tmp ;

  {
  ldv_check_alloc_flags(ldv_func_arg1);
  tmp = __get_free_pages(ldv_func_arg1, ldv_func_arg2);
  return (tmp);
}
}
void *ldv_kmem_cache_alloc_4(struct kmem_cache *ldv_func_arg1 , gfp_t ldv_func_arg2 ) 
{ 


  {
  ldv_check_alloc_flags(ldv_func_arg2);
  kmem_cache_alloc(ldv_func_arg1, ldv_func_arg2);
  return ((void *)0);
}
}
void *ldv_kmem_cache_alloc_8(struct kmem_cache *ldv_func_arg1 , gfp_t ldv_func_arg2 ) 
{ 


  {
  ldv_check_alloc_flags(ldv_func_arg2);
  kmem_cache_alloc(ldv_func_arg1, ldv_func_arg2);
  return ((void *)0);
}
}
struct sk_buff *ldv_skb_clone_13(struct sk_buff *ldv_func_arg1 , gfp_t ldv_func_arg2 ) 
{ 
  struct sk_buff *tmp ;

  {
  ldv_check_alloc_flags(ldv_func_arg2);
  tmp = skb_clone(ldv_func_arg1, ldv_func_arg2);
  return (tmp);
}
}
struct sk_buff *ldv_skb_copy_15(struct sk_buff  const  *ldv_func_arg1 , gfp_t ldv_func_arg2 ) 
{ 
  struct sk_buff *tmp ;

  {
  ldv_check_alloc_flags(ldv_func_arg2);
  tmp = skb_copy(ldv_func_arg1, ldv_func_arg2);
  return (tmp);
}
}
struct sk_buff *ldv___netdev_alloc_skb_16(struct net_device *ldv_func_arg1 , unsigned int ldv_func_arg2 ,
                                          gfp_t ldv_func_arg3 ) 
{ 
  struct sk_buff *tmp ;

  {
  ldv_check_alloc_flags(ldv_func_arg3);
  tmp = __netdev_alloc_skb(ldv_func_arg1, ldv_func_arg2, ldv_func_arg3);
  return (tmp);
}
}
int ldv_pskb_expand_head_17(struct sk_buff *ldv_func_arg1 , int ldv_func_arg2 , int ldv_func_arg3 ,
                            gfp_t ldv_func_arg4 ) 
{ 
  int tmp ;

  {
  ldv_check_alloc_flags(ldv_func_arg4);
  tmp = pskb_expand_head(ldv_func_arg1, ldv_func_arg2, ldv_func_arg3, ldv_func_arg4);
  return (tmp);
}
}
 static void ( __attribute__((__always_inline__)) ldv_error)(void) 
{ 


  {
  LDV_ERROR: {reach_error();abort();}
}
}
extern int ldv_undef_int(void) ;
long ldv__builtin_expect(long exp , long c ) 
{ 


  {
  return (exp);
}
}
int ldv_spin  =    LDV_SPIN_UNLOCKED;
void ldv_check_alloc_flags(gfp_t flags ) 
{ 


  {
  if (ldv_spin == LDV_SPIN_UNLOCKED || flags == 32U) {

  } else {
    ldv_error();
  }
  return;
}
}
extern struct page *ldv_some_page(void) ;
struct page *ldv_check_alloc_flags_and_return_some_page(gfp_t flags ) 
{ 
  struct page *tmp ;

  {
  if (ldv_spin == LDV_SPIN_UNLOCKED || flags == 32U) {

  } else {
    ldv_error();
  }
  tmp = ldv_some_page();
  return (tmp);
}
}
void ldv_check_alloc_nonatomic(void) 
{ 


  {
  if (ldv_spin == LDV_SPIN_UNLOCKED) {

  } else {
    ldv_error();
  }
  return;
}
}
void ldv_spin_lock(void) 
{ 


  {
  ldv_spin = LDV_SPIN_LOCKED;
  return;
}
}
void ldv_spin_unlock(void) 
{ 


  {
  ldv_spin = LDV_SPIN_UNLOCKED;
  return;
}
}
int ldv_spin_trylock(void) 
{ 
  int is_lock ;

  {
  is_lock = ldv_undef_int();
  if (is_lock) {
    return (0);
  } else {
    ldv_spin = LDV_SPIN_LOCKED;
    return (1);
  }
}
}
