extern void abort(void);
extern void __assert_fail(const char *, const char *, unsigned int, const char *) __attribute__ ((__nothrow__ , __leaf__)) __attribute__ ((__noreturn__));
void reach_error() { __assert_fail("0", "drivers--i2c--algos--i2c-algo-pca.ko_023.2086ca4.39_7a.cil_true-unreach-call.i", 3, "reach_error"); }

/* Generated by CIL v. 1.5.1 */
/* print_CIL_Input is false */

typedef unsigned char __u8;
typedef unsigned short __u16;
typedef int __s32;
typedef unsigned int __u32;
typedef unsigned long long __u64;
typedef unsigned char u8;
typedef unsigned short u16;
typedef unsigned int u32;
typedef long long s64;
typedef unsigned long long u64;
typedef unsigned int __kernel_mode_t;
typedef int __kernel_pid_t;
typedef unsigned int __kernel_uid_t;
typedef unsigned int __kernel_gid_t;
typedef unsigned long __kernel_size_t;
typedef long __kernel_ssize_t;
typedef long __kernel_time_t;
typedef long __kernel_clock_t;
typedef int __kernel_timer_t;
typedef int __kernel_clockid_t;
typedef __kernel_uid_t __kernel_uid32_t;
typedef __kernel_gid_t __kernel_gid32_t;
typedef __u32 __kernel_dev_t;
typedef __kernel_dev_t dev_t;
typedef __kernel_mode_t mode_t;
typedef __kernel_pid_t pid_t;
typedef __kernel_clockid_t clockid_t;
typedef _Bool bool;
typedef __kernel_uid32_t uid_t;
typedef __kernel_gid32_t gid_t;
typedef __kernel_size_t size_t;
typedef __kernel_ssize_t ssize_t;
typedef __kernel_time_t time_t;
typedef __s32 int32_t;
typedef __u32 uint32_t;
typedef unsigned int gfp_t;
struct __anonstruct_atomic_t_6 {
   int counter ;
};
typedef struct __anonstruct_atomic_t_6 atomic_t;
struct __anonstruct_atomic64_t_7 {
   long counter ;
};
typedef struct __anonstruct_atomic64_t_7 atomic64_t;
struct module;
struct bug_entry {
   int bug_addr_disp ;
   int file_disp ;
   unsigned short line ;
   unsigned short flags ;
};
struct completion;
struct pt_regs;
struct pid;
struct timespec;
struct compat_timespec;
struct __anonstruct_ldv_1631_9 {
   unsigned long arg0 ;
   unsigned long arg1 ;
   unsigned long arg2 ;
   unsigned long arg3 ;
};
struct __anonstruct_futex_10 {
   u32 *uaddr ;
   u32 val ;
   u32 flags ;
   u32 bitset ;
   u64 time ;
   u32 *uaddr2 ;
};
struct __anonstruct_nanosleep_11 {
   clockid_t index ;
   struct timespec *rmtp ;
   struct compat_timespec *compat_rmtp ;
   u64 expires ;
};
struct pollfd;
struct __anonstruct_poll_12 {
   struct pollfd *ufds ;
   int nfds ;
   int has_timeout ;
   unsigned long tv_sec ;
   unsigned long tv_nsec ;
};
union __anonunion_ldv_1654_8 {
   struct __anonstruct_ldv_1631_9 ldv_1631 ;
   struct __anonstruct_futex_10 futex ;
   struct __anonstruct_nanosleep_11 nanosleep ;
   struct __anonstruct_poll_12 poll ;
};
struct restart_block {
   long (*fn)(struct restart_block * ) ;
   union __anonunion_ldv_1654_8 ldv_1654 ;
};
struct task_struct;
struct exec_domain;
struct mm_struct;
struct pt_regs {
   unsigned long r15 ;
   unsigned long r14 ;
   unsigned long r13 ;
   unsigned long r12 ;
   unsigned long bp ;
   unsigned long bx ;
   unsigned long r11 ;
   unsigned long r10 ;
   unsigned long r9 ;
   unsigned long r8 ;
   unsigned long ax ;
   unsigned long cx ;
   unsigned long dx ;
   unsigned long si ;
   unsigned long di ;
   unsigned long orig_ax ;
   unsigned long ip ;
   unsigned long cs ;
   unsigned long flags ;
   unsigned long sp ;
   unsigned long ss ;
};
typedef void (*ctor_fn_t)(void);
struct kernel_vm86_regs {
   struct pt_regs pt ;
   unsigned short es ;
   unsigned short __esh ;
   unsigned short ds ;
   unsigned short __dsh ;
   unsigned short fs ;
   unsigned short __fsh ;
   unsigned short gs ;
   unsigned short __gsh ;
};
union __anonunion_ldv_1904_13 {
   struct pt_regs *regs ;
   struct kernel_vm86_regs *vm86 ;
};
struct math_emu_info {
   long ___orig_eip ;
   union __anonunion_ldv_1904_13 ldv_1904 ;
};
typedef unsigned long pgdval_t;
typedef unsigned long pgprotval_t;
struct pgprot {
   pgprotval_t pgprot ;
};
typedef struct pgprot pgprot_t;
struct __anonstruct_pgd_t_16 {
   pgdval_t pgd ;
};
typedef struct __anonstruct_pgd_t_16 pgd_t;
struct file;
struct __anonstruct_ldv_2122_20 {
   unsigned int a ;
   unsigned int b ;
};
struct __anonstruct_ldv_2137_21 {
   u16 limit0 ;
   u16 base0 ;
   unsigned char base1 ;
   unsigned char type : 4 ;
   unsigned char s : 1 ;
   unsigned char dpl : 2 ;
   unsigned char p : 1 ;
   unsigned char limit : 4 ;
   unsigned char avl : 1 ;
   unsigned char l : 1 ;
   unsigned char d : 1 ;
   unsigned char g : 1 ;
   unsigned char base2 ;
};
union __anonunion_ldv_2138_19 {
   struct __anonstruct_ldv_2122_20 ldv_2122 ;
   struct __anonstruct_ldv_2137_21 ldv_2137 ;
};
struct desc_struct {
   union __anonunion_ldv_2138_19 ldv_2138 ;
};
struct thread_struct;
struct cpumask;
struct arch_spinlock;
struct cpumask {
   unsigned long bits[64U] ;
};
typedef struct cpumask cpumask_t;
struct map_segment;
struct exec_domain {
   char const   *name ;
   void (*handler)(int  , struct pt_regs * ) ;
   unsigned char pers_low ;
   unsigned char pers_high ;
   unsigned long *signal_map ;
   unsigned long *signal_invmap ;
   struct map_segment *err_map ;
   struct map_segment *socktype_map ;
   struct map_segment *sockopt_map ;
   struct map_segment *af_map ;
   struct module *module ;
   struct exec_domain *next ;
};
struct i387_fsave_struct {
   u32 cwd ;
   u32 swd ;
   u32 twd ;
   u32 fip ;
   u32 fcs ;
   u32 foo ;
   u32 fos ;
   u32 st_space[20U] ;
   u32 status ;
};
struct __anonstruct_ldv_4704_25 {
   u64 rip ;
   u64 rdp ;
};
struct __anonstruct_ldv_4710_26 {
   u32 fip ;
   u32 fcs ;
   u32 foo ;
   u32 fos ;
};
union __anonunion_ldv_4711_24 {
   struct __anonstruct_ldv_4704_25 ldv_4704 ;
   struct __anonstruct_ldv_4710_26 ldv_4710 ;
};
union __anonunion_ldv_4720_27 {
   u32 padding1[12U] ;
   u32 sw_reserved[12U] ;
};
struct i387_fxsave_struct {
   u16 cwd ;
   u16 swd ;
   u16 twd ;
   u16 fop ;
   union __anonunion_ldv_4711_24 ldv_4711 ;
   u32 mxcsr ;
   u32 mxcsr_mask ;
   u32 st_space[32U] ;
   u32 xmm_space[64U] ;
   u32 padding[12U] ;
   union __anonunion_ldv_4720_27 ldv_4720 ;
};
struct i387_soft_struct {
   u32 cwd ;
   u32 swd ;
   u32 twd ;
   u32 fip ;
   u32 fcs ;
   u32 foo ;
   u32 fos ;
   u32 st_space[20U] ;
   u8 ftop ;
   u8 changed ;
   u8 lookahead ;
   u8 no_update ;
   u8 rm ;
   u8 alimit ;
   struct math_emu_info *info ;
   u32 entry_eip ;
};
struct ymmh_struct {
   u32 ymmh_space[64U] ;
};
struct xsave_hdr_struct {
   u64 xstate_bv ;
   u64 reserved1[2U] ;
   u64 reserved2[5U] ;
};
struct xsave_struct {
   struct i387_fxsave_struct i387 ;
   struct xsave_hdr_struct xsave_hdr ;
   struct ymmh_struct ymmh ;
};
union thread_xstate {
   struct i387_fsave_struct fsave ;
   struct i387_fxsave_struct fxsave ;
   struct i387_soft_struct soft ;
   struct xsave_struct xsave ;
};
struct fpu {
   union thread_xstate *state ;
};
struct perf_event;
struct thread_struct {
   struct desc_struct tls_array[3U] ;
   unsigned long sp0 ;
   unsigned long sp ;
   unsigned long usersp ;
   unsigned short es ;
   unsigned short ds ;
   unsigned short fsindex ;
   unsigned short gsindex ;
   unsigned long fs ;
   unsigned long gs ;
   struct perf_event *ptrace_bps[4U] ;
   unsigned long debugreg6 ;
   unsigned long ptrace_dr7 ;
   unsigned long cr2 ;
   unsigned long trap_no ;
   unsigned long error_code ;
   struct fpu fpu ;
   unsigned long *io_bitmap_ptr ;
   unsigned long iopl ;
   unsigned int io_bitmap_max ;
};
struct __anonstruct_mm_segment_t_29 {
   unsigned long seg ;
};
typedef struct __anonstruct_mm_segment_t_29 mm_segment_t;
typedef atomic64_t atomic_long_t;
struct thread_info {
   struct task_struct *task ;
   struct exec_domain *exec_domain ;
   __u32 flags ;
   __u32 status ;
   __u32 cpu ;
   int preempt_count ;
   mm_segment_t addr_limit ;
   struct restart_block restart_block ;
   void *sysenter_return ;
   int uaccess_err ;
};
struct list_head {
   struct list_head *next ;
   struct list_head *prev ;
};
struct hlist_node;
struct hlist_head {
   struct hlist_node *first ;
};
struct hlist_node {
   struct hlist_node *next ;
   struct hlist_node **pprev ;
};
struct arch_spinlock {
   unsigned int slock ;
};
typedef struct arch_spinlock arch_spinlock_t;
struct lockdep_map;
struct stack_trace {
   unsigned int nr_entries ;
   unsigned int max_entries ;
   unsigned long *entries ;
   int skip ;
};
struct lockdep_subclass_key {
   char __one_byte ;
};
struct lock_class_key {
   struct lockdep_subclass_key subkeys[8U] ;
};
struct lock_class {
   struct list_head hash_entry ;
   struct list_head lock_entry ;
   struct lockdep_subclass_key *key ;
   unsigned int subclass ;
   unsigned int dep_gen_id ;
   unsigned long usage_mask ;
   struct stack_trace usage_traces[13U] ;
   struct list_head locks_after ;
   struct list_head locks_before ;
   unsigned int version ;
   unsigned long ops ;
   char const   *name ;
   int name_version ;
   unsigned long contention_point[4U] ;
   unsigned long contending_point[4U] ;
};
struct lockdep_map {
   struct lock_class_key *key ;
   struct lock_class *class_cache ;
   char const   *name ;
   int cpu ;
   unsigned long ip ;
};
struct held_lock {
   u64 prev_chain_key ;
   unsigned long acquire_ip ;
   struct lockdep_map *instance ;
   struct lockdep_map *nest_lock ;
   u64 waittime_stamp ;
   u64 holdtime_stamp ;
   unsigned short class_idx : 13 ;
   unsigned char irq_context : 2 ;
   unsigned char trylock : 1 ;
   unsigned char read : 2 ;
   unsigned char check : 2 ;
   unsigned char hardirqs_off : 1 ;
   unsigned short references : 11 ;
};
struct raw_spinlock {
   arch_spinlock_t raw_lock ;
   unsigned int magic ;
   unsigned int owner_cpu ;
   void *owner ;
   struct lockdep_map dep_map ;
};
typedef struct raw_spinlock raw_spinlock_t;
struct __anonstruct_ldv_5707_32 {
   u8 __padding[1U] ;
   struct lockdep_map dep_map ;
};
union __anonunion_ldv_5708_31 {
   struct raw_spinlock rlock ;
   struct __anonstruct_ldv_5707_32 ldv_5707 ;
};
struct spinlock {
   union __anonunion_ldv_5708_31 ldv_5708 ;
};
typedef struct spinlock spinlock_t;
struct timespec {
   __kernel_time_t tv_sec ;
   long tv_nsec ;
};
struct __wait_queue_head {
   spinlock_t lock ;
   struct list_head task_list ;
};
typedef struct __wait_queue_head wait_queue_head_t;
struct __anonstruct_nodemask_t_35 {
   unsigned long bits[16U] ;
};
typedef struct __anonstruct_nodemask_t_35 nodemask_t;
struct mutex {
   atomic_t count ;
   spinlock_t wait_lock ;
   struct list_head wait_list ;
   struct thread_info *owner ;
   char const   *name ;
   void *magic ;
   struct lockdep_map dep_map ;
};
struct mutex_waiter {
   struct list_head list ;
   struct task_struct *task ;
   void *magic ;
};
struct rw_semaphore;
typedef long rwsem_count_t;
struct rw_semaphore {
   rwsem_count_t count ;
   spinlock_t wait_lock ;
   struct list_head wait_list ;
   struct lockdep_map dep_map ;
};
struct device;
union ktime {
   s64 tv64 ;
};
typedef union ktime ktime_t;
struct tvec_base;
struct timer_list {
   struct list_head entry ;
   unsigned long expires ;
   struct tvec_base *base ;
   void (*function)(unsigned long  ) ;
   unsigned long data ;
   int slack ;
   void *start_site ;
   char start_comm[16U] ;
   int start_pid ;
   struct lockdep_map lockdep_map ;
};
struct hrtimer;
enum hrtimer_restart;
struct work_struct;
struct work_struct {
   atomic_long_t data ;
   struct list_head entry ;
   void (*func)(struct work_struct * ) ;
   struct lockdep_map lockdep_map ;
};
struct completion {
   unsigned int done ;
   wait_queue_head_t wait ;
};
struct pm_message {
   int event ;
};
typedef struct pm_message pm_message_t;
struct dev_pm_ops {
   int (*prepare)(struct device * ) ;
   void (*complete)(struct device * ) ;
   int (*suspend)(struct device * ) ;
   int (*resume)(struct device * ) ;
   int (*freeze)(struct device * ) ;
   int (*thaw)(struct device * ) ;
   int (*poweroff)(struct device * ) ;
   int (*restore)(struct device * ) ;
   int (*suspend_noirq)(struct device * ) ;
   int (*resume_noirq)(struct device * ) ;
   int (*freeze_noirq)(struct device * ) ;
   int (*thaw_noirq)(struct device * ) ;
   int (*poweroff_noirq)(struct device * ) ;
   int (*restore_noirq)(struct device * ) ;
   int (*runtime_suspend)(struct device * ) ;
   int (*runtime_resume)(struct device * ) ;
   int (*runtime_idle)(struct device * ) ;
};
enum dpm_state {
    DPM_INVALID = 0,
    DPM_ON = 1,
    DPM_PREPARING = 2,
    DPM_RESUMING = 3,
    DPM_SUSPENDING = 4,
    DPM_OFF = 5,
    DPM_OFF_IRQ = 6
} ;
enum rpm_status {
    RPM_ACTIVE = 0,
    RPM_RESUMING = 1,
    RPM_SUSPENDED = 2,
    RPM_SUSPENDING = 3
} ;
enum rpm_request {
    RPM_REQ_NONE = 0,
    RPM_REQ_IDLE = 1,
    RPM_REQ_SUSPEND = 2,
    RPM_REQ_RESUME = 3
} ;
struct dev_pm_info {
   pm_message_t power_state ;
   unsigned char can_wakeup : 1 ;
   unsigned char should_wakeup : 1 ;
   unsigned char async_suspend : 1 ;
   enum dpm_state status ;
   struct list_head entry ;
   struct completion completion ;
   struct timer_list suspend_timer ;
   unsigned long timer_expires ;
   struct work_struct work ;
   wait_queue_head_t wait_queue ;
   spinlock_t lock ;
   atomic_t usage_count ;
   atomic_t child_count ;
   unsigned char disable_depth : 3 ;
   unsigned char ignore_children : 1 ;
   unsigned char idle_notification : 1 ;
   unsigned char request_pending : 1 ;
   unsigned char deferred_resume : 1 ;
   unsigned char run_wake : 1 ;
   unsigned char runtime_auto : 1 ;
   enum rpm_request request ;
   enum rpm_status runtime_status ;
   int runtime_error ;
};
struct __anonstruct_mm_context_t_100 {
   void *ldt ;
   int size ;
   struct mutex lock ;
   void *vdso ;
};
typedef struct __anonstruct_mm_context_t_100 mm_context_t;
struct vm_area_struct;
struct key;
typedef __u64 Elf64_Addr;
typedef __u16 Elf64_Half;
typedef __u32 Elf64_Word;
typedef __u64 Elf64_Xword;
struct elf64_sym {
   Elf64_Word st_name ;
   unsigned char st_info ;
   unsigned char st_other ;
   Elf64_Half st_shndx ;
   Elf64_Addr st_value ;
   Elf64_Xword st_size ;
};
typedef struct elf64_sym Elf64_Sym;
struct kobject;
struct attribute {
   char const   *name ;
   struct module *owner ;
   mode_t mode ;
   struct lock_class_key *key ;
   struct lock_class_key skey ;
};
struct attribute_group {
   char const   *name ;
   mode_t (*is_visible)(struct kobject * , struct attribute * , int  ) ;
   struct attribute **attrs ;
};
struct sysfs_ops {
   ssize_t (*show)(struct kobject * , struct attribute * , char * ) ;
   ssize_t (*store)(struct kobject * , struct attribute * , char const   * , size_t  ) ;
};
struct sysfs_dirent;
struct kref {
   atomic_t refcount ;
};
struct kset;
struct kobj_type;
struct kobject {
   char const   *name ;
   struct list_head entry ;
   struct kobject *parent ;
   struct kset *kset ;
   struct kobj_type *ktype ;
   struct sysfs_dirent *sd ;
   struct kref kref ;
   unsigned char state_initialized : 1 ;
   unsigned char state_in_sysfs : 1 ;
   unsigned char state_add_uevent_sent : 1 ;
   unsigned char state_remove_uevent_sent : 1 ;
   unsigned char uevent_suppress : 1 ;
};
struct kobj_type {
   void (*release)(struct kobject * ) ;
   struct sysfs_ops  const  *sysfs_ops ;
   struct attribute **default_attrs ;
};
struct kobj_uevent_env {
   char *envp[32U] ;
   int envp_idx ;
   char buf[2048U] ;
   int buflen ;
};
struct kset_uevent_ops {
   int (* const  filter)(struct kset * , struct kobject * ) ;
   char const   *(* const  name)(struct kset * , struct kobject * ) ;
   int (* const  uevent)(struct kset * , struct kobject * , struct kobj_uevent_env * ) ;
};
struct kset {
   struct list_head list ;
   spinlock_t list_lock ;
   struct kobject kobj ;
   struct kset_uevent_ops  const  *uevent_ops ;
};
struct kernel_param;
struct kparam_string;
struct kparam_array;
union __anonunion_ldv_10739_110 {
   void *arg ;
   struct kparam_string  const  *str ;
   struct kparam_array  const  *arr ;
};
struct kernel_param {
   char const   *name ;
   u16 perm ;
   u16 flags ;
   int (*set)(char const   * , struct kernel_param * ) ;
   int (*get)(char * , struct kernel_param * ) ;
   union __anonunion_ldv_10739_110 ldv_10739 ;
};
struct kparam_string {
   unsigned int maxlen ;
   char *string ;
};
struct kparam_array {
   unsigned int max ;
   unsigned int *num ;
   int (*set)(char const   * , struct kernel_param * ) ;
   int (*get)(char * , struct kernel_param * ) ;
   unsigned int elemsize ;
   void *elem ;
};
struct rcu_head {
   struct rcu_head *next ;
   void (*func)(struct rcu_head * ) ;
};
struct tracepoint;
struct tracepoint {
   char const   *name ;
   int state ;
   void (*regfunc)(void) ;
   void (*unregfunc)(void) ;
   void **funcs ;
};
struct mod_arch_specific {

};
struct kernel_symbol {
   unsigned long value ;
   char const   *name ;
};
struct module_attribute {
   struct attribute attr ;
   ssize_t (*show)(struct module_attribute * , struct module * , char * ) ;
   ssize_t (*store)(struct module_attribute * , struct module * , char const   * ,
                    size_t  ) ;
   void (*setup)(struct module * , char const   * ) ;
   int (*test)(struct module * ) ;
   void (*free)(struct module * ) ;
};
struct module_param_attrs;
struct module_kobject {
   struct kobject kobj ;
   struct module *mod ;
   struct kobject *drivers_dir ;
   struct module_param_attrs *mp ;
};
struct exception_table_entry;
enum module_state {
    MODULE_STATE_LIVE = 0,
    MODULE_STATE_COMING = 1,
    MODULE_STATE_GOING = 2
} ;
struct module_ref {
   unsigned int incs ;
   unsigned int decs ;
};
struct module_sect_attrs;
struct module_notes_attrs;
struct ftrace_event_call;
struct module {
   enum module_state state ;
   struct list_head list ;
   char name[56U] ;
   struct module_kobject mkobj ;
   struct module_attribute *modinfo_attrs ;
   char const   *version ;
   char const   *srcversion ;
   struct kobject *holders_dir ;
   struct kernel_symbol  const  *syms ;
   unsigned long const   *crcs ;
   unsigned int num_syms ;
   struct kernel_param *kp ;
   unsigned int num_kp ;
   unsigned int num_gpl_syms ;
   struct kernel_symbol  const  *gpl_syms ;
   unsigned long const   *gpl_crcs ;
   struct kernel_symbol  const  *unused_syms ;
   unsigned long const   *unused_crcs ;
   unsigned int num_unused_syms ;
   unsigned int num_unused_gpl_syms ;
   struct kernel_symbol  const  *unused_gpl_syms ;
   unsigned long const   *unused_gpl_crcs ;
   struct kernel_symbol  const  *gpl_future_syms ;
   unsigned long const   *gpl_future_crcs ;
   unsigned int num_gpl_future_syms ;
   unsigned int num_exentries ;
   struct exception_table_entry *extable ;
   int (*init)(void) ;
   void *module_init ;
   void *module_core ;
   unsigned int init_size ;
   unsigned int core_size ;
   unsigned int init_text_size ;
   unsigned int core_text_size ;
   struct mod_arch_specific arch ;
   unsigned int taints ;
   unsigned int num_bugs ;
   struct list_head bug_list ;
   struct bug_entry *bug_table ;
   Elf64_Sym *symtab ;
   Elf64_Sym *core_symtab ;
   unsigned int num_symtab ;
   unsigned int core_num_syms ;
   char *strtab ;
   char *core_strtab ;
   struct module_sect_attrs *sect_attrs ;
   struct module_notes_attrs *notes_attrs ;
   void *percpu ;
   unsigned int percpu_size ;
   char *args ;
   struct tracepoint *tracepoints ;
   unsigned int num_tracepoints ;
   char const   **trace_bprintk_fmt_start ;
   unsigned int num_trace_bprintk_fmt ;
   struct ftrace_event_call *trace_events ;
   unsigned int num_trace_events ;
   struct list_head modules_which_use_me ;
   struct task_struct *waiter ;
   void (*exit)(void) ;
   struct module_ref *refptr ;
   ctor_fn_t (**ctors)(void) ;
   unsigned int num_ctors ;
};
struct device_driver;
struct klist_node;
struct klist_node {
   void *n_klist ;
   struct list_head n_node ;
   struct kref n_ref ;
};
struct semaphore {
   spinlock_t lock ;
   unsigned int count ;
   struct list_head wait_list ;
};
struct dma_map_ops;
struct dev_archdata {
   void *acpi_handle ;
   struct dma_map_ops *dma_ops ;
   void *iommu ;
};
struct device_private;
struct driver_private;
struct class;
struct class_private;
struct bus_type;
struct bus_type_private;
struct bus_attribute {
   struct attribute attr ;
   ssize_t (*show)(struct bus_type * , char * ) ;
   ssize_t (*store)(struct bus_type * , char const   * , size_t  ) ;
};
struct device_attribute;
struct driver_attribute;
struct bus_type {
   char const   *name ;
   struct bus_attribute *bus_attrs ;
   struct device_attribute *dev_attrs ;
   struct driver_attribute *drv_attrs ;
   int (*match)(struct device * , struct device_driver * ) ;
   int (*uevent)(struct device * , struct kobj_uevent_env * ) ;
   int (*probe)(struct device * ) ;
   int (*remove)(struct device * ) ;
   void (*shutdown)(struct device * ) ;
   int (*suspend)(struct device * , pm_message_t  ) ;
   int (*resume)(struct device * ) ;
   struct dev_pm_ops  const  *pm ;
   struct bus_type_private *p ;
};
struct device_driver {
   char const   *name ;
   struct bus_type *bus ;
   struct module *owner ;
   char const   *mod_name ;
   bool suppress_bind_attrs ;
   int (*probe)(struct device * ) ;
   int (*remove)(struct device * ) ;
   void (*shutdown)(struct device * ) ;
   int (*suspend)(struct device * , pm_message_t  ) ;
   int (*resume)(struct device * ) ;
   struct attribute_group  const  **groups ;
   struct dev_pm_ops  const  *pm ;
   struct driver_private *p ;
};
struct driver_attribute {
   struct attribute attr ;
   ssize_t (*show)(struct device_driver * , char * ) ;
   ssize_t (*store)(struct device_driver * , char const   * , size_t  ) ;
};
struct class_attribute;
struct class {
   char const   *name ;
   struct module *owner ;
   struct class_attribute *class_attrs ;
   struct device_attribute *dev_attrs ;
   struct kobject *dev_kobj ;
   int (*dev_uevent)(struct device * , struct kobj_uevent_env * ) ;
   char *(*devnode)(struct device * , mode_t * ) ;
   void (*class_release)(struct class * ) ;
   void (*dev_release)(struct device * ) ;
   int (*suspend)(struct device * , pm_message_t  ) ;
   int (*resume)(struct device * ) ;
   struct dev_pm_ops  const  *pm ;
   struct class_private *p ;
};
struct device_type;
struct class_attribute {
   struct attribute attr ;
   ssize_t (*show)(struct class * , struct class_attribute * , char * ) ;
   ssize_t (*store)(struct class * , struct class_attribute * , char const   * , size_t  ) ;
};
struct device_type {
   char const   *name ;
   struct attribute_group  const  **groups ;
   int (*uevent)(struct device * , struct kobj_uevent_env * ) ;
   char *(*devnode)(struct device * , mode_t * ) ;
   void (*release)(struct device * ) ;
   struct dev_pm_ops  const  *pm ;
};
struct device_attribute {
   struct attribute attr ;
   ssize_t (*show)(struct device * , struct device_attribute * , char * ) ;
   ssize_t (*store)(struct device * , struct device_attribute * , char const   * ,
                    size_t  ) ;
};
struct device_dma_parameters {
   unsigned int max_segment_size ;
   unsigned long segment_boundary_mask ;
};
struct dma_coherent_mem;
struct device {
   struct device *parent ;
   struct device_private *p ;
   struct kobject kobj ;
   char const   *init_name ;
   struct device_type *type ;
   struct semaphore sem ;
   struct bus_type *bus ;
   struct device_driver *driver ;
   void *platform_data ;
   struct dev_pm_info power ;
   int numa_node ;
   u64 *dma_mask ;
   u64 coherent_dma_mask ;
   struct device_dma_parameters *dma_parms ;
   struct list_head dma_pools ;
   struct dma_coherent_mem *dma_mem ;
   struct dev_archdata archdata ;
   dev_t devt ;
   spinlock_t devres_lock ;
   struct list_head devres_head ;
   struct klist_node knode_class ;
   struct class *class ;
   struct attribute_group  const  **groups ;
   void (*release)(struct device * ) ;
};
struct kernel_cap_struct {
   __u32 cap[2U] ;
};
typedef struct kernel_cap_struct kernel_cap_t;
struct rb_node {
   unsigned long rb_parent_color ;
   struct rb_node *rb_right ;
   struct rb_node *rb_left ;
};
struct rb_root {
   struct rb_node *rb_node ;
   void (*augment_cb)(struct rb_node * ) ;
};
struct prio_tree_node;
struct raw_prio_tree_node {
   struct prio_tree_node *left ;
   struct prio_tree_node *right ;
   struct prio_tree_node *parent ;
};
struct prio_tree_node {
   struct prio_tree_node *left ;
   struct prio_tree_node *right ;
   struct prio_tree_node *parent ;
   unsigned long start ;
   unsigned long last ;
};
struct __anonstruct_vm_set_119 {
   struct list_head list ;
   void *parent ;
   struct vm_area_struct *head ;
};
union __anonunion_shared_118 {
   struct __anonstruct_vm_set_119 vm_set ;
   struct raw_prio_tree_node prio_tree_node ;
};
struct anon_vma;
struct vm_operations_struct;
struct mempolicy;
struct vm_area_struct {
   struct mm_struct *vm_mm ;
   unsigned long vm_start ;
   unsigned long vm_end ;
   struct vm_area_struct *vm_next ;
   pgprot_t vm_page_prot ;
   unsigned long vm_flags ;
   struct rb_node vm_rb ;
   union __anonunion_shared_118 shared ;
   struct list_head anon_vma_chain ;
   struct anon_vma *anon_vma ;
   struct vm_operations_struct  const  *vm_ops ;
   unsigned long vm_pgoff ;
   struct file *vm_file ;
   void *vm_private_data ;
   unsigned long vm_truncate_count ;
   struct mempolicy *vm_policy ;
};
struct core_thread {
   struct task_struct *task ;
   struct core_thread *next ;
};
struct core_state {
   atomic_t nr_threads ;
   struct core_thread dumper ;
   struct completion startup ;
};
struct mm_rss_stat {
   unsigned long count[3U] ;
};
struct linux_binfmt;
struct mmu_notifier_mm;
struct mm_struct {
   struct vm_area_struct *mmap ;
   struct rb_root mm_rb ;
   struct vm_area_struct *mmap_cache ;
   unsigned long (*get_unmapped_area)(struct file * , unsigned long  , unsigned long  ,
                                      unsigned long  , unsigned long  ) ;
   void (*unmap_area)(struct mm_struct * , unsigned long  ) ;
   unsigned long mmap_base ;
   unsigned long task_size ;
   unsigned long cached_hole_size ;
   unsigned long free_area_cache ;
   pgd_t *pgd ;
   atomic_t mm_users ;
   atomic_t mm_count ;
   int map_count ;
   struct rw_semaphore mmap_sem ;
   spinlock_t page_table_lock ;
   struct list_head mmlist ;
   unsigned long hiwater_rss ;
   unsigned long hiwater_vm ;
   unsigned long total_vm ;
   unsigned long locked_vm ;
   unsigned long shared_vm ;
   unsigned long exec_vm ;
   unsigned long stack_vm ;
   unsigned long reserved_vm ;
   unsigned long def_flags ;
   unsigned long nr_ptes ;
   unsigned long start_code ;
   unsigned long end_code ;
   unsigned long start_data ;
   unsigned long end_data ;
   unsigned long start_brk ;
   unsigned long brk ;
   unsigned long start_stack ;
   unsigned long arg_start ;
   unsigned long arg_end ;
   unsigned long env_start ;
   unsigned long env_end ;
   unsigned long saved_auxv[44U] ;
   struct mm_rss_stat rss_stat ;
   struct linux_binfmt *binfmt ;
   cpumask_t cpu_vm_mask ;
   mm_context_t context ;
   unsigned int faultstamp ;
   unsigned int token_priority ;
   unsigned int last_interval ;
   unsigned long flags ;
   struct core_state *core_state ;
   spinlock_t ioctx_lock ;
   struct hlist_head ioctx_list ;
   struct task_struct *owner ;
   struct file *exe_file ;
   unsigned long num_exe_file_vmas ;
   struct mmu_notifier_mm *mmu_notifier_mm ;
};
typedef unsigned long cputime_t;
struct sem_undo_list;
struct sem_undo_list {
   atomic_t refcnt ;
   spinlock_t lock ;
   struct list_head list_proc ;
};
struct sysv_sem {
   struct sem_undo_list *undo_list ;
};
struct siginfo;
struct __anonstruct_sigset_t_120 {
   unsigned long sig[1U] ;
};
typedef struct __anonstruct_sigset_t_120 sigset_t;
typedef void __signalfn_t(int  );
typedef __signalfn_t *__sighandler_t;
typedef void __restorefn_t(void);
typedef __restorefn_t *__sigrestore_t;
struct sigaction {
   __sighandler_t sa_handler ;
   unsigned long sa_flags ;
   __sigrestore_t sa_restorer ;
   sigset_t sa_mask ;
};
struct k_sigaction {
   struct sigaction sa ;
};
union sigval {
   int sival_int ;
   void *sival_ptr ;
};
typedef union sigval sigval_t;
struct __anonstruct__kill_122 {
   __kernel_pid_t _pid ;
   __kernel_uid32_t _uid ;
};
struct __anonstruct__timer_123 {
   __kernel_timer_t _tid ;
   int _overrun ;
   char _pad[0U] ;
   sigval_t _sigval ;
   int _sys_private ;
};
struct __anonstruct__rt_124 {
   __kernel_pid_t _pid ;
   __kernel_uid32_t _uid ;
   sigval_t _sigval ;
};
struct __anonstruct__sigchld_125 {
   __kernel_pid_t _pid ;
   __kernel_uid32_t _uid ;
   int _status ;
   __kernel_clock_t _utime ;
   __kernel_clock_t _stime ;
};
struct __anonstruct__sigfault_126 {
   void *_addr ;
   short _addr_lsb ;
};
struct __anonstruct__sigpoll_127 {
   long _band ;
   int _fd ;
};
union __anonunion__sifields_121 {
   int _pad[28U] ;
   struct __anonstruct__kill_122 _kill ;
   struct __anonstruct__timer_123 _timer ;
   struct __anonstruct__rt_124 _rt ;
   struct __anonstruct__sigchld_125 _sigchld ;
   struct __anonstruct__sigfault_126 _sigfault ;
   struct __anonstruct__sigpoll_127 _sigpoll ;
};
struct siginfo {
   int si_signo ;
   int si_errno ;
   int si_code ;
   union __anonunion__sifields_121 _sifields ;
};
typedef struct siginfo siginfo_t;
struct user_struct;
struct sigpending {
   struct list_head list ;
   sigset_t signal ;
};
struct pid_namespace;
struct upid {
   int nr ;
   struct pid_namespace *ns ;
   struct hlist_node pid_chain ;
};
struct pid {
   atomic_t count ;
   unsigned int level ;
   struct hlist_head tasks[3U] ;
   struct rcu_head rcu ;
   struct upid numbers[1U] ;
};
struct pid_link {
   struct hlist_node node ;
   struct pid *pid ;
};
struct prop_local_single {
   unsigned long events ;
   unsigned long period ;
   int shift ;
   spinlock_t lock ;
};
struct __anonstruct_seccomp_t_130 {
   int mode ;
};
typedef struct __anonstruct_seccomp_t_130 seccomp_t;
struct plist_head {
   struct list_head prio_list ;
   struct list_head node_list ;
   raw_spinlock_t *rawlock ;
   spinlock_t *spinlock ;
};
struct plist_node {
   int prio ;
   struct plist_head plist ;
};
struct rt_mutex {
   raw_spinlock_t wait_lock ;
   struct plist_head wait_list ;
   struct task_struct *owner ;
   int save_state ;
   char const   *name ;
   char const   *file ;
   int line ;
   void *magic ;
};
struct rt_mutex_waiter;
struct rlimit {
   unsigned long rlim_cur ;
   unsigned long rlim_max ;
};
struct hrtimer_clock_base;
struct hrtimer_cpu_base;
enum hrtimer_restart {
    HRTIMER_NORESTART = 0,
    HRTIMER_RESTART = 1
} ;
struct hrtimer {
   struct rb_node node ;
   ktime_t _expires ;
   ktime_t _softexpires ;
   enum hrtimer_restart (*function)(struct hrtimer * ) ;
   struct hrtimer_clock_base *base ;
   unsigned long state ;
   int start_pid ;
   void *start_site ;
   char start_comm[16U] ;
};
struct hrtimer_clock_base {
   struct hrtimer_cpu_base *cpu_base ;
   clockid_t index ;
   struct rb_root active ;
   struct rb_node *first ;
   ktime_t resolution ;
   ktime_t (*get_time)(void) ;
   ktime_t softirq_time ;
   ktime_t offset ;
};
struct hrtimer_cpu_base {
   raw_spinlock_t lock ;
   struct hrtimer_clock_base clock_base[2U] ;
   ktime_t expires_next ;
   int hres_active ;
   int hang_detected ;
   unsigned long nr_events ;
   unsigned long nr_retries ;
   unsigned long nr_hangs ;
   ktime_t max_hang_time ;
};
struct task_io_accounting {
   u64 rchar ;
   u64 wchar ;
   u64 syscr ;
   u64 syscw ;
   u64 read_bytes ;
   u64 write_bytes ;
   u64 cancelled_write_bytes ;
};
struct latency_record {
   unsigned long backtrace[12U] ;
   unsigned int count ;
   unsigned long time ;
   unsigned long max ;
};
struct nsproxy;
typedef int32_t key_serial_t;
typedef uint32_t key_perm_t;
struct signal_struct;
struct cred;
struct key_type;
struct keyring_list;
struct key_user;
union __anonunion_ldv_14600_131 {
   time_t expiry ;
   time_t revoked_at ;
};
union __anonunion_type_data_132 {
   struct list_head link ;
   unsigned long x[2U] ;
   void *p[2U] ;
};
union __anonunion_payload_133 {
   unsigned long value ;
   void *data ;
   struct keyring_list *subscriptions ;
};
struct key {
   atomic_t usage ;
   key_serial_t serial ;
   struct rb_node serial_node ;
   struct key_type *type ;
   struct rw_semaphore sem ;
   struct key_user *user ;
   void *security ;
   union __anonunion_ldv_14600_131 ldv_14600 ;
   uid_t uid ;
   gid_t gid ;
   key_perm_t perm ;
   unsigned short quotalen ;
   unsigned short datalen ;
   unsigned long flags ;
   char *description ;
   union __anonunion_type_data_132 type_data ;
   union __anonunion_payload_133 payload ;
};
struct audit_context;
struct group_info {
   atomic_t usage ;
   int ngroups ;
   int nblocks ;
   gid_t small_block[32U] ;
   gid_t *blocks[0U] ;
};
struct thread_group_cred {
   atomic_t usage ;
   pid_t tgid ;
   spinlock_t lock ;
   struct key *session_keyring ;
   struct key *process_keyring ;
   struct rcu_head rcu ;
};
struct cred {
   atomic_t usage ;
   atomic_t subscribers ;
   void *put_addr ;
   unsigned int magic ;
   uid_t uid ;
   gid_t gid ;
   uid_t suid ;
   gid_t sgid ;
   uid_t euid ;
   gid_t egid ;
   uid_t fsuid ;
   gid_t fsgid ;
   unsigned int securebits ;
   kernel_cap_t cap_inheritable ;
   kernel_cap_t cap_permitted ;
   kernel_cap_t cap_effective ;
   kernel_cap_t cap_bset ;
   unsigned char jit_keyring ;
   struct key *thread_keyring ;
   struct key *request_key_auth ;
   struct thread_group_cred *tgcred ;
   void *security ;
   struct user_struct *user ;
   struct group_info *group_info ;
   struct rcu_head rcu ;
};
struct futex_pi_state;
struct robust_list_head;
struct bio_list;
struct fs_struct;
struct perf_event_context;
struct cfs_rq;
struct user_namespace;
struct sighand_struct {
   atomic_t count ;
   struct k_sigaction action[64U] ;
   spinlock_t siglock ;
   wait_queue_head_t signalfd_wqh ;
};
struct pacct_struct {
   int ac_flag ;
   long ac_exitcode ;
   unsigned long ac_mem ;
   cputime_t ac_utime ;
   cputime_t ac_stime ;
   unsigned long ac_minflt ;
   unsigned long ac_majflt ;
};
struct cpu_itimer {
   cputime_t expires ;
   cputime_t incr ;
   u32 error ;
   u32 incr_error ;
};
struct task_cputime {
   cputime_t utime ;
   cputime_t stime ;
   unsigned long long sum_exec_runtime ;
};
struct thread_group_cputimer {
   struct task_cputime cputime ;
   int running ;
   spinlock_t lock ;
};
struct tty_struct;
struct taskstats;
struct tty_audit_buf;
struct signal_struct {
   atomic_t count ;
   atomic_t live ;
   wait_queue_head_t wait_chldexit ;
   struct task_struct *curr_target ;
   struct sigpending shared_pending ;
   int group_exit_code ;
   int notify_count ;
   struct task_struct *group_exit_task ;
   int group_stop_count ;
   unsigned int flags ;
   struct list_head posix_timers ;
   struct hrtimer real_timer ;
   struct pid *leader_pid ;
   ktime_t it_real_incr ;
   struct cpu_itimer it[2U] ;
   struct thread_group_cputimer cputimer ;
   struct task_cputime cputime_expires ;
   struct list_head cpu_timers[3U] ;
   struct pid *tty_old_pgrp ;
   int leader ;
   struct tty_struct *tty ;
   cputime_t utime ;
   cputime_t stime ;
   cputime_t cutime ;
   cputime_t cstime ;
   cputime_t gtime ;
   cputime_t cgtime ;
   cputime_t prev_utime ;
   cputime_t prev_stime ;
   unsigned long nvcsw ;
   unsigned long nivcsw ;
   unsigned long cnvcsw ;
   unsigned long cnivcsw ;
   unsigned long min_flt ;
   unsigned long maj_flt ;
   unsigned long cmin_flt ;
   unsigned long cmaj_flt ;
   unsigned long inblock ;
   unsigned long oublock ;
   unsigned long cinblock ;
   unsigned long coublock ;
   unsigned long maxrss ;
   unsigned long cmaxrss ;
   struct task_io_accounting ioac ;
   unsigned long long sum_sched_runtime ;
   struct rlimit rlim[16U] ;
   struct pacct_struct pacct ;
   struct taskstats *stats ;
   unsigned int audit_tty ;
   struct tty_audit_buf *tty_audit_buf ;
   int oom_adj ;
};
struct user_struct {
   atomic_t __count ;
   atomic_t processes ;
   atomic_t files ;
   atomic_t sigpending ;
   atomic_t inotify_watches ;
   atomic_t inotify_devs ;
   atomic_t epoll_watches ;
   unsigned long mq_bytes ;
   unsigned long locked_shm ;
   struct key *uid_keyring ;
   struct key *session_keyring ;
   struct hlist_node uidhash_node ;
   uid_t uid ;
   struct user_namespace *user_ns ;
   atomic_long_t locked_vm ;
};
struct backing_dev_info;
struct reclaim_state;
struct sched_info {
   unsigned long pcount ;
   unsigned long long run_delay ;
   unsigned long long last_arrival ;
   unsigned long long last_queued ;
   unsigned int bkl_count ;
};
struct task_delay_info {
   spinlock_t lock ;
   unsigned int flags ;
   struct timespec blkio_start ;
   struct timespec blkio_end ;
   u64 blkio_delay ;
   u64 swapin_delay ;
   u32 blkio_count ;
   u32 swapin_count ;
   struct timespec freepages_start ;
   struct timespec freepages_end ;
   u64 freepages_delay ;
   u32 freepages_count ;
};
struct io_context;
struct pipe_inode_info;
struct rq;
struct sched_class {
   struct sched_class  const  *next ;
   void (*enqueue_task)(struct rq * , struct task_struct * , int  ) ;
   void (*dequeue_task)(struct rq * , struct task_struct * , int  ) ;
   void (*yield_task)(struct rq * ) ;
   void (*check_preempt_curr)(struct rq * , struct task_struct * , int  ) ;
   struct task_struct *(*pick_next_task)(struct rq * ) ;
   void (*put_prev_task)(struct rq * , struct task_struct * ) ;
   int (*select_task_rq)(struct rq * , struct task_struct * , int  , int  ) ;
   void (*pre_schedule)(struct rq * , struct task_struct * ) ;
   void (*post_schedule)(struct rq * ) ;
   void (*task_waking)(struct rq * , struct task_struct * ) ;
   void (*task_woken)(struct rq * , struct task_struct * ) ;
   void (*set_cpus_allowed)(struct task_struct * , struct cpumask  const  * ) ;
   void (*rq_online)(struct rq * ) ;
   void (*rq_offline)(struct rq * ) ;
   void (*set_curr_task)(struct rq * ) ;
   void (*task_tick)(struct rq * , struct task_struct * , int  ) ;
   void (*task_fork)(struct task_struct * ) ;
   void (*switched_from)(struct rq * , struct task_struct * , int  ) ;
   void (*switched_to)(struct rq * , struct task_struct * , int  ) ;
   void (*prio_changed)(struct rq * , struct task_struct * , int  , int  ) ;
   unsigned int (*get_rr_interval)(struct rq * , struct task_struct * ) ;
   void (*moved_group)(struct task_struct * , int  ) ;
};
struct load_weight {
   unsigned long weight ;
   unsigned long inv_weight ;
};
struct sched_statistics {
   u64 wait_start ;
   u64 wait_max ;
   u64 wait_count ;
   u64 wait_sum ;
   u64 iowait_count ;
   u64 iowait_sum ;
   u64 sleep_start ;
   u64 sleep_max ;
   s64 sum_sleep_runtime ;
   u64 block_start ;
   u64 block_max ;
   u64 exec_max ;
   u64 slice_max ;
   u64 nr_migrations_cold ;
   u64 nr_failed_migrations_affine ;
   u64 nr_failed_migrations_running ;
   u64 nr_failed_migrations_hot ;
   u64 nr_forced_migrations ;
   u64 nr_wakeups ;
   u64 nr_wakeups_sync ;
   u64 nr_wakeups_migrate ;
   u64 nr_wakeups_local ;
   u64 nr_wakeups_remote ;
   u64 nr_wakeups_affine ;
   u64 nr_wakeups_affine_attempts ;
   u64 nr_wakeups_passive ;
   u64 nr_wakeups_idle ;
};
struct sched_entity {
   struct load_weight load ;
   struct rb_node run_node ;
   struct list_head group_node ;
   unsigned int on_rq ;
   u64 exec_start ;
   u64 sum_exec_runtime ;
   u64 vruntime ;
   u64 prev_sum_exec_runtime ;
   u64 nr_migrations ;
   struct sched_statistics statistics ;
   struct sched_entity *parent ;
   struct cfs_rq *cfs_rq ;
   struct cfs_rq *my_q ;
};
struct rt_rq;
struct sched_rt_entity {
   struct list_head run_list ;
   unsigned long timeout ;
   unsigned int time_slice ;
   int nr_cpus_allowed ;
   struct sched_rt_entity *back ;
   struct sched_rt_entity *parent ;
   struct rt_rq *rt_rq ;
   struct rt_rq *my_q ;
};
struct mem_cgroup;
struct memcg_batch_info {
   int do_batch ;
   struct mem_cgroup *memcg ;
   unsigned long bytes ;
   unsigned long memsw_bytes ;
};
struct files_struct;
struct irqaction;
struct css_set;
struct compat_robust_list_head;
struct task_struct {
   long volatile   state ;
   void *stack ;
   atomic_t usage ;
   unsigned int flags ;
   unsigned int ptrace ;
   int lock_depth ;
   int prio ;
   int static_prio ;
   int normal_prio ;
   unsigned int rt_priority ;
   struct sched_class  const  *sched_class ;
   struct sched_entity se ;
   struct sched_rt_entity rt ;
   struct hlist_head preempt_notifiers ;
   unsigned char fpu_counter ;
   unsigned int policy ;
   cpumask_t cpus_allowed ;
   struct sched_info sched_info ;
   struct list_head tasks ;
   struct plist_node pushable_tasks ;
   struct mm_struct *mm ;
   struct mm_struct *active_mm ;
   int exit_state ;
   int exit_code ;
   int exit_signal ;
   int pdeath_signal ;
   unsigned int personality ;
   unsigned char did_exec : 1 ;
   unsigned char in_execve : 1 ;
   unsigned char in_iowait : 1 ;
   unsigned char sched_reset_on_fork : 1 ;
   pid_t pid ;
   pid_t tgid ;
   unsigned long stack_canary ;
   struct task_struct *real_parent ;
   struct task_struct *parent ;
   struct list_head children ;
   struct list_head sibling ;
   struct task_struct *group_leader ;
   struct list_head ptraced ;
   struct list_head ptrace_entry ;
   struct pid_link pids[3U] ;
   struct list_head thread_group ;
   struct completion *vfork_done ;
   int *set_child_tid ;
   int *clear_child_tid ;
   cputime_t utime ;
   cputime_t stime ;
   cputime_t utimescaled ;
   cputime_t stimescaled ;
   cputime_t gtime ;
   cputime_t prev_utime ;
   cputime_t prev_stime ;
   unsigned long nvcsw ;
   unsigned long nivcsw ;
   struct timespec start_time ;
   struct timespec real_start_time ;
   unsigned long min_flt ;
   unsigned long maj_flt ;
   struct task_cputime cputime_expires ;
   struct list_head cpu_timers[3U] ;
   struct cred  const  *real_cred ;
   struct cred  const  *cred ;
   struct mutex cred_guard_mutex ;
   struct cred *replacement_session_keyring ;
   char comm[16U] ;
   int link_count ;
   int total_link_count ;
   struct sysv_sem sysvsem ;
   unsigned long last_switch_count ;
   struct thread_struct thread ;
   struct fs_struct *fs ;
   struct files_struct *files ;
   struct nsproxy *nsproxy ;
   struct signal_struct *signal ;
   struct sighand_struct *sighand ;
   sigset_t blocked ;
   sigset_t real_blocked ;
   sigset_t saved_sigmask ;
   struct sigpending pending ;
   unsigned long sas_ss_sp ;
   size_t sas_ss_size ;
   int (*notifier)(void * ) ;
   void *notifier_data ;
   sigset_t *notifier_mask ;
   struct audit_context *audit_context ;
   uid_t loginuid ;
   unsigned int sessionid ;
   seccomp_t seccomp ;
   u32 parent_exec_id ;
   u32 self_exec_id ;
   spinlock_t alloc_lock ;
   struct irqaction *irqaction ;
   raw_spinlock_t pi_lock ;
   struct plist_head pi_waiters ;
   struct rt_mutex_waiter *pi_blocked_on ;
   struct mutex_waiter *blocked_on ;
   unsigned int irq_events ;
   unsigned long hardirq_enable_ip ;
   unsigned long hardirq_disable_ip ;
   unsigned int hardirq_enable_event ;
   unsigned int hardirq_disable_event ;
   int hardirqs_enabled ;
   int hardirq_context ;
   unsigned long softirq_disable_ip ;
   unsigned long softirq_enable_ip ;
   unsigned int softirq_disable_event ;
   unsigned int softirq_enable_event ;
   int softirqs_enabled ;
   int softirq_context ;
   u64 curr_chain_key ;
   int lockdep_depth ;
   unsigned int lockdep_recursion ;
   struct held_lock held_locks[48U] ;
   gfp_t lockdep_reclaim_gfp ;
   void *journal_info ;
   struct bio_list *bio_list ;
   struct reclaim_state *reclaim_state ;
   struct backing_dev_info *backing_dev_info ;
   struct io_context *io_context ;
   unsigned long ptrace_message ;
   siginfo_t *last_siginfo ;
   struct task_io_accounting ioac ;
   u64 acct_rss_mem1 ;
   u64 acct_vm_mem1 ;
   cputime_t acct_timexpd ;
   nodemask_t mems_allowed ;
   int cpuset_mem_spread_rotor ;
   struct css_set *cgroups ;
   struct list_head cg_list ;
   struct robust_list_head *robust_list ;
   struct compat_robust_list_head *compat_robust_list ;
   struct list_head pi_state_list ;
   struct futex_pi_state *pi_state_cache ;
   struct perf_event_context *perf_event_ctxp ;
   struct mutex perf_event_mutex ;
   struct list_head perf_event_list ;
   struct mempolicy *mempolicy ;
   short il_next ;
   atomic_t fs_excl ;
   struct rcu_head rcu ;
   struct pipe_inode_info *splice_pipe ;
   struct task_delay_info *delays ;
   int make_it_fail ;
   struct prop_local_single dirties ;
   int latency_record_count ;
   struct latency_record latency_record[32U] ;
   unsigned long timer_slack_ns ;
   unsigned long default_timer_slack_ns ;
   struct list_head *scm_work_list ;
   unsigned long trace ;
   unsigned long trace_recursion ;
   struct memcg_batch_info memcg_batch ;
};
struct i2c_msg;
struct i2c_algorithm;
struct i2c_adapter;
union i2c_smbus_data;
struct i2c_algorithm {
   int (*master_xfer)(struct i2c_adapter * , struct i2c_msg * , int  ) ;
   int (*smbus_xfer)(struct i2c_adapter * , u16  , unsigned short  , char  , u8  ,
                     int  , union i2c_smbus_data * ) ;
   u32 (*functionality)(struct i2c_adapter * ) ;
};
struct i2c_adapter {
   struct module *owner ;
   unsigned int id ;
   unsigned int class ;
   struct i2c_algorithm  const  *algo ;
   void *algo_data ;
   struct rt_mutex bus_lock ;
   int timeout ;
   int retries ;
   struct device dev ;
   int nr ;
   char name[48U] ;
   struct completion dev_released ;
   struct list_head userspace_clients ;
};
struct i2c_msg {
   __u16 addr ;
   __u16 flags ;
   __u16 len ;
   __u8 *buf ;
};
union i2c_smbus_data {
   __u8 byte ;
   __u16 word ;
   __u8 block[34U] ;
};
struct i2c_algo_pca_data {
   void *data ;
   void (*write_byte)(void * , int  , int  ) ;
   int (*read_byte)(void * , int  ) ;
   int (*wait_for_completion)(void * ) ;
   void (*reset_chip)(void * ) ;
   unsigned int i2c_clock ;
};
extern int printk(char const   *  , ...) ;
extern void __ldv_spin_lock(spinlock_t * ) ;
void ldv___ldv_spin_lock_4(spinlock_t *ldv_func_arg1 ) ;
void ldv___ldv_spin_lock_6(spinlock_t *ldv_func_arg1 ) ;
void ldv_spin_lock_node_size_lock_of_pglist_data(void) ;
void ldv_spin_lock_siglock_of_sighand_struct(void) ;
extern void __const_udelay(unsigned long  ) ;
extern void msleep(unsigned int  ) ;
extern unsigned long volatile   jiffies ;
 static char const   *kobject_name(struct kobject  const  *kobj ) 
{ 


  {
  return ((char const   *)kobj->name);
}
}
 static char const   *dev_name(struct device  const  *dev ) 
{ 
  char const   *tmp ;

  {
  if ((unsigned long )dev->init_name != (unsigned long )((char const   */* const  */)0)) {
    return ((char const   *)dev->init_name);
  } else {

  }
  tmp = kobject_name(& dev->kobj);
  return (tmp);
}
}
extern char const   *dev_driver_string(struct device  const  * ) ;
extern int i2c_add_adapter(struct i2c_adapter * ) ;
extern int i2c_add_numbered_adapter(struct i2c_adapter * ) ;
int i2c_pca_add_bus(struct i2c_adapter *adap ) ;
int i2c_pca_add_numbered_bus(struct i2c_adapter *adap ) ;
static int i2c_debug  ;
static void pca9665_reset(void *pd ) 
{ 
  struct i2c_algo_pca_data *adap ;

  {
  adap = (struct i2c_algo_pca_data *)pd;
  (*(adap->write_byte))(adap->data, 0, 5);
  (*(adap->write_byte))(adap->data, 2, 165);
  (*(adap->write_byte))(adap->data, 2, 90);
  return;
}
}
static int pca_start(struct i2c_algo_pca_data *adap ) 
{ 
  int sta ;
  int tmp ;
  int tmp___0 ;

  {
  tmp = (*(adap->read_byte))(adap->data, 3);
  sta = tmp;
  if (i2c_debug > 1) {
    printk("<7>=== START\n");
  } else {

  }
  sta = sta | 32;
  sta = sta & -25;
  (*(adap->write_byte))(adap->data, 3, sta);
  tmp___0 = (*(adap->wait_for_completion))(adap->data);
  return (tmp___0);
}
}
static int pca_repeated_start(struct i2c_algo_pca_data *adap ) 
{ 
  int sta ;
  int tmp ;
  int tmp___0 ;

  {
  tmp = (*(adap->read_byte))(adap->data, 3);
  sta = tmp;
  if (i2c_debug > 1) {
    printk("<7>=== REPEATED START\n");
  } else {

  }
  sta = sta | 32;
  sta = sta & -25;
  (*(adap->write_byte))(adap->data, 3, sta);
  tmp___0 = (*(adap->wait_for_completion))(adap->data);
  return (tmp___0);
}
}
static void pca_stop(struct i2c_algo_pca_data *adap ) 
{ 
  int sta ;
  int tmp ;

  {
  tmp = (*(adap->read_byte))(adap->data, 3);
  sta = tmp;
  if (i2c_debug > 1) {
    printk("<7>=== STOP\n");
  } else {

  }
  sta = sta | 16;
  sta = sta & -41;
  (*(adap->write_byte))(adap->data, 3, sta);
  return;
}
}
static int pca_address(struct i2c_algo_pca_data *adap , struct i2c_msg *msg ) 
{ 
  int sta ;
  int tmp ;
  int addr ;
  int tmp___0 ;

  {
  tmp = (*(adap->read_byte))(adap->data, 3);
  sta = tmp;
  addr = ((int )msg->addr << 1) & 255;
  if ((int )msg->flags & 1) {
    addr = addr | 1;
  } else {

  }
  if (i2c_debug > 1) {
    printk("<7>=== SLAVE ADDRESS %#04x+%c=%#04x\n", (int )msg->addr, (int )msg->flags & 1 ? 82 : 87,
           addr);
  } else {

  }
  (*(adap->write_byte))(adap->data, 1, addr);
  sta = sta & -57;
  (*(adap->write_byte))(adap->data, 3, sta);
  tmp___0 = (*(adap->wait_for_completion))(adap->data);
  return (tmp___0);
}
}
static int pca_tx_byte(struct i2c_algo_pca_data *adap , __u8 b ) 
{ 
  int sta ;
  int tmp ;
  int tmp___0 ;

  {
  tmp = (*(adap->read_byte))(adap->data, 3);
  sta = tmp;
  if (i2c_debug > 1) {
    printk("<7>=== WRITE %#04x\n", (int )b);
  } else {

  }
  (*(adap->write_byte))(adap->data, 1, (int )b);
  sta = sta & -57;
  (*(adap->write_byte))(adap->data, 3, sta);
  tmp___0 = (*(adap->wait_for_completion))(adap->data);
  return (tmp___0);
}
}
static void pca_rx_byte(struct i2c_algo_pca_data *adap , __u8 *b , int ack ) 
{ 
  int tmp ;

  {
  tmp = (*(adap->read_byte))(adap->data, 1);
  *b = (__u8 )tmp;
  if (i2c_debug > 1) {
    printk("<7>=== READ %#04x %s\n", (int )*b, ack != 0 ? (char *)"ACK" : (char *)"NACK");
  } else {

  }
  return;
}
}
static int pca_rx_ack(struct i2c_algo_pca_data *adap , int ack ) 
{ 
  int sta ;
  int tmp ;
  int tmp___0 ;

  {
  tmp = (*(adap->read_byte))(adap->data, 3);
  sta = tmp;
  sta = sta & -185;
  if (ack != 0) {
    sta = sta | 128;
  } else {

  }
  (*(adap->write_byte))(adap->data, 3, sta);
  tmp___0 = (*(adap->wait_for_completion))(adap->data);
  return (tmp___0);
}
}
static int pca_xfer(struct i2c_adapter *i2c_adap , struct i2c_msg *msgs , int num ) 
{ 
  struct i2c_algo_pca_data *adap ;
  struct i2c_msg *msg ;
  int curmsg ;
  int numbytes ;
  int state ;
  int ret ;
  int completed ;
  unsigned long timeout ;
  char const   *tmp ;
  char const   *tmp___0 ;
  int addr ;
  int i ;
  char const   *tmp___1 ;
  char const   *tmp___2 ;
  int tmp___3 ;
  int tmp___4 ;

  {
  adap = (struct i2c_algo_pca_data *)i2c_adap->algo_data;
  msg = 0;
  numbytes = 0;
  completed = 1;
  timeout = (unsigned long )i2c_adap->timeout + (unsigned long )jiffies;
  goto ldv_16610;
  ldv_16609: ;
  if ((1 != 0 && 1 != 0) && (long )jiffies - (long )timeout < 0L) {
    msleep(10U);
  } else {
    tmp = dev_name((struct device  const  *)(& i2c_adap->dev));
    tmp___0 = dev_driver_string((struct device  const  *)(& i2c_adap->dev));
    printk("<7>%s %s: bus is not idle. status is %#04x\n", tmp___0, tmp, state);
    return (-11);
  }
  ldv_16610: 
  state = (*(adap->read_byte))(adap->data, 0);
  if (state != 248) {
    goto ldv_16609;
  } else {

  }

  if (i2c_debug > 0) {
    printk("<7>{{{ XFER %d messages\n", num);
  } else {

  }
  if (i2c_debug > 1) {
    curmsg = 0;
    goto ldv_16618;
    ldv_16617: 
    msg = msgs + (unsigned long )curmsg;
    addr = (int )msg->addr & 127;
    if ((int )msg->flags & 1) {
      printk("<6>    [%02d] RD %d bytes from %#02x [%#02x, ...]\n", curmsg, (int )msg->len,
             addr, (addr << 1) | 1);
    } else {
      printk("<6>    [%02d] WR %d bytes to %#02x [%#02x%s", curmsg, (int )msg->len,
             addr, addr << 1, (unsigned int )msg->len == 0U ? (char *)"" : (char *)", ");
      i = 0;
      goto ldv_16615;
      ldv_16614: 
      printk("%#04x%s", (int )*(msg->buf + (unsigned long )i), (int )msg->len + -1 == i ? (char *)"" : (char *)", ");
      i = i + 1;
      ldv_16615: ;
      if ((int )msg->len > i) {
        goto ldv_16614;
      } else {

      }
      printk("]\n");
    }
    curmsg = curmsg + 1;
    ldv_16618: ;
    if (curmsg < num) {
      goto ldv_16617;
    } else {

    }

  } else {

  }
  curmsg = 0;
  ret = -121;
  goto ldv_16639;
  ldv_16638: 
  state = (*(adap->read_byte))(adap->data, 0);
  if (i2c_debug > 2) {
    printk("<7>STATE is 0x%02x\n", state);
  } else {

  }
  msg = msgs + (unsigned long )curmsg;
  switch (state) {
  case 248: 
  completed = pca_start(adap);
  goto ldv_16621;
  case 8: ;
  case 16: 
  completed = pca_address(adap, msg);
  goto ldv_16621;
  case 24: ;
  case 40: ;
  if ((int )msg->len > numbytes) {
    completed = pca_tx_byte(adap, (int )*(msg->buf + (unsigned long )numbytes));
    numbytes = numbytes + 1;
    goto ldv_16621;
  } else {

  }
  curmsg = curmsg + 1;
  numbytes = 0;
  if (curmsg == num) {
    pca_stop(adap);
  } else {
    completed = pca_repeated_start(adap);
  }
  goto ldv_16621;
  case 32: ;
  if (i2c_debug > 1) {
    printk("<7>NOT ACK received after SLA+W\n");
  } else {

  }
  pca_stop(adap);
  goto out;
  case 64: 
  completed = pca_rx_ack(adap, (unsigned int )msg->len > 1U);
  goto ldv_16621;
  case 80: ;
  if ((int )msg->len > numbytes) {
    pca_rx_byte(adap, msg->buf + (unsigned long )numbytes, 1);
    numbytes = numbytes + 1;
    completed = pca_rx_ack(adap, (int )msg->len + -1 > numbytes);
    goto ldv_16621;
  } else {

  }
  curmsg = curmsg + 1;
  numbytes = 0;
  if (curmsg == num) {
    pca_stop(adap);
  } else {
    completed = pca_repeated_start(adap);
  }
  goto ldv_16621;
  case 72: ;
  if (i2c_debug > 1) {
    printk("<7>NOT ACK received after SLA+R\n");
  } else {

  }
  pca_stop(adap);
  goto out;
  case 48: ;
  if (i2c_debug > 1) {
    printk("<7>NOT ACK received after data byte\n");
  } else {

  }
  pca_stop(adap);
  goto out;
  case 56: ;
  if (i2c_debug > 1) {
    printk("<7>Arbitration lost\n");
  } else {

  }
  pca_start(adap);
  goto out;
  case 88: ;
  if ((int )msg->len + -1 == numbytes) {
    pca_rx_byte(adap, msg->buf + (unsigned long )numbytes, 0);
    curmsg = curmsg + 1;
    numbytes = 0;
    if (curmsg == num) {
      pca_stop(adap);
    } else {
      completed = pca_repeated_start(adap);
    }
  } else {
    if (i2c_debug > 1) {
      printk("<7>NOT ACK sent after data byte received. Not final byte. numbytes %d. len %d\n",
             numbytes, (int )msg->len);
    } else {

    }
    pca_stop(adap);
    goto out;
  }
  goto ldv_16621;
  case 112: ;
  if (i2c_debug > 1) {
    printk("<7>BUS ERROR - SDA Stuck low\n");
  } else {

  }
  (*(adap->reset_chip))(adap->data);
  goto out;
  case 144: ;
  if (i2c_debug > 1) {
    printk("<7>BUS ERROR - SCL Stuck low\n");
  } else {

  }
  (*(adap->reset_chip))(adap->data);
  goto out;
  case 0: ;
  if (i2c_debug > 1) {
    printk("<7>BUS ERROR - Illegal START or STOP\n");
  } else {

  }
  (*(adap->reset_chip))(adap->data);
  goto out;
  default: 
  tmp___1 = dev_name((struct device  const  *)(& i2c_adap->dev));
  tmp___2 = dev_driver_string((struct device  const  *)(& i2c_adap->dev));
  printk("<3>%s %s: unhandled SIO state 0x%02x\n", tmp___2, tmp___1, state);
  goto ldv_16621;
  }
  ldv_16621: ;
  if (completed == 0) {
    goto out;
  } else {

  }
  ldv_16639: ;
  if (curmsg < num) {
    goto ldv_16638;
  } else {

  }
  ret = curmsg;
  out: ;
  if (i2c_debug > 0) {
    tmp___3 = (*(adap->read_byte))(adap->data, 3);
    tmp___4 = (*(adap->read_byte))(adap->data, 0);
    printk("<7>}}} transfered %d/%d messages. status is %#04x. control is %#04x\n",
           curmsg, num, tmp___4, tmp___3);
  } else {

  }
  return (ret);
}
}
static u32 pca_func(struct i2c_adapter *adap ) 
{ 


  {
  return (251592713U);
}
}
static struct i2c_algorithm  const  pca_algo  =    {& pca_xfer, 0, & pca_func};
static unsigned int pca_probe_chip(struct i2c_adapter *adap ) 
{ 
  struct i2c_algo_pca_data *pca_data ;
  int tmp ;

  {
  pca_data = (struct i2c_algo_pca_data *)adap->algo_data;
  (*(pca_data->write_byte))(pca_data->data, 0, 1);
  (*(pca_data->write_byte))(pca_data->data, 2, 170);
  (*(pca_data->write_byte))(pca_data->data, 0, 4);
  (*(pca_data->write_byte))(pca_data->data, 2, 0);
  (*(pca_data->write_byte))(pca_data->data, 0, 1);
  tmp = (*(pca_data->read_byte))(pca_data->data, 2);
  if (tmp == 170) {
    printk("<6>%s: PCA9665 detected.\n", (char *)(& adap->name));
    return (1U);
  } else {
    printk("<6>%s: PCA9564 detected.\n", (char *)(& adap->name));
    return (0U);
  }
}
}
static int pca_init(struct i2c_adapter *adap ) 
{ 
  struct i2c_algo_pca_data *pca_data ;
  int freqs[8U] ;
  int clock ;
  int clock___0 ;
  int mode ;
  int tlow ;
  int thi ;
  int min_tlow ;
  int min_thi ;
  int raise_fall_time ;
  unsigned int tmp ;

  {
  pca_data = (struct i2c_algo_pca_data *)adap->algo_data;
  adap->algo = & pca_algo;
  tmp = pca_probe_chip(adap);
  if (tmp == 0U) {
    freqs[0] = 330;
    freqs[1] = 288;
    freqs[2] = 217;
    freqs[3] = 146;
    freqs[4] = 88;
    freqs[5] = 59;
    freqs[6] = 44;
    freqs[7] = 36;
    if (pca_data->i2c_clock > 7U) {
      switch (pca_data->i2c_clock) {
      case 330000U: 
      pca_data->i2c_clock = 0U;
      goto ldv_16656;
      case 288000U: 
      pca_data->i2c_clock = 1U;
      goto ldv_16656;
      case 217000U: 
      pca_data->i2c_clock = 2U;
      goto ldv_16656;
      case 146000U: 
      pca_data->i2c_clock = 3U;
      goto ldv_16656;
      case 88000U: 
      pca_data->i2c_clock = 4U;
      goto ldv_16656;
      case 59000U: 
      pca_data->i2c_clock = 5U;
      goto ldv_16656;
      case 44000U: 
      pca_data->i2c_clock = 6U;
      goto ldv_16656;
      case 36000U: 
      pca_data->i2c_clock = 7U;
      goto ldv_16656;
      default: 
      printk("<4>%s: Invalid I2C clock speed selected. Using default 59kHz.\n", (char *)(& adap->name));
      pca_data->i2c_clock = 5U;
      }
      ldv_16656: ;
    } else {
      printk("<4>%s: Choosing the clock frequency based on index is deprecated. Use the nominal frequency.\n",
             (char *)(& adap->name));
    }
    (*(pca_data->reset_chip))(pca_data->data);
    clock = (int )pca_data->i2c_clock;
    printk("<6>%s: Clock frequency is %dkHz\n", (char *)(& adap->name), freqs[clock]);
    (*(pca_data->write_byte))(pca_data->data, 3, clock | 64);
  } else {
    pca_data->reset_chip = & pca9665_reset;
    if (pca_data->i2c_clock > 1265800U) {
      printk("<4>%s: I2C clock speed too high. Using 1265.8kHz.\n", (char *)(& adap->name));
      pca_data->i2c_clock = 1265800U;
    } else {

    }
    if (pca_data->i2c_clock <= 60299U) {
      printk("<4>%s: I2C clock speed too low. Using 60.3kHz.\n", (char *)(& adap->name));
      pca_data->i2c_clock = 60300U;
    } else {

    }
    clock___0 = (int )(pca_data->i2c_clock / 100U);
    if (pca_data->i2c_clock > 10000U) {
      mode = 3;
      min_tlow = 14;
      min_thi = 5;
      raise_fall_time = 22;
    } else
    if (pca_data->i2c_clock > 4000U) {
      mode = 2;
      min_tlow = 17;
      min_thi = 9;
      raise_fall_time = 22;
    } else
    if (pca_data->i2c_clock > 1000U) {
      mode = 1;
      min_tlow = 44;
      min_thi = 20;
      raise_fall_time = 58;
    } else {
      mode = 0;
      min_tlow = 157;
      min_thi = 134;
      raise_fall_time = 127;
    }
    if (clock___0 <= 647) {
      tlow = 255;
      thi = 1000000 - clock___0 * raise_fall_time;
      thi = thi / (clock___0 * 3 - tlow);
    } else {
      tlow = (1000000 - clock___0 * raise_fall_time) * min_tlow;
      tlow = tlow / ((clock___0 * 3) * (min_thi + min_tlow));
      thi = (tlow * min_thi) / min_tlow;
    }
    (*(pca_data->reset_chip))(pca_data->data);
    printk("<6>%s: Clock frequency is %dHz\n", (char *)(& adap->name), clock___0 * 100);
    (*(pca_data->write_byte))(pca_data->data, 0, 6);
    (*(pca_data->write_byte))(pca_data->data, 2, mode);
    (*(pca_data->write_byte))(pca_data->data, 0, 2);
    (*(pca_data->write_byte))(pca_data->data, 2, tlow);
    (*(pca_data->write_byte))(pca_data->data, 0, 3);
    (*(pca_data->write_byte))(pca_data->data, 2, thi);
    (*(pca_data->write_byte))(pca_data->data, 3, 64);
  }
  __const_udelay(2147500UL);
  return (0);
}
}
int i2c_pca_add_bus(struct i2c_adapter *adap ) 
{ 
  int rval ;
  int tmp ;

  {
  rval = pca_init(adap);
  if (rval != 0) {
    return (rval);
  } else {

  }
  tmp = i2c_add_adapter(adap);
  return (tmp);
}
}
int i2c_pca_add_numbered_bus(struct i2c_adapter *adap ) 
{ 
  int rval ;
  int tmp ;

  {
  rval = pca_init(adap);
  if (rval != 0) {
    return (rval);
  } else {

  }
  tmp = i2c_add_numbered_adapter(adap);
  return (tmp);
}
}
void ldv_check_final_state(void) ;
void ldv_initialize(void) ;
extern void ldv_handler_precall(void) ;
extern int nondet_int(void) ;
int LDV_IN_INTERRUPT  ;
int main(void) 
{ 
  struct i2c_adapter *var_group1 ;
  struct i2c_msg *var_group2 ;
  int var_pca_xfer_8_p2 ;
  int tmp ;
  int tmp___0 ;

  {
  LDV_IN_INTERRUPT = 1;
  ldv_initialize();
  goto ldv_16730;
  ldv_16729: 
  tmp = nondet_int();
  switch (tmp) {
  case 0: 
  ldv_handler_precall();
  pca_xfer(var_group1, var_group2, var_pca_xfer_8_p2);
  goto ldv_16726;
  case 1: 
  ldv_handler_precall();
  pca_func(var_group1);
  goto ldv_16726;
  default: ;
  goto ldv_16726;
  }
  ldv_16726: ;
  ldv_16730: 
  tmp___0 = nondet_int();
  if (tmp___0 != 0) {
    goto ldv_16729;
  } else {

  }


  ldv_check_final_state();
  return 0;
}
}
void ldv___ldv_spin_lock_4(spinlock_t *ldv_func_arg1 ) 
{ 


  {
  ldv_spin_lock_node_size_lock_of_pglist_data();
  __ldv_spin_lock(ldv_func_arg1);
  return;
}
}
void ldv___ldv_spin_lock_6(spinlock_t *ldv_func_arg1 ) 
{ 


  {
  ldv_spin_lock_siglock_of_sighand_struct();
  __ldv_spin_lock(ldv_func_arg1);
  return;
}
}
long ldv__builtin_expect(long exp , long c ) ;
 static void ldv_error(void) 
{ 


  {
  LDV_ERROR: {reach_error();abort();}
}
}
extern int ldv_undef_int(void) ;
long ldv__builtin_expect(long exp , long c ) 
{ 


  {
  return (exp);
}
}
static int ldv_spin_alloc_lock_of_task_struct  ;
void ldv_spin_lock_alloc_lock_of_task_struct(void) 
{ 


  {
  if (ldv_spin_alloc_lock_of_task_struct == 1) {

  } else {
    ldv_error();
  }
  ldv_spin_alloc_lock_of_task_struct = 2;
  return;
}
}
void ldv_spin_unlock_alloc_lock_of_task_struct(void) 
{ 


  {
  if (ldv_spin_alloc_lock_of_task_struct == 2) {

  } else {
    ldv_error();
  }
  ldv_spin_alloc_lock_of_task_struct = 1;
  return;
}
}
int ldv_spin_trylock_alloc_lock_of_task_struct(void) 
{ 
  int is_spin_held_by_another_thread ;

  {
  if (ldv_spin_alloc_lock_of_task_struct == 1) {

  } else {
    ldv_error();
  }
  is_spin_held_by_another_thread = ldv_undef_int();
  if (is_spin_held_by_another_thread) {
    return (0);
  } else {
    ldv_spin_alloc_lock_of_task_struct = 2;
    return (1);
  }
}
}
void ldv_spin_unlock_wait_alloc_lock_of_task_struct(void) 
{ 


  {
  if (ldv_spin_alloc_lock_of_task_struct == 1) {

  } else {
    ldv_error();
  }
  return;
}
}
int ldv_spin_is_locked_alloc_lock_of_task_struct(void) 
{ 
  int is_spin_held_by_another_thread ;

  {
  is_spin_held_by_another_thread = ldv_undef_int();
  if (ldv_spin_alloc_lock_of_task_struct == 1 && ! is_spin_held_by_another_thread) {
    return (0);
  } else {
    return (1);
  }
}
}
int ldv_spin_can_lock_alloc_lock_of_task_struct(void) 
{ 
  int tmp ;
  int tmp___0 ;

  {
  tmp = ldv_spin_is_locked_alloc_lock_of_task_struct();
  if (tmp) {
    tmp___0 = 0;
  } else {
    tmp___0 = 1;
  }
  return (tmp___0);
}
}
int ldv_spin_is_contended_alloc_lock_of_task_struct(void) 
{ 
  int is_spin_contended ;

  {
  is_spin_contended = ldv_undef_int();
  if (is_spin_contended) {
    return (0);
  } else {
    return (1);
  }
}
}
int ldv_atomic_dec_and_lock_alloc_lock_of_task_struct(void) 
{ 
  int atomic_value_after_dec ;

  {
  if (ldv_spin_alloc_lock_of_task_struct == 1) {

  } else {
    ldv_error();
  }
  atomic_value_after_dec = ldv_undef_int();
  if (atomic_value_after_dec == 0) {
    ldv_spin_alloc_lock_of_task_struct = 2;
    return (1);
  } else {

  }
  return (0);
}
}
static int ldv_spin_lock_of_NOT_ARG_SIGN  ;
void ldv_spin_lock_lock_of_NOT_ARG_SIGN(void) 
{ 


  {
  if (ldv_spin_lock_of_NOT_ARG_SIGN == 1) {

  } else {
    ldv_error();
  }
  ldv_spin_lock_of_NOT_ARG_SIGN = 2;
  return;
}
}
void ldv_spin_unlock_lock_of_NOT_ARG_SIGN(void) 
{ 


  {
  if (ldv_spin_lock_of_NOT_ARG_SIGN == 2) {

  } else {
    ldv_error();
  }
  ldv_spin_lock_of_NOT_ARG_SIGN = 1;
  return;
}
}
int ldv_spin_trylock_lock_of_NOT_ARG_SIGN(void) 
{ 
  int is_spin_held_by_another_thread ;

  {
  if (ldv_spin_lock_of_NOT_ARG_SIGN == 1) {

  } else {
    ldv_error();
  }
  is_spin_held_by_another_thread = ldv_undef_int();
  if (is_spin_held_by_another_thread) {
    return (0);
  } else {
    ldv_spin_lock_of_NOT_ARG_SIGN = 2;
    return (1);
  }
}
}
void ldv_spin_unlock_wait_lock_of_NOT_ARG_SIGN(void) 
{ 


  {
  if (ldv_spin_lock_of_NOT_ARG_SIGN == 1) {

  } else {
    ldv_error();
  }
  return;
}
}
int ldv_spin_is_locked_lock_of_NOT_ARG_SIGN(void) 
{ 
  int is_spin_held_by_another_thread ;

  {
  is_spin_held_by_another_thread = ldv_undef_int();
  if (ldv_spin_lock_of_NOT_ARG_SIGN == 1 && ! is_spin_held_by_another_thread) {
    return (0);
  } else {
    return (1);
  }
}
}
int ldv_spin_can_lock_lock_of_NOT_ARG_SIGN(void) 
{ 
  int tmp ;
  int tmp___0 ;

  {
  tmp = ldv_spin_is_locked_lock_of_NOT_ARG_SIGN();
  if (tmp) {
    tmp___0 = 0;
  } else {
    tmp___0 = 1;
  }
  return (tmp___0);
}
}
int ldv_spin_is_contended_lock_of_NOT_ARG_SIGN(void) 
{ 
  int is_spin_contended ;

  {
  is_spin_contended = ldv_undef_int();
  if (is_spin_contended) {
    return (0);
  } else {
    return (1);
  }
}
}
int ldv_atomic_dec_and_lock_lock_of_NOT_ARG_SIGN(void) 
{ 
  int atomic_value_after_dec ;

  {
  if (ldv_spin_lock_of_NOT_ARG_SIGN == 1) {

  } else {
    ldv_error();
  }
  atomic_value_after_dec = ldv_undef_int();
  if (atomic_value_after_dec == 0) {
    ldv_spin_lock_of_NOT_ARG_SIGN = 2;
    return (1);
  } else {

  }
  return (0);
}
}
static int ldv_spin_node_size_lock_of_pglist_data  ;
void ldv_spin_lock_node_size_lock_of_pglist_data(void) 
{ 


  {
  if (ldv_spin_node_size_lock_of_pglist_data == 1) {

  } else {
    ldv_error();
  }
  ldv_spin_node_size_lock_of_pglist_data = 2;
  return;
}
}
void ldv_spin_unlock_node_size_lock_of_pglist_data(void) 
{ 


  {
  if (ldv_spin_node_size_lock_of_pglist_data == 2) {

  } else {
    ldv_error();
  }
  ldv_spin_node_size_lock_of_pglist_data = 1;
  return;
}
}
int ldv_spin_trylock_node_size_lock_of_pglist_data(void) 
{ 
  int is_spin_held_by_another_thread ;

  {
  if (ldv_spin_node_size_lock_of_pglist_data == 1) {

  } else {
    ldv_error();
  }
  is_spin_held_by_another_thread = ldv_undef_int();
  if (is_spin_held_by_another_thread) {
    return (0);
  } else {
    ldv_spin_node_size_lock_of_pglist_data = 2;
    return (1);
  }
}
}
void ldv_spin_unlock_wait_node_size_lock_of_pglist_data(void) 
{ 


  {
  if (ldv_spin_node_size_lock_of_pglist_data == 1) {

  } else {
    ldv_error();
  }
  return;
}
}
int ldv_spin_is_locked_node_size_lock_of_pglist_data(void) 
{ 
  int is_spin_held_by_another_thread ;

  {
  is_spin_held_by_another_thread = ldv_undef_int();
  if (ldv_spin_node_size_lock_of_pglist_data == 1 && ! is_spin_held_by_another_thread) {
    return (0);
  } else {
    return (1);
  }
}
}
int ldv_spin_can_lock_node_size_lock_of_pglist_data(void) 
{ 
  int tmp ;
  int tmp___0 ;

  {
  tmp = ldv_spin_is_locked_node_size_lock_of_pglist_data();
  if (tmp) {
    tmp___0 = 0;
  } else {
    tmp___0 = 1;
  }
  return (tmp___0);
}
}
int ldv_spin_is_contended_node_size_lock_of_pglist_data(void) 
{ 
  int is_spin_contended ;

  {
  is_spin_contended = ldv_undef_int();
  if (is_spin_contended) {
    return (0);
  } else {
    return (1);
  }
}
}
int ldv_atomic_dec_and_lock_node_size_lock_of_pglist_data(void) 
{ 
  int atomic_value_after_dec ;

  {
  if (ldv_spin_node_size_lock_of_pglist_data == 1) {

  } else {
    ldv_error();
  }
  atomic_value_after_dec = ldv_undef_int();
  if (atomic_value_after_dec == 0) {
    ldv_spin_node_size_lock_of_pglist_data = 2;
    return (1);
  } else {

  }
  return (0);
}
}
static int ldv_spin_siglock_of_sighand_struct  ;
void ldv_spin_lock_siglock_of_sighand_struct(void) 
{ 


  {
  if (ldv_spin_siglock_of_sighand_struct == 1) {

  } else {
    ldv_error();
  }
  ldv_spin_siglock_of_sighand_struct = 2;
  return;
}
}
void ldv_spin_unlock_siglock_of_sighand_struct(void) 
{ 


  {
  if (ldv_spin_siglock_of_sighand_struct == 2) {

  } else {
    ldv_error();
  }
  ldv_spin_siglock_of_sighand_struct = 1;
  return;
}
}
int ldv_spin_trylock_siglock_of_sighand_struct(void) 
{ 
  int is_spin_held_by_another_thread ;

  {
  if (ldv_spin_siglock_of_sighand_struct == 1) {

  } else {
    ldv_error();
  }
  is_spin_held_by_another_thread = ldv_undef_int();
  if (is_spin_held_by_another_thread) {
    return (0);
  } else {
    ldv_spin_siglock_of_sighand_struct = 2;
    return (1);
  }
}
}
void ldv_spin_unlock_wait_siglock_of_sighand_struct(void) 
{ 


  {
  if (ldv_spin_siglock_of_sighand_struct == 1) {

  } else {
    ldv_error();
  }
  return;
}
}
int ldv_spin_is_locked_siglock_of_sighand_struct(void) 
{ 
  int is_spin_held_by_another_thread ;

  {
  is_spin_held_by_another_thread = ldv_undef_int();
  if (ldv_spin_siglock_of_sighand_struct == 1 && ! is_spin_held_by_another_thread) {
    return (0);
  } else {
    return (1);
  }
}
}
int ldv_spin_can_lock_siglock_of_sighand_struct(void) 
{ 
  int tmp ;
  int tmp___0 ;

  {
  tmp = ldv_spin_is_locked_siglock_of_sighand_struct();
  if (tmp) {
    tmp___0 = 0;
  } else {
    tmp___0 = 1;
  }
  return (tmp___0);
}
}
int ldv_spin_is_contended_siglock_of_sighand_struct(void) 
{ 
  int is_spin_contended ;

  {
  is_spin_contended = ldv_undef_int();
  if (is_spin_contended) {
    return (0);
  } else {
    return (1);
  }
}
}
int ldv_atomic_dec_and_lock_siglock_of_sighand_struct(void) 
{ 
  int atomic_value_after_dec ;

  {
  if (ldv_spin_siglock_of_sighand_struct == 1) {

  } else {
    ldv_error();
  }
  atomic_value_after_dec = ldv_undef_int();
  if (atomic_value_after_dec == 0) {
    ldv_spin_siglock_of_sighand_struct = 2;
    return (1);
  } else {

  }
  return (0);
}
}
void ldv_initialize(void) 
{ 


  {
  ldv_spin_alloc_lock_of_task_struct = 1;
  ldv_spin_lock_of_NOT_ARG_SIGN = 1;
  ldv_spin_node_size_lock_of_pglist_data = 1;
  ldv_spin_siglock_of_sighand_struct = 1;
  return;
}
}
void ldv_check_final_state(void) 
{ 


  {
  if (ldv_spin_alloc_lock_of_task_struct == 1) {

  } else {
    ldv_error();
  }
  if (ldv_spin_lock_of_NOT_ARG_SIGN == 1) {

  } else {
    ldv_error();
  }
  if (ldv_spin_node_size_lock_of_pglist_data == 1) {

  } else {
    ldv_error();
  }
  if (ldv_spin_siglock_of_sighand_struct == 1) {

  } else {
    ldv_error();
  }
  return;
}
}
