extern void abort(void);
extern void __assert_fail(const char *, const char *, unsigned int, const char *) __attribute__ ((__nothrow__ , __leaf__)) __attribute__ ((__noreturn__));
void reach_error() { __assert_fail("0", "drivers--hwmon--ads7871.ko_001.c12c507.08_1a.cil_true-unreach-call.i", 3, "reach_error"); }

/* Generated by CIL v. 1.5.1 */
/* print_CIL_Input is false */

typedef unsigned char __u8;
typedef unsigned short __u16;
typedef unsigned int __u32;
typedef unsigned long long __u64;
typedef unsigned char u8;
typedef short s16;
typedef unsigned short u16;
typedef unsigned int u32;
typedef unsigned long long u64;
typedef u64 dma_addr_t;
typedef unsigned int __kernel_mode_t;
typedef unsigned long __kernel_size_t;
typedef long __kernel_ssize_t;
typedef long __kernel_time_t;
typedef int __kernel_clockid_t;
typedef __u32 __kernel_dev_t;
typedef __kernel_dev_t dev_t;
typedef __kernel_mode_t mode_t;
typedef __kernel_clockid_t clockid_t;
typedef _Bool bool;
typedef __kernel_size_t size_t;
typedef __kernel_ssize_t ssize_t;
typedef __u8 uint8_t;
typedef unsigned int gfp_t;
struct __anonstruct_atomic_t_6 {
   int counter ;
};
typedef struct __anonstruct_atomic_t_6 atomic_t;
struct __anonstruct_atomic64_t_7 {
   long counter ;
};
typedef struct __anonstruct_atomic64_t_7 atomic64_t;
struct list_head {
   struct list_head *next ;
   struct list_head *prev ;
};
struct task_struct;
struct pt_regs {
   unsigned long r15 ;
   unsigned long r14 ;
   unsigned long r13 ;
   unsigned long r12 ;
   unsigned long bp ;
   unsigned long bx ;
   unsigned long r11 ;
   unsigned long r10 ;
   unsigned long r9 ;
   unsigned long r8 ;
   unsigned long ax ;
   unsigned long cx ;
   unsigned long dx ;
   unsigned long si ;
   unsigned long di ;
   unsigned long orig_ax ;
   unsigned long ip ;
   unsigned long cs ;
   unsigned long flags ;
   unsigned long sp ;
   unsigned long ss ;
};
typedef void (*ctor_fn_t)(void);
struct module;
struct bug_entry {
   int bug_addr_disp ;
   int file_disp ;
   unsigned short line ;
   unsigned short flags ;
};
struct completion;
struct page;
struct arch_spinlock;
struct exec_domain;
struct map_segment;
struct exec_domain {
   char const   *name ;
   void (*handler)(int  , struct pt_regs * ) ;
   unsigned char pers_low ;
   unsigned char pers_high ;
   unsigned long *signal_map ;
   unsigned long *signal_invmap ;
   struct map_segment *err_map ;
   struct map_segment *socktype_map ;
   struct map_segment *sockopt_map ;
   struct map_segment *af_map ;
   struct module *module ;
   struct exec_domain *next ;
};
struct kmem_cache;
struct __anonstruct_mm_segment_t_24 {
   unsigned long seg ;
};
typedef struct __anonstruct_mm_segment_t_24 mm_segment_t;
struct timespec;
struct compat_timespec;
struct __anonstruct_ldv_5174_26 {
   unsigned long arg0 ;
   unsigned long arg1 ;
   unsigned long arg2 ;
   unsigned long arg3 ;
};
struct __anonstruct_futex_27 {
   u32 *uaddr ;
   u32 val ;
   u32 flags ;
   u32 bitset ;
   u64 time ;
   u32 *uaddr2 ;
};
struct __anonstruct_nanosleep_28 {
   clockid_t index ;
   struct timespec *rmtp ;
   struct compat_timespec *compat_rmtp ;
   u64 expires ;
};
struct pollfd;
struct __anonstruct_poll_29 {
   struct pollfd *ufds ;
   int nfds ;
   int has_timeout ;
   unsigned long tv_sec ;
   unsigned long tv_nsec ;
};
union __anonunion_ldv_5197_25 {
   struct __anonstruct_ldv_5174_26 ldv_5174 ;
   struct __anonstruct_futex_27 futex ;
   struct __anonstruct_nanosleep_28 nanosleep ;
   struct __anonstruct_poll_29 poll ;
};
struct restart_block {
   long (*fn)(struct restart_block * ) ;
   union __anonunion_ldv_5197_25 ldv_5197 ;
};
typedef atomic64_t atomic_long_t;
struct thread_info {
   struct task_struct *task ;
   struct exec_domain *exec_domain ;
   __u32 flags ;
   __u32 status ;
   __u32 cpu ;
   int preempt_count ;
   mm_segment_t addr_limit ;
   struct restart_block restart_block ;
   void *sysenter_return ;
   int uaccess_err ;
};
struct arch_spinlock {
   unsigned int slock ;
};
typedef struct arch_spinlock arch_spinlock_t;
struct lockdep_map;
struct stack_trace {
   unsigned int nr_entries ;
   unsigned int max_entries ;
   unsigned long *entries ;
   int skip ;
};
struct lockdep_subclass_key {
   char __one_byte ;
};
struct lock_class_key {
   struct lockdep_subclass_key subkeys[8U] ;
};
struct lock_class {
   struct list_head hash_entry ;
   struct list_head lock_entry ;
   struct lockdep_subclass_key *key ;
   unsigned int subclass ;
   unsigned int dep_gen_id ;
   unsigned long usage_mask ;
   struct stack_trace usage_traces[13U] ;
   struct list_head locks_after ;
   struct list_head locks_before ;
   unsigned int version ;
   unsigned long ops ;
   char const   *name ;
   int name_version ;
   unsigned long contention_point[4U] ;
   unsigned long contending_point[4U] ;
};
struct lockdep_map {
   struct lock_class_key *key ;
   struct lock_class *class_cache ;
   char const   *name ;
   int cpu ;
   unsigned long ip ;
};
struct raw_spinlock {
   arch_spinlock_t raw_lock ;
   unsigned int magic ;
   unsigned int owner_cpu ;
   void *owner ;
   struct lockdep_map dep_map ;
};
struct __anonstruct_ldv_5787_32 {
   u8 __padding[1U] ;
   struct lockdep_map dep_map ;
};
union __anonunion_ldv_5788_31 {
   struct raw_spinlock rlock ;
   struct __anonstruct_ldv_5787_32 ldv_5787 ;
};
struct spinlock {
   union __anonunion_ldv_5788_31 ldv_5788 ;
};
typedef struct spinlock spinlock_t;
struct timespec {
   __kernel_time_t tv_sec ;
   long tv_nsec ;
};
struct __wait_queue_head {
   spinlock_t lock ;
   struct list_head task_list ;
};
typedef struct __wait_queue_head wait_queue_head_t;
struct mutex {
   atomic_t count ;
   spinlock_t wait_lock ;
   struct list_head wait_list ;
   struct thread_info *owner ;
   char const   *name ;
   void *magic ;
   struct lockdep_map dep_map ;
};
struct device;
struct tvec_base;
struct timer_list {
   struct list_head entry ;
   unsigned long expires ;
   struct tvec_base *base ;
   void (*function)(unsigned long  ) ;
   unsigned long data ;
   int slack ;
   void *start_site ;
   char start_comm[16U] ;
   int start_pid ;
   struct lockdep_map lockdep_map ;
};
struct work_struct;
struct work_struct {
   atomic_long_t data ;
   struct list_head entry ;
   void (*func)(struct work_struct * ) ;
   struct lockdep_map lockdep_map ;
};
struct completion {
   unsigned int done ;
   wait_queue_head_t wait ;
};
struct pm_message {
   int event ;
};
typedef struct pm_message pm_message_t;
struct dev_pm_ops {
   int (*prepare)(struct device * ) ;
   void (*complete)(struct device * ) ;
   int (*suspend)(struct device * ) ;
   int (*resume)(struct device * ) ;
   int (*freeze)(struct device * ) ;
   int (*thaw)(struct device * ) ;
   int (*poweroff)(struct device * ) ;
   int (*restore)(struct device * ) ;
   int (*suspend_noirq)(struct device * ) ;
   int (*resume_noirq)(struct device * ) ;
   int (*freeze_noirq)(struct device * ) ;
   int (*thaw_noirq)(struct device * ) ;
   int (*poweroff_noirq)(struct device * ) ;
   int (*restore_noirq)(struct device * ) ;
   int (*runtime_suspend)(struct device * ) ;
   int (*runtime_resume)(struct device * ) ;
   int (*runtime_idle)(struct device * ) ;
};
enum dpm_state {
    DPM_INVALID = 0,
    DPM_ON = 1,
    DPM_PREPARING = 2,
    DPM_RESUMING = 3,
    DPM_SUSPENDING = 4,
    DPM_OFF = 5,
    DPM_OFF_IRQ = 6
} ;
enum rpm_status {
    RPM_ACTIVE = 0,
    RPM_RESUMING = 1,
    RPM_SUSPENDED = 2,
    RPM_SUSPENDING = 3
} ;
enum rpm_request {
    RPM_REQ_NONE = 0,
    RPM_REQ_IDLE = 1,
    RPM_REQ_SUSPEND = 2,
    RPM_REQ_RESUME = 3
} ;
struct dev_pm_info {
   pm_message_t power_state ;
   unsigned char can_wakeup : 1 ;
   unsigned char should_wakeup : 1 ;
   unsigned char async_suspend : 1 ;
   enum dpm_state status ;
   struct list_head entry ;
   struct completion completion ;
   unsigned long wakeup_count ;
   struct timer_list suspend_timer ;
   unsigned long timer_expires ;
   struct work_struct work ;
   wait_queue_head_t wait_queue ;
   spinlock_t lock ;
   atomic_t usage_count ;
   atomic_t child_count ;
   unsigned char disable_depth : 3 ;
   unsigned char ignore_children : 1 ;
   unsigned char idle_notification : 1 ;
   unsigned char request_pending : 1 ;
   unsigned char deferred_resume : 1 ;
   unsigned char run_wake : 1 ;
   unsigned char runtime_auto : 1 ;
   enum rpm_request request ;
   enum rpm_status runtime_status ;
   int runtime_error ;
   unsigned long active_jiffies ;
   unsigned long suspended_jiffies ;
   unsigned long accounting_timestamp ;
};
typedef __u64 Elf64_Addr;
typedef __u16 Elf64_Half;
typedef __u32 Elf64_Word;
typedef __u64 Elf64_Xword;
struct elf64_sym {
   Elf64_Word st_name ;
   unsigned char st_info ;
   unsigned char st_other ;
   Elf64_Half st_shndx ;
   Elf64_Addr st_value ;
   Elf64_Xword st_size ;
};
typedef struct elf64_sym Elf64_Sym;
struct sock;
struct kobject;
enum kobj_ns_type {
    KOBJ_NS_TYPE_NONE = 0,
    KOBJ_NS_TYPE_NET = 1,
    KOBJ_NS_TYPES = 2
} ;
struct kobj_ns_type_operations {
   enum kobj_ns_type type ;
   void const   *(*current_ns)(void) ;
   void const   *(*netlink_ns)(struct sock * ) ;
   void const   *(*initial_ns)(void) ;
};
struct attribute {
   char const   *name ;
   mode_t mode ;
   struct lock_class_key *key ;
   struct lock_class_key skey ;
};
struct attribute_group {
   char const   *name ;
   mode_t (*is_visible)(struct kobject * , struct attribute * , int  ) ;
   struct attribute **attrs ;
};
struct sysfs_ops {
   ssize_t (*show)(struct kobject * , struct attribute * , char * ) ;
   ssize_t (*store)(struct kobject * , struct attribute * , char const   * , size_t  ) ;
};
struct sysfs_dirent;
struct kref {
   atomic_t refcount ;
};
struct kset;
struct kobj_type;
struct kobject {
   char const   *name ;
   struct list_head entry ;
   struct kobject *parent ;
   struct kset *kset ;
   struct kobj_type *ktype ;
   struct sysfs_dirent *sd ;
   struct kref kref ;
   unsigned char state_initialized : 1 ;
   unsigned char state_in_sysfs : 1 ;
   unsigned char state_add_uevent_sent : 1 ;
   unsigned char state_remove_uevent_sent : 1 ;
   unsigned char uevent_suppress : 1 ;
};
struct kobj_type {
   void (*release)(struct kobject * ) ;
   struct sysfs_ops  const  *sysfs_ops ;
   struct attribute **default_attrs ;
   struct kobj_ns_type_operations  const  *(*child_ns_type)(struct kobject * ) ;
   void const   *(*namespace)(struct kobject * ) ;
};
struct kobj_uevent_env {
   char *envp[32U] ;
   int envp_idx ;
   char buf[2048U] ;
   int buflen ;
};
struct kset_uevent_ops {
   int (* const  filter)(struct kset * , struct kobject * ) ;
   char const   *(* const  name)(struct kset * , struct kobject * ) ;
   int (* const  uevent)(struct kset * , struct kobject * , struct kobj_uevent_env * ) ;
};
struct kset {
   struct list_head list ;
   spinlock_t list_lock ;
   struct kobject kobj ;
   struct kset_uevent_ops  const  *uevent_ops ;
};
struct kernel_param;
struct kernel_param_ops {
   int (*set)(char const   * , struct kernel_param  const  * ) ;
   int (*get)(char * , struct kernel_param  const  * ) ;
   void (*free)(void * ) ;
};
struct kparam_string;
struct kparam_array;
union __anonunion_ldv_10936_110 {
   void *arg ;
   struct kparam_string  const  *str ;
   struct kparam_array  const  *arr ;
};
struct kernel_param {
   char const   *name ;
   struct kernel_param_ops  const  *ops ;
   u16 perm ;
   u16 flags ;
   union __anonunion_ldv_10936_110 ldv_10936 ;
};
struct kparam_string {
   unsigned int maxlen ;
   char *string ;
};
struct kparam_array {
   unsigned int max ;
   unsigned int *num ;
   struct kernel_param_ops  const  *ops ;
   unsigned int elemsize ;
   void *elem ;
};
struct tracepoint;
struct tracepoint_func {
   void *func ;
   void *data ;
};
struct tracepoint {
   char const   *name ;
   int state ;
   void (*regfunc)(void) ;
   void (*unregfunc)(void) ;
   struct tracepoint_func *funcs ;
};
struct mod_arch_specific {

};
struct kernel_symbol {
   unsigned long value ;
   char const   *name ;
};
struct module_attribute {
   struct attribute attr ;
   ssize_t (*show)(struct module_attribute * , struct module * , char * ) ;
   ssize_t (*store)(struct module_attribute * , struct module * , char const   * ,
                    size_t  ) ;
   void (*setup)(struct module * , char const   * ) ;
   int (*test)(struct module * ) ;
   void (*free)(struct module * ) ;
};
struct module_param_attrs;
struct module_kobject {
   struct kobject kobj ;
   struct module *mod ;
   struct kobject *drivers_dir ;
   struct module_param_attrs *mp ;
};
struct exception_table_entry;
enum module_state {
    MODULE_STATE_LIVE = 0,
    MODULE_STATE_COMING = 1,
    MODULE_STATE_GOING = 2
} ;
struct module_ref {
   unsigned int incs ;
   unsigned int decs ;
};
struct module_sect_attrs;
struct module_notes_attrs;
struct ftrace_event_call;
struct module {
   enum module_state state ;
   struct list_head list ;
   char name[56U] ;
   struct module_kobject mkobj ;
   struct module_attribute *modinfo_attrs ;
   char const   *version ;
   char const   *srcversion ;
   struct kobject *holders_dir ;
   struct kernel_symbol  const  *syms ;
   unsigned long const   *crcs ;
   unsigned int num_syms ;
   struct kernel_param *kp ;
   unsigned int num_kp ;
   unsigned int num_gpl_syms ;
   struct kernel_symbol  const  *gpl_syms ;
   unsigned long const   *gpl_crcs ;
   struct kernel_symbol  const  *unused_syms ;
   unsigned long const   *unused_crcs ;
   unsigned int num_unused_syms ;
   unsigned int num_unused_gpl_syms ;
   struct kernel_symbol  const  *unused_gpl_syms ;
   unsigned long const   *unused_gpl_crcs ;
   struct kernel_symbol  const  *gpl_future_syms ;
   unsigned long const   *gpl_future_crcs ;
   unsigned int num_gpl_future_syms ;
   unsigned int num_exentries ;
   struct exception_table_entry *extable ;
   int (*init)(void) ;
   void *module_init ;
   void *module_core ;
   unsigned int init_size ;
   unsigned int core_size ;
   unsigned int init_text_size ;
   unsigned int core_text_size ;
   struct mod_arch_specific arch ;
   unsigned int taints ;
   unsigned int num_bugs ;
   struct list_head bug_list ;
   struct bug_entry *bug_table ;
   Elf64_Sym *symtab ;
   Elf64_Sym *core_symtab ;
   unsigned int num_symtab ;
   unsigned int core_num_syms ;
   char *strtab ;
   char *core_strtab ;
   struct module_sect_attrs *sect_attrs ;
   struct module_notes_attrs *notes_attrs ;
   void *percpu ;
   unsigned int percpu_size ;
   char *args ;
   struct tracepoint *tracepoints ;
   unsigned int num_tracepoints ;
   char const   **trace_bprintk_fmt_start ;
   unsigned int num_trace_bprintk_fmt ;
   struct ftrace_event_call *trace_events ;
   unsigned int num_trace_events ;
   unsigned long *ftrace_callsites ;
   unsigned int num_ftrace_callsites ;
   struct list_head source_list ;
   struct list_head target_list ;
   struct task_struct *waiter ;
   void (*exit)(void) ;
   struct module_ref *refptr ;
   ctor_fn_t (**ctors)(void) ;
   unsigned int num_ctors ;
};
struct klist_node;
struct klist_node {
   void *n_klist ;
   struct list_head n_node ;
   struct kref n_ref ;
};
struct dma_map_ops;
struct dev_archdata {
   void *acpi_handle ;
   struct dma_map_ops *dma_ops ;
   void *iommu ;
};
struct device_private;
struct device_driver;
struct driver_private;
struct class;
struct class_private;
struct bus_type;
struct bus_type_private;
struct bus_attribute {
   struct attribute attr ;
   ssize_t (*show)(struct bus_type * , char * ) ;
   ssize_t (*store)(struct bus_type * , char const   * , size_t  ) ;
};
struct device_attribute;
struct driver_attribute;
struct bus_type {
   char const   *name ;
   struct bus_attribute *bus_attrs ;
   struct device_attribute *dev_attrs ;
   struct driver_attribute *drv_attrs ;
   int (*match)(struct device * , struct device_driver * ) ;
   int (*uevent)(struct device * , struct kobj_uevent_env * ) ;
   int (*probe)(struct device * ) ;
   int (*remove)(struct device * ) ;
   void (*shutdown)(struct device * ) ;
   int (*suspend)(struct device * , pm_message_t  ) ;
   int (*resume)(struct device * ) ;
   struct dev_pm_ops  const  *pm ;
   struct bus_type_private *p ;
};
struct device_driver {
   char const   *name ;
   struct bus_type *bus ;
   struct module *owner ;
   char const   *mod_name ;
   bool suppress_bind_attrs ;
   int (*probe)(struct device * ) ;
   int (*remove)(struct device * ) ;
   void (*shutdown)(struct device * ) ;
   int (*suspend)(struct device * , pm_message_t  ) ;
   int (*resume)(struct device * ) ;
   struct attribute_group  const  **groups ;
   struct dev_pm_ops  const  *pm ;
   struct driver_private *p ;
};
struct driver_attribute {
   struct attribute attr ;
   ssize_t (*show)(struct device_driver * , char * ) ;
   ssize_t (*store)(struct device_driver * , char const   * , size_t  ) ;
};
struct class_attribute;
struct class {
   char const   *name ;
   struct module *owner ;
   struct class_attribute *class_attrs ;
   struct device_attribute *dev_attrs ;
   struct kobject *dev_kobj ;
   int (*dev_uevent)(struct device * , struct kobj_uevent_env * ) ;
   char *(*devnode)(struct device * , mode_t * ) ;
   void (*class_release)(struct class * ) ;
   void (*dev_release)(struct device * ) ;
   int (*suspend)(struct device * , pm_message_t  ) ;
   int (*resume)(struct device * ) ;
   struct kobj_ns_type_operations  const  *ns_type ;
   void const   *(*namespace)(struct device * ) ;
   struct dev_pm_ops  const  *pm ;
   struct class_private *p ;
};
struct device_type;
struct class_attribute {
   struct attribute attr ;
   ssize_t (*show)(struct class * , struct class_attribute * , char * ) ;
   ssize_t (*store)(struct class * , struct class_attribute * , char const   * , size_t  ) ;
};
struct device_type {
   char const   *name ;
   struct attribute_group  const  **groups ;
   int (*uevent)(struct device * , struct kobj_uevent_env * ) ;
   char *(*devnode)(struct device * , mode_t * ) ;
   void (*release)(struct device * ) ;
   struct dev_pm_ops  const  *pm ;
};
struct device_attribute {
   struct attribute attr ;
   ssize_t (*show)(struct device * , struct device_attribute * , char * ) ;
   ssize_t (*store)(struct device * , struct device_attribute * , char const   * ,
                    size_t  ) ;
};
struct device_dma_parameters {
   unsigned int max_segment_size ;
   unsigned long segment_boundary_mask ;
};
struct dma_coherent_mem;
struct device {
   struct device *parent ;
   struct device_private *p ;
   struct kobject kobj ;
   char const   *init_name ;
   struct device_type *type ;
   struct mutex mutex ;
   struct bus_type *bus ;
   struct device_driver *driver ;
   void *platform_data ;
   struct dev_pm_info power ;
   int numa_node ;
   u64 *dma_mask ;
   u64 coherent_dma_mask ;
   struct device_dma_parameters *dma_parms ;
   struct list_head dma_pools ;
   struct dma_coherent_mem *dma_mem ;
   struct dev_archdata archdata ;
   dev_t devt ;
   spinlock_t devres_lock ;
   struct list_head devres_head ;
   struct klist_node knode_class ;
   struct class *class ;
   struct attribute_group  const  **groups ;
   void (*release)(struct device * ) ;
};
typedef unsigned long kernel_ulong_t;
struct spi_device_id {
   char name[32U] ;
   kernel_ulong_t driver_data ;
};
struct kmem_cache_cpu {
   void **freelist ;
   struct page *page ;
   int node ;
   unsigned int stat[18U] ;
};
struct kmem_cache_node {
   spinlock_t list_lock ;
   unsigned long nr_partial ;
   struct list_head partial ;
   atomic_long_t nr_slabs ;
   atomic_long_t total_objects ;
   struct list_head full ;
};
struct kmem_cache_order_objects {
   unsigned long x ;
};
struct kmem_cache {
   struct kmem_cache_cpu *cpu_slab ;
   unsigned long flags ;
   int size ;
   int objsize ;
   int offset ;
   struct kmem_cache_order_objects oo ;
   struct kmem_cache_order_objects max ;
   struct kmem_cache_order_objects min ;
   gfp_t allocflags ;
   int refcount ;
   void (*ctor)(void * ) ;
   int inuse ;
   int align ;
   unsigned long min_partial ;
   char const   *name ;
   struct list_head list ;
   struct kobject kobj ;
   int remote_node_defrag_ratio ;
   struct kmem_cache_node *node[1024U] ;
};
struct spi_master;
struct spi_device {
   struct device dev ;
   struct spi_master *master ;
   u32 max_speed_hz ;
   u8 chip_select ;
   u8 mode ;
   u8 bits_per_word ;
   int irq ;
   void *controller_state ;
   void *controller_data ;
   char modalias[32U] ;
};
struct spi_message;
struct spi_driver {
   struct spi_device_id  const  *id_table ;
   int (*probe)(struct spi_device * ) ;
   int (*remove)(struct spi_device * ) ;
   void (*shutdown)(struct spi_device * ) ;
   int (*suspend)(struct spi_device * , pm_message_t  ) ;
   int (*resume)(struct spi_device * ) ;
   struct device_driver driver ;
};
struct spi_master {
   struct device dev ;
   s16 bus_num ;
   u16 num_chipselect ;
   u16 dma_alignment ;
   u16 mode_bits ;
   u16 flags ;
   spinlock_t bus_lock_spinlock ;
   struct mutex bus_lock_mutex ;
   bool bus_lock_flag ;
   int (*setup)(struct spi_device * ) ;
   int (*transfer)(struct spi_device * , struct spi_message * ) ;
   void (*cleanup)(struct spi_device * ) ;
};
struct spi_transfer {
   void const   *tx_buf ;
   void *rx_buf ;
   unsigned int len ;
   dma_addr_t tx_dma ;
   dma_addr_t rx_dma ;
   unsigned char cs_change : 1 ;
   u8 bits_per_word ;
   u16 delay_usecs ;
   u32 speed_hz ;
   struct list_head transfer_list ;
};
struct spi_message {
   struct list_head transfers ;
   struct spi_device *spi ;
   unsigned char is_dma_mapped : 1 ;
   void (*complete)(void * ) ;
   void *context ;
   unsigned int actual_length ;
   int status ;
   struct list_head queue ;
   void *state ;
};
struct sensor_device_attribute {
   struct device_attribute dev_attr ;
   int index ;
};
struct ads7871_data {
   struct device *hwmon_dev ;
   struct mutex update_lock ;
};
long ldv__builtin_expect(long exp , long c ) ;
extern int sprintf(char * , char const   *  , ...) ;
extern void *memset(void * , int  , size_t  ) ;
 static int get_order(unsigned long size ) 
{ 
  int order ;

  {
  size = (size - 1UL) >> 11;
  order = -1;
  ldv_4365: 
  size = size >> 1;
  order = order + 1;
  if (size != 0UL) {
    goto ldv_4365;
  } else {

  }

  return (order);
}
}
 static long PTR_ERR(void const   *ptr ) 
{ 


  {
  return ((long )ptr);
}
}
 static long IS_ERR(void const   *ptr ) 
{ 
  long tmp ;

  {
  tmp = ldv__builtin_expect((unsigned long )ptr > 0xfffffffffffff000UL, 0L);
  return (tmp);
}
}
 static void INIT_LIST_HEAD(struct list_head *list ) 
{ 


  {
  list->next = list;
  list->prev = list;
  return;
}
}
extern void __list_add(struct list_head * , struct list_head * , struct list_head * ) ;
 static void list_add_tail(struct list_head *new , struct list_head *head ) 
{ 


  {
  __list_add(new, head->prev, head);
  return;
}
}
extern void lockdep_rcu_dereference(char const   * , int const    ) ;
extern unsigned long msleep_interruptible(unsigned int  ) ;
extern unsigned long __get_free_pages(gfp_t  , unsigned int  ) ;
extern int sysfs_create_group(struct kobject * , struct attribute_group  const  * ) ;
extern void sysfs_remove_group(struct kobject * , struct attribute_group  const  * ) ;
extern int debug_lockdep_rcu_enabled(void) ;
 static int rcu_read_lock_sched_held(void) 
{ 


  {
  return (1);
}
}
 static void rcu_read_lock_sched_notrace(void) 
{ 


  {
  return;
}
}
extern struct module __this_module ;
extern void driver_unregister(struct device_driver * ) ;
extern void *dev_get_drvdata(struct device  const  * ) ;
extern void dev_set_drvdata(struct device * , void * ) ;
extern int dev_printk(char const   * , struct device  const  * , char const   *  , ...) ;
extern void kfree(void const   * ) ;
 static void kmemleak_alloc(void const   *ptr , size_t size , int min_count ,
                                    gfp_t gfp ) 
{ 


  {
  return;
}
}
extern struct tracepoint __tracepoint_kmalloc ;
 static void trace_kmalloc(unsigned long call_site , void const   *ptr , size_t bytes_req ,
                                   size_t bytes_alloc , gfp_t gfp_flags ) 
{ 
  struct tracepoint_func *it_func_ptr ;
  void *it_func ;
  void *__data ;
  bool __warned ;
  int tmp ;
  int tmp___0 ;
  struct tracepoint_func *_________p1 ;
  long tmp___1 ;

  {
  tmp___1 = ldv__builtin_expect(__tracepoint_kmalloc.state != 0, 0L);
  if (tmp___1 != 0L) {
    rcu_read_lock_sched_notrace();
    tmp = debug_lockdep_rcu_enabled();
    if (tmp != 0 && ! __warned) {
      tmp___0 = rcu_read_lock_sched_held();
      if (tmp___0 == 0) {
        __warned = 1;
        lockdep_rcu_dereference("include/trace/events/kmem.h", 51);
      } else {

      }
    } else {

    }
    _________p1 = *((struct tracepoint_func * volatile  *)(& __tracepoint_kmalloc.funcs));
    it_func_ptr = _________p1;
    if ((unsigned long )it_func_ptr != (unsigned long )((struct tracepoint_func *)0)) {
      ldv_12711: 
      it_func = it_func_ptr->func;
      __data = it_func_ptr->data;
      (*((void (*)(void * , unsigned long  , void const   * , size_t  , size_t  ,
                   gfp_t  ))it_func))(__data, call_site, ptr, bytes_req, bytes_alloc,
                                      gfp_flags);
      it_func_ptr = it_func_ptr + 1;
      if ((unsigned long )it_func_ptr->func != (unsigned long )((void *)0)) {
        goto ldv_12711;
      } else {

      }

    } else {

    }
    rcu_read_lock_sched_notrace();
  } else {

  }
  return;
}
}
extern struct kmem_cache kmalloc_caches[28U] ;
 static int kmalloc_index(size_t size ) 
{ 


  {
  if (size == 0UL) {
    return (0);
  } else {

  }
  if (size <= 8UL) {
    return (3);
  } else {

  }
  if (size > 64UL && size <= 96UL) {
    return (1);
  } else {

  }
  if (size > 128UL && size <= 192UL) {
    return (2);
  } else {

  }
  if (size <= 8UL) {
    return (3);
  } else {

  }
  if (size <= 16UL) {
    return (4);
  } else {

  }
  if (size <= 32UL) {
    return (5);
  } else {

  }
  if (size <= 64UL) {
    return (6);
  } else {

  }
  if (size <= 128UL) {
    return (7);
  } else {

  }
  if (size <= 256UL) {
    return (8);
  } else {

  }
  if (size <= 512UL) {
    return (9);
  } else {

  }
  if (size <= 1024UL) {
    return (10);
  } else {

  }
  if (size <= 2048UL) {
    return (11);
  } else {

  }
  if (size <= 4096UL) {
    return (12);
  } else {

  }
  if (size <= 8192UL) {
    return (13);
  } else {

  }
  if (size <= 16384UL) {
    return (14);
  } else {

  }
  if (size <= 32768UL) {
    return (15);
  } else {

  }
  if (size <= 65536UL) {
    return (16);
  } else {

  }
  if (size <= 131072UL) {
    return (17);
  } else {

  }
  if (size <= 262144UL) {
    return (18);
  } else {

  }
  if (size <= 524288UL) {
    return (19);
  } else {

  }
  if (size <= 1048576UL) {
    return (20);
  } else {

  }
  if (size <= 2097152UL) {
    return (21);
  } else {

  }
  return (-1);
}
}
 static struct kmem_cache *kmalloc_slab(size_t size ) 
{ 
  int index ;
  int tmp ;

  {
  tmp = kmalloc_index(size);
  index = tmp;
  if (index == 0) {
    return (0);
  } else {

  }
  return ((struct kmem_cache *)(& kmalloc_caches) + (unsigned long )index);
}
}
extern void *__kmalloc(size_t  , gfp_t  ) ;
extern void *kmem_cache_alloc_notrace(struct kmem_cache * , gfp_t  ) ;
 static void *kmalloc_large(size_t size , gfp_t flags ) 
{ 
  unsigned int order ;
  int tmp ;
  void *ret ;
  unsigned long tmp___0 ;

  {
  tmp = get_order(size);
  order = (unsigned int )tmp;
  tmp___0 = __get_free_pages(flags | 16384U, order);
  ret = (void *)tmp___0;
  kmemleak_alloc((void const   *)ret, size, 1, flags);
  trace_kmalloc((unsigned long )((void *)0), (void const   *)ret, size, 4096UL << (int )order,
                flags);
  return (ret);
}
}
 static void *kmalloc(size_t size , gfp_t flags ) 
{ 
  void *ret ;
  void *tmp ;
  struct kmem_cache *s ;
  struct kmem_cache *tmp___0 ;
  void *tmp___1 ;

  {
  if (0) {
    if (size > 8192UL) {
      tmp = kmalloc_large(size, flags);
      return (tmp);
    } else {

    }
    if ((flags & 1U) == 0U) {
      tmp___0 = kmalloc_slab(size);
      s = tmp___0;
      if ((unsigned long )s == (unsigned long )((struct kmem_cache *)0)) {
        return (16);
      } else {

      }
      ret = kmem_cache_alloc_notrace(s, flags);
      trace_kmalloc((unsigned long )((void *)0), (void const   *)ret, size, (size_t )s->size,
                    flags);
      return (ret);
    } else {

    }
  } else {

  }
  tmp___1 = __kmalloc(size, flags);
  return (tmp___1);
}
}
 static void *kzalloc(size_t size , gfp_t flags ) 
{ 
  void *tmp ;

  {
  tmp = kmalloc(size, flags | 32768U);
  return (tmp);
}
}
extern struct bus_type spi_bus_type ;
 static struct spi_device *to_spi_device(struct device *dev ) 
{ 
  struct device  const  *__mptr ;
  struct spi_device *tmp ;

  {
  if ((unsigned long )dev != (unsigned long )((struct device *)0)) {
    __mptr = (struct device  const  *)dev;
    tmp = (struct spi_device *)__mptr;
  } else {
    tmp = 0;
  }
  return (tmp);
}
}
 static void spi_set_drvdata(struct spi_device *spi , void *data ) 
{ 


  {
  dev_set_drvdata(& spi->dev, data);
  return;
}
}
 static void *spi_get_drvdata(struct spi_device *spi ) 
{ 
  void *tmp ;

  {
  tmp = dev_get_drvdata((struct device  const  *)(& spi->dev));
  return (tmp);
}
}
extern int spi_register_driver(struct spi_driver * ) ;
 static void spi_unregister_driver(struct spi_driver *sdrv ) 
{ 


  {
  if ((unsigned long )sdrv != (unsigned long )((struct spi_driver *)0)) {
    driver_unregister(& sdrv->driver);
  } else {

  }
  return;
}
}
 static void spi_message_init(struct spi_message *m ) 
{ 


  {
  memset((void *)m, 0, 80UL);
  INIT_LIST_HEAD(& m->transfers);
  return;
}
}
 static void spi_message_add_tail(struct spi_transfer *t , struct spi_message *m ) 
{ 


  {
  list_add_tail(& t->transfer_list, & m->transfers);
  return;
}
}
extern int spi_setup(struct spi_device * ) ;
extern int spi_sync(struct spi_device * , struct spi_message * ) ;
 static int spi_write(struct spi_device *spi , u8 const   *buf , size_t len ) 
{ 
  struct spi_transfer t ;
  struct spi_message m ;
  int tmp ;

  {
  t.tx_buf = (void const   *)buf;
  t.rx_buf = 0;
  t.len = (unsigned int )len;
  t.tx_dma = 0ULL;
  t.rx_dma = 0ULL;
  t.cs_change = (unsigned char)0;
  t.bits_per_word = (unsigned char)0;
  t.delay_usecs = (unsigned short)0;
  t.speed_hz = 0U;
  t.transfer_list.next = 0;
  t.transfer_list.prev = 0;
  spi_message_init(& m);
  spi_message_add_tail(& t, & m);
  tmp = spi_sync(spi, & m);
  return (tmp);
}
}
extern int spi_write_then_read(struct spi_device * , u8 const   * , unsigned int  ,
                               u8 * , unsigned int  ) ;
 static ssize_t spi_w8r8(struct spi_device *spi , u8 cmd ) 
{ 
  ssize_t status ;
  u8 result ;
  int tmp ;

  {
  tmp = spi_write_then_read(spi, (u8 const   *)(& cmd), 1U, & result, 1U);
  status = (ssize_t )tmp;
  return (status >= 0L ? (ssize_t )result : status);
}
}
 static ssize_t spi_w8r16(struct spi_device *spi , u8 cmd ) 
{ 
  ssize_t status ;
  u16 result ;
  int tmp ;

  {
  tmp = spi_write_then_read(spi, (u8 const   *)(& cmd), 1U, (u8 *)(& result), 2U);
  status = (ssize_t )tmp;
  return (status >= 0L ? (ssize_t )result : status);
}
}
extern struct device *hwmon_device_register(struct device * ) ;
extern void hwmon_device_unregister(struct device * ) ;
static int ads7871_read_reg8(struct spi_device *spi , int reg ) 
{ 
  int ret ;
  ssize_t tmp ;

  {
  reg = reg | 64;
  tmp = spi_w8r8(spi, (int )((u8 )reg));
  ret = (int )tmp;
  return (ret);
}
}
static int ads7871_read_reg16(struct spi_device *spi , int reg ) 
{ 
  int ret ;
  ssize_t tmp ;

  {
  reg = reg | 96;
  tmp = spi_w8r16(spi, (int )((u8 )reg));
  ret = (int )tmp;
  return (ret);
}
}
static int ads7871_write_reg8(struct spi_device *spi , int reg , u8 val ) 
{ 
  u8 tmp[2U] ;
  int tmp___0 ;

  {
  tmp[0] = (unsigned char )reg;
  tmp[1] = val;
  tmp___0 = spi_write(spi, (u8 const   *)(& tmp), 2UL);
  return (tmp___0);
}
}
static ssize_t show_voltage(struct device *dev , struct device_attribute *da , char *buf ) 
{ 
  struct spi_device *spi ;
  struct spi_device *tmp ;
  struct sensor_device_attribute *attr ;
  struct device_attribute  const  *__mptr ;
  int ret ;
  int val ;
  int i ;
  uint8_t channel ;
  uint8_t mux_cnv ;
  int tmp___0 ;

  {
  tmp = to_spi_device(dev);
  spi = tmp;
  __mptr = (struct device_attribute  const  *)da;
  attr = (struct sensor_device_attribute *)__mptr;
  i = 0;
  channel = (uint8_t )attr->index;
  ads7871_write_reg8(spi, 4, (int )((unsigned int )channel | 136U));
  ret = ads7871_read_reg8(spi, 4);
  mux_cnv = (uint8_t )((ret & 128) >> 7);
  goto ldv_13645;
  ldv_13644: 
  i = i + 1;
  ret = ads7871_read_reg8(spi, 4);
  mux_cnv = (uint8_t )((ret & 128) >> 7);
  msleep_interruptible(1U);
  ldv_13645: ;
  if (i <= 1 && (unsigned int )mux_cnv != 0U) {
    goto ldv_13644;
  } else {

  }

  if ((unsigned int )mux_cnv == 0U) {
    val = ads7871_read_reg16(spi, 0);
    val = ((val >> 2) * 25000) / 8192;
    tmp___0 = sprintf(buf, "%d\n", val);
    return ((ssize_t )tmp___0);
  } else {
    return (-1L);
  }
}
}
static struct sensor_device_attribute sensor_dev_attr_in0_input  =    {{{"in0_input", 292U, 0, {{{(char)0}, {(char)0}, {(char)0}, {(char)0}, {(char)0},
                              {(char)0}, {(char)0}, {(char)0}}}}, & show_voltage,
     0}, 0};
static struct sensor_device_attribute sensor_dev_attr_in1_input  =    {{{"in1_input", 292U, 0, {{{(char)0}, {(char)0}, {(char)0}, {(char)0}, {(char)0},
                              {(char)0}, {(char)0}, {(char)0}}}}, & show_voltage,
     0}, 1};
static struct sensor_device_attribute sensor_dev_attr_in2_input  =    {{{"in2_input", 292U, 0, {{{(char)0}, {(char)0}, {(char)0}, {(char)0}, {(char)0},
                              {(char)0}, {(char)0}, {(char)0}}}}, & show_voltage,
     0}, 2};
static struct sensor_device_attribute sensor_dev_attr_in3_input  =    {{{"in3_input", 292U, 0, {{{(char)0}, {(char)0}, {(char)0}, {(char)0}, {(char)0},
                              {(char)0}, {(char)0}, {(char)0}}}}, & show_voltage,
     0}, 3};
static struct sensor_device_attribute sensor_dev_attr_in4_input  =    {{{"in4_input", 292U, 0, {{{(char)0}, {(char)0}, {(char)0}, {(char)0}, {(char)0},
                              {(char)0}, {(char)0}, {(char)0}}}}, & show_voltage,
     0}, 4};
static struct sensor_device_attribute sensor_dev_attr_in5_input  =    {{{"in5_input", 292U, 0, {{{(char)0}, {(char)0}, {(char)0}, {(char)0}, {(char)0},
                              {(char)0}, {(char)0}, {(char)0}}}}, & show_voltage,
     0}, 5};
static struct sensor_device_attribute sensor_dev_attr_in6_input  =    {{{"in6_input", 292U, 0, {{{(char)0}, {(char)0}, {(char)0}, {(char)0}, {(char)0},
                              {(char)0}, {(char)0}, {(char)0}}}}, & show_voltage,
     0}, 6};
static struct sensor_device_attribute sensor_dev_attr_in7_input  =    {{{"in7_input", 292U, 0, {{{(char)0}, {(char)0}, {(char)0}, {(char)0}, {(char)0},
                              {(char)0}, {(char)0}, {(char)0}}}}, & show_voltage,
     0}, 7};
static struct attribute *ads7871_attributes[9U]  = 
  {      & sensor_dev_attr_in0_input.dev_attr.attr,      & sensor_dev_attr_in1_input.dev_attr.attr,      & sensor_dev_attr_in2_input.dev_attr.attr,      & sensor_dev_attr_in3_input.dev_attr.attr, 
        & sensor_dev_attr_in4_input.dev_attr.attr,      & sensor_dev_attr_in5_input.dev_attr.attr,      & sensor_dev_attr_in6_input.dev_attr.attr,      & sensor_dev_attr_in7_input.dev_attr.attr, 
        0};
static struct attribute_group  const  ads7871_group  =    {0, 0, (struct attribute **)(& ads7871_attributes)};
static int ads7871_probe(struct spi_device *spi ) 
{ 
  int ret ;
  int err ;
  uint8_t val ;
  struct ads7871_data *pdata ;
  void *tmp ;
  long tmp___0 ;
  long tmp___1 ;

  {
  dev_printk("<7>", (struct device  const  *)(& spi->dev), "probe\n");
  spi->mode = 0U;
  spi->bits_per_word = 8U;
  spi_setup(spi);
  ads7871_write_reg8(spi, 24, 0);
  ads7871_write_reg8(spi, 3, 0);
  val = 60U;
  ads7871_write_reg8(spi, 7, (int )val);
  ret = ads7871_read_reg8(spi, 7);
  dev_printk("<7>", (struct device  const  *)(& spi->dev), "REG_OSC_CONTROL write:%x, read:%x\n",
             (int )val, ret);
  if ((int )val != ret) {
    err = -19;
    goto exit;
  } else {

  }
  tmp = kzalloc(160UL, 208U);
  pdata = (struct ads7871_data *)tmp;
  if ((unsigned long )pdata == (unsigned long )((struct ads7871_data *)0)) {
    err = -12;
    goto exit;
  } else {

  }
  err = sysfs_create_group(& spi->dev.kobj, & ads7871_group);
  if (err < 0) {
    goto error_free;
  } else {

  }
  spi_set_drvdata(spi, (void *)pdata);
  pdata->hwmon_dev = hwmon_device_register(& spi->dev);
  tmp___1 = IS_ERR((void const   *)pdata->hwmon_dev);
  if (tmp___1 != 0L) {
    tmp___0 = PTR_ERR((void const   *)pdata->hwmon_dev);
    err = (int )tmp___0;
    goto error_remove;
  } else {

  }
  return (0);
  error_remove: 
  sysfs_remove_group(& spi->dev.kobj, & ads7871_group);
  error_free: 
  kfree((void const   *)pdata);
  exit: ;
  return (err);
}
}
static int ads7871_remove(struct spi_device *spi ) 
{ 
  struct ads7871_data *pdata ;
  void *tmp ;

  {
  tmp = spi_get_drvdata(spi);
  pdata = (struct ads7871_data *)tmp;
  hwmon_device_unregister(pdata->hwmon_dev);
  sysfs_remove_group(& spi->dev.kobj, & ads7871_group);
  kfree((void const   *)pdata);
  return (0);
}
}
static struct spi_driver ads7871_driver  =    {0, & ads7871_probe, & ads7871_remove, 0, 0, 0, {"ads7871", & spi_bus_type, & __this_module,
                                                    0, (_Bool)0, 0, 0, 0, 0, 0, 0,
                                                    0, 0}};
static int ads7871_init(void) 
{ 
  int tmp ;

  {
  tmp = spi_register_driver(& ads7871_driver);
  return (tmp);
}
}
static void ads7871_exit(void) 
{ 


  {
  spi_unregister_driver(& ads7871_driver);
  return;
}
}
void ldv_check_final_state(void) ;
extern void ldv_check_return_value(int  ) ;
extern void ldv_check_return_value_probe(int  ) ;
extern void ldv_initialize(void) ;
extern void ldv_handler_precall(void) ;
extern int nondet_int(void) ;
int LDV_IN_INTERRUPT  ;
int main(void) 
{ 
  struct spi_device *var_group1 ;
  int res_ads7871_probe_4 ;
  int ldv_s_ads7871_driver_spi_driver ;
  int tmp ;
  int tmp___0 ;
  int tmp___1 ;

  {
  ldv_s_ads7871_driver_spi_driver = 0;
  LDV_IN_INTERRUPT = 1;
  ldv_initialize();
  ldv_handler_precall();
  tmp = ads7871_init();
  if (tmp != 0) {
    goto ldv_final;
  } else {

  }
  goto ldv_13717;
  ldv_13716: 
  tmp___0 = nondet_int();
  switch (tmp___0) {
  case 0: ;
  if (ldv_s_ads7871_driver_spi_driver == 0) {
    res_ads7871_probe_4 = ads7871_probe(var_group1);
    ldv_check_return_value(res_ads7871_probe_4);
    ldv_check_return_value_probe(res_ads7871_probe_4);
    if (res_ads7871_probe_4 != 0) {
      goto ldv_module_exit;
    } else {

    }
    ldv_s_ads7871_driver_spi_driver = ldv_s_ads7871_driver_spi_driver + 1;
  } else {

  }
  goto ldv_13713;
  case 1: ;
  if (ldv_s_ads7871_driver_spi_driver == 1) {
    ldv_handler_precall();
    ads7871_remove(var_group1);
    ldv_s_ads7871_driver_spi_driver = 0;
  } else {

  }
  goto ldv_13713;
  default: ;
  goto ldv_13713;
  }
  ldv_13713: ;
  ldv_13717: 
  tmp___1 = nondet_int();
  if (tmp___1 != 0 || ldv_s_ads7871_driver_spi_driver != 0) {
    goto ldv_13716;
  } else {

  }

  ldv_module_exit: 
  ldv_handler_precall();
  ads7871_exit();
  ldv_final: 
  ldv_check_final_state();
  return 0;
}
}
 static void ldv_error(void) 
{ 


  {
  LDV_ERROR: {reach_error();abort();}
}
}
extern int ldv_undef_int(void) ;
long ldv__builtin_expect(long exp , long c ) 
{ 


  {
  return (exp);
}
}
int ldv_module_refcounter  =    1;
void ldv_module_get(struct module *module ) 
{ 


  {
  if (module) {
    ldv_module_refcounter = ldv_module_refcounter + 1;
  } else {

  }
  return;
}
}
int ldv_try_module_get(struct module *module ) 
{ 
  int module_get_succeeded ;

  {
  if (module) {
    module_get_succeeded = ldv_undef_int();
    if (module_get_succeeded == 1) {
      ldv_module_refcounter = ldv_module_refcounter + 1;
      return (1);
    } else {
      return (0);
    }
  } else {

  }
  return (0);
}
}
void ldv_module_put(struct module *module ) 
{ 


  {
  if (module) {
    if (ldv_module_refcounter > 1) {

    } else {
      ldv_error();
    }
    ldv_module_refcounter = ldv_module_refcounter - 1;
  } else {

  }
  return;
}
}
void ldv_module_put_and_exit(void) 
{ 


  {
  ldv_module_put((struct module *)1);
  LDV_STOP: 
  goto LDV_STOP;
}
}
unsigned int ldv_module_refcount(void) 
{ 


  {
  return (ldv_module_refcounter - 1);
}
}
void ldv_check_final_state(void) 
{ 


  {
  if (ldv_module_refcounter == 1) {

  } else {
    ldv_error();
  }
  return;
}
}
