extern void abort(void);
extern void __assert_fail(const char *, const char *, unsigned int, const char *) __attribute__ ((__nothrow__ , __leaf__)) __attribute__ ((__noreturn__));
void reach_error() { __assert_fail("0", "drivers--input--joystick--magellan.ko_009.d1659fc.32_7a.cil_true-unreach-call.i", 3, "reach_error"); }

/* Generated by CIL v. 1.5.1 */
/* print_CIL_Input is false */

typedef __builtin_va_list __gnuc_va_list[1U];
typedef __gnuc_va_list va_list[1U];
typedef unsigned int __kernel_mode_t;
typedef int __kernel_pid_t;
typedef unsigned int __kernel_uid_t;
typedef unsigned int __kernel_gid_t;
typedef unsigned long __kernel_size_t;
typedef long __kernel_ssize_t;
typedef long __kernel_time_t;
typedef long __kernel_clock_t;
typedef int __kernel_timer_t;
typedef int __kernel_clockid_t;
typedef long long __kernel_loff_t;
typedef __kernel_uid_t __kernel_uid32_t;
typedef __kernel_gid_t __kernel_gid32_t;
typedef signed char __s8;
typedef unsigned char __u8;
typedef short __s16;
typedef unsigned short __u16;
typedef int __s32;
typedef unsigned int __u32;
typedef long long __s64;
typedef unsigned long long __u64;
typedef signed char s8;
typedef unsigned char u8;
typedef unsigned short u16;
typedef unsigned int u32;
typedef long long s64;
typedef unsigned long long u64;
typedef unsigned short umode_t;
typedef __u32 __kernel_dev_t;
typedef __kernel_dev_t dev_t;
typedef __kernel_mode_t mode_t;
typedef __kernel_pid_t pid_t;
typedef __kernel_timer_t timer_t;
typedef __kernel_clockid_t clockid_t;
typedef _Bool bool;
typedef __kernel_uid32_t uid_t;
typedef __kernel_gid32_t gid_t;
typedef __kernel_loff_t loff_t;
typedef __kernel_size_t size_t;
typedef __kernel_ssize_t ssize_t;
typedef __kernel_time_t time_t;
typedef __kernel_clock_t clock_t;
typedef unsigned long sector_t;
typedef unsigned long blkcnt_t;
typedef unsigned int gfp_t;
struct module;
struct bug_entry {
   unsigned long bug_addr ;
   char const   *file ;
   unsigned short line ;
   unsigned short flags ;
};
struct completion;
struct pt_regs;
struct pid;
struct task_struct;
struct mm_struct;
struct pt_regs {
   unsigned long r15 ;
   unsigned long r14 ;
   unsigned long r13 ;
   unsigned long r12 ;
   unsigned long bp ;
   unsigned long bx ;
   unsigned long r11 ;
   unsigned long r10 ;
   unsigned long r9 ;
   unsigned long r8 ;
   unsigned long ax ;
   unsigned long cx ;
   unsigned long dx ;
   unsigned long si ;
   unsigned long di ;
   unsigned long orig_ax ;
   unsigned long ip ;
   unsigned long cs ;
   unsigned long flags ;
   unsigned long sp ;
   unsigned long ss ;
};
struct info {
   long ___orig_eip ;
   long ___ebx ;
   long ___ecx ;
   long ___edx ;
   long ___esi ;
   long ___edi ;
   long ___ebp ;
   long ___eax ;
   long ___ds ;
   long ___es ;
   long ___fs ;
   long ___orig_eax ;
   long ___eip ;
   long ___cs ;
   long ___eflags ;
   long ___esp ;
   long ___ss ;
   long ___vm86_es ;
   long ___vm86_ds ;
   long ___vm86_fs ;
   long ___vm86_gs ;
};
typedef unsigned long pgdval_t;
typedef unsigned long pgprotval_t;
struct page;
struct __anonstruct_pgd_t_6 {
   pgdval_t pgd ;
};
typedef struct __anonstruct_pgd_t_6 pgd_t;
struct __anonstruct_pgprot_t_7 {
   pgprotval_t pgprot ;
};
typedef struct __anonstruct_pgprot_t_7 pgprot_t;
struct __anonstruct_ldv_1871_11 {
   unsigned int a ;
   unsigned int b ;
};
struct __anonstruct_ldv_1886_12 {
   u16 limit0 ;
   u16 base0 ;
   unsigned char base1 ;
   unsigned char type : 4 ;
   unsigned char s : 1 ;
   unsigned char dpl : 2 ;
   unsigned char p : 1 ;
   unsigned char limit : 4 ;
   unsigned char avl : 1 ;
   unsigned char l : 1 ;
   unsigned char d : 1 ;
   unsigned char g : 1 ;
   unsigned char base2 ;
};
union __anonunion_ldv_1887_10 {
   struct __anonstruct_ldv_1871_11 ldv_1871 ;
   struct __anonstruct_ldv_1886_12 ldv_1886 ;
};
struct desc_struct {
   union __anonunion_ldv_1887_10 ldv_1887 ;
};
struct __anonstruct_cpumask_t_13 {
   unsigned long bits[1U] ;
};
typedef struct __anonstruct_cpumask_t_13 cpumask_t;
struct thread_struct;
struct exec_domain;
struct map_segment;
struct exec_domain {
   char const   *name ;
   void (*handler)(int  , struct pt_regs * ) ;
   unsigned char pers_low ;
   unsigned char pers_high ;
   unsigned long *signal_map ;
   unsigned long *signal_invmap ;
   struct map_segment *err_map ;
   struct map_segment *socktype_map ;
   struct map_segment *sockopt_map ;
   struct map_segment *af_map ;
   struct module *module ;
   struct exec_domain *next ;
};
struct i387_fsave_struct {
   u32 cwd ;
   u32 swd ;
   u32 twd ;
   u32 fip ;
   u32 fcs ;
   u32 foo ;
   u32 fos ;
   u32 st_space[20U] ;
   u32 status ;
};
struct __anonstruct_ldv_4005_15 {
   u64 rip ;
   u64 rdp ;
};
struct __anonstruct_ldv_4011_16 {
   u32 fip ;
   u32 fcs ;
   u32 foo ;
   u32 fos ;
};
union __anonunion_ldv_4012_14 {
   struct __anonstruct_ldv_4005_15 ldv_4005 ;
   struct __anonstruct_ldv_4011_16 ldv_4011 ;
};
struct i387_fxsave_struct {
   u16 cwd ;
   u16 swd ;
   u16 twd ;
   u16 fop ;
   union __anonunion_ldv_4012_14 ldv_4012 ;
   u32 mxcsr ;
   u32 mxcsr_mask ;
   u32 st_space[32U] ;
   u32 xmm_space[64U] ;
   u32 padding[24U] ;
};
struct i387_soft_struct {
   u32 cwd ;
   u32 swd ;
   u32 twd ;
   u32 fip ;
   u32 fcs ;
   u32 foo ;
   u32 fos ;
   u32 st_space[20U] ;
   u8 ftop ;
   u8 changed ;
   u8 lookahead ;
   u8 no_update ;
   u8 rm ;
   u8 alimit ;
   struct info *info ;
   u32 entry_eip ;
};
union thread_xstate {
   struct i387_fsave_struct fsave ;
   struct i387_fxsave_struct fxsave ;
   struct i387_soft_struct soft ;
};
struct kmem_cache;
struct thread_struct {
   struct desc_struct tls_array[3U] ;
   unsigned long sp0 ;
   unsigned long sp ;
   unsigned long usersp ;
   unsigned short es ;
   unsigned short ds ;
   unsigned short fsindex ;
   unsigned short gsindex ;
   unsigned long ip ;
   unsigned long fs ;
   unsigned long gs ;
   unsigned long debugreg0 ;
   unsigned long debugreg1 ;
   unsigned long debugreg2 ;
   unsigned long debugreg3 ;
   unsigned long debugreg6 ;
   unsigned long debugreg7 ;
   unsigned long cr2 ;
   unsigned long trap_no ;
   unsigned long error_code ;
   union thread_xstate *xstate ;
   unsigned long *io_bitmap_ptr ;
   unsigned long iopl ;
   unsigned int io_bitmap_max ;
   unsigned long debugctlmsr ;
   unsigned long ds_area_msr ;
};
struct __anonstruct_mm_segment_t_17 {
   unsigned long seg ;
};
typedef struct __anonstruct_mm_segment_t_17 mm_segment_t;
struct list_head {
   struct list_head *next ;
   struct list_head *prev ;
};
struct hlist_node;
struct hlist_head {
   struct hlist_node *first ;
};
struct hlist_node {
   struct hlist_node *next ;
   struct hlist_node **pprev ;
};
struct __anonstruct_raw_spinlock_t_18 {
   unsigned int slock ;
};
typedef struct __anonstruct_raw_spinlock_t_18 raw_spinlock_t;
struct __anonstruct_raw_rwlock_t_19 {
   unsigned int lock ;
};
typedef struct __anonstruct_raw_rwlock_t_19 raw_rwlock_t;
struct lockdep_map;
struct stack_trace {
   unsigned int nr_entries ;
   unsigned int max_entries ;
   unsigned long *entries ;
   int skip ;
};
struct lockdep_subclass_key {
   char __one_byte ;
} __attribute__((__packed__)) ;
struct lock_class_key {
   struct lockdep_subclass_key subkeys[8U] ;
};
struct lock_class {
   struct list_head hash_entry ;
   struct list_head lock_entry ;
   struct lockdep_subclass_key *key ;
   unsigned int subclass ;
   unsigned long usage_mask ;
   struct stack_trace usage_traces[9U] ;
   struct list_head locks_after ;
   struct list_head locks_before ;
   unsigned int version ;
   unsigned long ops ;
   char const   *name ;
   int name_version ;
   unsigned long contention_point[4U] ;
};
struct lockdep_map {
   struct lock_class_key *key ;
   struct lock_class *class_cache ;
   char const   *name ;
   int cpu ;
};
struct held_lock {
   u64 prev_chain_key ;
   struct lock_class *class ;
   unsigned long acquire_ip ;
   struct lockdep_map *instance ;
   u64 waittime_stamp ;
   u64 holdtime_stamp ;
   int irq_context ;
   int trylock ;
   int read ;
   int check ;
   int hardirqs_off ;
};
struct __anonstruct_spinlock_t_20 {
   raw_spinlock_t raw_lock ;
   unsigned int magic ;
   unsigned int owner_cpu ;
   void *owner ;
   struct lockdep_map dep_map ;
};
typedef struct __anonstruct_spinlock_t_20 spinlock_t;
struct __anonstruct_rwlock_t_21 {
   raw_rwlock_t raw_lock ;
   unsigned int magic ;
   unsigned int owner_cpu ;
   void *owner ;
   struct lockdep_map dep_map ;
};
typedef struct __anonstruct_rwlock_t_21 rwlock_t;
struct __anonstruct_atomic_t_22 {
   int counter ;
};
typedef struct __anonstruct_atomic_t_22 atomic_t;
struct __anonstruct_atomic64_t_23 {
   long counter ;
};
typedef struct __anonstruct_atomic64_t_23 atomic64_t;
typedef atomic64_t atomic_long_t;
struct thread_info;
struct mutex {
   atomic_t count ;
   spinlock_t wait_lock ;
   struct list_head wait_list ;
   struct thread_info *owner ;
   char const   *name ;
   void *magic ;
   struct lockdep_map dep_map ;
};
struct mutex_waiter {
   struct list_head list ;
   struct task_struct *task ;
   struct mutex *lock ;
   void *magic ;
};
struct timespec;
struct compat_timespec;
struct __anonstruct_ldv_4900_25 {
   unsigned long arg0 ;
   unsigned long arg1 ;
   unsigned long arg2 ;
   unsigned long arg3 ;
};
struct __anonstruct_futex_26 {
   u32 *uaddr ;
   u32 val ;
   u32 flags ;
   u32 bitset ;
   u64 time ;
};
struct __anonstruct_nanosleep_27 {
   clockid_t index ;
   struct timespec *rmtp ;
   struct compat_timespec *compat_rmtp ;
   u64 expires ;
};
union __anonunion_ldv_4914_24 {
   struct __anonstruct_ldv_4900_25 ldv_4900 ;
   struct __anonstruct_futex_26 futex ;
   struct __anonstruct_nanosleep_27 nanosleep ;
};
struct restart_block {
   long (*fn)(struct restart_block * ) ;
   union __anonunion_ldv_4914_24 ldv_4914 ;
};
struct thread_info {
   struct task_struct *task ;
   struct exec_domain *exec_domain ;
   __u32 flags ;
   __u32 status ;
   __u32 cpu ;
   int preempt_count ;
   mm_segment_t addr_limit ;
   struct restart_block restart_block ;
   void *sysenter_return ;
};
struct timespec {
   time_t tv_sec ;
   long tv_nsec ;
};
struct kstat {
   u64 ino ;
   dev_t dev ;
   umode_t mode ;
   unsigned int nlink ;
   uid_t uid ;
   gid_t gid ;
   dev_t rdev ;
   loff_t size ;
   struct timespec atime ;
   struct timespec mtime ;
   struct timespec ctime ;
   unsigned long blksize ;
   unsigned long long blocks ;
};
struct key;
struct file;
typedef __u64 Elf64_Addr;
typedef __u16 Elf64_Half;
typedef __u32 Elf64_Word;
typedef __u64 Elf64_Xword;
struct elf64_sym {
   Elf64_Word st_name ;
   unsigned char st_info ;
   unsigned char st_other ;
   Elf64_Half st_shndx ;
   Elf64_Addr st_value ;
   Elf64_Xword st_size ;
};
typedef struct elf64_sym Elf64_Sym;
struct kobject;
struct attribute {
   char const   *name ;
   struct module *owner ;
   mode_t mode ;
};
struct attribute_group {
   char const   *name ;
   mode_t (*is_visible)(struct kobject * , struct attribute * , int  ) ;
   struct attribute **attrs ;
};
struct vm_area_struct;
struct sysfs_ops {
   ssize_t (*show)(struct kobject * , struct attribute * , char * ) ;
   ssize_t (*store)(struct kobject * , struct attribute * , char const   * , size_t  ) ;
};
struct kref {
   atomic_t refcount ;
};
struct __wait_queue;
typedef struct __wait_queue wait_queue_t;
struct __wait_queue {
   unsigned int flags ;
   void *private ;
   int (*func)(wait_queue_t * , unsigned int  , int  , void * ) ;
   struct list_head task_list ;
};
struct __wait_queue_head {
   spinlock_t lock ;
   struct list_head task_list ;
};
typedef struct __wait_queue_head wait_queue_head_t;
struct kset;
struct kobj_type;
struct sysfs_dirent;
struct kobject {
   char const   *name ;
   struct kref kref ;
   struct list_head entry ;
   struct kobject *parent ;
   struct kset *kset ;
   struct kobj_type *ktype ;
   struct sysfs_dirent *sd ;
   unsigned char state_initialized : 1 ;
   unsigned char state_in_sysfs : 1 ;
   unsigned char state_add_uevent_sent : 1 ;
   unsigned char state_remove_uevent_sent : 1 ;
};
struct kobj_type {
   void (*release)(struct kobject * ) ;
   struct sysfs_ops *sysfs_ops ;
   struct attribute **default_attrs ;
};
struct kobj_uevent_env {
   char *envp[32U] ;
   int envp_idx ;
   char buf[2048U] ;
   int buflen ;
};
struct kset_uevent_ops {
   int (*filter)(struct kset * , struct kobject * ) ;
   char const   *(*name)(struct kset * , struct kobject * ) ;
   int (*uevent)(struct kset * , struct kobject * , struct kobj_uevent_env * ) ;
};
struct kset {
   struct list_head list ;
   spinlock_t list_lock ;
   struct kobject kobj ;
   struct kset_uevent_ops *uevent_ops ;
};
struct marker;
typedef void marker_probe_func(void * , void * , char const   * , va_list * );
struct marker_probe_closure {
   marker_probe_func *func ;
   void *probe_private ;
};
struct marker {
   char const   *name ;
   char const   *format ;
   char state ;
   char ptype ;
   void (*call)(struct marker  const  * , void * , char const   *  , ...) ;
   struct marker_probe_closure single ;
   struct marker_probe_closure *multi ;
};
struct __anonstruct_nodemask_t_34 {
   unsigned long bits[1U] ;
};
typedef struct __anonstruct_nodemask_t_34 nodemask_t;
struct rw_semaphore;
struct rw_semaphore {
   __s32 activity ;
   spinlock_t wait_lock ;
   struct list_head wait_list ;
   struct lockdep_map dep_map ;
};
struct device;
struct pm_message {
   int event ;
};
typedef struct pm_message pm_message_t;
struct dev_pm_info {
   pm_message_t power_state ;
   unsigned char can_wakeup : 1 ;
   unsigned char should_wakeup : 1 ;
   bool sleeping ;
   struct list_head entry ;
};
union ktime {
   s64 tv64 ;
};
typedef union ktime ktime_t;
struct tvec_base;
struct timer_list {
   struct list_head entry ;
   unsigned long expires ;
   void (*function)(unsigned long  ) ;
   unsigned long data ;
   struct tvec_base *base ;
   void *start_site ;
   char start_comm[16U] ;
   int start_pid ;
};
struct hrtimer;
enum hrtimer_restart;
struct work_struct;
struct work_struct {
   atomic_long_t data ;
   struct list_head entry ;
   void (*func)(struct work_struct * ) ;
   struct lockdep_map lockdep_map ;
};
struct delayed_work {
   struct work_struct work ;
   struct timer_list timer ;
};
struct kmem_cache_cpu {
   void **freelist ;
   struct page *page ;
   int node ;
   unsigned int offset ;
   unsigned int objsize ;
   unsigned int stat[18U] ;
};
struct kmem_cache_node {
   spinlock_t list_lock ;
   unsigned long nr_partial ;
   struct list_head partial ;
   atomic_long_t nr_slabs ;
   atomic_long_t total_objects ;
   struct list_head full ;
};
struct kmem_cache_order_objects {
   unsigned long x ;
};
struct kmem_cache {
   unsigned long flags ;
   int size ;
   int objsize ;
   int offset ;
   struct kmem_cache_order_objects oo ;
   struct kmem_cache_node local_node ;
   struct kmem_cache_order_objects max ;
   struct kmem_cache_order_objects min ;
   gfp_t allocflags ;
   int refcount ;
   void (*ctor)(struct kmem_cache * , void * ) ;
   int inuse ;
   int align ;
   char const   *name ;
   struct list_head list ;
   struct kobject kobj ;
   int remote_node_defrag_ratio ;
   struct kmem_cache_node *node[64U] ;
   struct kmem_cache_cpu *cpu_slab[8U] ;
};
struct __anonstruct_local_t_86 {
   atomic_long_t a ;
};
typedef struct __anonstruct_local_t_86 local_t;
struct mod_arch_specific {

};
struct kernel_symbol {
   unsigned long value ;
   char const   *name ;
};
struct module_attribute {
   struct attribute attr ;
   ssize_t (*show)(struct module_attribute * , struct module * , char * ) ;
   ssize_t (*store)(struct module_attribute * , struct module * , char const   * ,
                    size_t  ) ;
   void (*setup)(struct module * , char const   * ) ;
   int (*test)(struct module * ) ;
   void (*free)(struct module * ) ;
};
struct module_kobject {
   struct kobject kobj ;
   struct module *mod ;
   struct kobject *drivers_dir ;
};
struct exception_table_entry;
struct module_ref {
   local_t count ;
};
enum module_state {
    MODULE_STATE_LIVE = 0,
    MODULE_STATE_COMING = 1,
    MODULE_STATE_GOING = 2
} ;
struct module_param_attrs;
struct module_sect_attrs;
struct module_notes_attrs;
struct module {
   enum module_state state ;
   struct list_head list ;
   char name[56U] ;
   struct module_kobject mkobj ;
   struct module_param_attrs *param_attrs ;
   struct module_attribute *modinfo_attrs ;
   char const   *version ;
   char const   *srcversion ;
   struct kobject *holders_dir ;
   struct kernel_symbol  const  *syms ;
   unsigned int num_syms ;
   unsigned long const   *crcs ;
   struct kernel_symbol  const  *gpl_syms ;
   unsigned int num_gpl_syms ;
   unsigned long const   *gpl_crcs ;
   struct kernel_symbol  const  *unused_syms ;
   unsigned int num_unused_syms ;
   unsigned long const   *unused_crcs ;
   struct kernel_symbol  const  *unused_gpl_syms ;
   unsigned int num_unused_gpl_syms ;
   unsigned long const   *unused_gpl_crcs ;
   struct kernel_symbol  const  *gpl_future_syms ;
   unsigned int num_gpl_future_syms ;
   unsigned long const   *gpl_future_crcs ;
   unsigned int num_exentries ;
   struct exception_table_entry  const  *extable ;
   int (*init)(void) ;
   void *module_init ;
   void *module_core ;
   unsigned long init_size ;
   unsigned long core_size ;
   unsigned long init_text_size ;
   unsigned long core_text_size ;
   void *unwind_info ;
   struct mod_arch_specific arch ;
   unsigned int taints ;
   struct list_head bug_list ;
   struct bug_entry *bug_table ;
   unsigned int num_bugs ;
   struct module_ref ref[8U] ;
   struct list_head modules_which_use_me ;
   struct task_struct *waiter ;
   void (*exit)(void) ;
   Elf64_Sym *symtab ;
   unsigned long num_symtab ;
   char *strtab ;
   struct module_sect_attrs *sect_attrs ;
   struct module_notes_attrs *notes_attrs ;
   void *percpu ;
   char *args ;
   struct marker *markers ;
   unsigned int num_markers ;
};
struct device_driver;
struct input_id {
   __u16 bustype ;
   __u16 vendor ;
   __u16 product ;
   __u16 version ;
};
struct ff_replay {
   __u16 length ;
   __u16 delay ;
};
struct ff_trigger {
   __u16 button ;
   __u16 interval ;
};
struct ff_envelope {
   __u16 attack_length ;
   __u16 attack_level ;
   __u16 fade_length ;
   __u16 fade_level ;
};
struct ff_constant_effect {
   __s16 level ;
   struct ff_envelope envelope ;
};
struct ff_ramp_effect {
   __s16 start_level ;
   __s16 end_level ;
   struct ff_envelope envelope ;
};
struct ff_condition_effect {
   __u16 right_saturation ;
   __u16 left_saturation ;
   __s16 right_coeff ;
   __s16 left_coeff ;
   __u16 deadband ;
   __s16 center ;
};
struct ff_periodic_effect {
   __u16 waveform ;
   __u16 period ;
   __s16 magnitude ;
   __s16 offset ;
   __u16 phase ;
   struct ff_envelope envelope ;
   __u32 custom_len ;
   __s16 *custom_data ;
};
struct ff_rumble_effect {
   __u16 strong_magnitude ;
   __u16 weak_magnitude ;
};
union __anonunion_u_87 {
   struct ff_constant_effect constant ;
   struct ff_ramp_effect ramp ;
   struct ff_periodic_effect periodic ;
   struct ff_condition_effect condition[2U] ;
   struct ff_rumble_effect rumble ;
};
struct ff_effect {
   __u16 type ;
   __s16 id ;
   __u16 direction ;
   struct ff_trigger trigger ;
   struct ff_replay replay ;
   union __anonunion_u_87 u ;
};
struct completion {
   unsigned int done ;
   wait_queue_head_t wait ;
};
struct klist_node;
struct klist {
   spinlock_t k_lock ;
   struct list_head k_list ;
   void (*get)(struct klist_node * ) ;
   void (*put)(struct klist_node * ) ;
};
struct klist_node {
   struct klist *n_klist ;
   struct list_head n_node ;
   struct kref n_ref ;
   struct completion n_removed ;
};
struct semaphore {
   spinlock_t lock ;
   unsigned int count ;
   struct list_head wait_list ;
};
struct dev_archdata {
   void *acpi_handle ;
   void *iommu ;
};
struct driver_private;
struct class;
struct bus_type;
struct bus_type_private;
struct bus_attribute {
   struct attribute attr ;
   ssize_t (*show)(struct bus_type * , char * ) ;
   ssize_t (*store)(struct bus_type * , char const   * , size_t  ) ;
};
struct device_attribute;
struct driver_attribute;
struct bus_type {
   char const   *name ;
   struct bus_attribute *bus_attrs ;
   struct device_attribute *dev_attrs ;
   struct driver_attribute *drv_attrs ;
   int (*match)(struct device * , struct device_driver * ) ;
   int (*uevent)(struct device * , struct kobj_uevent_env * ) ;
   int (*probe)(struct device * ) ;
   int (*remove)(struct device * ) ;
   void (*shutdown)(struct device * ) ;
   int (*suspend)(struct device * , pm_message_t  ) ;
   int (*suspend_late)(struct device * , pm_message_t  ) ;
   int (*resume_early)(struct device * ) ;
   int (*resume)(struct device * ) ;
   struct bus_type_private *p ;
};
struct device_driver {
   char const   *name ;
   struct bus_type *bus ;
   struct module *owner ;
   char const   *mod_name ;
   int (*probe)(struct device * ) ;
   int (*remove)(struct device * ) ;
   void (*shutdown)(struct device * ) ;
   int (*suspend)(struct device * , pm_message_t  ) ;
   int (*resume)(struct device * ) ;
   struct attribute_group **groups ;
   struct driver_private *p ;
};
struct driver_attribute {
   struct attribute attr ;
   ssize_t (*show)(struct device_driver * , char * ) ;
   ssize_t (*store)(struct device_driver * , char const   * , size_t  ) ;
};
struct class_attribute;
struct class {
   char const   *name ;
   struct module *owner ;
   struct kset subsys ;
   struct list_head devices ;
   struct list_head interfaces ;
   struct kset class_dirs ;
   struct semaphore sem ;
   struct class_attribute *class_attrs ;
   struct device_attribute *dev_attrs ;
   int (*dev_uevent)(struct device * , struct kobj_uevent_env * ) ;
   void (*class_release)(struct class * ) ;
   void (*dev_release)(struct device * ) ;
   int (*suspend)(struct device * , pm_message_t  ) ;
   int (*resume)(struct device * ) ;
};
struct class_attribute {
   struct attribute attr ;
   ssize_t (*show)(struct class * , char * ) ;
   ssize_t (*store)(struct class * , char const   * , size_t  ) ;
};
struct device_type {
   char const   *name ;
   struct attribute_group **groups ;
   int (*uevent)(struct device * , struct kobj_uevent_env * ) ;
   void (*release)(struct device * ) ;
   int (*suspend)(struct device * , pm_message_t  ) ;
   int (*resume)(struct device * ) ;
};
struct device_attribute {
   struct attribute attr ;
   ssize_t (*show)(struct device * , struct device_attribute * , char * ) ;
   ssize_t (*store)(struct device * , struct device_attribute * , char const   * ,
                    size_t  ) ;
};
struct device_dma_parameters {
   unsigned int max_segment_size ;
   unsigned long segment_boundary_mask ;
};
struct dma_coherent_mem;
struct device {
   struct klist klist_children ;
   struct klist_node knode_parent ;
   struct klist_node knode_driver ;
   struct klist_node knode_bus ;
   struct device *parent ;
   struct kobject kobj ;
   char bus_id[20U] ;
   struct device_type *type ;
   unsigned char uevent_suppress : 1 ;
   struct semaphore sem ;
   struct bus_type *bus ;
   struct device_driver *driver ;
   void *driver_data ;
   void *platform_data ;
   struct dev_pm_info power ;
   int numa_node ;
   u64 *dma_mask ;
   u64 coherent_dma_mask ;
   struct device_dma_parameters *dma_parms ;
   struct list_head dma_pools ;
   struct dma_coherent_mem *dma_mem ;
   struct dev_archdata archdata ;
   spinlock_t devres_lock ;
   struct list_head devres_head ;
   struct list_head node ;
   struct class *class ;
   dev_t devt ;
   struct attribute_group **groups ;
   void (*release)(struct device * ) ;
};
struct rcu_head {
   struct rcu_head *next ;
   void (*func)(struct rcu_head * ) ;
};
struct nameidata;
struct path;
struct vfsmount;
struct qstr {
   unsigned int hash ;
   unsigned int len ;
   unsigned char const   *name ;
};
struct dcookie_struct;
struct inode;
union __anonunion_d_u_88 {
   struct list_head d_child ;
   struct rcu_head d_rcu ;
};
struct dentry_operations;
struct super_block;
struct dentry {
   atomic_t d_count ;
   unsigned int d_flags ;
   spinlock_t d_lock ;
   struct inode *d_inode ;
   struct hlist_node d_hash ;
   struct dentry *d_parent ;
   struct qstr d_name ;
   struct list_head d_lru ;
   union __anonunion_d_u_88 d_u ;
   struct list_head d_subdirs ;
   struct list_head d_alias ;
   unsigned long d_time ;
   struct dentry_operations *d_op ;
   struct super_block *d_sb ;
   void *d_fsdata ;
   struct dcookie_struct *d_cookie ;
   int d_mounted ;
   unsigned char d_iname[36U] ;
};
struct dentry_operations {
   int (*d_revalidate)(struct dentry * , struct nameidata * ) ;
   int (*d_hash)(struct dentry * , struct qstr * ) ;
   int (*d_compare)(struct dentry * , struct qstr * , struct qstr * ) ;
   int (*d_delete)(struct dentry * ) ;
   void (*d_release)(struct dentry * ) ;
   void (*d_iput)(struct dentry * , struct inode * ) ;
   char *(*d_dname)(struct dentry * , char * , int  ) ;
};
struct path {
   struct vfsmount *mnt ;
   struct dentry *dentry ;
};
struct open_intent {
   int flags ;
   int create_mode ;
   struct file *file ;
};
union __anonunion_intent_89 {
   struct open_intent open ;
};
struct nameidata {
   struct path path ;
   struct qstr last ;
   unsigned int flags ;
   int last_type ;
   unsigned int depth ;
   char *saved_names[9U] ;
   union __anonunion_intent_89 intent ;
};
struct radix_tree_node;
struct radix_tree_root {
   unsigned int height ;
   gfp_t gfp_mask ;
   struct radix_tree_node *rnode ;
};
struct prio_tree_node;
struct raw_prio_tree_node {
   struct prio_tree_node *left ;
   struct prio_tree_node *right ;
   struct prio_tree_node *parent ;
};
struct prio_tree_node {
   struct prio_tree_node *left ;
   struct prio_tree_node *right ;
   struct prio_tree_node *parent ;
   unsigned long start ;
   unsigned long last ;
};
struct prio_tree_root {
   struct prio_tree_node *prio_tree_node ;
   unsigned short index_bits ;
   unsigned short raw ;
};
enum pid_type {
    PIDTYPE_PID = 0,
    PIDTYPE_PGID = 1,
    PIDTYPE_SID = 2,
    PIDTYPE_MAX = 3
} ;
struct pid_namespace;
struct upid {
   int nr ;
   struct pid_namespace *ns ;
   struct hlist_node pid_chain ;
};
struct pid {
   atomic_t count ;
   struct hlist_head tasks[3U] ;
   struct rcu_head rcu ;
   unsigned int level ;
   struct upid numbers[1U] ;
};
struct pid_link {
   struct hlist_node node ;
   struct pid *pid ;
};
struct kernel_cap_struct {
   __u32 cap[2U] ;
};
typedef struct kernel_cap_struct kernel_cap_t;
struct export_operations;
struct iovec;
struct kiocb;
struct pipe_inode_info;
struct poll_table_struct;
struct kstatfs;
struct iattr {
   unsigned int ia_valid ;
   umode_t ia_mode ;
   uid_t ia_uid ;
   gid_t ia_gid ;
   loff_t ia_size ;
   struct timespec ia_atime ;
   struct timespec ia_mtime ;
   struct timespec ia_ctime ;
   struct file *ia_file ;
};
typedef __kernel_uid32_t qid_t;
typedef __u64 qsize_t;
struct if_dqblk {
   __u64 dqb_bhardlimit ;
   __u64 dqb_bsoftlimit ;
   __u64 dqb_curspace ;
   __u64 dqb_ihardlimit ;
   __u64 dqb_isoftlimit ;
   __u64 dqb_curinodes ;
   __u64 dqb_btime ;
   __u64 dqb_itime ;
   __u32 dqb_valid ;
};
struct if_dqinfo {
   __u64 dqi_bgrace ;
   __u64 dqi_igrace ;
   __u32 dqi_flags ;
   __u32 dqi_valid ;
};
struct fs_disk_quota {
   __s8 d_version ;
   __s8 d_flags ;
   __u16 d_fieldmask ;
   __u32 d_id ;
   __u64 d_blk_hardlimit ;
   __u64 d_blk_softlimit ;
   __u64 d_ino_hardlimit ;
   __u64 d_ino_softlimit ;
   __u64 d_bcount ;
   __u64 d_icount ;
   __s32 d_itimer ;
   __s32 d_btimer ;
   __u16 d_iwarns ;
   __u16 d_bwarns ;
   __s32 d_padding2 ;
   __u64 d_rtb_hardlimit ;
   __u64 d_rtb_softlimit ;
   __u64 d_rtbcount ;
   __s32 d_rtbtimer ;
   __u16 d_rtbwarns ;
   __s16 d_padding3 ;
   char d_padding4[8U] ;
};
struct fs_qfilestat {
   __u64 qfs_ino ;
   __u64 qfs_nblks ;
   __u32 qfs_nextents ;
};
typedef struct fs_qfilestat fs_qfilestat_t;
struct fs_quota_stat {
   __s8 qs_version ;
   __u16 qs_flags ;
   __s8 qs_pad ;
   fs_qfilestat_t qs_uquota ;
   fs_qfilestat_t qs_gquota ;
   __u32 qs_incoredqs ;
   __s32 qs_btimelimit ;
   __s32 qs_itimelimit ;
   __s32 qs_rtbtimelimit ;
   __u16 qs_bwarnlimit ;
   __u16 qs_iwarnlimit ;
};
struct v1_mem_dqinfo {

};
struct v2_mem_dqinfo {
   unsigned int dqi_blocks ;
   unsigned int dqi_free_blk ;
   unsigned int dqi_free_entry ;
};
struct mem_dqblk {
   __u32 dqb_bhardlimit ;
   __u32 dqb_bsoftlimit ;
   qsize_t dqb_curspace ;
   __u32 dqb_ihardlimit ;
   __u32 dqb_isoftlimit ;
   __u32 dqb_curinodes ;
   time_t dqb_btime ;
   time_t dqb_itime ;
};
struct quota_format_type;
union __anonunion_u_91 {
   struct v1_mem_dqinfo v1_i ;
   struct v2_mem_dqinfo v2_i ;
};
struct mem_dqinfo {
   struct quota_format_type *dqi_format ;
   int dqi_fmt_id ;
   struct list_head dqi_dirty_list ;
   unsigned long dqi_flags ;
   unsigned int dqi_bgrace ;
   unsigned int dqi_igrace ;
   qsize_t dqi_maxblimit ;
   qsize_t dqi_maxilimit ;
   union __anonunion_u_91 u ;
};
struct dquot {
   struct hlist_node dq_hash ;
   struct list_head dq_inuse ;
   struct list_head dq_free ;
   struct list_head dq_dirty ;
   struct mutex dq_lock ;
   atomic_t dq_count ;
   wait_queue_head_t dq_wait_unused ;
   struct super_block *dq_sb ;
   unsigned int dq_id ;
   loff_t dq_off ;
   unsigned long dq_flags ;
   short dq_type ;
   struct mem_dqblk dq_dqb ;
};
struct quota_format_ops {
   int (*check_quota_file)(struct super_block * , int  ) ;
   int (*read_file_info)(struct super_block * , int  ) ;
   int (*write_file_info)(struct super_block * , int  ) ;
   int (*free_file_info)(struct super_block * , int  ) ;
   int (*read_dqblk)(struct dquot * ) ;
   int (*commit_dqblk)(struct dquot * ) ;
   int (*release_dqblk)(struct dquot * ) ;
};
struct dquot_operations {
   int (*initialize)(struct inode * , int  ) ;
   int (*drop)(struct inode * ) ;
   int (*alloc_space)(struct inode * , qsize_t  , int  ) ;
   int (*alloc_inode)(struct inode  const  * , unsigned long  ) ;
   int (*free_space)(struct inode * , qsize_t  ) ;
   int (*free_inode)(struct inode  const  * , unsigned long  ) ;
   int (*transfer)(struct inode * , struct iattr * ) ;
   int (*write_dquot)(struct dquot * ) ;
   int (*acquire_dquot)(struct dquot * ) ;
   int (*release_dquot)(struct dquot * ) ;
   int (*mark_dirty)(struct dquot * ) ;
   int (*write_info)(struct super_block * , int  ) ;
};
struct quotactl_ops {
   int (*quota_on)(struct super_block * , int  , int  , char * , int  ) ;
   int (*quota_off)(struct super_block * , int  , int  ) ;
   int (*quota_sync)(struct super_block * , int  ) ;
   int (*get_info)(struct super_block * , int  , struct if_dqinfo * ) ;
   int (*set_info)(struct super_block * , int  , struct if_dqinfo * ) ;
   int (*get_dqblk)(struct super_block * , int  , qid_t  , struct if_dqblk * ) ;
   int (*set_dqblk)(struct super_block * , int  , qid_t  , struct if_dqblk * ) ;
   int (*get_xstate)(struct super_block * , struct fs_quota_stat * ) ;
   int (*set_xstate)(struct super_block * , unsigned int  , int  ) ;
   int (*get_xquota)(struct super_block * , int  , qid_t  , struct fs_disk_quota * ) ;
   int (*set_xquota)(struct super_block * , int  , qid_t  , struct fs_disk_quota * ) ;
};
struct quota_format_type {
   int qf_fmt_id ;
   struct quota_format_ops *qf_ops ;
   struct module *qf_owner ;
   struct quota_format_type *qf_next ;
};
struct quota_info {
   unsigned int flags ;
   struct mutex dqio_mutex ;
   struct mutex dqonoff_mutex ;
   struct rw_semaphore dqptr_sem ;
   struct inode *files[2U] ;
   struct mem_dqinfo info[2U] ;
   struct quota_format_ops *ops[2U] ;
};
struct address_space;
struct writeback_control;
struct address_space_operations {
   int (*writepage)(struct page * , struct writeback_control * ) ;
   int (*readpage)(struct file * , struct page * ) ;
   void (*sync_page)(struct page * ) ;
   int (*writepages)(struct address_space * , struct writeback_control * ) ;
   int (*set_page_dirty)(struct page * ) ;
   int (*readpages)(struct file * , struct address_space * , struct list_head * ,
                    unsigned int  ) ;
   int (*prepare_write)(struct file * , struct page * , unsigned int  , unsigned int  ) ;
   int (*commit_write)(struct file * , struct page * , unsigned int  , unsigned int  ) ;
   int (*write_begin)(struct file * , struct address_space * , loff_t  , unsigned int  ,
                      unsigned int  , struct page ** , void ** ) ;
   int (*write_end)(struct file * , struct address_space * , loff_t  , unsigned int  ,
                    unsigned int  , struct page * , void * ) ;
   sector_t (*bmap)(struct address_space * , sector_t  ) ;
   void (*invalidatepage)(struct page * , unsigned long  ) ;
   int (*releasepage)(struct page * , gfp_t  ) ;
   ssize_t (*direct_IO)(int  , struct kiocb * , struct iovec  const  * , loff_t  ,
                        unsigned long  ) ;
   int (*get_xip_mem)(struct address_space * , unsigned long  , int  , void ** , unsigned long * ) ;
   int (*migratepage)(struct address_space * , struct page * , struct page * ) ;
   int (*launder_page)(struct page * ) ;
};
struct backing_dev_info;
struct address_space {
   struct inode *host ;
   struct radix_tree_root page_tree ;
   rwlock_t tree_lock ;
   unsigned int i_mmap_writable ;
   struct prio_tree_root i_mmap ;
   struct list_head i_mmap_nonlinear ;
   spinlock_t i_mmap_lock ;
   unsigned int truncate_count ;
   unsigned long nrpages ;
   unsigned long writeback_index ;
   struct address_space_operations  const  *a_ops ;
   unsigned long flags ;
   struct backing_dev_info *backing_dev_info ;
   spinlock_t private_lock ;
   struct list_head private_list ;
   struct address_space *assoc_mapping ;
};
struct hd_struct;
struct gendisk;
struct block_device {
   dev_t bd_dev ;
   struct inode *bd_inode ;
   int bd_openers ;
   struct mutex bd_mutex ;
   struct semaphore bd_mount_sem ;
   struct list_head bd_inodes ;
   void *bd_holder ;
   int bd_holders ;
   struct list_head bd_holder_list ;
   struct block_device *bd_contains ;
   unsigned int bd_block_size ;
   struct hd_struct *bd_part ;
   unsigned int bd_part_count ;
   int bd_invalidated ;
   struct gendisk *bd_disk ;
   struct list_head bd_list ;
   struct backing_dev_info *bd_inode_backing_dev_info ;
   unsigned long bd_private ;
};
struct inode_operations;
struct file_operations;
struct file_lock;
struct cdev;
union __anonunion_ldv_10622_92 {
   struct pipe_inode_info *i_pipe ;
   struct block_device *i_bdev ;
   struct cdev *i_cdev ;
};
struct dnotify_struct;
struct inode {
   struct hlist_node i_hash ;
   struct list_head i_list ;
   struct list_head i_sb_list ;
   struct list_head i_dentry ;
   unsigned long i_ino ;
   atomic_t i_count ;
   unsigned int i_nlink ;
   uid_t i_uid ;
   gid_t i_gid ;
   dev_t i_rdev ;
   u64 i_version ;
   loff_t i_size ;
   struct timespec i_atime ;
   struct timespec i_mtime ;
   struct timespec i_ctime ;
   unsigned int i_blkbits ;
   blkcnt_t i_blocks ;
   unsigned short i_bytes ;
   umode_t i_mode ;
   spinlock_t i_lock ;
   struct mutex i_mutex ;
   struct rw_semaphore i_alloc_sem ;
   struct inode_operations  const  *i_op ;
   struct file_operations  const  *i_fop ;
   struct super_block *i_sb ;
   struct file_lock *i_flock ;
   struct address_space *i_mapping ;
   struct address_space i_data ;
   struct dquot *i_dquot[2U] ;
   struct list_head i_devices ;
   union __anonunion_ldv_10622_92 ldv_10622 ;
   int i_cindex ;
   __u32 i_generation ;
   unsigned long i_dnotify_mask ;
   struct dnotify_struct *i_dnotify ;
   struct list_head inotify_watches ;
   struct mutex inotify_mutex ;
   unsigned long i_state ;
   unsigned long dirtied_when ;
   unsigned int i_flags ;
   atomic_t i_writecount ;
   void *i_security ;
   void *i_private ;
};
struct fown_struct {
   rwlock_t lock ;
   struct pid *pid ;
   enum pid_type pid_type ;
   uid_t uid ;
   uid_t euid ;
   int signum ;
};
struct file_ra_state {
   unsigned long start ;
   unsigned int size ;
   unsigned int async_size ;
   unsigned int ra_pages ;
   int mmap_miss ;
   loff_t prev_pos ;
};
union __anonunion_f_u_93 {
   struct list_head fu_list ;
   struct rcu_head fu_rcuhead ;
};
struct file {
   union __anonunion_f_u_93 f_u ;
   struct path f_path ;
   struct file_operations  const  *f_op ;
   atomic_t f_count ;
   unsigned int f_flags ;
   mode_t f_mode ;
   loff_t f_pos ;
   struct fown_struct f_owner ;
   unsigned int f_uid ;
   unsigned int f_gid ;
   struct file_ra_state f_ra ;
   u64 f_version ;
   void *f_security ;
   void *private_data ;
   struct list_head f_ep_links ;
   spinlock_t f_ep_lock ;
   struct address_space *f_mapping ;
   unsigned long f_mnt_write_state ;
};
struct files_struct;
typedef struct files_struct *fl_owner_t;
struct file_lock_operations {
   void (*fl_insert)(struct file_lock * ) ;
   void (*fl_remove)(struct file_lock * ) ;
   void (*fl_copy_lock)(struct file_lock * , struct file_lock * ) ;
   void (*fl_release_private)(struct file_lock * ) ;
};
struct lock_manager_operations {
   int (*fl_compare_owner)(struct file_lock * , struct file_lock * ) ;
   void (*fl_notify)(struct file_lock * ) ;
   int (*fl_grant)(struct file_lock * , struct file_lock * , int  ) ;
   void (*fl_copy_lock)(struct file_lock * , struct file_lock * ) ;
   void (*fl_release_private)(struct file_lock * ) ;
   void (*fl_break)(struct file_lock * ) ;
   int (*fl_mylease)(struct file_lock * , struct file_lock * ) ;
   int (*fl_change)(struct file_lock ** , int  ) ;
};
struct nlm_lockowner;
struct nfs_lock_info {
   u32 state ;
   struct nlm_lockowner *owner ;
   struct list_head list ;
};
struct nfs4_lock_state;
struct nfs4_lock_info {
   struct nfs4_lock_state *owner ;
};
struct fasync_struct;
struct __anonstruct_afs_95 {
   struct list_head link ;
   int state ;
};
union __anonunion_fl_u_94 {
   struct nfs_lock_info nfs_fl ;
   struct nfs4_lock_info nfs4_fl ;
   struct __anonstruct_afs_95 afs ;
};
struct file_lock {
   struct file_lock *fl_next ;
   struct list_head fl_link ;
   struct list_head fl_block ;
   fl_owner_t fl_owner ;
   unsigned int fl_pid ;
   struct pid *fl_nspid ;
   wait_queue_head_t fl_wait ;
   struct file *fl_file ;
   unsigned char fl_flags ;
   unsigned char fl_type ;
   loff_t fl_start ;
   loff_t fl_end ;
   struct fasync_struct *fl_fasync ;
   unsigned long fl_break_time ;
   struct file_lock_operations *fl_ops ;
   struct lock_manager_operations *fl_lmops ;
   union __anonunion_fl_u_94 fl_u ;
};
struct fasync_struct {
   int magic ;
   int fa_fd ;
   struct fasync_struct *fa_next ;
   struct file *fa_file ;
};
struct file_system_type;
struct super_operations;
struct xattr_handler;
struct mtd_info;
struct super_block {
   struct list_head s_list ;
   dev_t s_dev ;
   unsigned long s_blocksize ;
   unsigned char s_blocksize_bits ;
   unsigned char s_dirt ;
   unsigned long long s_maxbytes ;
   struct file_system_type *s_type ;
   struct super_operations  const  *s_op ;
   struct dquot_operations *dq_op ;
   struct quotactl_ops *s_qcop ;
   struct export_operations  const  *s_export_op ;
   unsigned long s_flags ;
   unsigned long s_magic ;
   struct dentry *s_root ;
   struct rw_semaphore s_umount ;
   struct mutex s_lock ;
   int s_count ;
   int s_syncing ;
   int s_need_sync_fs ;
   atomic_t s_active ;
   void *s_security ;
   struct xattr_handler **s_xattr ;
   struct list_head s_inodes ;
   struct list_head s_dirty ;
   struct list_head s_io ;
   struct list_head s_more_io ;
   struct hlist_head s_anon ;
   struct list_head s_files ;
   struct block_device *s_bdev ;
   struct mtd_info *s_mtd ;
   struct list_head s_instances ;
   struct quota_info s_dquot ;
   int s_frozen ;
   wait_queue_head_t s_wait_unfrozen ;
   char s_id[32U] ;
   void *s_fs_info ;
   struct mutex s_vfs_rename_mutex ;
   u32 s_time_gran ;
   char *s_subtype ;
   char *s_options ;
};
struct file_operations {
   struct module *owner ;
   loff_t (*llseek)(struct file * , loff_t  , int  ) ;
   ssize_t (*read)(struct file * , char * , size_t  , loff_t * ) ;
   ssize_t (*write)(struct file * , char const   * , size_t  , loff_t * ) ;
   ssize_t (*aio_read)(struct kiocb * , struct iovec  const  * , unsigned long  ,
                       loff_t  ) ;
   ssize_t (*aio_write)(struct kiocb * , struct iovec  const  * , unsigned long  ,
                        loff_t  ) ;
   int (*readdir)(struct file * , void * , int (*)(void * , char const   * , int  ,
                                                   loff_t  , u64  , unsigned int  ) ) ;
   unsigned int (*poll)(struct file * , struct poll_table_struct * ) ;
   int (*ioctl)(struct inode * , struct file * , unsigned int  , unsigned long  ) ;
   long (*unlocked_ioctl)(struct file * , unsigned int  , unsigned long  ) ;
   long (*compat_ioctl)(struct file * , unsigned int  , unsigned long  ) ;
   int (*mmap)(struct file * , struct vm_area_struct * ) ;
   int (*open)(struct inode * , struct file * ) ;
   int (*flush)(struct file * , fl_owner_t  ) ;
   int (*release)(struct inode * , struct file * ) ;
   int (*fsync)(struct file * , struct dentry * , int  ) ;
   int (*aio_fsync)(struct kiocb * , int  ) ;
   int (*fasync)(int  , struct file * , int  ) ;
   int (*lock)(struct file * , int  , struct file_lock * ) ;
   ssize_t (*sendpage)(struct file * , struct page * , int  , size_t  , loff_t * ,
                       int  ) ;
   unsigned long (*get_unmapped_area)(struct file * , unsigned long  , unsigned long  ,
                                      unsigned long  , unsigned long  ) ;
   int (*check_flags)(int  ) ;
   int (*dir_notify)(struct file * , unsigned long  ) ;
   int (*flock)(struct file * , int  , struct file_lock * ) ;
   ssize_t (*splice_write)(struct pipe_inode_info * , struct file * , loff_t * , size_t  ,
                           unsigned int  ) ;
   ssize_t (*splice_read)(struct file * , loff_t * , struct pipe_inode_info * , size_t  ,
                          unsigned int  ) ;
   int (*setlease)(struct file * , long  , struct file_lock ** ) ;
};
struct inode_operations {
   int (*create)(struct inode * , struct dentry * , int  , struct nameidata * ) ;
   struct dentry *(*lookup)(struct inode * , struct dentry * , struct nameidata * ) ;
   int (*link)(struct dentry * , struct inode * , struct dentry * ) ;
   int (*unlink)(struct inode * , struct dentry * ) ;
   int (*symlink)(struct inode * , struct dentry * , char const   * ) ;
   int (*mkdir)(struct inode * , struct dentry * , int  ) ;
   int (*rmdir)(struct inode * , struct dentry * ) ;
   int (*mknod)(struct inode * , struct dentry * , int  , dev_t  ) ;
   int (*rename)(struct inode * , struct dentry * , struct inode * , struct dentry * ) ;
   int (*readlink)(struct dentry * , char * , int  ) ;
   void *(*follow_link)(struct dentry * , struct nameidata * ) ;
   void (*put_link)(struct dentry * , struct nameidata * , void * ) ;
   void (*truncate)(struct inode * ) ;
   int (*permission)(struct inode * , int  , struct nameidata * ) ;
   int (*setattr)(struct dentry * , struct iattr * ) ;
   int (*getattr)(struct vfsmount * , struct dentry * , struct kstat * ) ;
   int (*setxattr)(struct dentry * , char const   * , void const   * , size_t  , int  ) ;
   ssize_t (*getxattr)(struct dentry * , char const   * , void * , size_t  ) ;
   ssize_t (*listxattr)(struct dentry * , char * , size_t  ) ;
   int (*removexattr)(struct dentry * , char const   * ) ;
   void (*truncate_range)(struct inode * , loff_t  , loff_t  ) ;
   long (*fallocate)(struct inode * , int  , loff_t  , loff_t  ) ;
};
struct seq_file;
struct super_operations {
   struct inode *(*alloc_inode)(struct super_block * ) ;
   void (*destroy_inode)(struct inode * ) ;
   void (*dirty_inode)(struct inode * ) ;
   int (*write_inode)(struct inode * , int  ) ;
   void (*drop_inode)(struct inode * ) ;
   void (*delete_inode)(struct inode * ) ;
   void (*put_super)(struct super_block * ) ;
   void (*write_super)(struct super_block * ) ;
   int (*sync_fs)(struct super_block * , int  ) ;
   void (*write_super_lockfs)(struct super_block * ) ;
   void (*unlockfs)(struct super_block * ) ;
   int (*statfs)(struct dentry * , struct kstatfs * ) ;
   int (*remount_fs)(struct super_block * , int * , char * ) ;
   void (*clear_inode)(struct inode * ) ;
   void (*umount_begin)(struct super_block * ) ;
   int (*show_options)(struct seq_file * , struct vfsmount * ) ;
   int (*show_stats)(struct seq_file * , struct vfsmount * ) ;
   ssize_t (*quota_read)(struct super_block * , int  , char * , size_t  , loff_t  ) ;
   ssize_t (*quota_write)(struct super_block * , int  , char const   * , size_t  ,
                          loff_t  ) ;
};
struct file_system_type {
   char const   *name ;
   int fs_flags ;
   int (*get_sb)(struct file_system_type * , int  , char const   * , void * , struct vfsmount * ) ;
   void (*kill_sb)(struct super_block * ) ;
   struct module *owner ;
   struct file_system_type *next ;
   struct list_head fs_supers ;
   struct lock_class_key s_lock_key ;
   struct lock_class_key s_umount_key ;
   struct lock_class_key i_lock_key ;
   struct lock_class_key i_mutex_key ;
   struct lock_class_key i_mutex_dir_key ;
   struct lock_class_key i_alloc_sem_key ;
};
struct bio;
typedef unsigned long kernel_ulong_t;
struct serio_device_id {
   __u8 type ;
   __u8 extra ;
   __u8 id ;
   __u8 proto ;
};
struct input_device_id {
   kernel_ulong_t flags ;
   __u16 bustype ;
   __u16 vendor ;
   __u16 product ;
   __u16 version ;
   kernel_ulong_t evbit[1U] ;
   kernel_ulong_t keybit[8U] ;
   kernel_ulong_t relbit[1U] ;
   kernel_ulong_t absbit[1U] ;
   kernel_ulong_t mscbit[1U] ;
   kernel_ulong_t ledbit[1U] ;
   kernel_ulong_t sndbit[1U] ;
   kernel_ulong_t ffbit[2U] ;
   kernel_ulong_t swbit[1U] ;
   kernel_ulong_t driver_info ;
};
struct ff_device;
struct input_handle;
struct input_dev {
   char const   *name ;
   char const   *phys ;
   char const   *uniq ;
   struct input_id id ;
   unsigned long evbit[1U] ;
   unsigned long keybit[8U] ;
   unsigned long relbit[1U] ;
   unsigned long absbit[1U] ;
   unsigned long mscbit[1U] ;
   unsigned long ledbit[1U] ;
   unsigned long sndbit[1U] ;
   unsigned long ffbit[2U] ;
   unsigned long swbit[1U] ;
   unsigned int keycodemax ;
   unsigned int keycodesize ;
   void *keycode ;
   int (*setkeycode)(struct input_dev * , int  , int  ) ;
   int (*getkeycode)(struct input_dev * , int  , int * ) ;
   struct ff_device *ff ;
   unsigned int repeat_key ;
   struct timer_list timer ;
   int sync ;
   int abs[64U] ;
   int rep[2U] ;
   unsigned long key[8U] ;
   unsigned long led[1U] ;
   unsigned long snd[1U] ;
   unsigned long sw[1U] ;
   int absmax[64U] ;
   int absmin[64U] ;
   int absfuzz[64U] ;
   int absflat[64U] ;
   int (*open)(struct input_dev * ) ;
   void (*close)(struct input_dev * ) ;
   int (*flush)(struct input_dev * , struct file * ) ;
   int (*event)(struct input_dev * , unsigned int  , unsigned int  , int  ) ;
   struct input_handle *grab ;
   spinlock_t event_lock ;
   struct mutex mutex ;
   unsigned int users ;
   int going_away ;
   struct device dev ;
   struct list_head h_list ;
   struct list_head node ;
};
struct input_handler {
   void *private ;
   void (*event)(struct input_handle * , unsigned int  , unsigned int  , int  ) ;
   int (*connect)(struct input_handler * , struct input_dev * , struct input_device_id  const  * ) ;
   void (*disconnect)(struct input_handle * ) ;
   void (*start)(struct input_handle * ) ;
   struct file_operations  const  *fops ;
   int minor ;
   char const   *name ;
   struct input_device_id  const  *id_table ;
   struct input_device_id  const  *blacklist ;
   struct list_head h_list ;
   struct list_head node ;
};
struct input_handle {
   void *private ;
   int open ;
   char const   *name ;
   struct input_dev *dev ;
   struct input_handler *handler ;
   struct list_head d_node ;
   struct list_head h_node ;
};
struct ff_device {
   int (*upload)(struct input_dev * , struct ff_effect * , struct ff_effect * ) ;
   int (*erase)(struct input_dev * , int  ) ;
   int (*playback)(struct input_dev * , int  , int  ) ;
   void (*set_gain)(struct input_dev * , u16  ) ;
   void (*set_autocenter)(struct input_dev * , u16  ) ;
   void (*destroy)(struct ff_device * ) ;
   void *private ;
   unsigned long ffbit[2U] ;
   struct mutex mutex ;
   int max_effects ;
   struct ff_effect *effects ;
   struct file *effect_owners[] ;
};
typedef int irqreturn_t;
struct rb_node {
   unsigned long rb_parent_color ;
   struct rb_node *rb_right ;
   struct rb_node *rb_left ;
};
struct rb_root {
   struct rb_node *rb_node ;
};
struct __anonstruct_mm_context_t_99 {
   void *ldt ;
   rwlock_t ldtlock ;
   int size ;
   struct mutex lock ;
   void *vdso ;
};
typedef struct __anonstruct_mm_context_t_99 mm_context_t;
typedef atomic_long_t mm_counter_t;
struct __anonstruct_ldv_12927_101 {
   u16 inuse ;
   u16 objects ;
};
union __anonunion_ldv_12928_100 {
   atomic_t _mapcount ;
   struct __anonstruct_ldv_12927_101 ldv_12927 ;
};
struct __anonstruct_ldv_12933_103 {
   unsigned long private ;
   struct address_space *mapping ;
};
union __anonunion_ldv_12937_102 {
   struct __anonstruct_ldv_12933_103 ldv_12933 ;
   spinlock_t ptl ;
   struct kmem_cache *slab ;
   struct page *first_page ;
};
union __anonunion_ldv_12941_104 {
   unsigned long index ;
   void *freelist ;
};
struct page {
   unsigned long flags ;
   atomic_t _count ;
   union __anonunion_ldv_12928_100 ldv_12928 ;
   union __anonunion_ldv_12937_102 ldv_12937 ;
   union __anonunion_ldv_12941_104 ldv_12941 ;
   struct list_head lru ;
   unsigned long page_cgroup ;
};
struct __anonstruct_vm_set_106 {
   struct list_head list ;
   void *parent ;
   struct vm_area_struct *head ;
};
union __anonunion_shared_105 {
   struct __anonstruct_vm_set_106 vm_set ;
   struct raw_prio_tree_node prio_tree_node ;
};
struct anon_vma;
struct vm_operations_struct;
struct mempolicy;
struct vm_area_struct {
   struct mm_struct *vm_mm ;
   unsigned long vm_start ;
   unsigned long vm_end ;
   struct vm_area_struct *vm_next ;
   pgprot_t vm_page_prot ;
   unsigned long vm_flags ;
   struct rb_node vm_rb ;
   union __anonunion_shared_105 shared ;
   struct list_head anon_vma_node ;
   struct anon_vma *anon_vma ;
   struct vm_operations_struct *vm_ops ;
   unsigned long vm_pgoff ;
   struct file *vm_file ;
   void *vm_private_data ;
   unsigned long vm_truncate_count ;
   struct mempolicy *vm_policy ;
};
struct kioctx;
struct mm_struct {
   struct vm_area_struct *mmap ;
   struct rb_root mm_rb ;
   struct vm_area_struct *mmap_cache ;
   unsigned long (*get_unmapped_area)(struct file * , unsigned long  , unsigned long  ,
                                      unsigned long  , unsigned long  ) ;
   void (*unmap_area)(struct mm_struct * , unsigned long  ) ;
   unsigned long mmap_base ;
   unsigned long task_size ;
   unsigned long cached_hole_size ;
   unsigned long free_area_cache ;
   pgd_t *pgd ;
   atomic_t mm_users ;
   atomic_t mm_count ;
   int map_count ;
   int core_waiters ;
   struct rw_semaphore mmap_sem ;
   spinlock_t page_table_lock ;
   struct list_head mmlist ;
   mm_counter_t _file_rss ;
   mm_counter_t _anon_rss ;
   unsigned long hiwater_rss ;
   unsigned long hiwater_vm ;
   unsigned long total_vm ;
   unsigned long locked_vm ;
   unsigned long shared_vm ;
   unsigned long exec_vm ;
   unsigned long stack_vm ;
   unsigned long reserved_vm ;
   unsigned long def_flags ;
   unsigned long nr_ptes ;
   unsigned long start_code ;
   unsigned long end_code ;
   unsigned long start_data ;
   unsigned long end_data ;
   unsigned long start_brk ;
   unsigned long brk ;
   unsigned long start_stack ;
   unsigned long arg_start ;
   unsigned long arg_end ;
   unsigned long env_start ;
   unsigned long env_end ;
   unsigned long saved_auxv[38U] ;
   cpumask_t cpu_vm_mask ;
   mm_context_t context ;
   unsigned int faultstamp ;
   unsigned int token_priority ;
   unsigned int last_interval ;
   unsigned long flags ;
   struct completion *core_startup_done ;
   struct completion core_done ;
   rwlock_t ioctx_list_lock ;
   struct kioctx *ioctx_list ;
   struct task_struct *owner ;
   struct file *exe_file ;
   unsigned long num_exe_file_vmas ;
};
typedef unsigned long cputime_t;
struct sem_undo;
struct sem_undo {
   struct sem_undo *proc_next ;
   struct sem_undo *id_next ;
   int semid ;
   short *semadj ;
};
struct sem_undo_list {
   atomic_t refcnt ;
   spinlock_t lock ;
   struct sem_undo *proc_list ;
};
struct sysv_sem {
   struct sem_undo_list *undo_list ;
};
struct siginfo;
struct __anonstruct_sigset_t_107 {
   unsigned long sig[1U] ;
};
typedef struct __anonstruct_sigset_t_107 sigset_t;
typedef void __signalfn_t(int  );
typedef __signalfn_t *__sighandler_t;
typedef void __restorefn_t(void);
typedef __restorefn_t *__sigrestore_t;
struct sigaction {
   __sighandler_t sa_handler ;
   unsigned long sa_flags ;
   __sigrestore_t sa_restorer ;
   sigset_t sa_mask ;
};
struct k_sigaction {
   struct sigaction sa ;
};
union sigval {
   int sival_int ;
   void *sival_ptr ;
};
typedef union sigval sigval_t;
struct __anonstruct__kill_109 {
   pid_t _pid ;
   uid_t _uid ;
};
struct __anonstruct__timer_110 {
   timer_t _tid ;
   int _overrun ;
   char _pad[0U] ;
   sigval_t _sigval ;
   int _sys_private ;
};
struct __anonstruct__rt_111 {
   pid_t _pid ;
   uid_t _uid ;
   sigval_t _sigval ;
};
struct __anonstruct__sigchld_112 {
   pid_t _pid ;
   uid_t _uid ;
   int _status ;
   clock_t _utime ;
   clock_t _stime ;
};
struct __anonstruct__sigfault_113 {
   void *_addr ;
};
struct __anonstruct__sigpoll_114 {
   long _band ;
   int _fd ;
};
union __anonunion__sifields_108 {
   int _pad[28U] ;
   struct __anonstruct__kill_109 _kill ;
   struct __anonstruct__timer_110 _timer ;
   struct __anonstruct__rt_111 _rt ;
   struct __anonstruct__sigchld_112 _sigchld ;
   struct __anonstruct__sigfault_113 _sigfault ;
   struct __anonstruct__sigpoll_114 _sigpoll ;
};
struct siginfo {
   int si_signo ;
   int si_errno ;
   int si_code ;
   union __anonunion__sifields_108 _sifields ;
};
typedef struct siginfo siginfo_t;
struct user_struct;
struct sigpending {
   struct list_head list ;
   sigset_t signal ;
};
struct fs_struct {
   atomic_t count ;
   rwlock_t lock ;
   int umask ;
   struct path root ;
   struct path pwd ;
   struct path altroot ;
};
struct prop_local_single {
   unsigned long events ;
   int shift ;
   unsigned long period ;
   spinlock_t lock ;
};
struct __anonstruct_seccomp_t_117 {
   int mode ;
};
typedef struct __anonstruct_seccomp_t_117 seccomp_t;
struct plist_head {
   struct list_head prio_list ;
   struct list_head node_list ;
   spinlock_t *lock ;
};
struct rt_mutex_waiter;
struct rlimit {
   unsigned long rlim_cur ;
   unsigned long rlim_max ;
};
struct hrtimer_clock_base;
struct hrtimer_cpu_base;
enum hrtimer_restart {
    HRTIMER_NORESTART = 0,
    HRTIMER_RESTART = 1
} ;
enum hrtimer_cb_mode {
    HRTIMER_CB_SOFTIRQ = 0,
    HRTIMER_CB_IRQSAFE = 1,
    HRTIMER_CB_IRQSAFE_NO_RESTART = 2,
    HRTIMER_CB_IRQSAFE_NO_SOFTIRQ = 3
} ;
struct hrtimer {
   struct rb_node node ;
   ktime_t expires ;
   enum hrtimer_restart (*function)(struct hrtimer * ) ;
   struct hrtimer_clock_base *base ;
   unsigned long state ;
   enum hrtimer_cb_mode cb_mode ;
   struct list_head cb_entry ;
   void *start_site ;
   char start_comm[16U] ;
   int start_pid ;
};
struct hrtimer_clock_base {
   struct hrtimer_cpu_base *cpu_base ;
   clockid_t index ;
   struct rb_root active ;
   struct rb_node *first ;
   ktime_t resolution ;
   ktime_t (*get_time)(void) ;
   ktime_t (*get_softirq_time)(void) ;
   ktime_t softirq_time ;
   ktime_t offset ;
   int (*reprogram)(struct hrtimer * , struct hrtimer_clock_base * , ktime_t  ) ;
};
struct hrtimer_cpu_base {
   spinlock_t lock ;
   struct hrtimer_clock_base clock_base[2U] ;
   struct list_head cb_pending ;
   ktime_t expires_next ;
   int hres_active ;
   unsigned long nr_events ;
};
struct task_io_accounting {
   u64 read_bytes ;
   u64 write_bytes ;
   u64 cancelled_write_bytes ;
};
struct latency_record {
   unsigned long backtrace[12U] ;
   unsigned int count ;
   unsigned long time ;
   unsigned long max ;
};
struct futex_pi_state;
struct robust_list_head;
struct cfs_rq;
struct task_group;
struct nsproxy;
struct io_event {
   __u64 data ;
   __u64 obj ;
   __s64 res ;
   __s64 res2 ;
};
struct iovec {
   void *iov_base ;
   __kernel_size_t iov_len ;
};
union __anonunion_ki_obj_118 {
   void *user ;
   struct task_struct *tsk ;
};
struct kiocb {
   struct list_head ki_run_list ;
   unsigned long ki_flags ;
   int ki_users ;
   unsigned int ki_key ;
   struct file *ki_filp ;
   struct kioctx *ki_ctx ;
   int (*ki_cancel)(struct kiocb * , struct io_event * ) ;
   ssize_t (*ki_retry)(struct kiocb * ) ;
   void (*ki_dtor)(struct kiocb * ) ;
   union __anonunion_ki_obj_118 ki_obj ;
   __u64 ki_user_data ;
   wait_queue_t ki_wait ;
   loff_t ki_pos ;
   void *private ;
   unsigned short ki_opcode ;
   size_t ki_nbytes ;
   char *ki_buf ;
   size_t ki_left ;
   struct iovec ki_inline_vec ;
   struct iovec *ki_iovec ;
   unsigned long ki_nr_segs ;
   unsigned long ki_cur_seg ;
   struct list_head ki_list ;
   struct file *ki_eventfd ;
};
struct aio_ring_info {
   unsigned long mmap_base ;
   unsigned long mmap_size ;
   struct page **ring_pages ;
   spinlock_t ring_lock ;
   long nr_pages ;
   unsigned int nr ;
   unsigned int tail ;
   struct page *internal_pages[8U] ;
};
struct kioctx {
   atomic_t users ;
   int dead ;
   struct mm_struct *mm ;
   unsigned long user_id ;
   struct kioctx *next ;
   wait_queue_head_t wait ;
   spinlock_t ctx_lock ;
   int reqs_active ;
   struct list_head active_reqs ;
   struct list_head run_list ;
   unsigned int max_reqs ;
   struct aio_ring_info ring_info ;
   struct delayed_work wq ;
};
struct sighand_struct {
   atomic_t count ;
   struct k_sigaction action[64U] ;
   spinlock_t siglock ;
   wait_queue_head_t signalfd_wqh ;
};
struct pacct_struct {
   int ac_flag ;
   long ac_exitcode ;
   unsigned long ac_mem ;
   cputime_t ac_utime ;
   cputime_t ac_stime ;
   unsigned long ac_minflt ;
   unsigned long ac_majflt ;
};
union __anonunion_ldv_14128_119 {
   pid_t pgrp ;
   pid_t __pgrp ;
};
union __anonunion_ldv_14133_120 {
   pid_t session ;
   pid_t __session ;
};
struct tty_struct;
struct taskstats;
struct tty_audit_buf;
struct signal_struct {
   atomic_t count ;
   atomic_t live ;
   wait_queue_head_t wait_chldexit ;
   struct task_struct *curr_target ;
   struct sigpending shared_pending ;
   int group_exit_code ;
   struct task_struct *group_exit_task ;
   int notify_count ;
   int group_stop_count ;
   unsigned int flags ;
   struct list_head posix_timers ;
   struct hrtimer real_timer ;
   struct pid *leader_pid ;
   ktime_t it_real_incr ;
   cputime_t it_prof_expires ;
   cputime_t it_virt_expires ;
   cputime_t it_prof_incr ;
   cputime_t it_virt_incr ;
   union __anonunion_ldv_14128_119 ldv_14128 ;
   struct pid *tty_old_pgrp ;
   union __anonunion_ldv_14133_120 ldv_14133 ;
   int leader ;
   struct tty_struct *tty ;
   cputime_t utime ;
   cputime_t stime ;
   cputime_t cutime ;
   cputime_t cstime ;
   cputime_t gtime ;
   cputime_t cgtime ;
   unsigned long nvcsw ;
   unsigned long nivcsw ;
   unsigned long cnvcsw ;
   unsigned long cnivcsw ;
   unsigned long min_flt ;
   unsigned long maj_flt ;
   unsigned long cmin_flt ;
   unsigned long cmaj_flt ;
   unsigned long inblock ;
   unsigned long oublock ;
   unsigned long cinblock ;
   unsigned long coublock ;
   unsigned long long sum_sched_runtime ;
   struct rlimit rlim[16U] ;
   struct list_head cpu_timers[3U] ;
   struct key *session_keyring ;
   struct key *process_keyring ;
   struct pacct_struct pacct ;
   struct taskstats *stats ;
   unsigned int audit_tty ;
   struct tty_audit_buf *tty_audit_buf ;
};
struct user_struct {
   atomic_t __count ;
   atomic_t processes ;
   atomic_t files ;
   atomic_t sigpending ;
   atomic_t inotify_watches ;
   atomic_t inotify_devs ;
   unsigned long mq_bytes ;
   unsigned long locked_shm ;
   struct key *uid_keyring ;
   struct key *session_keyring ;
   struct hlist_node uidhash_node ;
   uid_t uid ;
   struct task_group *tg ;
   struct kobject kobj ;
   struct work_struct work ;
};
struct reclaim_state;
struct sched_info {
   unsigned long pcount ;
   unsigned long long cpu_time ;
   unsigned long long run_delay ;
   unsigned long long last_arrival ;
   unsigned long long last_queued ;
   unsigned int bkl_count ;
};
struct task_delay_info {
   spinlock_t lock ;
   unsigned int flags ;
   struct timespec blkio_start ;
   struct timespec blkio_end ;
   u64 blkio_delay ;
   u64 swapin_delay ;
   u32 blkio_count ;
   u32 swapin_count ;
};
enum cpu_idle_type {
    CPU_IDLE = 0,
    CPU_NOT_IDLE = 1,
    CPU_NEWLY_IDLE = 2,
    CPU_MAX_IDLE_TYPES = 3
} ;
struct sched_group {
   struct sched_group *next ;
   cpumask_t cpumask ;
   unsigned int __cpu_power ;
   u32 reciprocal_cpu_power ;
};
enum sched_domain_level {
    SD_LV_NONE = 0,
    SD_LV_SIBLING = 1,
    SD_LV_MC = 2,
    SD_LV_CPU = 3,
    SD_LV_NODE = 4,
    SD_LV_ALLNODES = 5,
    SD_LV_MAX = 6
} ;
struct sched_domain {
   struct sched_domain *parent ;
   struct sched_domain *child ;
   struct sched_group *groups ;
   cpumask_t span ;
   int first_cpu ;
   unsigned long min_interval ;
   unsigned long max_interval ;
   unsigned int busy_factor ;
   unsigned int imbalance_pct ;
   unsigned int cache_nice_tries ;
   unsigned int busy_idx ;
   unsigned int idle_idx ;
   unsigned int newidle_idx ;
   unsigned int wake_idx ;
   unsigned int forkexec_idx ;
   int flags ;
   enum sched_domain_level level ;
   unsigned long last_balance ;
   unsigned int balance_interval ;
   unsigned int nr_balance_failed ;
   unsigned int lb_count[3U] ;
   unsigned int lb_failed[3U] ;
   unsigned int lb_balanced[3U] ;
   unsigned int lb_imbalance[3U] ;
   unsigned int lb_gained[3U] ;
   unsigned int lb_hot_gained[3U] ;
   unsigned int lb_nobusyg[3U] ;
   unsigned int lb_nobusyq[3U] ;
   unsigned int alb_count ;
   unsigned int alb_failed ;
   unsigned int alb_pushed ;
   unsigned int sbe_count ;
   unsigned int sbe_balanced ;
   unsigned int sbe_pushed ;
   unsigned int sbf_count ;
   unsigned int sbf_balanced ;
   unsigned int sbf_pushed ;
   unsigned int ttwu_wake_remote ;
   unsigned int ttwu_move_affine ;
   unsigned int ttwu_move_balance ;
};
struct io_context;
struct group_info {
   int ngroups ;
   atomic_t usage ;
   gid_t small_block[32U] ;
   int nblocks ;
   gid_t *blocks[0U] ;
};
struct audit_context;
struct rq;
struct sched_class {
   struct sched_class  const  *next ;
   void (*enqueue_task)(struct rq * , struct task_struct * , int  ) ;
   void (*dequeue_task)(struct rq * , struct task_struct * , int  ) ;
   void (*yield_task)(struct rq * ) ;
   int (*select_task_rq)(struct task_struct * , int  ) ;
   void (*check_preempt_curr)(struct rq * , struct task_struct * ) ;
   struct task_struct *(*pick_next_task)(struct rq * ) ;
   void (*put_prev_task)(struct rq * , struct task_struct * ) ;
   unsigned long (*load_balance)(struct rq * , int  , struct rq * , unsigned long  ,
                                 struct sched_domain * , enum cpu_idle_type  , int * ,
                                 int * ) ;
   int (*move_one_task)(struct rq * , int  , struct rq * , struct sched_domain * ,
                        enum cpu_idle_type  ) ;
   void (*pre_schedule)(struct rq * , struct task_struct * ) ;
   void (*post_schedule)(struct rq * ) ;
   void (*task_wake_up)(struct rq * , struct task_struct * ) ;
   void (*set_curr_task)(struct rq * ) ;
   void (*task_tick)(struct rq * , struct task_struct * , int  ) ;
   void (*task_new)(struct rq * , struct task_struct * ) ;
   void (*set_cpus_allowed)(struct task_struct * , cpumask_t const   * ) ;
   void (*join_domain)(struct rq * ) ;
   void (*leave_domain)(struct rq * ) ;
   void (*switched_from)(struct rq * , struct task_struct * , int  ) ;
   void (*switched_to)(struct rq * , struct task_struct * , int  ) ;
   void (*prio_changed)(struct rq * , struct task_struct * , int  , int  ) ;
   void (*moved_group)(struct task_struct * ) ;
};
struct load_weight {
   unsigned long weight ;
   unsigned long inv_weight ;
};
struct sched_entity {
   struct load_weight load ;
   struct rb_node run_node ;
   struct list_head group_node ;
   unsigned int on_rq ;
   u64 exec_start ;
   u64 sum_exec_runtime ;
   u64 vruntime ;
   u64 prev_sum_exec_runtime ;
   u64 last_wakeup ;
   u64 avg_overlap ;
   u64 wait_start ;
   u64 wait_max ;
   u64 wait_count ;
   u64 wait_sum ;
   u64 sleep_start ;
   u64 sleep_max ;
   s64 sum_sleep_runtime ;
   u64 block_start ;
   u64 block_max ;
   u64 exec_max ;
   u64 slice_max ;
   u64 nr_migrations ;
   u64 nr_migrations_cold ;
   u64 nr_failed_migrations_affine ;
   u64 nr_failed_migrations_running ;
   u64 nr_failed_migrations_hot ;
   u64 nr_forced_migrations ;
   u64 nr_forced2_migrations ;
   u64 nr_wakeups ;
   u64 nr_wakeups_sync ;
   u64 nr_wakeups_migrate ;
   u64 nr_wakeups_local ;
   u64 nr_wakeups_remote ;
   u64 nr_wakeups_affine ;
   u64 nr_wakeups_affine_attempts ;
   u64 nr_wakeups_passive ;
   u64 nr_wakeups_idle ;
   struct sched_entity *parent ;
   struct cfs_rq *cfs_rq ;
   struct cfs_rq *my_q ;
};
struct rt_rq;
struct sched_rt_entity {
   struct list_head run_list ;
   unsigned int time_slice ;
   unsigned long timeout ;
   int nr_cpus_allowed ;
   struct sched_rt_entity *back ;
   struct sched_rt_entity *parent ;
   struct rt_rq *rt_rq ;
   struct rt_rq *my_q ;
};
struct linux_binfmt;
struct css_set;
struct compat_robust_list_head;
struct task_struct {
   long volatile   state ;
   void *stack ;
   atomic_t usage ;
   unsigned int flags ;
   unsigned int ptrace ;
   int lock_depth ;
   int prio ;
   int static_prio ;
   int normal_prio ;
   struct sched_class  const  *sched_class ;
   struct sched_entity se ;
   struct sched_rt_entity rt ;
   struct hlist_head preempt_notifiers ;
   unsigned char fpu_counter ;
   s8 oomkilladj ;
   unsigned int policy ;
   cpumask_t cpus_allowed ;
   struct sched_info sched_info ;
   struct list_head tasks ;
   struct list_head ptrace_children ;
   struct list_head ptrace_list ;
   struct mm_struct *mm ;
   struct mm_struct *active_mm ;
   struct linux_binfmt *binfmt ;
   int exit_state ;
   int exit_code ;
   int exit_signal ;
   int pdeath_signal ;
   unsigned int personality ;
   unsigned char did_exec : 1 ;
   pid_t pid ;
   pid_t tgid ;
   struct task_struct *real_parent ;
   struct task_struct *parent ;
   struct list_head children ;
   struct list_head sibling ;
   struct task_struct *group_leader ;
   struct pid_link pids[3U] ;
   struct list_head thread_group ;
   struct completion *vfork_done ;
   int *set_child_tid ;
   int *clear_child_tid ;
   unsigned int rt_priority ;
   cputime_t utime ;
   cputime_t stime ;
   cputime_t utimescaled ;
   cputime_t stimescaled ;
   cputime_t gtime ;
   cputime_t prev_utime ;
   cputime_t prev_stime ;
   unsigned long nvcsw ;
   unsigned long nivcsw ;
   struct timespec start_time ;
   struct timespec real_start_time ;
   unsigned long min_flt ;
   unsigned long maj_flt ;
   cputime_t it_prof_expires ;
   cputime_t it_virt_expires ;
   unsigned long long it_sched_expires ;
   struct list_head cpu_timers[3U] ;
   uid_t uid ;
   uid_t euid ;
   uid_t suid ;
   uid_t fsuid ;
   gid_t gid ;
   gid_t egid ;
   gid_t sgid ;
   gid_t fsgid ;
   struct group_info *group_info ;
   kernel_cap_t cap_effective ;
   kernel_cap_t cap_inheritable ;
   kernel_cap_t cap_permitted ;
   kernel_cap_t cap_bset ;
   unsigned int securebits ;
   struct user_struct *user ;
   struct key *request_key_auth ;
   struct key *thread_keyring ;
   unsigned char jit_keyring ;
   char comm[16U] ;
   int link_count ;
   int total_link_count ;
   struct sysv_sem sysvsem ;
   unsigned long last_switch_timestamp ;
   unsigned long last_switch_count ;
   struct thread_struct thread ;
   struct fs_struct *fs ;
   struct files_struct *files ;
   struct nsproxy *nsproxy ;
   struct signal_struct *signal ;
   struct sighand_struct *sighand ;
   sigset_t blocked ;
   sigset_t real_blocked ;
   sigset_t saved_sigmask ;
   struct sigpending pending ;
   unsigned long sas_ss_sp ;
   size_t sas_ss_size ;
   int (*notifier)(void * ) ;
   void *notifier_data ;
   sigset_t *notifier_mask ;
   void *security ;
   struct audit_context *audit_context ;
   uid_t loginuid ;
   unsigned int sessionid ;
   seccomp_t seccomp ;
   u32 parent_exec_id ;
   u32 self_exec_id ;
   spinlock_t alloc_lock ;
   spinlock_t pi_lock ;
   struct plist_head pi_waiters ;
   struct rt_mutex_waiter *pi_blocked_on ;
   struct mutex_waiter *blocked_on ;
   unsigned int irq_events ;
   int hardirqs_enabled ;
   unsigned long hardirq_enable_ip ;
   unsigned int hardirq_enable_event ;
   unsigned long hardirq_disable_ip ;
   unsigned int hardirq_disable_event ;
   int softirqs_enabled ;
   unsigned long softirq_disable_ip ;
   unsigned int softirq_disable_event ;
   unsigned long softirq_enable_ip ;
   unsigned int softirq_enable_event ;
   int hardirq_context ;
   int softirq_context ;
   u64 curr_chain_key ;
   int lockdep_depth ;
   struct held_lock held_locks[48U] ;
   unsigned int lockdep_recursion ;
   void *journal_info ;
   struct bio *bio_list ;
   struct bio **bio_tail ;
   struct reclaim_state *reclaim_state ;
   struct backing_dev_info *backing_dev_info ;
   struct io_context *io_context ;
   unsigned long ptrace_message ;
   siginfo_t *last_siginfo ;
   u64 rchar ;
   u64 wchar ;
   u64 syscr ;
   u64 syscw ;
   struct task_io_accounting ioac ;
   u64 acct_rss_mem1 ;
   u64 acct_vm_mem1 ;
   cputime_t acct_stimexpd ;
   struct mempolicy *mempolicy ;
   short il_next ;
   nodemask_t mems_allowed ;
   int cpuset_mems_generation ;
   int cpuset_mem_spread_rotor ;
   struct css_set *cgroups ;
   struct list_head cg_list ;
   struct robust_list_head *robust_list ;
   struct compat_robust_list_head *compat_robust_list ;
   struct list_head pi_state_list ;
   struct futex_pi_state *pi_state_cache ;
   atomic_t fs_excl ;
   struct rcu_head rcu ;
   struct pipe_inode_info *splice_pipe ;
   struct task_delay_info *delays ;
   int make_it_fail ;
   struct prop_local_single dirties ;
   int latency_record_count ;
   struct latency_record latency_record[32U] ;
};
struct serio_driver;
struct serio {
   void *port_data ;
   char name[32U] ;
   char phys[32U] ;
   unsigned int manual_bind ;
   struct serio_device_id id ;
   spinlock_t lock ;
   int (*write)(struct serio * , unsigned char  ) ;
   int (*open)(struct serio * ) ;
   void (*close)(struct serio * ) ;
   int (*start)(struct serio * ) ;
   void (*stop)(struct serio * ) ;
   struct serio *parent ;
   struct serio *child ;
   unsigned int depth ;
   struct serio_driver *drv ;
   struct mutex drv_mutex ;
   struct device dev ;
   unsigned int registered ;
   struct list_head node ;
};
struct serio_driver {
   void *private ;
   char *description ;
   struct serio_device_id *id_table ;
   unsigned int manual_bind ;
   void (*write_wakeup)(struct serio * ) ;
   irqreturn_t (*interrupt)(struct serio * , unsigned char  , unsigned int  ) ;
   int (*connect)(struct serio * , struct serio_driver * ) ;
   int (*reconnect)(struct serio * ) ;
   void (*disconnect)(struct serio * ) ;
   void (*cleanup)(struct serio * ) ;
   struct device_driver driver ;
};
struct magellan {
   struct input_dev *dev ;
   int idx ;
   unsigned char data[32U] ;
   char phys[32U] ;
};
typedef int ldv_func_ret_type;
enum lock_usage_bit {
    LOCK_USED = 0,
    LOCK_USED_IN_HARDIRQ = 1,
    LOCK_USED_IN_SOFTIRQ = 2,
    LOCK_ENABLED_SOFTIRQS = 3,
    LOCK_ENABLED_HARDIRQS = 4,
    LOCK_USED_IN_HARDIRQ_READ = 5,
    LOCK_USED_IN_SOFTIRQ_READ = 6,
    LOCK_ENABLED_SOFTIRQS_READ = 7,
    LOCK_ENABLED_HARDIRQS_READ = 8,
    LOCK_USAGE_STATES = 9
} ;
 static void set_bit(int nr , void volatile   *addr ) 
{ 


  {
  __asm__  volatile   (".section .smp_locks,\"a\"\n .balign 8 \n .quad 661f\n.previous\n661:\n\tlock; bts %1,%0": "+m" (*((long volatile   *)addr)): "Ir" (nr): "memory");
  return;
}
}
extern int snprintf(char * , size_t  , char const   *  , ...) ;
extern void mutex_unlock(struct mutex * ) ;
void ldv_mutex_unlock_3(struct mutex *ldv_func_arg1 ) ;
extern int mutex_lock_interruptible(struct mutex * ) ;
int ldv_mutex_lock_interruptible_1(struct mutex *ldv_func_arg1 ) ;
extern void mutex_lock(struct mutex * ) ;
void ldv_mutex_lock_2(struct mutex *ldv_func_arg1 ) ;
int ldv_mutex_lock_interruptible_drv_mutex_of_serio(struct mutex *lock ) ;
void ldv_mutex_lock_drv_mutex_of_serio(struct mutex *lock ) ;
void ldv_mutex_unlock_drv_mutex_of_serio(struct mutex *lock ) ;
extern void kfree(void const   * ) ;
extern void *__kmalloc(size_t  , gfp_t  ) ;
 static void *kmalloc(size_t size , gfp_t flags ) 
{ 
  void *tmp___2 ;

  {
  tmp___2 = __kmalloc(size, flags);
  return (tmp___2);
}
}
 static void *kzalloc(size_t size , gfp_t flags ) 
{ 
  void *tmp ;

  {
  tmp = kmalloc(size, flags | 32768U);
  return (tmp);
}
}
extern struct module __this_module ;
 static void *dev_get_drvdata(struct device *dev ) 
{ 


  {
  return (dev->driver_data);
}
}
 static void dev_set_drvdata(struct device *dev , void *data ) 
{ 


  {
  dev->driver_data = data;
  return;
}
}
struct input_dev *input_allocate_device(void) {
       return kzalloc(sizeof(struct input_dev), 0x10u | 0x40u | 0x80u);
}

extern void input_free_device(struct input_dev * ) ;
extern int input_register_device(struct input_dev * ) ;
extern void input_unregister_device(struct input_dev * ) ;
extern void input_event(struct input_dev * , unsigned int  , unsigned int  , int  ) ;
 static void input_report_key(struct input_dev *dev , unsigned int code ,
                                      int value ) 
{ 


  {
  input_event(dev, 1U, code, value != 0);
  return;
}
}
 static void input_report_abs(struct input_dev *dev , unsigned int code ,
                                      int value ) 
{ 


  {
  input_event(dev, 3U, code, value);
  return;
}
}
 static void input_sync(struct input_dev *dev ) 
{ 


  {
  input_event(dev, 0U, 0U, 0);
  return;
}
}
 static void input_set_abs_params(struct input_dev *dev , int axis , int min ,
                                          int max , int fuzz , int flat ) 
{ 


  {
  dev->absmin[axis] = min;
  dev->absmax[axis] = max;
  dev->absfuzz[axis] = fuzz;
  dev->absflat[axis] = flat;
  dev->absbit[axis / 64] = dev->absbit[axis / 64] | (1UL << axis % 64);
  return;
}
}
extern int serio_open(struct serio * , struct serio_driver * ) ;
extern void serio_close(struct serio * ) ;
extern int __serio_register_driver(struct serio_driver * , struct module * , char const   * ) ;
 static int serio_register_driver(struct serio_driver *drv ) 
{ 
  int tmp ;

  {
  tmp = __serio_register_driver(drv, & __this_module, "magellan");
  return (tmp);
}
}
extern void serio_unregister_driver(struct serio_driver * ) ;
 static void *serio_get_drvdata(struct serio *serio ) 
{ 
  void *tmp ;

  {
  tmp = dev_get_drvdata(& serio->dev);
  return (tmp);
}
}
 static void serio_set_drvdata(struct serio *serio , void *data ) 
{ 


  {
  dev_set_drvdata(& serio->dev, data);
  return;
}
}
static int magellan_buttons[9U]  = 
  {      256,      257,      258,      259, 
        260,      261,      262,      263, 
        264};
static int magellan_axes[6U]  = {      0,      1,      2,      3, 
        4,      5};
static int magellan_crunch_nibbles(unsigned char *data , int count ) 
{ 
  unsigned char nibbles[16U] ;

  {
  nibbles[0] = '0';
  nibbles[1] = 'A';
  nibbles[2] = 'B';
  nibbles[3] = '3';
  nibbles[4] = 'D';
  nibbles[5] = '5';
  nibbles[6] = '6';
  nibbles[7] = 'G';
  nibbles[8] = 'H';
  nibbles[9] = '9';
  nibbles[10] = ':';
  nibbles[11] = 'K';
  nibbles[12] = '<';
  nibbles[13] = 'M';
  nibbles[14] = 'N';
  nibbles[15] = '?';
  ldv_15817: ;
  if ((int )*(data + (unsigned long )count) == (int )nibbles[(int )*(data + (unsigned long )count) & 15]) {
    *(data + (unsigned long )count) = (unsigned int )*(data + (unsigned long )count) & 15U;
  } else {
    return (-1);
  }
  count = count - 1;
  if (count != 0) {
    goto ldv_15817;
  } else {

  }

  return (0);
}
}
static void magellan_process_packet(struct magellan *magellan ) 
{ 
  struct input_dev *dev ;
  unsigned char *data ;
  int i ;
  int t ;
  int tmp ;
  int tmp___0 ;

  {
  dev = magellan->dev;
  data = (unsigned char *)(& magellan->data);
  if (magellan->idx == 0) {
    return;
  } else {

  }
  switch ((int )magellan->data[0]) {
  case 100: ;
  if (magellan->idx != 25) {
    return;
  } else {

  }
  tmp = magellan_crunch_nibbles(data, 24);
  if (tmp != 0) {
    return;
  } else {

  }
  i = 0;
  goto ldv_15828;
  ldv_15827: 
  input_report_abs(dev, (unsigned int )magellan_axes[i], (((((int )*(data + ((unsigned long )(i << 2) + 1UL)) << 12) | ((int )*(data + ((unsigned long )(i << 2) + 2UL)) << 8)) | ((int )*(data + ((unsigned long )(i << 2) + 3UL)) << 4)) | (int )*(data + ((unsigned long )(i << 2) + 4UL))) + -32768);
  i = i + 1;
  ldv_15828: ;
  if (i <= 5) {
    goto ldv_15827;
  } else {

  }

  goto ldv_15830;
  case 107: ;
  if (magellan->idx != 4) {
    return;
  } else {

  }
  tmp___0 = magellan_crunch_nibbles(data, 3);
  if (tmp___0 != 0) {
    return;
  } else {

  }
  t = (((int )*(data + 1UL) << 1) | ((int )*(data + 2UL) << 5)) | (int )*(data + 3UL);
  i = 0;
  goto ldv_15833;
  ldv_15832: 
  input_report_key(dev, (unsigned int )magellan_buttons[i], (t >> i) & 1);
  i = i + 1;
  ldv_15833: ;
  if (i <= 8) {
    goto ldv_15832;
  } else {

  }

  goto ldv_15830;
  }
  ldv_15830: 
  input_sync(dev);
  return;
}
}
static irqreturn_t magellan_interrupt(struct serio *serio , unsigned char data , unsigned int flags ) 
{ 
  struct magellan *magellan ;
  void *tmp ;
  int tmp___0 ;

  {
  tmp = serio_get_drvdata(serio);
  magellan = (struct magellan *)tmp;
  if ((unsigned int )data == 13U) {
    magellan_process_packet(magellan);
    magellan->idx = 0;
  } else
  if (magellan->idx <= 31) {
    tmp___0 = magellan->idx;
    magellan->idx = magellan->idx + 1;
    magellan->data[tmp___0] = data;
  } else {

  }
  return (1);
}
}
static void magellan_disconnect(struct serio *serio ) 
{ 
  struct magellan *magellan ;
  void *tmp ;

  {
  tmp = serio_get_drvdata(serio);
  magellan = (struct magellan *)tmp;
  serio_close(serio);
  serio_set_drvdata(serio, 0);
  input_unregister_device(magellan->dev);
  kfree((void const   *)magellan);
  return;
}
}
static int magellan_connect(struct serio *serio , struct serio_driver *drv ) 
{ 
  struct magellan *magellan ;
  struct input_dev *input_dev ;
  int err ;
  int i ;
  void *tmp ;

  {
  err = -12;
  tmp = kzalloc(80UL, 208U);
  magellan = (struct magellan *)tmp;
  input_dev = input_allocate_device();
  if ((unsigned long )magellan == (unsigned long )((struct magellan *)0) || (unsigned long )input_dev == (unsigned long )((struct input_dev *)0)) {
    goto fail1;
  } else {

  }
  magellan->dev = input_dev;
  snprintf((char *)(& magellan->phys), 32UL, "%s/input0", (char *)(& serio->phys));
  input_dev->name = "LogiCad3D Magellan / SpaceMouse";
  input_dev->phys = (char const   *)(& magellan->phys);
  input_dev->id.bustype = 19U;
  input_dev->id.vendor = 26U;
  input_dev->id.product = 1U;
  input_dev->id.version = 256U;
  input_dev->dev.parent = & serio->dev;
  input_dev->evbit[0] = 10UL;
  i = 0;
  goto ldv_15855;
  ldv_15854: 
  set_bit(magellan_buttons[i], (void volatile   *)(& input_dev->keybit));
  i = i + 1;
  ldv_15855: ;
  if (i <= 8) {
    goto ldv_15854;
  } else {

  }
  i = 0;
  goto ldv_15858;
  ldv_15857: 
  input_set_abs_params(input_dev, magellan_axes[i], -360, 360, 0, 0);
  i = i + 1;
  ldv_15858: ;
  if (i <= 5) {
    goto ldv_15857;
  } else {

  }
  serio_set_drvdata(serio, (void *)magellan);
  err = serio_open(serio, drv);
  if (err != 0) {
    goto fail2;
  } else {

  }
  err = input_register_device(magellan->dev);
  if (err != 0) {
    goto fail3;
  } else {

  }
  return (0);
  fail3: 
  serio_close(serio);
  fail2: 
  serio_set_drvdata(serio, 0);
  fail1: 
  input_free_device(input_dev);
  kfree((void const   *)magellan);
  return (err);
}
}
static struct serio_device_id magellan_serio_ids[2U]  = {      {2U, 255U, 255U, 26U}, 
        {0U, (unsigned char)0, (unsigned char)0, (unsigned char)0}};
struct serio_device_id  const  __mod_serio_device_table  ;
static struct serio_driver magellan_drv  = 
     {0, (char *)"Magellan and SpaceMouse 6dof controller driver", (struct serio_device_id *)(& magellan_serio_ids),
    0U, 0, & magellan_interrupt, & magellan_connect, 0, & magellan_disconnect, 0,
    {"magellan", 0, 0, 0, 0, 0, 0, 0, 0, 0, 0}};
static int magellan_init(void) 
{ 
  int tmp ;

  {
  tmp = serio_register_driver(& magellan_drv);
  return (tmp);
}
}
static void magellan_exit(void) 
{ 


  {
  serio_unregister_driver(& magellan_drv);
  return;
}
}
void ldv_check_final_state(void) ;
extern void ldv_check_return_value(int  ) ;
void ldv_initialize(void) ;
extern void ldv_handler_precall(void) ;
extern int nondet_int(void) ;
int LDV_IN_INTERRUPT  ;
int main(void) 
{ 
  struct serio *var_group1 ;
  unsigned char var_magellan_interrupt_2_p1 ;
  unsigned int var_magellan_interrupt_2_p2 ;
  struct serio_driver *var_group2 ;
  int res_magellan_connect_4 ;
  int ldv_s_magellan_drv_serio_driver ;
  int tmp ;
  int tmp___0 ;
  int tmp___1 ;

  {
  ldv_s_magellan_drv_serio_driver = 0;
  LDV_IN_INTERRUPT = 1;
  ldv_initialize();
  ldv_handler_precall();
  tmp = magellan_init();
  if (tmp != 0) {
    goto ldv_final;
  } else {

  }
  goto ldv_15911;
  ldv_15910: 
  tmp___0 = nondet_int();
  switch (tmp___0) {
  case 0: ;
  if (ldv_s_magellan_drv_serio_driver == 0) {
    ldv_handler_precall();
    res_magellan_connect_4 = magellan_connect(var_group1, var_group2);
    ldv_check_return_value(res_magellan_connect_4);
    if (res_magellan_connect_4 != 0) {
      goto ldv_module_exit;
    } else {

    }
    ldv_s_magellan_drv_serio_driver = ldv_s_magellan_drv_serio_driver + 1;
  } else {

  }
  goto ldv_15906;
  case 1: ;
  if (ldv_s_magellan_drv_serio_driver == 1) {
    ldv_handler_precall();
    magellan_disconnect(var_group1);
    ldv_s_magellan_drv_serio_driver = 0;
  } else {

  }
  goto ldv_15906;
  case 2: 
  ldv_handler_precall();
  magellan_interrupt(var_group1, (int )var_magellan_interrupt_2_p1, var_magellan_interrupt_2_p2);
  goto ldv_15906;
  default: ;
  goto ldv_15906;
  }
  ldv_15906: ;
  ldv_15911: 
  tmp___1 = nondet_int();
  if (tmp___1 != 0 || ldv_s_magellan_drv_serio_driver != 0) {
    goto ldv_15910;
  } else {

  }

  ldv_module_exit: 
  ldv_handler_precall();
  magellan_exit();
  ldv_final: 
  ldv_check_final_state();
  return 0;
}
}
int ldv_mutex_lock_interruptible_1(struct mutex *ldv_func_arg1 ) 
{ 
  ldv_func_ret_type ldv_func_res ;
  int tmp ;
  int tmp___0 ;

  {
  tmp = mutex_lock_interruptible(ldv_func_arg1);
  ldv_func_res = tmp;
  tmp___0 = ldv_mutex_lock_interruptible_drv_mutex_of_serio(ldv_func_arg1);
  return (tmp___0);
  return (ldv_func_res);
}
}
void ldv_mutex_lock_2(struct mutex *ldv_func_arg1 ) 
{ 


  {
  ldv_mutex_lock_drv_mutex_of_serio(ldv_func_arg1);
  mutex_lock(ldv_func_arg1);
  return;
}
}
void ldv_mutex_unlock_3(struct mutex *ldv_func_arg1 ) 
{ 


  {
  ldv_mutex_unlock_drv_mutex_of_serio(ldv_func_arg1);
  mutex_unlock(ldv_func_arg1);
  return;
}
}
long ldv__builtin_expect(long exp , long c ) ;
 static void ( __attribute__((__always_inline__)) ldv_error)(void) 
{ 


  {
  LDV_ERROR: {reach_error();abort();}
}
}
extern int ldv_undef_int(void) ;
long ldv__builtin_expect(long exp , long c ) 
{ 


  {
  return (exp);
}
}
static int ldv_mutex_drv_mutex_of_serio  ;
int ldv_mutex_lock_interruptible_drv_mutex_of_serio(struct mutex *lock ) 
{ 
  int nondetermined ;

  {
  if (ldv_mutex_drv_mutex_of_serio == 1) {

  } else {
    ldv_error();
  }
  nondetermined = ldv_undef_int();
  if (nondetermined) {
    ldv_mutex_drv_mutex_of_serio = 2;
    return (0);
  } else {
    return (-4);
  }
}
}
int ldv_mutex_lock_killable_drv_mutex_of_serio(struct mutex *lock ) 
{ 
  int nondetermined ;

  {
  if (ldv_mutex_drv_mutex_of_serio == 1) {

  } else {
    ldv_error();
  }
  nondetermined = ldv_undef_int();
  if (nondetermined) {
    ldv_mutex_drv_mutex_of_serio = 2;
    return (0);
  } else {
    return (-4);
  }
}
}
void ldv_mutex_lock_drv_mutex_of_serio(struct mutex *lock ) 
{ 


  {
  if (ldv_mutex_drv_mutex_of_serio == 1) {

  } else {
    ldv_error();
  }
  ldv_mutex_drv_mutex_of_serio = 2;
  return;
}
}
int ldv_mutex_trylock_drv_mutex_of_serio(struct mutex *lock ) 
{ 
  int is_mutex_held_by_another_thread ;

  {
  if (ldv_mutex_drv_mutex_of_serio == 1) {

  } else {
    ldv_error();
  }
  is_mutex_held_by_another_thread = ldv_undef_int();
  if (is_mutex_held_by_another_thread) {
    return (0);
  } else {
    ldv_mutex_drv_mutex_of_serio = 2;
    return (1);
  }
}
}
int ldv_atomic_dec_and_mutex_lock_drv_mutex_of_serio(atomic_t *cnt , struct mutex *lock ) 
{ 
  int atomic_value_after_dec ;

  {
  if (ldv_mutex_drv_mutex_of_serio == 1) {

  } else {
    ldv_error();
  }
  atomic_value_after_dec = ldv_undef_int();
  if (atomic_value_after_dec == 0) {
    ldv_mutex_drv_mutex_of_serio = 2;
    return (1);
  } else {

  }
  return (0);
}
}
int ldv_mutex_is_locked_drv_mutex_of_serio(struct mutex *lock ) 
{ 
  int nondetermined ;

  {
  if (ldv_mutex_drv_mutex_of_serio == 1) {
    nondetermined = ldv_undef_int();
    if (nondetermined) {
      return (0);
    } else {
      return (1);
    }
  } else {
    return (1);
  }
}
}
void ldv_mutex_unlock_drv_mutex_of_serio(struct mutex *lock ) 
{ 


  {
  if (ldv_mutex_drv_mutex_of_serio == 2) {

  } else {
    ldv_error();
  }
  ldv_mutex_drv_mutex_of_serio = 1;
  return;
}
}
void ldv_initialize(void) 
{ 


  {
  ldv_mutex_drv_mutex_of_serio = 1;
  return;
}
}
void ldv_check_final_state(void) 
{ 


  {
  if (ldv_mutex_drv_mutex_of_serio == 1) {

  } else {
    ldv_error();
  }
  return;
}
}
