extern void abort(void);
extern void __assert_fail(const char *, const char *, unsigned int, const char *) __attribute__ ((__nothrow__ , __leaf__)) __attribute__ ((__noreturn__));
void reach_error() { __assert_fail("0", "drivers--media--video--videobuf-vmalloc.ko_012.0705135.32_7a.cil_true-unreach-call.i", 3, "reach_error"); }

/* Generated by CIL v. 1.5.1 */
/* print_CIL_Input is false */

typedef __builtin_va_list __gnuc_va_list[1U];
typedef __gnuc_va_list va_list[1U];
typedef unsigned int __kernel_mode_t;
typedef int __kernel_pid_t;
typedef unsigned int __kernel_uid_t;
typedef unsigned int __kernel_gid_t;
typedef unsigned long __kernel_size_t;
typedef long __kernel_ssize_t;
typedef long __kernel_time_t;
typedef long __kernel_suseconds_t;
typedef long __kernel_clock_t;
typedef int __kernel_timer_t;
typedef int __kernel_clockid_t;
typedef long long __kernel_loff_t;
typedef __kernel_uid_t __kernel_uid32_t;
typedef __kernel_gid_t __kernel_gid32_t;
typedef unsigned short umode_t;
typedef signed char __s8;
typedef short __s16;
typedef unsigned short __u16;
typedef int __s32;
typedef unsigned int __u32;
typedef long long __s64;
typedef unsigned long long __u64;
typedef signed char s8;
typedef unsigned char u8;
typedef unsigned short u16;
typedef unsigned int u32;
typedef long long s64;
typedef unsigned long long u64;
typedef __u32 __kernel_dev_t;
typedef __kernel_dev_t dev_t;
typedef __kernel_mode_t mode_t;
typedef __kernel_pid_t pid_t;
typedef __kernel_suseconds_t suseconds_t;
typedef __kernel_timer_t timer_t;
typedef __kernel_clockid_t clockid_t;
typedef __kernel_uid32_t uid_t;
typedef __kernel_gid32_t gid_t;
typedef __kernel_loff_t loff_t;
typedef __kernel_size_t size_t;
typedef __kernel_ssize_t ssize_t;
typedef __kernel_time_t time_t;
typedef __kernel_clock_t clock_t;
typedef unsigned long sector_t;
typedef unsigned long blkcnt_t;
typedef unsigned int gfp_t;
struct module;
struct bug_entry {
   unsigned long bug_addr ;
   char const   *file ;
   unsigned short line ;
   unsigned short flags ;
};
struct completion;
struct pt_regs;
struct pid;
struct task_struct;
struct mm_struct;
struct pt_regs {
   unsigned long r15 ;
   unsigned long r14 ;
   unsigned long r13 ;
   unsigned long r12 ;
   unsigned long bp ;
   unsigned long bx ;
   unsigned long r11 ;
   unsigned long r10 ;
   unsigned long r9 ;
   unsigned long r8 ;
   unsigned long ax ;
   unsigned long cx ;
   unsigned long dx ;
   unsigned long si ;
   unsigned long di ;
   unsigned long orig_ax ;
   unsigned long ip ;
   unsigned long cs ;
   unsigned long flags ;
   unsigned long sp ;
   unsigned long ss ;
};
struct info {
   long ___orig_eip ;
   long ___ebx ;
   long ___ecx ;
   long ___edx ;
   long ___esi ;
   long ___edi ;
   long ___ebp ;
   long ___eax ;
   long ___ds ;
   long ___es ;
   long ___fs ;
   long ___orig_eax ;
   long ___eip ;
   long ___cs ;
   long ___eflags ;
   long ___esp ;
   long ___ss ;
   long ___vm86_es ;
   long ___vm86_ds ;
   long ___vm86_fs ;
   long ___vm86_gs ;
};
typedef unsigned long pgdval_t;
typedef unsigned long pgprotval_t;
struct page;
struct __anonstruct_pgd_t_6 {
   pgdval_t pgd ;
};
typedef struct __anonstruct_pgd_t_6 pgd_t;
struct __anonstruct_pgprot_t_7 {
   pgprotval_t pgprot ;
};
typedef struct __anonstruct_pgprot_t_7 pgprot_t;
struct __anonstruct_ldv_1863_11 {
   unsigned int a ;
   unsigned int b ;
};
struct __anonstruct_ldv_1878_12 {
   u16 limit0 ;
   u16 base0 ;
   unsigned char base1 ;
   unsigned char type : 4 ;
   unsigned char s : 1 ;
   unsigned char dpl : 2 ;
   unsigned char p : 1 ;
   unsigned char limit : 4 ;
   unsigned char avl : 1 ;
   unsigned char l : 1 ;
   unsigned char d : 1 ;
   unsigned char g : 1 ;
   unsigned char base2 ;
};
union __anonunion_ldv_1879_10 {
   struct __anonstruct_ldv_1863_11 ldv_1863 ;
   struct __anonstruct_ldv_1878_12 ldv_1878 ;
};
struct desc_struct {
   union __anonunion_ldv_1879_10 ldv_1879 ;
};
struct __anonstruct_cpumask_t_13 {
   unsigned long bits[1U] ;
};
typedef struct __anonstruct_cpumask_t_13 cpumask_t;
struct thread_struct;
struct exec_domain;
struct map_segment;
struct exec_domain {
   char const   *name ;
   void (*handler)(int  , struct pt_regs * ) ;
   unsigned char pers_low ;
   unsigned char pers_high ;
   unsigned long *signal_map ;
   unsigned long *signal_invmap ;
   struct map_segment *err_map ;
   struct map_segment *socktype_map ;
   struct map_segment *sockopt_map ;
   struct map_segment *af_map ;
   struct module *module ;
   struct exec_domain *next ;
};
struct i387_fsave_struct {
   u32 cwd ;
   u32 swd ;
   u32 twd ;
   u32 fip ;
   u32 fcs ;
   u32 foo ;
   u32 fos ;
   u32 st_space[20U] ;
   u32 status ;
};
struct __anonstruct_ldv_3957_15 {
   u64 rip ;
   u64 rdp ;
};
struct __anonstruct_ldv_3963_16 {
   u32 fip ;
   u32 fcs ;
   u32 foo ;
   u32 fos ;
};
union __anonunion_ldv_3964_14 {
   struct __anonstruct_ldv_3957_15 ldv_3957 ;
   struct __anonstruct_ldv_3963_16 ldv_3963 ;
};
struct i387_fxsave_struct {
   u16 cwd ;
   u16 swd ;
   u16 twd ;
   u16 fop ;
   union __anonunion_ldv_3964_14 ldv_3964 ;
   u32 mxcsr ;
   u32 mxcsr_mask ;
   u32 st_space[32U] ;
   u32 xmm_space[64U] ;
   u32 padding[24U] ;
};
struct i387_soft_struct {
   u32 cwd ;
   u32 swd ;
   u32 twd ;
   u32 fip ;
   u32 fcs ;
   u32 foo ;
   u32 fos ;
   u32 st_space[20U] ;
   u8 ftop ;
   u8 changed ;
   u8 lookahead ;
   u8 no_update ;
   u8 rm ;
   u8 alimit ;
   struct info *info ;
   u32 entry_eip ;
};
union thread_xstate {
   struct i387_fsave_struct fsave ;
   struct i387_fxsave_struct fxsave ;
   struct i387_soft_struct soft ;
};
struct kmem_cache;
struct thread_struct {
   struct desc_struct tls_array[3U] ;
   unsigned long sp0 ;
   unsigned long sp ;
   unsigned long usersp ;
   unsigned short es ;
   unsigned short ds ;
   unsigned short fsindex ;
   unsigned short gsindex ;
   unsigned long ip ;
   unsigned long fs ;
   unsigned long gs ;
   unsigned long debugreg0 ;
   unsigned long debugreg1 ;
   unsigned long debugreg2 ;
   unsigned long debugreg3 ;
   unsigned long debugreg6 ;
   unsigned long debugreg7 ;
   unsigned long cr2 ;
   unsigned long trap_no ;
   unsigned long error_code ;
   union thread_xstate *xstate ;
   unsigned long *io_bitmap_ptr ;
   unsigned long iopl ;
   unsigned int io_bitmap_max ;
   unsigned long debugctlmsr ;
   unsigned long ds_area_msr ;
};
struct __anonstruct_mm_segment_t_17 {
   unsigned long seg ;
};
typedef struct __anonstruct_mm_segment_t_17 mm_segment_t;
struct list_head {
   struct list_head *next ;
   struct list_head *prev ;
};
struct hlist_node;
struct hlist_head {
   struct hlist_node *first ;
};
struct hlist_node {
   struct hlist_node *next ;
   struct hlist_node **pprev ;
};
struct __anonstruct_raw_spinlock_t_18 {
   unsigned int slock ;
};
typedef struct __anonstruct_raw_spinlock_t_18 raw_spinlock_t;
struct __anonstruct_raw_rwlock_t_19 {
   unsigned int lock ;
};
typedef struct __anonstruct_raw_rwlock_t_19 raw_rwlock_t;
struct lockdep_map;
struct stack_trace {
   unsigned int nr_entries ;
   unsigned int max_entries ;
   unsigned long *entries ;
   int skip ;
};
struct lockdep_subclass_key {
   char __one_byte ;
} __attribute__((__packed__)) ;
struct lock_class_key {
   struct lockdep_subclass_key subkeys[8U] ;
};
struct lock_class {
   struct list_head hash_entry ;
   struct list_head lock_entry ;
   struct lockdep_subclass_key *key ;
   unsigned int subclass ;
   unsigned long usage_mask ;
   struct stack_trace usage_traces[9U] ;
   struct list_head locks_after ;
   struct list_head locks_before ;
   unsigned int version ;
   unsigned long ops ;
   char const   *name ;
   int name_version ;
   unsigned long contention_point[4U] ;
};
struct lockdep_map {
   struct lock_class_key *key ;
   struct lock_class *class_cache ;
   char const   *name ;
   int cpu ;
};
struct held_lock {
   u64 prev_chain_key ;
   struct lock_class *class ;
   unsigned long acquire_ip ;
   struct lockdep_map *instance ;
   u64 waittime_stamp ;
   u64 holdtime_stamp ;
   int irq_context ;
   int trylock ;
   int read ;
   int check ;
   int hardirqs_off ;
};
struct __anonstruct_spinlock_t_20 {
   raw_spinlock_t raw_lock ;
   unsigned int magic ;
   unsigned int owner_cpu ;
   void *owner ;
   struct lockdep_map dep_map ;
};
typedef struct __anonstruct_spinlock_t_20 spinlock_t;
struct __anonstruct_rwlock_t_21 {
   raw_rwlock_t raw_lock ;
   unsigned int magic ;
   unsigned int owner_cpu ;
   void *owner ;
   struct lockdep_map dep_map ;
};
typedef struct __anonstruct_rwlock_t_21 rwlock_t;
struct __anonstruct_atomic_t_22 {
   int counter ;
};
typedef struct __anonstruct_atomic_t_22 atomic_t;
struct __anonstruct_atomic64_t_23 {
   long counter ;
};
typedef struct __anonstruct_atomic64_t_23 atomic64_t;
typedef atomic64_t atomic_long_t;
struct thread_info;
struct mutex {
   atomic_t count ;
   spinlock_t wait_lock ;
   struct list_head wait_list ;
   struct thread_info *owner ;
   char const   *name ;
   void *magic ;
   struct lockdep_map dep_map ;
};
struct mutex_waiter {
   struct list_head list ;
   struct task_struct *task ;
   struct mutex *lock ;
   void *magic ;
};
struct timespec;
struct compat_timespec;
struct __anonstruct_ldv_4845_25 {
   unsigned long arg0 ;
   unsigned long arg1 ;
   unsigned long arg2 ;
   unsigned long arg3 ;
};
struct __anonstruct_futex_26 {
   u32 *uaddr ;
   u32 val ;
   u32 flags ;
   u32 bitset ;
   u64 time ;
};
struct __anonstruct_nanosleep_27 {
   clockid_t index ;
   struct timespec *rmtp ;
   struct compat_timespec *compat_rmtp ;
   u64 expires ;
};
union __anonunion_ldv_4859_24 {
   struct __anonstruct_ldv_4845_25 ldv_4845 ;
   struct __anonstruct_futex_26 futex ;
   struct __anonstruct_nanosleep_27 nanosleep ;
};
struct restart_block {
   long (*fn)(struct restart_block * ) ;
   union __anonunion_ldv_4859_24 ldv_4859 ;
};
struct thread_info {
   struct task_struct *task ;
   struct exec_domain *exec_domain ;
   __u32 flags ;
   __u32 status ;
   __u32 cpu ;
   int preempt_count ;
   mm_segment_t addr_limit ;
   struct restart_block restart_block ;
   void *sysenter_return ;
};
struct timespec {
   time_t tv_sec ;
   long tv_nsec ;
};
struct timeval {
   time_t tv_sec ;
   suseconds_t tv_usec ;
};
struct kstat {
   u64 ino ;
   dev_t dev ;
   umode_t mode ;
   unsigned int nlink ;
   uid_t uid ;
   gid_t gid ;
   dev_t rdev ;
   loff_t size ;
   struct timespec atime ;
   struct timespec mtime ;
   struct timespec ctime ;
   unsigned long blksize ;
   unsigned long long blocks ;
};
struct key;
struct file;
typedef __u64 Elf64_Addr;
typedef __u16 Elf64_Half;
typedef __u32 Elf64_Word;
typedef __u64 Elf64_Xword;
struct elf64_sym {
   Elf64_Word st_name ;
   unsigned char st_info ;
   unsigned char st_other ;
   Elf64_Half st_shndx ;
   Elf64_Addr st_value ;
   Elf64_Xword st_size ;
};
typedef struct elf64_sym Elf64_Sym;
struct kobject;
struct attribute {
   char const   *name ;
   struct module *owner ;
   mode_t mode ;
};
struct attribute_group {
   char const   *name ;
   int (*is_visible)(struct kobject * , struct attribute * , int  ) ;
   struct attribute **attrs ;
};
struct vm_area_struct;
struct sysfs_ops {
   ssize_t (*show)(struct kobject * , struct attribute * , char * ) ;
   ssize_t (*store)(struct kobject * , struct attribute * , char const   * , size_t  ) ;
};
struct kref {
   atomic_t refcount ;
};
struct __wait_queue;
typedef struct __wait_queue wait_queue_t;
struct __wait_queue {
   unsigned int flags ;
   void *private ;
   int (*func)(wait_queue_t * , unsigned int  , int  , void * ) ;
   struct list_head task_list ;
};
struct __wait_queue_head {
   spinlock_t lock ;
   struct list_head task_list ;
};
typedef struct __wait_queue_head wait_queue_head_t;
struct kset;
struct kobj_type;
struct sysfs_dirent;
struct kobject {
   char const   *name ;
   struct kref kref ;
   struct list_head entry ;
   struct kobject *parent ;
   struct kset *kset ;
   struct kobj_type *ktype ;
   struct sysfs_dirent *sd ;
   unsigned char state_initialized : 1 ;
   unsigned char state_in_sysfs : 1 ;
   unsigned char state_add_uevent_sent : 1 ;
   unsigned char state_remove_uevent_sent : 1 ;
};
struct kobj_type {
   void (*release)(struct kobject * ) ;
   struct sysfs_ops *sysfs_ops ;
   struct attribute **default_attrs ;
};
struct kobj_uevent_env {
   char *envp[32U] ;
   int envp_idx ;
   char buf[2048U] ;
   int buflen ;
};
struct kset_uevent_ops {
   int (*filter)(struct kset * , struct kobject * ) ;
   char const   *(*name)(struct kset * , struct kobject * ) ;
   int (*uevent)(struct kset * , struct kobject * , struct kobj_uevent_env * ) ;
};
struct kset {
   struct list_head list ;
   spinlock_t list_lock ;
   struct kobject kobj ;
   struct kset_uevent_ops *uevent_ops ;
};
struct marker;
typedef void marker_probe_func(void * , void * , char const   * , va_list * );
struct marker_probe_closure {
   marker_probe_func *func ;
   void *probe_private ;
};
struct marker {
   char const   *name ;
   char const   *format ;
   char state ;
   char ptype ;
   void (*call)(struct marker  const  * , void * , char const   *  , ...) ;
   struct marker_probe_closure single ;
   struct marker_probe_closure *multi ;
};
struct __anonstruct_nodemask_t_34 {
   unsigned long bits[1U] ;
};
typedef struct __anonstruct_nodemask_t_34 nodemask_t;
struct rw_semaphore;
struct rw_semaphore {
   __s32 activity ;
   spinlock_t wait_lock ;
   struct list_head wait_list ;
   struct lockdep_map dep_map ;
};
union ktime {
   s64 tv64 ;
};
typedef union ktime ktime_t;
struct tvec_base;
struct timer_list {
   struct list_head entry ;
   unsigned long expires ;
   void (*function)(unsigned long  ) ;
   unsigned long data ;
   struct tvec_base *base ;
   void *start_site ;
   char start_comm[16U] ;
   int start_pid ;
};
struct hrtimer;
enum hrtimer_restart;
struct work_struct;
struct work_struct {
   atomic_long_t data ;
   struct list_head entry ;
   void (*func)(struct work_struct * ) ;
   struct lockdep_map lockdep_map ;
};
struct delayed_work {
   struct work_struct work ;
   struct timer_list timer ;
};
struct kmem_cache_cpu {
   void **freelist ;
   struct page *page ;
   int node ;
   unsigned int offset ;
   unsigned int objsize ;
   unsigned int stat[17U] ;
};
struct kmem_cache_node {
   spinlock_t list_lock ;
   unsigned long nr_partial ;
   struct list_head partial ;
   atomic_long_t nr_slabs ;
   struct list_head full ;
};
struct kmem_cache {
   unsigned long flags ;
   int size ;
   int objsize ;
   int offset ;
   int order ;
   struct kmem_cache_node local_node ;
   int objects ;
   gfp_t allocflags ;
   int refcount ;
   void (*ctor)(struct kmem_cache * , void * ) ;
   int inuse ;
   int align ;
   char const   *name ;
   struct list_head list ;
   struct kobject kobj ;
   int remote_node_defrag_ratio ;
   struct kmem_cache_node *node[64U] ;
   struct kmem_cache_cpu *cpu_slab[8U] ;
};
struct __anonstruct_local_t_86 {
   atomic_long_t a ;
};
typedef struct __anonstruct_local_t_86 local_t;
struct mod_arch_specific {

};
struct kernel_symbol {
   unsigned long value ;
   char const   *name ;
};
struct module_attribute {
   struct attribute attr ;
   ssize_t (*show)(struct module_attribute * , struct module * , char * ) ;
   ssize_t (*store)(struct module_attribute * , struct module * , char const   * ,
                    size_t  ) ;
   void (*setup)(struct module * , char const   * ) ;
   int (*test)(struct module * ) ;
   void (*free)(struct module * ) ;
};
struct module_kobject {
   struct kobject kobj ;
   struct module *mod ;
   struct kobject *drivers_dir ;
};
struct exception_table_entry;
struct module_ref {
   local_t count ;
};
enum module_state {
    MODULE_STATE_LIVE = 0,
    MODULE_STATE_COMING = 1,
    MODULE_STATE_GOING = 2
} ;
struct module_sect_attr {
   struct module_attribute mattr ;
   char *name ;
   unsigned long address ;
};
struct module_sect_attrs {
   struct attribute_group grp ;
   int nsections ;
   struct module_sect_attr attrs[0U] ;
};
struct module_param_attrs;
struct module_notes_attrs;
struct module {
   enum module_state state ;
   struct list_head list ;
   char name[56U] ;
   struct module_kobject mkobj ;
   struct module_param_attrs *param_attrs ;
   struct module_attribute *modinfo_attrs ;
   char const   *version ;
   char const   *srcversion ;
   struct kobject *holders_dir ;
   struct kernel_symbol  const  *syms ;
   unsigned int num_syms ;
   unsigned long const   *crcs ;
   struct kernel_symbol  const  *gpl_syms ;
   unsigned int num_gpl_syms ;
   unsigned long const   *gpl_crcs ;
   struct kernel_symbol  const  *unused_syms ;
   unsigned int num_unused_syms ;
   unsigned long const   *unused_crcs ;
   struct kernel_symbol  const  *unused_gpl_syms ;
   unsigned int num_unused_gpl_syms ;
   unsigned long const   *unused_gpl_crcs ;
   struct kernel_symbol  const  *gpl_future_syms ;
   unsigned int num_gpl_future_syms ;
   unsigned long const   *gpl_future_crcs ;
   unsigned int num_exentries ;
   struct exception_table_entry  const  *extable ;
   int (*init)(void) ;
   void *module_init ;
   void *module_core ;
   unsigned long init_size ;
   unsigned long core_size ;
   unsigned long init_text_size ;
   unsigned long core_text_size ;
   void *unwind_info ;
   struct mod_arch_specific arch ;
   unsigned int taints ;
   struct list_head bug_list ;
   struct bug_entry *bug_table ;
   unsigned int num_bugs ;
   struct module_ref ref[8U] ;
   struct list_head modules_which_use_me ;
   struct task_struct *waiter ;
   void (*exit)(void) ;
   Elf64_Sym *symtab ;
   unsigned long num_symtab ;
   char *strtab ;
   struct module_sect_attrs *sect_attrs ;
   struct module_notes_attrs *notes_attrs ;
   void *percpu ;
   char *args ;
   struct marker *markers ;
   unsigned int num_markers ;
};
struct kernel_cap_struct {
   __u32 cap[2U] ;
};
typedef struct kernel_cap_struct kernel_cap_t;
struct rb_node {
   unsigned long rb_parent_color ;
   struct rb_node *rb_right ;
   struct rb_node *rb_left ;
};
struct rb_root {
   struct rb_node *rb_node ;
};
struct prio_tree_node;
struct raw_prio_tree_node {
   struct prio_tree_node *left ;
   struct prio_tree_node *right ;
   struct prio_tree_node *parent ;
};
struct prio_tree_node {
   struct prio_tree_node *left ;
   struct prio_tree_node *right ;
   struct prio_tree_node *parent ;
   unsigned long start ;
   unsigned long last ;
};
struct prio_tree_root {
   struct prio_tree_node *prio_tree_node ;
   unsigned short index_bits ;
   unsigned short raw ;
};
struct completion {
   unsigned int done ;
   wait_queue_head_t wait ;
};
struct __anonstruct_mm_context_t_88 {
   void *ldt ;
   rwlock_t ldtlock ;
   int size ;
   struct mutex lock ;
   void *vdso ;
};
typedef struct __anonstruct_mm_context_t_88 mm_context_t;
struct address_space;
typedef atomic_long_t mm_counter_t;
union __anonunion_ldv_8739_89 {
   atomic_t _mapcount ;
   unsigned int inuse ;
};
struct __anonstruct_ldv_8744_91 {
   unsigned long private ;
   struct address_space *mapping ;
};
union __anonunion_ldv_8748_90 {
   struct __anonstruct_ldv_8744_91 ldv_8744 ;
   spinlock_t ptl ;
   struct kmem_cache *slab ;
   struct page *first_page ;
};
union __anonunion_ldv_8752_92 {
   unsigned long index ;
   void *freelist ;
};
struct page {
   unsigned long flags ;
   atomic_t _count ;
   union __anonunion_ldv_8739_89 ldv_8739 ;
   union __anonunion_ldv_8748_90 ldv_8748 ;
   union __anonunion_ldv_8752_92 ldv_8752 ;
   struct list_head lru ;
   unsigned long page_cgroup ;
};
struct __anonstruct_vm_set_94 {
   struct list_head list ;
   void *parent ;
   struct vm_area_struct *head ;
};
union __anonunion_shared_93 {
   struct __anonstruct_vm_set_94 vm_set ;
   struct raw_prio_tree_node prio_tree_node ;
};
struct anon_vma;
struct vm_operations_struct;
struct mempolicy;
struct vm_area_struct {
   struct mm_struct *vm_mm ;
   unsigned long vm_start ;
   unsigned long vm_end ;
   struct vm_area_struct *vm_next ;
   pgprot_t vm_page_prot ;
   unsigned long vm_flags ;
   struct rb_node vm_rb ;
   union __anonunion_shared_93 shared ;
   struct list_head anon_vma_node ;
   struct anon_vma *anon_vma ;
   struct vm_operations_struct *vm_ops ;
   unsigned long vm_pgoff ;
   struct file *vm_file ;
   void *vm_private_data ;
   unsigned long vm_truncate_count ;
   struct mempolicy *vm_policy ;
};
struct kioctx;
struct mem_cgroup;
struct mm_struct {
   struct vm_area_struct *mmap ;
   struct rb_root mm_rb ;
   struct vm_area_struct *mmap_cache ;
   unsigned long (*get_unmapped_area)(struct file * , unsigned long  , unsigned long  ,
                                      unsigned long  , unsigned long  ) ;
   void (*unmap_area)(struct mm_struct * , unsigned long  ) ;
   unsigned long mmap_base ;
   unsigned long task_size ;
   unsigned long cached_hole_size ;
   unsigned long free_area_cache ;
   pgd_t *pgd ;
   atomic_t mm_users ;
   atomic_t mm_count ;
   int map_count ;
   struct rw_semaphore mmap_sem ;
   spinlock_t page_table_lock ;
   struct list_head mmlist ;
   mm_counter_t _file_rss ;
   mm_counter_t _anon_rss ;
   unsigned long hiwater_rss ;
   unsigned long hiwater_vm ;
   unsigned long total_vm ;
   unsigned long locked_vm ;
   unsigned long shared_vm ;
   unsigned long exec_vm ;
   unsigned long stack_vm ;
   unsigned long reserved_vm ;
   unsigned long def_flags ;
   unsigned long nr_ptes ;
   unsigned long start_code ;
   unsigned long end_code ;
   unsigned long start_data ;
   unsigned long end_data ;
   unsigned long start_brk ;
   unsigned long brk ;
   unsigned long start_stack ;
   unsigned long arg_start ;
   unsigned long arg_end ;
   unsigned long env_start ;
   unsigned long env_end ;
   unsigned long saved_auxv[38U] ;
   cpumask_t cpu_vm_mask ;
   mm_context_t context ;
   unsigned int faultstamp ;
   unsigned int token_priority ;
   unsigned int last_interval ;
   unsigned long flags ;
   int core_waiters ;
   struct completion *core_startup_done ;
   struct completion core_done ;
   rwlock_t ioctx_list_lock ;
   struct kioctx *ioctx_list ;
   struct mem_cgroup *mem_cgroup ;
};
typedef unsigned long cputime_t;
struct sem_undo;
struct sem_undo {
   struct sem_undo *proc_next ;
   struct sem_undo *id_next ;
   int semid ;
   short *semadj ;
};
struct sem_undo_list {
   atomic_t refcnt ;
   spinlock_t lock ;
   struct sem_undo *proc_list ;
};
struct sysv_sem {
   struct sem_undo_list *undo_list ;
};
struct siginfo;
struct __anonstruct_sigset_t_95 {
   unsigned long sig[1U] ;
};
typedef struct __anonstruct_sigset_t_95 sigset_t;
typedef void __signalfn_t(int  );
typedef __signalfn_t *__sighandler_t;
typedef void __restorefn_t(void);
typedef __restorefn_t *__sigrestore_t;
struct sigaction {
   __sighandler_t sa_handler ;
   unsigned long sa_flags ;
   __sigrestore_t sa_restorer ;
   sigset_t sa_mask ;
};
struct k_sigaction {
   struct sigaction sa ;
};
union sigval {
   int sival_int ;
   void *sival_ptr ;
};
typedef union sigval sigval_t;
struct __anonstruct__kill_97 {
   pid_t _pid ;
   uid_t _uid ;
};
struct __anonstruct__timer_98 {
   timer_t _tid ;
   int _overrun ;
   char _pad[0U] ;
   sigval_t _sigval ;
   int _sys_private ;
};
struct __anonstruct__rt_99 {
   pid_t _pid ;
   uid_t _uid ;
   sigval_t _sigval ;
};
struct __anonstruct__sigchld_100 {
   pid_t _pid ;
   uid_t _uid ;
   int _status ;
   clock_t _utime ;
   clock_t _stime ;
};
struct __anonstruct__sigfault_101 {
   void *_addr ;
};
struct __anonstruct__sigpoll_102 {
   long _band ;
   int _fd ;
};
union __anonunion__sifields_96 {
   int _pad[28U] ;
   struct __anonstruct__kill_97 _kill ;
   struct __anonstruct__timer_98 _timer ;
   struct __anonstruct__rt_99 _rt ;
   struct __anonstruct__sigchld_100 _sigchld ;
   struct __anonstruct__sigfault_101 _sigfault ;
   struct __anonstruct__sigpoll_102 _sigpoll ;
};
struct siginfo {
   int si_signo ;
   int si_errno ;
   int si_code ;
   union __anonunion__sifields_96 _sifields ;
};
typedef struct siginfo siginfo_t;
struct user_struct;
struct sigpending {
   struct list_head list ;
   sigset_t signal ;
};
struct dentry;
struct vfsmount;
struct path {
   struct vfsmount *mnt ;
   struct dentry *dentry ;
};
struct fs_struct {
   atomic_t count ;
   rwlock_t lock ;
   int umask ;
   struct path root ;
   struct path pwd ;
   struct path altroot ;
};
struct rcu_head {
   struct rcu_head *next ;
   void (*func)(struct rcu_head * ) ;
};
enum pid_type {
    PIDTYPE_PID = 0,
    PIDTYPE_PGID = 1,
    PIDTYPE_SID = 2,
    PIDTYPE_MAX = 3
} ;
struct pid_namespace;
struct upid {
   int nr ;
   struct pid_namespace *ns ;
   struct hlist_node pid_chain ;
};
struct pid {
   atomic_t count ;
   struct hlist_head tasks[3U] ;
   struct rcu_head rcu ;
   int level ;
   struct upid numbers[1U] ;
};
struct pid_link {
   struct hlist_node node ;
   struct pid *pid ;
};
struct prop_local_single {
   unsigned long events ;
   int shift ;
   unsigned long period ;
   spinlock_t lock ;
};
struct __anonstruct_seccomp_t_105 {
   int mode ;
};
typedef struct __anonstruct_seccomp_t_105 seccomp_t;
struct plist_head {
   struct list_head prio_list ;
   struct list_head node_list ;
   spinlock_t *lock ;
};
struct rt_mutex_waiter;
struct rlimit {
   unsigned long rlim_cur ;
   unsigned long rlim_max ;
};
struct hrtimer_clock_base;
struct hrtimer_cpu_base;
enum hrtimer_restart {
    HRTIMER_NORESTART = 0,
    HRTIMER_RESTART = 1
} ;
enum hrtimer_cb_mode {
    HRTIMER_CB_SOFTIRQ = 0,
    HRTIMER_CB_IRQSAFE = 1,
    HRTIMER_CB_IRQSAFE_NO_RESTART = 2,
    HRTIMER_CB_IRQSAFE_NO_SOFTIRQ = 3
} ;
struct hrtimer {
   struct rb_node node ;
   ktime_t expires ;
   enum hrtimer_restart (*function)(struct hrtimer * ) ;
   struct hrtimer_clock_base *base ;
   unsigned long state ;
   enum hrtimer_cb_mode cb_mode ;
   struct list_head cb_entry ;
   void *start_site ;
   char start_comm[16U] ;
   int start_pid ;
};
struct hrtimer_clock_base {
   struct hrtimer_cpu_base *cpu_base ;
   clockid_t index ;
   struct rb_root active ;
   struct rb_node *first ;
   ktime_t resolution ;
   ktime_t (*get_time)(void) ;
   ktime_t (*get_softirq_time)(void) ;
   ktime_t softirq_time ;
   ktime_t offset ;
   int (*reprogram)(struct hrtimer * , struct hrtimer_clock_base * , ktime_t  ) ;
};
struct hrtimer_cpu_base {
   spinlock_t lock ;
   struct hrtimer_clock_base clock_base[2U] ;
   struct list_head cb_pending ;
   ktime_t expires_next ;
   int hres_active ;
   unsigned long nr_events ;
};
struct task_io_accounting {
   u64 read_bytes ;
   u64 write_bytes ;
   u64 cancelled_write_bytes ;
};
struct latency_record {
   unsigned long backtrace[12U] ;
   unsigned int count ;
   unsigned long time ;
   unsigned long max ;
};
struct futex_pi_state;
struct robust_list_head;
struct bio;
struct seq_file;
struct cfs_rq;
struct task_group;
struct nsproxy;
struct io_event {
   __u64 data ;
   __u64 obj ;
   __s64 res ;
   __s64 res2 ;
};
struct iovec {
   void *iov_base ;
   __kernel_size_t iov_len ;
};
union __anonunion_ki_obj_106 {
   void *user ;
   struct task_struct *tsk ;
};
struct kiocb {
   struct list_head ki_run_list ;
   unsigned long ki_flags ;
   int ki_users ;
   unsigned int ki_key ;
   struct file *ki_filp ;
   struct kioctx *ki_ctx ;
   int (*ki_cancel)(struct kiocb * , struct io_event * ) ;
   ssize_t (*ki_retry)(struct kiocb * ) ;
   void (*ki_dtor)(struct kiocb * ) ;
   union __anonunion_ki_obj_106 ki_obj ;
   __u64 ki_user_data ;
   wait_queue_t ki_wait ;
   loff_t ki_pos ;
   void *private ;
   unsigned short ki_opcode ;
   size_t ki_nbytes ;
   char *ki_buf ;
   size_t ki_left ;
   struct iovec ki_inline_vec ;
   struct iovec *ki_iovec ;
   unsigned long ki_nr_segs ;
   unsigned long ki_cur_seg ;
   struct list_head ki_list ;
   struct file *ki_eventfd ;
};
struct aio_ring_info {
   unsigned long mmap_base ;
   unsigned long mmap_size ;
   struct page **ring_pages ;
   spinlock_t ring_lock ;
   long nr_pages ;
   unsigned int nr ;
   unsigned int tail ;
   struct page *internal_pages[8U] ;
};
struct kioctx {
   atomic_t users ;
   int dead ;
   struct mm_struct *mm ;
   unsigned long user_id ;
   struct kioctx *next ;
   wait_queue_head_t wait ;
   spinlock_t ctx_lock ;
   int reqs_active ;
   struct list_head active_reqs ;
   struct list_head run_list ;
   unsigned int max_reqs ;
   struct aio_ring_info ring_info ;
   struct delayed_work wq ;
};
struct sighand_struct {
   atomic_t count ;
   struct k_sigaction action[64U] ;
   spinlock_t siglock ;
   wait_queue_head_t signalfd_wqh ;
};
struct pacct_struct {
   int ac_flag ;
   long ac_exitcode ;
   unsigned long ac_mem ;
   cputime_t ac_utime ;
   cputime_t ac_stime ;
   unsigned long ac_minflt ;
   unsigned long ac_majflt ;
};
union __anonunion_ldv_10108_107 {
   pid_t pgrp ;
   pid_t __pgrp ;
};
union __anonunion_ldv_10113_108 {
   pid_t session ;
   pid_t __session ;
};
struct tty_struct;
struct taskstats;
struct tty_audit_buf;
struct signal_struct {
   atomic_t count ;
   atomic_t live ;
   wait_queue_head_t wait_chldexit ;
   struct task_struct *curr_target ;
   struct sigpending shared_pending ;
   int group_exit_code ;
   struct task_struct *group_exit_task ;
   int notify_count ;
   int group_stop_count ;
   unsigned int flags ;
   struct list_head posix_timers ;
   struct hrtimer real_timer ;
   struct pid *leader_pid ;
   ktime_t it_real_incr ;
   cputime_t it_prof_expires ;
   cputime_t it_virt_expires ;
   cputime_t it_prof_incr ;
   cputime_t it_virt_incr ;
   union __anonunion_ldv_10108_107 ldv_10108 ;
   struct pid *tty_old_pgrp ;
   union __anonunion_ldv_10113_108 ldv_10113 ;
   int leader ;
   struct tty_struct *tty ;
   cputime_t utime ;
   cputime_t stime ;
   cputime_t cutime ;
   cputime_t cstime ;
   cputime_t gtime ;
   cputime_t cgtime ;
   unsigned long nvcsw ;
   unsigned long nivcsw ;
   unsigned long cnvcsw ;
   unsigned long cnivcsw ;
   unsigned long min_flt ;
   unsigned long maj_flt ;
   unsigned long cmin_flt ;
   unsigned long cmaj_flt ;
   unsigned long inblock ;
   unsigned long oublock ;
   unsigned long cinblock ;
   unsigned long coublock ;
   unsigned long long sum_sched_runtime ;
   struct rlimit rlim[16U] ;
   struct list_head cpu_timers[3U] ;
   struct key *session_keyring ;
   struct key *process_keyring ;
   struct pacct_struct pacct ;
   struct taskstats *stats ;
   unsigned int audit_tty ;
   struct tty_audit_buf *tty_audit_buf ;
};
struct user_struct {
   atomic_t __count ;
   atomic_t processes ;
   atomic_t files ;
   atomic_t sigpending ;
   atomic_t inotify_watches ;
   atomic_t inotify_devs ;
   unsigned long mq_bytes ;
   unsigned long locked_shm ;
   struct key *uid_keyring ;
   struct key *session_keyring ;
   struct hlist_node uidhash_node ;
   uid_t uid ;
   struct task_group *tg ;
   struct kobject kobj ;
   struct work_struct work ;
};
struct backing_dev_info;
struct reclaim_state;
struct sched_info {
   unsigned long pcount ;
   unsigned long long cpu_time ;
   unsigned long long run_delay ;
   unsigned long long last_arrival ;
   unsigned long long last_queued ;
   unsigned int bkl_count ;
};
struct file_operations;
struct task_delay_info {
   spinlock_t lock ;
   unsigned int flags ;
   struct timespec blkio_start ;
   struct timespec blkio_end ;
   u64 blkio_delay ;
   u64 swapin_delay ;
   u32 blkio_count ;
   u32 swapin_count ;
};
enum cpu_idle_type {
    CPU_IDLE = 0,
    CPU_NOT_IDLE = 1,
    CPU_NEWLY_IDLE = 2,
    CPU_MAX_IDLE_TYPES = 3
} ;
struct sched_group {
   struct sched_group *next ;
   cpumask_t cpumask ;
   unsigned int __cpu_power ;
   u32 reciprocal_cpu_power ;
};
enum sched_domain_level {
    SD_LV_NONE = 0,
    SD_LV_SIBLING = 1,
    SD_LV_MC = 2,
    SD_LV_CPU = 3,
    SD_LV_NODE = 4,
    SD_LV_ALLNODES = 5,
    SD_LV_MAX = 6
} ;
struct sched_domain {
   struct sched_domain *parent ;
   struct sched_domain *child ;
   struct sched_group *groups ;
   cpumask_t span ;
   int first_cpu ;
   unsigned long min_interval ;
   unsigned long max_interval ;
   unsigned int busy_factor ;
   unsigned int imbalance_pct ;
   unsigned int cache_nice_tries ;
   unsigned int busy_idx ;
   unsigned int idle_idx ;
   unsigned int newidle_idx ;
   unsigned int wake_idx ;
   unsigned int forkexec_idx ;
   int flags ;
   enum sched_domain_level level ;
   unsigned long last_balance ;
   unsigned int balance_interval ;
   unsigned int nr_balance_failed ;
   unsigned int lb_count[3U] ;
   unsigned int lb_failed[3U] ;
   unsigned int lb_balanced[3U] ;
   unsigned int lb_imbalance[3U] ;
   unsigned int lb_gained[3U] ;
   unsigned int lb_hot_gained[3U] ;
   unsigned int lb_nobusyg[3U] ;
   unsigned int lb_nobusyq[3U] ;
   unsigned int alb_count ;
   unsigned int alb_failed ;
   unsigned int alb_pushed ;
   unsigned int sbe_count ;
   unsigned int sbe_balanced ;
   unsigned int sbe_pushed ;
   unsigned int sbf_count ;
   unsigned int sbf_balanced ;
   unsigned int sbf_pushed ;
   unsigned int ttwu_wake_remote ;
   unsigned int ttwu_move_affine ;
   unsigned int ttwu_move_balance ;
};
struct io_context;
struct group_info {
   int ngroups ;
   atomic_t usage ;
   gid_t small_block[32U] ;
   int nblocks ;
   gid_t *blocks[0U] ;
};
struct audit_context;
struct pipe_inode_info;
struct rq;
struct sched_class {
   struct sched_class  const  *next ;
   void (*enqueue_task)(struct rq * , struct task_struct * , int  ) ;
   void (*dequeue_task)(struct rq * , struct task_struct * , int  ) ;
   void (*yield_task)(struct rq * ) ;
   int (*select_task_rq)(struct task_struct * , int  ) ;
   void (*check_preempt_curr)(struct rq * , struct task_struct * ) ;
   struct task_struct *(*pick_next_task)(struct rq * ) ;
   void (*put_prev_task)(struct rq * , struct task_struct * ) ;
   unsigned long (*load_balance)(struct rq * , int  , struct rq * , unsigned long  ,
                                 struct sched_domain * , enum cpu_idle_type  , int * ,
                                 int * ) ;
   int (*move_one_task)(struct rq * , int  , struct rq * , struct sched_domain * ,
                        enum cpu_idle_type  ) ;
   void (*pre_schedule)(struct rq * , struct task_struct * ) ;
   void (*post_schedule)(struct rq * ) ;
   void (*task_wake_up)(struct rq * , struct task_struct * ) ;
   void (*set_curr_task)(struct rq * ) ;
   void (*task_tick)(struct rq * , struct task_struct * , int  ) ;
   void (*task_new)(struct rq * , struct task_struct * ) ;
   void (*set_cpus_allowed)(struct task_struct * , cpumask_t const   * ) ;
   void (*join_domain)(struct rq * ) ;
   void (*leave_domain)(struct rq * ) ;
   void (*switched_from)(struct rq * , struct task_struct * , int  ) ;
   void (*switched_to)(struct rq * , struct task_struct * , int  ) ;
   void (*prio_changed)(struct rq * , struct task_struct * , int  , int  ) ;
   void (*moved_group)(struct task_struct * ) ;
};
struct load_weight {
   unsigned long weight ;
   unsigned long inv_weight ;
};
struct sched_entity {
   struct load_weight load ;
   struct rb_node run_node ;
   struct list_head group_node ;
   unsigned int on_rq ;
   u64 exec_start ;
   u64 sum_exec_runtime ;
   u64 vruntime ;
   u64 prev_sum_exec_runtime ;
   u64 last_wakeup ;
   u64 avg_overlap ;
   u64 wait_start ;
   u64 wait_max ;
   u64 wait_count ;
   u64 wait_sum ;
   u64 sleep_start ;
   u64 sleep_max ;
   s64 sum_sleep_runtime ;
   u64 block_start ;
   u64 block_max ;
   u64 exec_max ;
   u64 slice_max ;
   u64 nr_migrations ;
   u64 nr_migrations_cold ;
   u64 nr_failed_migrations_affine ;
   u64 nr_failed_migrations_running ;
   u64 nr_failed_migrations_hot ;
   u64 nr_forced_migrations ;
   u64 nr_forced2_migrations ;
   u64 nr_wakeups ;
   u64 nr_wakeups_sync ;
   u64 nr_wakeups_migrate ;
   u64 nr_wakeups_local ;
   u64 nr_wakeups_remote ;
   u64 nr_wakeups_affine ;
   u64 nr_wakeups_affine_attempts ;
   u64 nr_wakeups_passive ;
   u64 nr_wakeups_idle ;
   struct sched_entity *parent ;
   struct cfs_rq *cfs_rq ;
   struct cfs_rq *my_q ;
};
struct rt_rq;
struct sched_rt_entity {
   struct list_head run_list ;
   unsigned int time_slice ;
   unsigned long timeout ;
   int nr_cpus_allowed ;
   struct sched_rt_entity *back ;
   struct sched_rt_entity *parent ;
   struct rt_rq *rt_rq ;
   struct rt_rq *my_q ;
};
struct linux_binfmt;
struct files_struct;
struct css_set;
struct compat_robust_list_head;
struct task_struct {
   long volatile   state ;
   void *stack ;
   atomic_t usage ;
   unsigned int flags ;
   unsigned int ptrace ;
   int lock_depth ;
   int prio ;
   int static_prio ;
   int normal_prio ;
   struct sched_class  const  *sched_class ;
   struct sched_entity se ;
   struct sched_rt_entity rt ;
   struct hlist_head preempt_notifiers ;
   unsigned char fpu_counter ;
   s8 oomkilladj ;
   unsigned int policy ;
   cpumask_t cpus_allowed ;
   struct sched_info sched_info ;
   struct list_head tasks ;
   struct list_head ptrace_children ;
   struct list_head ptrace_list ;
   struct mm_struct *mm ;
   struct mm_struct *active_mm ;
   struct linux_binfmt *binfmt ;
   int exit_state ;
   int exit_code ;
   int exit_signal ;
   int pdeath_signal ;
   unsigned int personality ;
   unsigned char did_exec : 1 ;
   pid_t pid ;
   pid_t tgid ;
   struct task_struct *real_parent ;
   struct task_struct *parent ;
   struct list_head children ;
   struct list_head sibling ;
   struct task_struct *group_leader ;
   struct pid_link pids[3U] ;
   struct list_head thread_group ;
   struct completion *vfork_done ;
   int *set_child_tid ;
   int *clear_child_tid ;
   unsigned int rt_priority ;
   cputime_t utime ;
   cputime_t stime ;
   cputime_t utimescaled ;
   cputime_t stimescaled ;
   cputime_t gtime ;
   cputime_t prev_utime ;
   cputime_t prev_stime ;
   unsigned long nvcsw ;
   unsigned long nivcsw ;
   struct timespec start_time ;
   struct timespec real_start_time ;
   unsigned long min_flt ;
   unsigned long maj_flt ;
   cputime_t it_prof_expires ;
   cputime_t it_virt_expires ;
   unsigned long long it_sched_expires ;
   struct list_head cpu_timers[3U] ;
   uid_t uid ;
   uid_t euid ;
   uid_t suid ;
   uid_t fsuid ;
   gid_t gid ;
   gid_t egid ;
   gid_t sgid ;
   gid_t fsgid ;
   struct group_info *group_info ;
   kernel_cap_t cap_effective ;
   kernel_cap_t cap_inheritable ;
   kernel_cap_t cap_permitted ;
   kernel_cap_t cap_bset ;
   unsigned char keep_capabilities : 1 ;
   struct user_struct *user ;
   struct key *request_key_auth ;
   struct key *thread_keyring ;
   unsigned char jit_keyring ;
   char comm[16U] ;
   int link_count ;
   int total_link_count ;
   struct sysv_sem sysvsem ;
   unsigned long last_switch_timestamp ;
   unsigned long last_switch_count ;
   struct thread_struct thread ;
   struct fs_struct *fs ;
   struct files_struct *files ;
   struct nsproxy *nsproxy ;
   struct signal_struct *signal ;
   struct sighand_struct *sighand ;
   sigset_t blocked ;
   sigset_t real_blocked ;
   sigset_t saved_sigmask ;
   struct sigpending pending ;
   unsigned long sas_ss_sp ;
   size_t sas_ss_size ;
   int (*notifier)(void * ) ;
   void *notifier_data ;
   sigset_t *notifier_mask ;
   void *security ;
   struct audit_context *audit_context ;
   uid_t loginuid ;
   unsigned int sessionid ;
   seccomp_t seccomp ;
   u32 parent_exec_id ;
   u32 self_exec_id ;
   spinlock_t alloc_lock ;
   spinlock_t pi_lock ;
   struct plist_head pi_waiters ;
   struct rt_mutex_waiter *pi_blocked_on ;
   struct mutex_waiter *blocked_on ;
   unsigned int irq_events ;
   int hardirqs_enabled ;
   unsigned long hardirq_enable_ip ;
   unsigned int hardirq_enable_event ;
   unsigned long hardirq_disable_ip ;
   unsigned int hardirq_disable_event ;
   int softirqs_enabled ;
   unsigned long softirq_disable_ip ;
   unsigned int softirq_disable_event ;
   unsigned long softirq_enable_ip ;
   unsigned int softirq_enable_event ;
   int hardirq_context ;
   int softirq_context ;
   u64 curr_chain_key ;
   int lockdep_depth ;
   struct held_lock held_locks[48U] ;
   unsigned int lockdep_recursion ;
   void *journal_info ;
   struct bio *bio_list ;
   struct bio **bio_tail ;
   struct reclaim_state *reclaim_state ;
   struct backing_dev_info *backing_dev_info ;
   struct io_context *io_context ;
   unsigned long ptrace_message ;
   siginfo_t *last_siginfo ;
   u64 rchar ;
   u64 wchar ;
   u64 syscr ;
   u64 syscw ;
   struct task_io_accounting ioac ;
   u64 acct_rss_mem1 ;
   u64 acct_vm_mem1 ;
   cputime_t acct_stimexpd ;
   struct mempolicy *mempolicy ;
   short il_next ;
   nodemask_t mems_allowed ;
   int cpuset_mems_generation ;
   int cpuset_mem_spread_rotor ;
   struct css_set *cgroups ;
   struct list_head cg_list ;
   struct robust_list_head *robust_list ;
   struct compat_robust_list_head *compat_robust_list ;
   struct list_head pi_state_list ;
   struct futex_pi_state *pi_state_cache ;
   atomic_t fs_excl ;
   struct rcu_head rcu ;
   struct pipe_inode_info *splice_pipe ;
   struct task_delay_info *delays ;
   int make_it_fail ;
   struct prop_local_single dirties ;
   int latency_record_count ;
   struct latency_record latency_record[32U] ;
};
struct semaphore {
   spinlock_t lock ;
   unsigned int count ;
   struct list_head wait_list ;
};
struct file_ra_state;
struct writeback_control;
struct vm_fault {
   unsigned int flags ;
   unsigned long pgoff ;
   void *virtual_address ;
   struct page *page ;
};
struct vm_operations_struct {
   void (*open)(struct vm_area_struct * ) ;
   void (*close)(struct vm_area_struct * ) ;
   int (*fault)(struct vm_area_struct * , struct vm_fault * ) ;
   struct page *(*nopage)(struct vm_area_struct * , unsigned long  , int * ) ;
   unsigned long (*nopfn)(struct vm_area_struct * , unsigned long  ) ;
   int (*page_mkwrite)(struct vm_area_struct * , struct page * ) ;
   int (*set_policy)(struct vm_area_struct * , struct mempolicy * ) ;
   struct mempolicy *(*get_policy)(struct vm_area_struct * , unsigned long  ) ;
   int (*migrate)(struct vm_area_struct * , nodemask_t const   * , nodemask_t const   * ,
                  unsigned long  ) ;
};
struct inode;
struct nameidata;
struct qstr {
   unsigned int hash ;
   unsigned int len ;
   unsigned char const   *name ;
};
struct dcookie_struct;
union __anonunion_d_u_110 {
   struct list_head d_child ;
   struct rcu_head d_rcu ;
};
struct dentry_operations;
struct super_block;
struct dentry {
   atomic_t d_count ;
   unsigned int d_flags ;
   spinlock_t d_lock ;
   struct inode *d_inode ;
   struct hlist_node d_hash ;
   struct dentry *d_parent ;
   struct qstr d_name ;
   struct list_head d_lru ;
   union __anonunion_d_u_110 d_u ;
   struct list_head d_subdirs ;
   struct list_head d_alias ;
   unsigned long d_time ;
   struct dentry_operations *d_op ;
   struct super_block *d_sb ;
   void *d_fsdata ;
   struct dcookie_struct *d_cookie ;
   int d_mounted ;
   unsigned char d_iname[36U] ;
};
struct dentry_operations {
   int (*d_revalidate)(struct dentry * , struct nameidata * ) ;
   int (*d_hash)(struct dentry * , struct qstr * ) ;
   int (*d_compare)(struct dentry * , struct qstr * , struct qstr * ) ;
   int (*d_delete)(struct dentry * ) ;
   void (*d_release)(struct dentry * ) ;
   void (*d_iput)(struct dentry * , struct inode * ) ;
   char *(*d_dname)(struct dentry * , char * , int  ) ;
};
struct open_intent {
   int flags ;
   int create_mode ;
   struct file *file ;
};
union __anonunion_intent_111 {
   struct open_intent open ;
};
struct nameidata {
   struct path path ;
   struct qstr last ;
   unsigned int flags ;
   int last_type ;
   unsigned int depth ;
   char *saved_names[9U] ;
   union __anonunion_intent_111 intent ;
};
struct radix_tree_node;
struct radix_tree_root {
   unsigned int height ;
   gfp_t gfp_mask ;
   struct radix_tree_node *rnode ;
};
struct export_operations;
struct poll_table_struct;
struct kstatfs;
struct iattr {
   unsigned int ia_valid ;
   umode_t ia_mode ;
   uid_t ia_uid ;
   gid_t ia_gid ;
   loff_t ia_size ;
   struct timespec ia_atime ;
   struct timespec ia_mtime ;
   struct timespec ia_ctime ;
   struct file *ia_file ;
};
typedef __kernel_uid32_t qid_t;
typedef __u64 qsize_t;
struct if_dqblk {
   __u64 dqb_bhardlimit ;
   __u64 dqb_bsoftlimit ;
   __u64 dqb_curspace ;
   __u64 dqb_ihardlimit ;
   __u64 dqb_isoftlimit ;
   __u64 dqb_curinodes ;
   __u64 dqb_btime ;
   __u64 dqb_itime ;
   __u32 dqb_valid ;
};
struct if_dqinfo {
   __u64 dqi_bgrace ;
   __u64 dqi_igrace ;
   __u32 dqi_flags ;
   __u32 dqi_valid ;
};
struct fs_disk_quota {
   __s8 d_version ;
   __s8 d_flags ;
   __u16 d_fieldmask ;
   __u32 d_id ;
   __u64 d_blk_hardlimit ;
   __u64 d_blk_softlimit ;
   __u64 d_ino_hardlimit ;
   __u64 d_ino_softlimit ;
   __u64 d_bcount ;
   __u64 d_icount ;
   __s32 d_itimer ;
   __s32 d_btimer ;
   __u16 d_iwarns ;
   __u16 d_bwarns ;
   __s32 d_padding2 ;
   __u64 d_rtb_hardlimit ;
   __u64 d_rtb_softlimit ;
   __u64 d_rtbcount ;
   __s32 d_rtbtimer ;
   __u16 d_rtbwarns ;
   __s16 d_padding3 ;
   char d_padding4[8U] ;
};
struct fs_qfilestat {
   __u64 qfs_ino ;
   __u64 qfs_nblks ;
   __u32 qfs_nextents ;
};
typedef struct fs_qfilestat fs_qfilestat_t;
struct fs_quota_stat {
   __s8 qs_version ;
   __u16 qs_flags ;
   __s8 qs_pad ;
   fs_qfilestat_t qs_uquota ;
   fs_qfilestat_t qs_gquota ;
   __u32 qs_incoredqs ;
   __s32 qs_btimelimit ;
   __s32 qs_itimelimit ;
   __s32 qs_rtbtimelimit ;
   __u16 qs_bwarnlimit ;
   __u16 qs_iwarnlimit ;
};
struct v1_mem_dqinfo {

};
struct v2_mem_dqinfo {
   unsigned int dqi_blocks ;
   unsigned int dqi_free_blk ;
   unsigned int dqi_free_entry ;
};
struct mem_dqblk {
   __u32 dqb_bhardlimit ;
   __u32 dqb_bsoftlimit ;
   qsize_t dqb_curspace ;
   __u32 dqb_ihardlimit ;
   __u32 dqb_isoftlimit ;
   __u32 dqb_curinodes ;
   time_t dqb_btime ;
   time_t dqb_itime ;
};
struct quota_format_type;
union __anonunion_u_112 {
   struct v1_mem_dqinfo v1_i ;
   struct v2_mem_dqinfo v2_i ;
};
struct mem_dqinfo {
   struct quota_format_type *dqi_format ;
   struct list_head dqi_dirty_list ;
   unsigned long dqi_flags ;
   unsigned int dqi_bgrace ;
   unsigned int dqi_igrace ;
   union __anonunion_u_112 u ;
};
struct dquot {
   struct hlist_node dq_hash ;
   struct list_head dq_inuse ;
   struct list_head dq_free ;
   struct list_head dq_dirty ;
   struct mutex dq_lock ;
   atomic_t dq_count ;
   wait_queue_head_t dq_wait_unused ;
   struct super_block *dq_sb ;
   unsigned int dq_id ;
   loff_t dq_off ;
   unsigned long dq_flags ;
   short dq_type ;
   struct mem_dqblk dq_dqb ;
};
struct quota_format_ops {
   int (*check_quota_file)(struct super_block * , int  ) ;
   int (*read_file_info)(struct super_block * , int  ) ;
   int (*write_file_info)(struct super_block * , int  ) ;
   int (*free_file_info)(struct super_block * , int  ) ;
   int (*read_dqblk)(struct dquot * ) ;
   int (*commit_dqblk)(struct dquot * ) ;
   int (*release_dqblk)(struct dquot * ) ;
};
struct dquot_operations {
   int (*initialize)(struct inode * , int  ) ;
   int (*drop)(struct inode * ) ;
   int (*alloc_space)(struct inode * , qsize_t  , int  ) ;
   int (*alloc_inode)(struct inode  const  * , unsigned long  ) ;
   int (*free_space)(struct inode * , qsize_t  ) ;
   int (*free_inode)(struct inode  const  * , unsigned long  ) ;
   int (*transfer)(struct inode * , struct iattr * ) ;
   int (*write_dquot)(struct dquot * ) ;
   int (*acquire_dquot)(struct dquot * ) ;
   int (*release_dquot)(struct dquot * ) ;
   int (*mark_dirty)(struct dquot * ) ;
   int (*write_info)(struct super_block * , int  ) ;
};
struct quotactl_ops {
   int (*quota_on)(struct super_block * , int  , int  , char * ) ;
   int (*quota_off)(struct super_block * , int  ) ;
   int (*quota_sync)(struct super_block * , int  ) ;
   int (*get_info)(struct super_block * , int  , struct if_dqinfo * ) ;
   int (*set_info)(struct super_block * , int  , struct if_dqinfo * ) ;
   int (*get_dqblk)(struct super_block * , int  , qid_t  , struct if_dqblk * ) ;
   int (*set_dqblk)(struct super_block * , int  , qid_t  , struct if_dqblk * ) ;
   int (*get_xstate)(struct super_block * , struct fs_quota_stat * ) ;
   int (*set_xstate)(struct super_block * , unsigned int  , int  ) ;
   int (*get_xquota)(struct super_block * , int  , qid_t  , struct fs_disk_quota * ) ;
   int (*set_xquota)(struct super_block * , int  , qid_t  , struct fs_disk_quota * ) ;
};
struct quota_format_type {
   int qf_fmt_id ;
   struct quota_format_ops *qf_ops ;
   struct module *qf_owner ;
   struct quota_format_type *qf_next ;
};
struct quota_info {
   unsigned int flags ;
   struct mutex dqio_mutex ;
   struct mutex dqonoff_mutex ;
   struct rw_semaphore dqptr_sem ;
   struct inode *files[2U] ;
   struct mem_dqinfo info[2U] ;
   struct quota_format_ops *ops[2U] ;
};
struct address_space_operations {
   int (*writepage)(struct page * , struct writeback_control * ) ;
   int (*readpage)(struct file * , struct page * ) ;
   void (*sync_page)(struct page * ) ;
   int (*writepages)(struct address_space * , struct writeback_control * ) ;
   int (*set_page_dirty)(struct page * ) ;
   int (*readpages)(struct file * , struct address_space * , struct list_head * ,
                    unsigned int  ) ;
   int (*prepare_write)(struct file * , struct page * , unsigned int  , unsigned int  ) ;
   int (*commit_write)(struct file * , struct page * , unsigned int  , unsigned int  ) ;
   int (*write_begin)(struct file * , struct address_space * , loff_t  , unsigned int  ,
                      unsigned int  , struct page ** , void ** ) ;
   int (*write_end)(struct file * , struct address_space * , loff_t  , unsigned int  ,
                    unsigned int  , struct page * , void * ) ;
   sector_t (*bmap)(struct address_space * , sector_t  ) ;
   void (*invalidatepage)(struct page * , unsigned long  ) ;
   int (*releasepage)(struct page * , gfp_t  ) ;
   ssize_t (*direct_IO)(int  , struct kiocb * , struct iovec  const  * , loff_t  ,
                        unsigned long  ) ;
   struct page *(*get_xip_page)(struct address_space * , sector_t  , int  ) ;
   int (*migratepage)(struct address_space * , struct page * , struct page * ) ;
   int (*launder_page)(struct page * ) ;
};
struct address_space {
   struct inode *host ;
   struct radix_tree_root page_tree ;
   rwlock_t tree_lock ;
   unsigned int i_mmap_writable ;
   struct prio_tree_root i_mmap ;
   struct list_head i_mmap_nonlinear ;
   spinlock_t i_mmap_lock ;
   unsigned int truncate_count ;
   unsigned long nrpages ;
   unsigned long writeback_index ;
   struct address_space_operations  const  *a_ops ;
   unsigned long flags ;
   struct backing_dev_info *backing_dev_info ;
   spinlock_t private_lock ;
   struct list_head private_list ;
   struct address_space *assoc_mapping ;
};
struct hd_struct;
struct gendisk;
struct block_device {
   dev_t bd_dev ;
   struct inode *bd_inode ;
   int bd_openers ;
   struct mutex bd_mutex ;
   struct semaphore bd_mount_sem ;
   struct list_head bd_inodes ;
   void *bd_holder ;
   int bd_holders ;
   struct list_head bd_holder_list ;
   struct block_device *bd_contains ;
   unsigned int bd_block_size ;
   struct hd_struct *bd_part ;
   unsigned int bd_part_count ;
   int bd_invalidated ;
   struct gendisk *bd_disk ;
   struct list_head bd_list ;
   struct backing_dev_info *bd_inode_backing_dev_info ;
   unsigned long bd_private ;
};
struct inode_operations;
struct file_lock;
struct cdev;
union __anonunion_ldv_16076_113 {
   struct pipe_inode_info *i_pipe ;
   struct block_device *i_bdev ;
   struct cdev *i_cdev ;
};
struct dnotify_struct;
struct inode {
   struct hlist_node i_hash ;
   struct list_head i_list ;
   struct list_head i_sb_list ;
   struct list_head i_dentry ;
   unsigned long i_ino ;
   atomic_t i_count ;
   unsigned int i_nlink ;
   uid_t i_uid ;
   gid_t i_gid ;
   dev_t i_rdev ;
   u64 i_version ;
   loff_t i_size ;
   struct timespec i_atime ;
   struct timespec i_mtime ;
   struct timespec i_ctime ;
   unsigned int i_blkbits ;
   blkcnt_t i_blocks ;
   unsigned short i_bytes ;
   umode_t i_mode ;
   spinlock_t i_lock ;
   struct mutex i_mutex ;
   struct rw_semaphore i_alloc_sem ;
   struct inode_operations  const  *i_op ;
   struct file_operations  const  *i_fop ;
   struct super_block *i_sb ;
   struct file_lock *i_flock ;
   struct address_space *i_mapping ;
   struct address_space i_data ;
   struct dquot *i_dquot[2U] ;
   struct list_head i_devices ;
   union __anonunion_ldv_16076_113 ldv_16076 ;
   int i_cindex ;
   __u32 i_generation ;
   unsigned long i_dnotify_mask ;
   struct dnotify_struct *i_dnotify ;
   struct list_head inotify_watches ;
   struct mutex inotify_mutex ;
   unsigned long i_state ;
   unsigned long dirtied_when ;
   unsigned int i_flags ;
   atomic_t i_writecount ;
   void *i_security ;
   void *i_private ;
};
struct fown_struct {
   rwlock_t lock ;
   struct pid *pid ;
   enum pid_type pid_type ;
   uid_t uid ;
   uid_t euid ;
   int signum ;
};
struct file_ra_state {
   unsigned long start ;
   unsigned int size ;
   unsigned int async_size ;
   unsigned int ra_pages ;
   int mmap_miss ;
   loff_t prev_pos ;
};
union __anonunion_f_u_114 {
   struct list_head fu_list ;
   struct rcu_head fu_rcuhead ;
};
struct file {
   union __anonunion_f_u_114 f_u ;
   struct path f_path ;
   struct file_operations  const  *f_op ;
   atomic_t f_count ;
   unsigned int f_flags ;
   mode_t f_mode ;
   loff_t f_pos ;
   struct fown_struct f_owner ;
   unsigned int f_uid ;
   unsigned int f_gid ;
   struct file_ra_state f_ra ;
   u64 f_version ;
   void *f_security ;
   void *private_data ;
   struct list_head f_ep_links ;
   spinlock_t f_ep_lock ;
   struct address_space *f_mapping ;
   unsigned long f_mnt_write_state ;
};
typedef struct files_struct *fl_owner_t;
struct file_lock_operations {
   void (*fl_insert)(struct file_lock * ) ;
   void (*fl_remove)(struct file_lock * ) ;
   void (*fl_copy_lock)(struct file_lock * , struct file_lock * ) ;
   void (*fl_release_private)(struct file_lock * ) ;
};
struct lock_manager_operations {
   int (*fl_compare_owner)(struct file_lock * , struct file_lock * ) ;
   void (*fl_notify)(struct file_lock * ) ;
   int (*fl_grant)(struct file_lock * , struct file_lock * , int  ) ;
   void (*fl_copy_lock)(struct file_lock * , struct file_lock * ) ;
   void (*fl_release_private)(struct file_lock * ) ;
   void (*fl_break)(struct file_lock * ) ;
   int (*fl_mylease)(struct file_lock * , struct file_lock * ) ;
   int (*fl_change)(struct file_lock ** , int  ) ;
};
struct nlm_lockowner;
struct nfs_lock_info {
   u32 state ;
   struct nlm_lockowner *owner ;
   struct list_head list ;
};
struct nfs4_lock_state;
struct nfs4_lock_info {
   struct nfs4_lock_state *owner ;
};
struct fasync_struct;
struct __anonstruct_afs_116 {
   struct list_head link ;
   int state ;
};
union __anonunion_fl_u_115 {
   struct nfs_lock_info nfs_fl ;
   struct nfs4_lock_info nfs4_fl ;
   struct __anonstruct_afs_116 afs ;
};
struct file_lock {
   struct file_lock *fl_next ;
   struct list_head fl_link ;
   struct list_head fl_block ;
   fl_owner_t fl_owner ;
   unsigned int fl_pid ;
   struct pid *fl_nspid ;
   wait_queue_head_t fl_wait ;
   struct file *fl_file ;
   unsigned char fl_flags ;
   unsigned char fl_type ;
   loff_t fl_start ;
   loff_t fl_end ;
   struct fasync_struct *fl_fasync ;
   unsigned long fl_break_time ;
   struct file_lock_operations *fl_ops ;
   struct lock_manager_operations *fl_lmops ;
   union __anonunion_fl_u_115 fl_u ;
};
struct fasync_struct {
   int magic ;
   int fa_fd ;
   struct fasync_struct *fa_next ;
   struct file *fa_file ;
};
struct file_system_type;
struct super_operations;
struct xattr_handler;
struct mtd_info;
struct super_block {
   struct list_head s_list ;
   dev_t s_dev ;
   unsigned long s_blocksize ;
   unsigned char s_blocksize_bits ;
   unsigned char s_dirt ;
   unsigned long long s_maxbytes ;
   struct file_system_type *s_type ;
   struct super_operations  const  *s_op ;
   struct dquot_operations *dq_op ;
   struct quotactl_ops *s_qcop ;
   struct export_operations  const  *s_export_op ;
   unsigned long s_flags ;
   unsigned long s_magic ;
   struct dentry *s_root ;
   struct rw_semaphore s_umount ;
   struct mutex s_lock ;
   int s_count ;
   int s_syncing ;
   int s_need_sync_fs ;
   atomic_t s_active ;
   void *s_security ;
   struct xattr_handler **s_xattr ;
   struct list_head s_inodes ;
   struct list_head s_dirty ;
   struct list_head s_io ;
   struct list_head s_more_io ;
   struct hlist_head s_anon ;
   struct list_head s_files ;
   struct block_device *s_bdev ;
   struct mtd_info *s_mtd ;
   struct list_head s_instances ;
   struct quota_info s_dquot ;
   int s_frozen ;
   wait_queue_head_t s_wait_unfrozen ;
   char s_id[32U] ;
   void *s_fs_info ;
   struct mutex s_vfs_rename_mutex ;
   u32 s_time_gran ;
   char *s_subtype ;
   char *s_options ;
};
struct file_operations {
   struct module *owner ;
   loff_t (*llseek)(struct file * , loff_t  , int  ) ;
   ssize_t (*read)(struct file * , char * , size_t  , loff_t * ) ;
   ssize_t (*write)(struct file * , char const   * , size_t  , loff_t * ) ;
   ssize_t (*aio_read)(struct kiocb * , struct iovec  const  * , unsigned long  ,
                       loff_t  ) ;
   ssize_t (*aio_write)(struct kiocb * , struct iovec  const  * , unsigned long  ,
                        loff_t  ) ;
   int (*readdir)(struct file * , void * , int (*)(void * , char const   * , int  ,
                                                   loff_t  , u64  , unsigned int  ) ) ;
   unsigned int (*poll)(struct file * , struct poll_table_struct * ) ;
   int (*ioctl)(struct inode * , struct file * , unsigned int  , unsigned long  ) ;
   long (*unlocked_ioctl)(struct file * , unsigned int  , unsigned long  ) ;
   long (*compat_ioctl)(struct file * , unsigned int  , unsigned long  ) ;
   int (*mmap)(struct file * , struct vm_area_struct * ) ;
   int (*open)(struct inode * , struct file * ) ;
   int (*flush)(struct file * , fl_owner_t  ) ;
   int (*release)(struct inode * , struct file * ) ;
   int (*fsync)(struct file * , struct dentry * , int  ) ;
   int (*aio_fsync)(struct kiocb * , int  ) ;
   int (*fasync)(int  , struct file * , int  ) ;
   int (*lock)(struct file * , int  , struct file_lock * ) ;
   ssize_t (*sendpage)(struct file * , struct page * , int  , size_t  , loff_t * ,
                       int  ) ;
   unsigned long (*get_unmapped_area)(struct file * , unsigned long  , unsigned long  ,
                                      unsigned long  , unsigned long  ) ;
   int (*check_flags)(int  ) ;
   int (*dir_notify)(struct file * , unsigned long  ) ;
   int (*flock)(struct file * , int  , struct file_lock * ) ;
   ssize_t (*splice_write)(struct pipe_inode_info * , struct file * , loff_t * , size_t  ,
                           unsigned int  ) ;
   ssize_t (*splice_read)(struct file * , loff_t * , struct pipe_inode_info * , size_t  ,
                          unsigned int  ) ;
   int (*setlease)(struct file * , long  , struct file_lock ** ) ;
};
struct inode_operations {
   int (*create)(struct inode * , struct dentry * , int  , struct nameidata * ) ;
   struct dentry *(*lookup)(struct inode * , struct dentry * , struct nameidata * ) ;
   int (*link)(struct dentry * , struct inode * , struct dentry * ) ;
   int (*unlink)(struct inode * , struct dentry * ) ;
   int (*symlink)(struct inode * , struct dentry * , char const   * ) ;
   int (*mkdir)(struct inode * , struct dentry * , int  ) ;
   int (*rmdir)(struct inode * , struct dentry * ) ;
   int (*mknod)(struct inode * , struct dentry * , int  , dev_t  ) ;
   int (*rename)(struct inode * , struct dentry * , struct inode * , struct dentry * ) ;
   int (*readlink)(struct dentry * , char * , int  ) ;
   void *(*follow_link)(struct dentry * , struct nameidata * ) ;
   void (*put_link)(struct dentry * , struct nameidata * , void * ) ;
   void (*truncate)(struct inode * ) ;
   int (*permission)(struct inode * , int  , struct nameidata * ) ;
   int (*setattr)(struct dentry * , struct iattr * ) ;
   int (*getattr)(struct vfsmount * , struct dentry * , struct kstat * ) ;
   int (*setxattr)(struct dentry * , char const   * , void const   * , size_t  , int  ) ;
   ssize_t (*getxattr)(struct dentry * , char const   * , void * , size_t  ) ;
   ssize_t (*listxattr)(struct dentry * , char * , size_t  ) ;
   int (*removexattr)(struct dentry * , char const   * ) ;
   void (*truncate_range)(struct inode * , loff_t  , loff_t  ) ;
   long (*fallocate)(struct inode * , int  , loff_t  , loff_t  ) ;
};
struct super_operations {
   struct inode *(*alloc_inode)(struct super_block * ) ;
   void (*destroy_inode)(struct inode * ) ;
   void (*dirty_inode)(struct inode * ) ;
   int (*write_inode)(struct inode * , int  ) ;
   void (*put_inode)(struct inode * ) ;
   void (*drop_inode)(struct inode * ) ;
   void (*delete_inode)(struct inode * ) ;
   void (*put_super)(struct super_block * ) ;
   void (*write_super)(struct super_block * ) ;
   int (*sync_fs)(struct super_block * , int  ) ;
   void (*write_super_lockfs)(struct super_block * ) ;
   void (*unlockfs)(struct super_block * ) ;
   int (*statfs)(struct dentry * , struct kstatfs * ) ;
   int (*remount_fs)(struct super_block * , int * , char * ) ;
   void (*clear_inode)(struct inode * ) ;
   void (*umount_begin)(struct vfsmount * , int  ) ;
   int (*show_options)(struct seq_file * , struct vfsmount * ) ;
   int (*show_stats)(struct seq_file * , struct vfsmount * ) ;
   ssize_t (*quota_read)(struct super_block * , int  , char * , size_t  , loff_t  ) ;
   ssize_t (*quota_write)(struct super_block * , int  , char const   * , size_t  ,
                          loff_t  ) ;
};
struct file_system_type {
   char const   *name ;
   int fs_flags ;
   int (*get_sb)(struct file_system_type * , int  , char const   * , void * , struct vfsmount * ) ;
   void (*kill_sb)(struct super_block * ) ;
   struct module *owner ;
   struct file_system_type *next ;
   struct list_head fs_supers ;
   struct lock_class_key s_lock_key ;
   struct lock_class_key s_umount_key ;
   struct lock_class_key i_lock_key ;
   struct lock_class_key i_mutex_key ;
   struct lock_class_key i_mutex_dir_key ;
   struct lock_class_key i_alloc_sem_key ;
};
struct exception_table_entry {
   unsigned long insn ;
   unsigned long fixup ;
};
struct poll_table_struct {
   void (*qproc)(struct file * , wait_queue_head_t * , struct poll_table_struct * ) ;
};
enum v4l2_field {
    V4L2_FIELD_ANY = 0,
    V4L2_FIELD_NONE = 1,
    V4L2_FIELD_TOP = 2,
    V4L2_FIELD_BOTTOM = 3,
    V4L2_FIELD_INTERLACED = 4,
    V4L2_FIELD_SEQ_TB = 5,
    V4L2_FIELD_SEQ_BT = 6,
    V4L2_FIELD_ALTERNATE = 7,
    V4L2_FIELD_INTERLACED_TB = 8,
    V4L2_FIELD_INTERLACED_BT = 9
} ;
enum v4l2_buf_type {
    V4L2_BUF_TYPE_VIDEO_CAPTURE = 1,
    V4L2_BUF_TYPE_VIDEO_OUTPUT = 2,
    V4L2_BUF_TYPE_VIDEO_OVERLAY = 3,
    V4L2_BUF_TYPE_VBI_CAPTURE = 4,
    V4L2_BUF_TYPE_VBI_OUTPUT = 5,
    V4L2_BUF_TYPE_SLICED_VBI_CAPTURE = 6,
    V4L2_BUF_TYPE_SLICED_VBI_OUTPUT = 7,
    V4L2_BUF_TYPE_VIDEO_OUTPUT_OVERLAY = 8,
    V4L2_BUF_TYPE_PRIVATE = 128
} ;
enum v4l2_memory {
    V4L2_MEMORY_MMAP = 1,
    V4L2_MEMORY_USERPTR = 2,
    V4L2_MEMORY_OVERLAY = 3
} ;
enum v4l2_colorspace {
    V4L2_COLORSPACE_SMPTE170M = 1,
    V4L2_COLORSPACE_SMPTE240M = 2,
    V4L2_COLORSPACE_REC709 = 3,
    V4L2_COLORSPACE_BT878 = 4,
    V4L2_COLORSPACE_470_SYSTEM_M = 5,
    V4L2_COLORSPACE_470_SYSTEM_BG = 6,
    V4L2_COLORSPACE_JPEG = 7,
    V4L2_COLORSPACE_SRGB = 8
} ;
struct v4l2_pix_format {
   __u32 width ;
   __u32 height ;
   __u32 pixelformat ;
   enum v4l2_field field ;
   __u32 bytesperline ;
   __u32 sizeimage ;
   enum v4l2_colorspace colorspace ;
   __u32 priv ;
};
struct v4l2_framebuffer {
   __u32 capability ;
   __u32 flags ;
   void *base ;
   struct v4l2_pix_format fmt ;
};
struct videobuf_buffer;
struct videobuf_queue;
struct videobuf_mapping {
   unsigned int count ;
   unsigned long start ;
   unsigned long end ;
   struct videobuf_queue *q ;
};
enum videobuf_state {
    VIDEOBUF_NEEDS_INIT = 0,
    VIDEOBUF_PREPARED = 1,
    VIDEOBUF_QUEUED = 2,
    VIDEOBUF_ACTIVE = 3,
    VIDEOBUF_DONE = 4,
    VIDEOBUF_ERROR = 5,
    VIDEOBUF_IDLE = 6
} ;
struct videobuf_buffer {
   unsigned int i ;
   u32 magic ;
   unsigned int width ;
   unsigned int height ;
   unsigned int bytesperline ;
   unsigned long size ;
   unsigned int input ;
   enum v4l2_field field ;
   enum videobuf_state state ;
   struct list_head stream ;
   struct list_head queue ;
   wait_queue_head_t done ;
   unsigned int field_count ;
   struct timeval ts ;
   enum v4l2_memory memory ;
   size_t bsize ;
   size_t boff ;
   unsigned long baddr ;
   struct videobuf_mapping *map ;
   int privsize ;
   void *priv ;
};
struct videobuf_queue_ops {
   int (*buf_setup)(struct videobuf_queue * , unsigned int * , unsigned int * ) ;
   int (*buf_prepare)(struct videobuf_queue * , struct videobuf_buffer * , enum v4l2_field  ) ;
   void (*buf_queue)(struct videobuf_queue * , struct videobuf_buffer * ) ;
   void (*buf_release)(struct videobuf_queue * , struct videobuf_buffer * ) ;
};
struct videobuf_qtype_ops {
   u32 magic ;
   void *(*alloc)(size_t  ) ;
   int (*iolock)(struct videobuf_queue * , struct videobuf_buffer * , struct v4l2_framebuffer * ) ;
   int (*mmap)(struct videobuf_queue * , unsigned int * , unsigned int * , enum v4l2_memory  ) ;
   int (*sync)(struct videobuf_queue * , struct videobuf_buffer * ) ;
   int (*video_copy_to_user)(struct videobuf_queue * , char * , size_t  , int  ) ;
   int (*copy_stream)(struct videobuf_queue * , char * , size_t  , size_t  , int  ,
                      int  ) ;
   int (*mmap_free)(struct videobuf_queue * ) ;
   int (*mmap_mapper)(struct videobuf_queue * , struct vm_area_struct * ) ;
};
struct videobuf_queue {
   struct mutex vb_lock ;
   spinlock_t *irqlock ;
   void *dev ;
   enum v4l2_buf_type type ;
   unsigned int inputs ;
   unsigned int msize ;
   enum v4l2_field field ;
   enum v4l2_field last ;
   struct videobuf_buffer *bufs[32U] ;
   struct videobuf_queue_ops *ops ;
   struct videobuf_qtype_ops *int_ops ;
   unsigned char streaming : 1 ;
   unsigned char reading : 1 ;
   unsigned char is_mmapped : 1 ;
   struct list_head stream ;
   unsigned int read_off ;
   struct videobuf_buffer *read_buf ;
   void *priv_data ;
};
struct videobuf_vmalloc_memory {
   u32 magic ;
   void *vmalloc ;
   struct vm_area_struct *vma ;
};
enum lock_usage_bit {
    LOCK_USED = 0,
    LOCK_USED_IN_HARDIRQ = 1,
    LOCK_USED_IN_SOFTIRQ = 2,
    LOCK_ENABLED_SOFTIRQS = 3,
    LOCK_ENABLED_HARDIRQS = 4,
    LOCK_USED_IN_HARDIRQ_READ = 5,
    LOCK_USED_IN_SOFTIRQ_READ = 6,
    LOCK_ENABLED_SOFTIRQS_READ = 7,
    LOCK_ENABLED_HARDIRQS_READ = 8,
    LOCK_USAGE_STATES = 9
} ;
void *memcpy(void * , void const   * , unsigned long  ) ;
long ldv__builtin_expect(long exp , long c ) ;
extern int printk(char const   *  , ...) ;
extern void *memcpy(void * , void const   * , size_t  ) ;
extern void mutex_unlock(struct mutex * ) ;
void ldv_mutex_unlock_2(struct mutex *ldv_func_arg1 ) ;
extern void mutex_lock(struct mutex * ) ;
void ldv_mutex_lock_1(struct mutex *ldv_func_arg1 ) ;
void ldv_mutex_lock_vb_lock_of_videobuf_queue(struct mutex *lock ) ;
void ldv_mutex_unlock_vb_lock_of_videobuf_queue(struct mutex *lock ) ;
extern void kfree(void const   * ) ;
extern void *__kmalloc(size_t  , gfp_t  ) ;
 static void *kmalloc(size_t size , gfp_t flags ) 
{ 
  void *tmp___2 ;

  {
  tmp___2 = __kmalloc(size, flags);
  return (tmp___2);
}
}
 static void *kzalloc(size_t size , gfp_t flags ) 
{ 
  void *tmp ;

  {
  tmp = kmalloc(size, flags | 32768U);
  return (tmp);
}
}
extern void *vmalloc_user(unsigned long  ) ;
extern void vfree(void const   * ) ;
extern int remap_vmalloc_range(struct vm_area_struct * , void * , unsigned long  ) ;
extern unsigned long copy_to_user(void * , void const   * , unsigned int  ) ;
extern void videobuf_queue_core_init(struct videobuf_queue * , struct videobuf_queue_ops * ,
                                     void * , spinlock_t * , enum v4l2_buf_type  ,
                                     enum v4l2_field  , unsigned int  , void * , struct videobuf_qtype_ops * ) ;
void videobuf_queue_vmalloc_init(struct videobuf_queue *q , struct videobuf_queue_ops *ops ,
                                 void *dev , spinlock_t *irqlock , enum v4l2_buf_type type ,
                                 enum v4l2_field field , unsigned int msize , void *priv ) ;
void *videobuf_to_vmalloc(struct videobuf_buffer *buf ) ;
void videobuf_vmalloc_free(struct videobuf_buffer *buf ) ;
static int debug  ;
static void videobuf_vm_open(struct vm_area_struct *vma ) 
{ 
  struct videobuf_mapping *map ;

  {
  map = (struct videobuf_mapping *)vma->vm_private_data;
  if (debug > 1) {
    printk("<7>vbuf-vmalloc: vm_open %p [count=%u,vma=%08lx-%08lx]\n", map, map->count,
           vma->vm_start, vma->vm_end);
  } else {

  }
  map->count = map->count + 1U;
  return;
}
}
static void videobuf_vm_close(struct vm_area_struct *vma ) 
{ 
  struct videobuf_mapping *map ;
  struct videobuf_queue *q ;
  int i ;

  {
  map = (struct videobuf_mapping *)vma->vm_private_data;
  q = map->q;
  if (debug > 1) {
    printk("<7>vbuf-vmalloc: vm_close %p [count=%u,vma=%08lx-%08lx]\n", map, map->count,
           vma->vm_start, vma->vm_end);
  } else {

  }
  map->count = map->count - 1U;
  if (map->count == 0U) {
    if (debug > 0) {
      printk("<7>vbuf-vmalloc: munmap %p q=%p\n", map, q);
    } else {

    }
    ldv_mutex_lock_1(& q->vb_lock);
    i = 0;
    goto ldv_19304;
    ldv_19303: ;
    if ((unsigned long )q->bufs[i] == (unsigned long )((struct videobuf_buffer *)0)) {
      goto ldv_19302;
    } else {

    }
    if ((unsigned long )(q->bufs[i])->map != (unsigned long )map) {
      goto ldv_19302;
    } else {

    }
    (*((q->ops)->buf_release))(q, q->bufs[i]);
    (q->bufs[i])->map = 0;
    (q->bufs[i])->baddr = 0UL;
    ldv_19302: 
    i = i + 1;
    ldv_19304: ;
    if (i <= 31) {
      goto ldv_19303;
    } else {

    }
    ldv_mutex_unlock_2(& q->vb_lock);
    kfree((void const   *)map);
  } else {

  }
  return;
}
}
static struct vm_operations_struct videobuf_vm_ops  = 
     {& videobuf_vm_open, & videobuf_vm_close, 0, 0, 0, 0, 0, 0, 0};
static void *__videobuf_alloc(size_t size ) 
{ 
  struct videobuf_vmalloc_memory *mem ;
  struct videobuf_buffer *vb ;
  void *tmp ;
  void *tmp___0 ;

  {
  tmp = kzalloc(size + 24UL, 208U);
  vb = (struct videobuf_buffer *)tmp;
  tmp___0 = (void *)vb + size;
  vb->priv = tmp___0;
  mem = (struct videobuf_vmalloc_memory *)tmp___0;
  mem->magic = 404886051U;
  if (debug > 0) {
    printk("<7>vbuf-vmalloc: %s: allocated at %p(%ld+%ld) & %p(%ld)\n", "__videobuf_alloc",
           vb, 232L, size - 232UL, mem, 24L);
  } else {

  }
  return ((void *)vb);
}
}
static int __videobuf_iolock(struct videobuf_queue *q , struct videobuf_buffer *vb ,
                             struct v4l2_framebuffer *fbuf ) 
{ 
  int pages ;
  struct videobuf_vmalloc_memory *mem ;
  long tmp ;
  long tmp___0 ;
  int retval ;
  int tmp___1 ;

  {
  mem = (struct videobuf_vmalloc_memory *)vb->priv;
  tmp = ldv__builtin_expect((unsigned long )mem == (unsigned long )((struct videobuf_vmalloc_memory *)0),
                         0L);
  if (tmp != 0L) {
    __asm__  volatile   ("1:\tud2\n.pushsection __bug_table,\"a\"\n2:\t.quad 1b, %c0\n\t.word %c1, 0\n\t.org 2b+%c2\n.popsection": : "i" ((char *)"/work/ldvuser/novikov/work/current--X--drivers/media/video/videobuf-vmalloc.ko--X--defaultlinux--X--32_7a--X--cpachecker/linux/csd_deg_dscv/11/dscv_tempdir/dscv/ri/32_7a/drivers/media/video/videobuf-vmalloc.c.prepared"),
                         "i" (148), "i" (24UL));
    ldv_19320: ;
    goto ldv_19320;
  } else {

  }
  tmp___0 = ldv__builtin_expect(mem->magic != 404886051U, 0L);
  if (tmp___0 != 0L) {
    printk("<3>magic mismatch: %x (expected %x)\n", mem->magic, 404886051);
    __asm__  volatile   ("1:\tud2\n.pushsection __bug_table,\"a\"\n2:\t.quad 1b, %c0\n\t.word %c1, 0\n\t.org 2b+%c2\n.popsection": : "i" ((char *)"/work/ldvuser/novikov/work/current--X--drivers/media/video/videobuf-vmalloc.ko--X--defaultlinux--X--32_7a--X--cpachecker/linux/csd_deg_dscv/11/dscv_tempdir/dscv/ri/32_7a/drivers/media/video/videobuf-vmalloc.c.prepared"),
                         "i" (150), "i" (24UL));
    ldv_19321: ;
    goto ldv_19321;
  } else {

  }
  pages = (int )((vb->size + 4095UL) >> 12);
  if ((unsigned int )vb->memory != 1U && (unsigned int )vb->memory != 2U) {
    printk("<3>Method currently unsupported.\n");
    return (-22);
  } else {

  }
  mem->vmalloc = vmalloc_user((vb->size + 4095UL) & 0xfffffffffffff000UL);
  if ((unsigned long )mem->vmalloc == (unsigned long )((void *)0)) {
    printk("<3>vmalloc (%d pages) failed\n", pages);
    return (-12);
  } else {

  }
  if (debug > 0) {
    printk("<7>vbuf-vmalloc: vmalloc is at addr 0x%08lx, size=%d\n", (unsigned long )mem->vmalloc,
           pages << 12);
  } else {

  }
  if ((unsigned long )mem->vma != (unsigned long )((struct vm_area_struct *)0)) {
    tmp___1 = remap_vmalloc_range(mem->vma, mem->vmalloc, 0UL);
    retval = tmp___1;
    kfree((void const   *)mem->vma);
    mem->vma = 0;
    if (retval < 0) {
      if (debug > 0) {
        printk("<7>vbuf-vmalloc: mmap app bug: remap_vmalloc_range area %p error %d\n",
               mem->vmalloc, retval);
      } else {

      }
      return (retval);
    } else {

    }
  } else {

  }
  return (0);
}
}
static int __videobuf_sync(struct videobuf_queue *q , struct videobuf_buffer *buf ) 
{ 


  {
  return (0);
}
}
static int __videobuf_mmap_free(struct videobuf_queue *q ) 
{ 
  unsigned int i ;

  {
  i = 0U;
  goto ldv_19332;
  ldv_19331: ;
  if ((unsigned long )q->bufs[i] != (unsigned long )((struct videobuf_buffer *)0)) {
    if ((unsigned long )(q->bufs[i])->map != (unsigned long )((struct videobuf_mapping *)0)) {
      return (-16);
    } else {

    }
  } else {

  }
  i = i + 1U;
  ldv_19332: ;
  if (i <= 31U) {
    goto ldv_19331;
  } else {

  }

  return (0);
}
}
static int __videobuf_mmap_mapper(struct videobuf_queue *q , struct vm_area_struct *vma ) 
{ 
  struct videobuf_vmalloc_memory *mem ;
  struct videobuf_mapping *map ;
  unsigned int first ;
  int retval ;
  unsigned long offset ;
  struct videobuf_mapping *tmp ;
  void *tmp___0 ;
  long tmp___1 ;
  long tmp___2 ;
  void *tmp___3 ;
  size_t __len ;
  void *__ret ;

  {
  offset = vma->vm_pgoff << 12;
  if ((vma->vm_flags & 2UL) == 0UL || (vma->vm_flags & 8UL) == 0UL) {
    return (-22);
  } else {

  }
  first = 0U;
  goto ldv_19346;
  ldv_19345: ;
  if ((unsigned long )q->bufs[first] == (unsigned long )((struct videobuf_buffer *)0)) {
    goto ldv_19343;
  } else {

  }
  if ((unsigned int )(q->bufs[first])->memory != 1U) {
    goto ldv_19343;
  } else {

  }
  if ((q->bufs[first])->boff == offset) {
    goto ldv_19344;
  } else {

  }
  ldv_19343: 
  first = first + 1U;
  ldv_19346: ;
  if (first <= 31U) {
    goto ldv_19345;
  } else {

  }
  ldv_19344: ;
  if (first == 32U) {
    if (debug > 0) {
      printk("<7>vbuf-vmalloc: mmap app bug: offset invalid [offset=0x%lx]\n", vma->vm_pgoff << 12);
    } else {

    }
    return (-22);
  } else {

  }
  tmp___0 = kzalloc(32UL, 208U);
  tmp = (struct videobuf_mapping *)tmp___0;
  (q->bufs[first])->map = tmp;
  map = tmp;
  if ((unsigned long )map == (unsigned long )((struct videobuf_mapping *)0)) {
    return (-12);
  } else {

  }
  map->start = vma->vm_start;
  map->end = vma->vm_end;
  map->q = q;
  (q->bufs[first])->baddr = vma->vm_start;
  vma->vm_ops = & videobuf_vm_ops;
  vma->vm_flags = vma->vm_flags | 786432UL;
  vma->vm_private_data = (void *)map;
  mem = (struct videobuf_vmalloc_memory *)(q->bufs[first])->priv;
  tmp___1 = ldv__builtin_expect((unsigned long )mem == (unsigned long )((struct videobuf_vmalloc_memory *)0),
                             0L);
  if (tmp___1 != 0L) {
    __asm__  volatile   ("1:\tud2\n.pushsection __bug_table,\"a\"\n2:\t.quad 1b, %c0\n\t.word %c1, 0\n\t.org 2b+%c2\n.popsection": : "i" ((char *)"/work/ldvuser/novikov/work/current--X--drivers/media/video/videobuf-vmalloc.ko--X--defaultlinux--X--32_7a--X--cpachecker/linux/csd_deg_dscv/11/dscv_tempdir/dscv/ri/32_7a/drivers/media/video/videobuf-vmalloc.c.prepared"),
                         "i" (253), "i" (24UL));
    ldv_19347: ;
    goto ldv_19347;
  } else {

  }
  tmp___2 = ldv__builtin_expect(mem->magic != 404886051U, 0L);
  if (tmp___2 != 0L) {
    printk("<3>magic mismatch: %x (expected %x)\n", mem->magic, 404886051);
    __asm__  volatile   ("1:\tud2\n.pushsection __bug_table,\"a\"\n2:\t.quad 1b, %c0\n\t.word %c1, 0\n\t.org 2b+%c2\n.popsection": : "i" ((char *)"/work/ldvuser/novikov/work/current--X--drivers/media/video/videobuf-vmalloc.ko--X--defaultlinux--X--32_7a--X--cpachecker/linux/csd_deg_dscv/11/dscv_tempdir/dscv/ri/32_7a/drivers/media/video/videobuf-vmalloc.c.prepared"),
                         "i" (254), "i" (24UL));
    ldv_19348: ;
    goto ldv_19348;
  } else {

  }
  retval = remap_vmalloc_range(vma, mem->vmalloc, 0UL);
  if (retval < 0) {
    if (debug > 0) {
      printk("<7>vbuf-vmalloc: mmap: postponing remap_vmalloc_range\n");
    } else {

    }
    tmp___3 = kmalloc(176UL, 208U);
    mem->vma = (struct vm_area_struct *)tmp___3;
    if ((unsigned long )mem->vma == (unsigned long )((struct vm_area_struct *)0)) {
      kfree((void const   *)map);
      (q->bufs[first])->map = 0;
      return (-12);
    } else {

    }
    __len = 176UL;
    if (__len > 63UL) {
      __ret = memcpy((void *)mem->vma, (void const   *)vma, __len);
    } else {
      __ret = memcpy((void *)mem->vma, (void const   *)vma, __len);
    }
  } else {

  }
  if (debug > 0) {
    printk("<7>vbuf-vmalloc: mmap %p: q=%p %08lx-%08lx (%lx) pgoff %08lx buf %d\n",
           map, q, vma->vm_start, vma->vm_end, (long )(q->bufs[first])->bsize, vma->vm_pgoff,
           first);
  } else {

  }
  videobuf_vm_open(vma);
  return (0);
}
}
static int __videobuf_copy_to_user(struct videobuf_queue *q , char *data , size_t count ,
                                   int nonblocking ) 
{ 
  struct videobuf_vmalloc_memory *mem ;
  long tmp ;
  long tmp___0 ;
  long tmp___1 ;
  unsigned long tmp___2 ;

  {
  mem = (struct videobuf_vmalloc_memory *)(q->read_buf)->priv;
  tmp = ldv__builtin_expect((unsigned long )mem == (unsigned long )((struct videobuf_vmalloc_memory *)0),
                         0L);
  if (tmp != 0L) {
    __asm__  volatile   ("1:\tud2\n.pushsection __bug_table,\"a\"\n2:\t.quad 1b, %c0\n\t.word %c1, 0\n\t.org 2b+%c2\n.popsection": : "i" ((char *)"/work/ldvuser/novikov/work/current--X--drivers/media/video/videobuf-vmalloc.ko--X--defaultlinux--X--32_7a--X--cpachecker/linux/csd_deg_dscv/11/dscv_tempdir/dscv/ri/32_7a/drivers/media/video/videobuf-vmalloc.c.prepared"),
                         "i" (285), "i" (24UL));
    ldv_19359: ;
    goto ldv_19359;
  } else {

  }
  tmp___0 = ldv__builtin_expect(mem->magic != 404886051U, 0L);
  if (tmp___0 != 0L) {
    printk("<3>magic mismatch: %x (expected %x)\n", mem->magic, 404886051);
    __asm__  volatile   ("1:\tud2\n.pushsection __bug_table,\"a\"\n2:\t.quad 1b, %c0\n\t.word %c1, 0\n\t.org 2b+%c2\n.popsection": : "i" ((char *)"/work/ldvuser/novikov/work/current--X--drivers/media/video/videobuf-vmalloc.ko--X--defaultlinux--X--32_7a--X--cpachecker/linux/csd_deg_dscv/11/dscv_tempdir/dscv/ri/32_7a/drivers/media/video/videobuf-vmalloc.c.prepared"),
                         "i" (286), "i" (24UL));
    ldv_19360: ;
    goto ldv_19360;
  } else {

  }
  tmp___1 = ldv__builtin_expect((unsigned long )mem->vmalloc == (unsigned long )((void *)0),
                             0L);
  if (tmp___1 != 0L) {
    __asm__  volatile   ("1:\tud2\n.pushsection __bug_table,\"a\"\n2:\t.quad 1b, %c0\n\t.word %c1, 0\n\t.org 2b+%c2\n.popsection": : "i" ((char *)"/work/ldvuser/novikov/work/current--X--drivers/media/video/videobuf-vmalloc.ko--X--defaultlinux--X--32_7a--X--cpachecker/linux/csd_deg_dscv/11/dscv_tempdir/dscv/ri/32_7a/drivers/media/video/videobuf-vmalloc.c.prepared"),
                         "i" (288), "i" (24UL));
    ldv_19361: ;
    goto ldv_19361;
  } else {

  }
  if ((q->read_buf)->size - (unsigned long )q->read_off < count) {
    count = (q->read_buf)->size - (unsigned long )q->read_off;
  } else {

  }
  tmp___2 = copy_to_user((void *)data, (void const   *)mem->vmalloc + (unsigned long )q->read_off,
                         (unsigned int )count);
  if (tmp___2 != 0UL) {
    return (-14);
  } else {

  }
  return ((int )count);
}
}
static int __videobuf_copy_stream(struct videobuf_queue *q , char *data , size_t count ,
                                  size_t pos , int vbihack , int nonblocking ) 
{ 
  unsigned int *fc ;
  struct videobuf_vmalloc_memory *mem ;
  long tmp ;
  long tmp___0 ;
  int tmp___1 ;

  {
  mem = (struct videobuf_vmalloc_memory *)(q->read_buf)->priv;
  tmp = ldv__builtin_expect((unsigned long )mem == (unsigned long )((struct videobuf_vmalloc_memory *)0),
                         0L);
  if (tmp != 0L) {
    __asm__  volatile   ("1:\tud2\n.pushsection __bug_table,\"a\"\n2:\t.quad 1b, %c0\n\t.word %c1, 0\n\t.org 2b+%c2\n.popsection": : "i" ((char *)"/work/ldvuser/novikov/work/current--X--drivers/media/video/videobuf-vmalloc.ko--X--defaultlinux--X--32_7a--X--cpachecker/linux/csd_deg_dscv/11/dscv_tempdir/dscv/ri/32_7a/drivers/media/video/videobuf-vmalloc.c.prepared"),
                         "i" (306), "i" (24UL));
    ldv_19372: ;
    goto ldv_19372;
  } else {

  }
  tmp___0 = ldv__builtin_expect(mem->magic != 404886051U, 0L);
  if (tmp___0 != 0L) {
    printk("<3>magic mismatch: %x (expected %x)\n", mem->magic, 404886051);
    __asm__  volatile   ("1:\tud2\n.pushsection __bug_table,\"a\"\n2:\t.quad 1b, %c0\n\t.word %c1, 0\n\t.org 2b+%c2\n.popsection": : "i" ((char *)"/work/ldvuser/novikov/work/current--X--drivers/media/video/videobuf-vmalloc.ko--X--defaultlinux--X--32_7a--X--cpachecker/linux/csd_deg_dscv/11/dscv_tempdir/dscv/ri/32_7a/drivers/media/video/videobuf-vmalloc.c.prepared"),
                         "i" (307), "i" (24UL));
    ldv_19373: ;
    goto ldv_19373;
  } else {

  }
  if (vbihack != 0) {
    fc = (unsigned int *)mem->vmalloc;
    fc = fc + (((q->read_buf)->size >> 2) + 0xffffffffffffffffUL);
    *fc = (q->read_buf)->field_count >> 1;
    if (debug > 0) {
      printk("<7>vbuf-vmalloc: vbihack: %d\n", *fc);
    } else {

    }
  } else {

  }
  tmp___1 = __videobuf_copy_to_user(q, data, count, nonblocking);
  count = (size_t )tmp___1;
  if (count == 0xfffffffffffffff2UL && pos == 0UL) {
    return (-14);
  } else {

  }
  return ((int )count);
}
}
static struct videobuf_qtype_ops qops  = 
     {304484355U, & __videobuf_alloc, & __videobuf_iolock, 0, & __videobuf_sync, & __videobuf_copy_to_user,
    & __videobuf_copy_stream, & __videobuf_mmap_free, & __videobuf_mmap_mapper};
void videobuf_queue_vmalloc_init(struct videobuf_queue *q , struct videobuf_queue_ops *ops ,
                                 void *dev , spinlock_t *irqlock , enum v4l2_buf_type type ,
                                 enum v4l2_field field , unsigned int msize , void *priv ) 
{ 


  {
  videobuf_queue_core_init(q, ops, dev, irqlock, type, field, msize, priv, & qops);
  return;
}
}
void *videobuf_to_vmalloc(struct videobuf_buffer *buf ) 
{ 
  struct videobuf_vmalloc_memory *mem ;
  long tmp ;
  long tmp___0 ;

  {
  mem = (struct videobuf_vmalloc_memory *)buf->priv;
  tmp = ldv__builtin_expect((unsigned long )mem == (unsigned long )((struct videobuf_vmalloc_memory *)0),
                         0L);
  if (tmp != 0L) {
    __asm__  volatile   ("1:\tud2\n.pushsection __bug_table,\"a\"\n2:\t.quad 1b, %c0\n\t.word %c1, 0\n\t.org 2b+%c2\n.popsection": : "i" ((char *)"/work/ldvuser/novikov/work/current--X--drivers/media/video/videobuf-vmalloc.ko--X--defaultlinux--X--32_7a--X--cpachecker/linux/csd_deg_dscv/11/dscv_tempdir/dscv/ri/32_7a/drivers/media/video/videobuf-vmalloc.c.prepared"),
                         "i" (359), "i" (24UL));
    ldv_19402: ;
    goto ldv_19402;
  } else {

  }
  tmp___0 = ldv__builtin_expect(mem->magic != 404886051U, 0L);
  if (tmp___0 != 0L) {
    printk("<3>magic mismatch: %x (expected %x)\n", mem->magic, 404886051);
    __asm__  volatile   ("1:\tud2\n.pushsection __bug_table,\"a\"\n2:\t.quad 1b, %c0\n\t.word %c1, 0\n\t.org 2b+%c2\n.popsection": : "i" ((char *)"/work/ldvuser/novikov/work/current--X--drivers/media/video/videobuf-vmalloc.ko--X--defaultlinux--X--32_7a--X--cpachecker/linux/csd_deg_dscv/11/dscv_tempdir/dscv/ri/32_7a/drivers/media/video/videobuf-vmalloc.c.prepared"),
                         "i" (360), "i" (24UL));
    ldv_19403: ;
    goto ldv_19403;
  } else {

  }
  return (mem->vmalloc);
}
}
void videobuf_vmalloc_free(struct videobuf_buffer *buf ) 
{ 
  struct videobuf_vmalloc_memory *mem ;
  long tmp ;
  long tmp___0 ;

  {
  mem = (struct videobuf_vmalloc_memory *)buf->priv;
  tmp = ldv__builtin_expect((unsigned long )mem == (unsigned long )((struct videobuf_vmalloc_memory *)0),
                         0L);
  if (tmp != 0L) {
    __asm__  volatile   ("1:\tud2\n.pushsection __bug_table,\"a\"\n2:\t.quad 1b, %c0\n\t.word %c1, 0\n\t.org 2b+%c2\n.popsection": : "i" ((char *)"/work/ldvuser/novikov/work/current--X--drivers/media/video/videobuf-vmalloc.ko--X--defaultlinux--X--32_7a--X--cpachecker/linux/csd_deg_dscv/11/dscv_tempdir/dscv/ri/32_7a/drivers/media/video/videobuf-vmalloc.c.prepared"),
                         "i" (369), "i" (24UL));
    ldv_19414: ;
    goto ldv_19414;
  } else {

  }
  tmp___0 = ldv__builtin_expect(mem->magic != 404886051U, 0L);
  if (tmp___0 != 0L) {
    printk("<3>magic mismatch: %x (expected %x)\n", mem->magic, 404886051);
    __asm__  volatile   ("1:\tud2\n.pushsection __bug_table,\"a\"\n2:\t.quad 1b, %c0\n\t.word %c1, 0\n\t.org 2b+%c2\n.popsection": : "i" ((char *)"/work/ldvuser/novikov/work/current--X--drivers/media/video/videobuf-vmalloc.ko--X--defaultlinux--X--32_7a--X--cpachecker/linux/csd_deg_dscv/11/dscv_tempdir/dscv/ri/32_7a/drivers/media/video/videobuf-vmalloc.c.prepared"),
                         "i" (371), "i" (24UL));
    ldv_19415: ;
    goto ldv_19415;
  } else {

  }
  vfree((void const   *)mem->vmalloc);
  mem->vmalloc = 0;
  return;
}
}
void ldv_check_final_state(void) ;
void ldv_initialize(void) ;
extern void ldv_handler_precall(void) ;
extern int nondet_int(void) ;
int LDV_IN_INTERRUPT  ;
int main(void) 
{ 
  struct vm_area_struct *var_group1 ;
  size_t var___videobuf_alloc_2_p0 ;
  struct videobuf_queue *var_group2 ;
  struct videobuf_buffer *var_group3 ;
  struct v4l2_framebuffer *var___videobuf_iolock_3_p2 ;
  struct videobuf_queue *var_group4 ;
  char *var___videobuf_copy_to_user_7_p1 ;
  size_t var___videobuf_copy_to_user_7_p2 ;
  int var___videobuf_copy_to_user_7_p3 ;
  char *var___videobuf_copy_stream_8_p1 ;
  size_t var___videobuf_copy_stream_8_p2 ;
  size_t var___videobuf_copy_stream_8_p3 ;
  int var___videobuf_copy_stream_8_p4 ;
  int var___videobuf_copy_stream_8_p5 ;
  int ldv_s_videobuf_vm_ops_vm_operations_struct ;
  int tmp ;
  int tmp___0 ;

  {
  ldv_s_videobuf_vm_ops_vm_operations_struct = 0;
  LDV_IN_INTERRUPT = 1;
  ldv_initialize();
  goto ldv_19465;
  ldv_19464: 
  tmp = nondet_int();
  switch (tmp) {
  case 0: ;
  if (ldv_s_videobuf_vm_ops_vm_operations_struct == 0) {
    ldv_handler_precall();
    videobuf_vm_open(var_group1);
    ldv_s_videobuf_vm_ops_vm_operations_struct = ldv_s_videobuf_vm_ops_vm_operations_struct + 1;
  } else {

  }
  goto ldv_19454;
  case 1: ;
  if (ldv_s_videobuf_vm_ops_vm_operations_struct == 1) {
    ldv_handler_precall();
    videobuf_vm_close(var_group1);
    ldv_s_videobuf_vm_ops_vm_operations_struct = 0;
  } else {

  }
  goto ldv_19454;
  case 2: 
  ldv_handler_precall();
  __videobuf_alloc(var___videobuf_alloc_2_p0);
  goto ldv_19454;
  case 3: 
  ldv_handler_precall();
  __videobuf_iolock(var_group2, var_group3, var___videobuf_iolock_3_p2);
  goto ldv_19454;
  case 4: 
  ldv_handler_precall();
  __videobuf_sync(var_group4, var_group3);
  goto ldv_19454;
  case 5: 
  ldv_handler_precall();
  __videobuf_mmap_free(var_group4);
  goto ldv_19454;
  case 6: 
  ldv_handler_precall();
  __videobuf_mmap_mapper(var_group4, var_group1);
  goto ldv_19454;
  case 7: 
  ldv_handler_precall();
  __videobuf_copy_to_user(var_group4, var___videobuf_copy_to_user_7_p1, var___videobuf_copy_to_user_7_p2,
                          var___videobuf_copy_to_user_7_p3);
  goto ldv_19454;
  case 8: 
  ldv_handler_precall();
  __videobuf_copy_stream(var_group4, var___videobuf_copy_stream_8_p1, var___videobuf_copy_stream_8_p2,
                         var___videobuf_copy_stream_8_p3, var___videobuf_copy_stream_8_p4,
                         var___videobuf_copy_stream_8_p5);
  goto ldv_19454;
  default: ;
  goto ldv_19454;
  }
  ldv_19454: ;
  ldv_19465: 
  tmp___0 = nondet_int();
  if (tmp___0 != 0 || ldv_s_videobuf_vm_ops_vm_operations_struct != 0) {
    goto ldv_19464;
  } else {

  }


  ldv_check_final_state();
  return 0;
}
}
void ldv_mutex_lock_1(struct mutex *ldv_func_arg1 ) 
{ 


  {
  ldv_mutex_lock_vb_lock_of_videobuf_queue(ldv_func_arg1);
  mutex_lock(ldv_func_arg1);
  return;
}
}
void ldv_mutex_unlock_2(struct mutex *ldv_func_arg1 ) 
{ 


  {
  ldv_mutex_unlock_vb_lock_of_videobuf_queue(ldv_func_arg1);
  mutex_unlock(ldv_func_arg1);
  return;
}
}
 static void ( __attribute__((__always_inline__)) ldv_error)(void) 
{ 


  {
  LDV_ERROR: {reach_error();abort();}
}
}
extern int ldv_undef_int(void) ;
long ldv__builtin_expect(long exp , long c ) 
{ 


  {
  return (exp);
}
}
static int ldv_mutex_vb_lock_of_videobuf_queue  ;
int ldv_mutex_lock_interruptible_vb_lock_of_videobuf_queue(struct mutex *lock ) 
{ 
  int nondetermined ;

  {
  if (ldv_mutex_vb_lock_of_videobuf_queue == 1) {

  } else {
    ldv_error();
  }
  nondetermined = ldv_undef_int();
  if (nondetermined) {
    ldv_mutex_vb_lock_of_videobuf_queue = 2;
    return (0);
  } else {
    return (-4);
  }
}
}
int ldv_mutex_lock_killable_vb_lock_of_videobuf_queue(struct mutex *lock ) 
{ 
  int nondetermined ;

  {
  if (ldv_mutex_vb_lock_of_videobuf_queue == 1) {

  } else {
    ldv_error();
  }
  nondetermined = ldv_undef_int();
  if (nondetermined) {
    ldv_mutex_vb_lock_of_videobuf_queue = 2;
    return (0);
  } else {
    return (-4);
  }
}
}
void ldv_mutex_lock_vb_lock_of_videobuf_queue(struct mutex *lock ) 
{ 


  {
  if (ldv_mutex_vb_lock_of_videobuf_queue == 1) {

  } else {
    ldv_error();
  }
  ldv_mutex_vb_lock_of_videobuf_queue = 2;
  return;
}
}
int ldv_mutex_trylock_vb_lock_of_videobuf_queue(struct mutex *lock ) 
{ 
  int is_mutex_held_by_another_thread ;

  {
  if (ldv_mutex_vb_lock_of_videobuf_queue == 1) {

  } else {
    ldv_error();
  }
  is_mutex_held_by_another_thread = ldv_undef_int();
  if (is_mutex_held_by_another_thread) {
    return (0);
  } else {
    ldv_mutex_vb_lock_of_videobuf_queue = 2;
    return (1);
  }
}
}
int ldv_atomic_dec_and_mutex_lock_vb_lock_of_videobuf_queue(atomic_t *cnt , struct mutex *lock ) 
{ 
  int atomic_value_after_dec ;

  {
  if (ldv_mutex_vb_lock_of_videobuf_queue == 1) {

  } else {
    ldv_error();
  }
  atomic_value_after_dec = ldv_undef_int();
  if (atomic_value_after_dec == 0) {
    ldv_mutex_vb_lock_of_videobuf_queue = 2;
    return (1);
  } else {

  }
  return (0);
}
}
int ldv_mutex_is_locked_vb_lock_of_videobuf_queue(struct mutex *lock ) 
{ 
  int nondetermined ;

  {
  if (ldv_mutex_vb_lock_of_videobuf_queue == 1) {
    nondetermined = ldv_undef_int();
    if (nondetermined) {
      return (0);
    } else {
      return (1);
    }
  } else {
    return (1);
  }
}
}
void ldv_mutex_unlock_vb_lock_of_videobuf_queue(struct mutex *lock ) 
{ 


  {
  if (ldv_mutex_vb_lock_of_videobuf_queue == 2) {

  } else {
    ldv_error();
  }
  ldv_mutex_vb_lock_of_videobuf_queue = 1;
  return;
}
}
void ldv_initialize(void) 
{ 


  {
  ldv_mutex_vb_lock_of_videobuf_queue = 1;
  return;
}
}
void ldv_check_final_state(void) 
{ 


  {
  if (ldv_mutex_vb_lock_of_videobuf_queue == 1) {

  } else {
    ldv_error();
  }
  return;
}
}
