extern void abort(void);
extern void __assert_fail(const char *, const char *, unsigned int, const char *) __attribute__ ((__nothrow__ , __leaf__)) __attribute__ ((__noreturn__));
void reach_error() { __assert_fail("0", "drivers--input--joystick--spaceorb.ko_012.65ac9f7.32_7a.cil_true-unreach-call.i", 3, "reach_error"); }

/* Generated by CIL v. 1.5.1 */
/* print_CIL_Input is false */

typedef signed char __s8;
typedef unsigned char __u8;
typedef short __s16;
typedef unsigned short __u16;
typedef int __s32;
typedef unsigned int __u32;
typedef unsigned long long __u64;
typedef unsigned char u8;
typedef unsigned short u16;
typedef int s32;
typedef unsigned int u32;
typedef long long s64;
typedef unsigned long long u64;
typedef unsigned int __kernel_uid_t;
typedef unsigned int __kernel_gid_t;
typedef unsigned long __kernel_size_t;
typedef long __kernel_ssize_t;
typedef long __kernel_time_t;
typedef long long __kernel_loff_t;
typedef __kernel_uid_t __kernel_uid32_t;
typedef __kernel_gid_t __kernel_gid32_t;
typedef __u32 __kernel_dev_t;
typedef __kernel_dev_t dev_t;
typedef unsigned short umode_t;
typedef _Bool bool;
typedef __kernel_uid32_t uid_t;
typedef __kernel_gid32_t gid_t;
typedef __kernel_loff_t loff_t;
typedef __kernel_size_t size_t;
typedef __kernel_ssize_t ssize_t;
typedef __kernel_time_t time_t;
typedef unsigned long sector_t;
typedef unsigned long blkcnt_t;
typedef unsigned int gfp_t;
typedef unsigned int fmode_t;
struct __anonstruct_atomic_t_6 {
   int counter ;
};
typedef struct __anonstruct_atomic_t_6 atomic_t;
struct __anonstruct_atomic64_t_7 {
   long counter ;
};
typedef struct __anonstruct_atomic64_t_7 atomic64_t;
struct list_head {
   struct list_head *next ;
   struct list_head *prev ;
};
struct hlist_node;
struct hlist_head {
   struct hlist_node *first ;
};
struct hlist_node {
   struct hlist_node *next ;
   struct hlist_node **pprev ;
};
struct rcu_head {
   struct rcu_head *next ;
   void (*func)(struct rcu_head * ) ;
};
struct module;
typedef void (*ctor_fn_t)(void);
struct device;
struct bug_entry {
   int bug_addr_disp ;
   int file_disp ;
   unsigned short line ;
   unsigned short flags ;
};
struct completion;
struct pid;
typedef u16 __ticket_t;
typedef u32 __ticketpair_t;
struct __raw_tickets {
   __ticket_t head ;
   __ticket_t tail ;
};
union __anonunion_ldv_2029_8 {
   __ticketpair_t head_tail ;
   struct __raw_tickets tickets ;
};
struct arch_spinlock {
   union __anonunion_ldv_2029_8 ldv_2029 ;
};
typedef struct arch_spinlock arch_spinlock_t;
struct __anonstruct_ldv_2036_10 {
   u32 read ;
   s32 write ;
};
union __anonunion_arch_rwlock_t_9 {
   s64 lock ;
   struct __anonstruct_ldv_2036_10 ldv_2036 ;
};
typedef union __anonunion_arch_rwlock_t_9 arch_rwlock_t;
struct task_struct;
struct lockdep_map;
struct page;
struct file;
struct seq_file;
struct jump_label_key;
struct kmem_cache;
typedef atomic64_t atomic_long_t;
struct stack_trace {
   unsigned int nr_entries ;
   unsigned int max_entries ;
   unsigned long *entries ;
   int skip ;
};
struct lockdep_subclass_key {
   char __one_byte ;
} __attribute__((__packed__)) ;
struct lock_class_key {
   struct lockdep_subclass_key subkeys[8U] ;
};
struct lock_class {
   struct list_head hash_entry ;
   struct list_head lock_entry ;
   struct lockdep_subclass_key *key ;
   unsigned int subclass ;
   unsigned int dep_gen_id ;
   unsigned long usage_mask ;
   struct stack_trace usage_traces[13U] ;
   struct list_head locks_after ;
   struct list_head locks_before ;
   unsigned int version ;
   unsigned long ops ;
   char const   *name ;
   int name_version ;
   unsigned long contention_point[4U] ;
   unsigned long contending_point[4U] ;
};
struct lockdep_map {
   struct lock_class_key *key ;
   struct lock_class *class_cache[2U] ;
   char const   *name ;
   int cpu ;
   unsigned long ip ;
};
struct raw_spinlock {
   arch_spinlock_t raw_lock ;
   unsigned int magic ;
   unsigned int owner_cpu ;
   void *owner ;
   struct lockdep_map dep_map ;
};
typedef struct raw_spinlock raw_spinlock_t;
struct __anonstruct_ldv_6019_29 {
   u8 __padding[24U] ;
   struct lockdep_map dep_map ;
};
union __anonunion_ldv_6020_28 {
   struct raw_spinlock rlock ;
   struct __anonstruct_ldv_6019_29 ldv_6019 ;
};
struct spinlock {
   union __anonunion_ldv_6020_28 ldv_6020 ;
};
typedef struct spinlock spinlock_t;
struct __anonstruct_rwlock_t_30 {
   arch_rwlock_t raw_lock ;
   unsigned int magic ;
   unsigned int owner_cpu ;
   void *owner ;
   struct lockdep_map dep_map ;
};
typedef struct __anonstruct_rwlock_t_30 rwlock_t;
struct mutex {
   atomic_t count ;
   spinlock_t wait_lock ;
   struct list_head wait_list ;
   struct task_struct *owner ;
   char const   *name ;
   void *magic ;
   struct lockdep_map dep_map ;
};
struct timespec;
struct __wait_queue_head {
   spinlock_t lock ;
   struct list_head task_list ;
};
typedef struct __wait_queue_head wait_queue_head_t;
struct seqcount {
   unsigned int sequence ;
};
typedef struct seqcount seqcount_t;
struct rw_semaphore;
struct rw_semaphore {
   long count ;
   raw_spinlock_t wait_lock ;
   struct list_head wait_list ;
   struct lockdep_map dep_map ;
};
struct completion {
   unsigned int done ;
   wait_queue_head_t wait ;
};
struct timespec {
   __kernel_time_t tv_sec ;
   long tv_nsec ;
};
union ktime {
   s64 tv64 ;
};
typedef union ktime ktime_t;
struct tvec_base;
struct timer_list {
   struct list_head entry ;
   unsigned long expires ;
   struct tvec_base *base ;
   void (*function)(unsigned long  ) ;
   unsigned long data ;
   int slack ;
   int start_pid ;
   void *start_site ;
   char start_comm[16U] ;
   struct lockdep_map lockdep_map ;
};
struct work_struct;
struct work_struct {
   atomic_long_t data ;
   struct list_head entry ;
   void (*func)(struct work_struct * ) ;
   struct lockdep_map lockdep_map ;
};
struct pm_message {
   int event ;
};
typedef struct pm_message pm_message_t;
struct dev_pm_ops {
   int (*prepare)(struct device * ) ;
   void (*complete)(struct device * ) ;
   int (*suspend)(struct device * ) ;
   int (*resume)(struct device * ) ;
   int (*freeze)(struct device * ) ;
   int (*thaw)(struct device * ) ;
   int (*poweroff)(struct device * ) ;
   int (*restore)(struct device * ) ;
   int (*suspend_noirq)(struct device * ) ;
   int (*resume_noirq)(struct device * ) ;
   int (*freeze_noirq)(struct device * ) ;
   int (*thaw_noirq)(struct device * ) ;
   int (*poweroff_noirq)(struct device * ) ;
   int (*restore_noirq)(struct device * ) ;
   int (*runtime_suspend)(struct device * ) ;
   int (*runtime_resume)(struct device * ) ;
   int (*runtime_idle)(struct device * ) ;
};
enum rpm_status {
    RPM_ACTIVE = 0,
    RPM_RESUMING = 1,
    RPM_SUSPENDED = 2,
    RPM_SUSPENDING = 3
} ;
enum rpm_request {
    RPM_REQ_NONE = 0,
    RPM_REQ_IDLE = 1,
    RPM_REQ_SUSPEND = 2,
    RPM_REQ_AUTOSUSPEND = 3,
    RPM_REQ_RESUME = 4
} ;
struct wakeup_source;
struct pm_subsys_data {
   spinlock_t lock ;
   unsigned int refcount ;
};
struct pm_qos_constraints;
struct dev_pm_info {
   pm_message_t power_state ;
   unsigned char can_wakeup : 1 ;
   unsigned char async_suspend : 1 ;
   bool is_prepared ;
   bool is_suspended ;
   bool ignore_children ;
   spinlock_t lock ;
   struct list_head entry ;
   struct completion completion ;
   struct wakeup_source *wakeup ;
   bool wakeup_path ;
   struct timer_list suspend_timer ;
   unsigned long timer_expires ;
   struct work_struct work ;
   wait_queue_head_t wait_queue ;
   atomic_t usage_count ;
   atomic_t child_count ;
   unsigned char disable_depth : 3 ;
   unsigned char idle_notification : 1 ;
   unsigned char request_pending : 1 ;
   unsigned char deferred_resume : 1 ;
   unsigned char run_wake : 1 ;
   unsigned char runtime_auto : 1 ;
   unsigned char no_callbacks : 1 ;
   unsigned char irq_safe : 1 ;
   unsigned char use_autosuspend : 1 ;
   unsigned char timer_autosuspends : 1 ;
   enum rpm_request request ;
   enum rpm_status runtime_status ;
   int runtime_error ;
   int autosuspend_delay ;
   unsigned long last_busy ;
   unsigned long active_jiffies ;
   unsigned long suspended_jiffies ;
   unsigned long accounting_timestamp ;
   ktime_t suspend_time ;
   s64 max_time_suspended_ns ;
   struct pm_subsys_data *subsys_data ;
   struct pm_qos_constraints *constraints ;
};
struct dev_pm_domain {
   struct dev_pm_ops ops ;
};
struct vm_area_struct;
struct sock;
struct kobject;
enum kobj_ns_type {
    KOBJ_NS_TYPE_NONE = 0,
    KOBJ_NS_TYPE_NET = 1,
    KOBJ_NS_TYPES = 2
} ;
struct kobj_ns_type_operations {
   enum kobj_ns_type type ;
   void *(*grab_current_ns)(void) ;
   void const   *(*netlink_ns)(struct sock * ) ;
   void const   *(*initial_ns)(void) ;
   void (*drop_ns)(void * ) ;
};
struct attribute {
   char const   *name ;
   umode_t mode ;
   struct lock_class_key *key ;
   struct lock_class_key skey ;
};
struct attribute_group {
   char const   *name ;
   umode_t (*is_visible)(struct kobject * , struct attribute * , int  ) ;
   struct attribute **attrs ;
};
struct bin_attribute {
   struct attribute attr ;
   size_t size ;
   void *private ;
   ssize_t (*read)(struct file * , struct kobject * , struct bin_attribute * , char * ,
                   loff_t  , size_t  ) ;
   ssize_t (*write)(struct file * , struct kobject * , struct bin_attribute * , char * ,
                    loff_t  , size_t  ) ;
   int (*mmap)(struct file * , struct kobject * , struct bin_attribute * , struct vm_area_struct * ) ;
};
struct sysfs_ops {
   ssize_t (*show)(struct kobject * , struct attribute * , char * ) ;
   ssize_t (*store)(struct kobject * , struct attribute * , char const   * , size_t  ) ;
   void const   *(*namespace)(struct kobject * , struct attribute  const  * ) ;
};
struct sysfs_dirent;
struct kref {
   atomic_t refcount ;
};
struct kset;
struct kobj_type;
struct kobject {
   char const   *name ;
   struct list_head entry ;
   struct kobject *parent ;
   struct kset *kset ;
   struct kobj_type *ktype ;
   struct sysfs_dirent *sd ;
   struct kref kref ;
   unsigned char state_initialized : 1 ;
   unsigned char state_in_sysfs : 1 ;
   unsigned char state_add_uevent_sent : 1 ;
   unsigned char state_remove_uevent_sent : 1 ;
   unsigned char uevent_suppress : 1 ;
};
struct kobj_type {
   void (*release)(struct kobject * ) ;
   struct sysfs_ops  const  *sysfs_ops ;
   struct attribute **default_attrs ;
   struct kobj_ns_type_operations  const  *(*child_ns_type)(struct kobject * ) ;
   void const   *(*namespace)(struct kobject * ) ;
};
struct kobj_uevent_env {
   char *envp[32U] ;
   int envp_idx ;
   char buf[2048U] ;
   int buflen ;
};
struct kset_uevent_ops {
   int (* const  filter)(struct kset * , struct kobject * ) ;
   char const   *(* const  name)(struct kset * , struct kobject * ) ;
   int (* const  uevent)(struct kset * , struct kobject * , struct kobj_uevent_env * ) ;
};
struct kset {
   struct list_head list ;
   spinlock_t list_lock ;
   struct kobject kobj ;
   struct kset_uevent_ops  const  *uevent_ops ;
};
struct kmem_cache_cpu {
   void **freelist ;
   unsigned long tid ;
   struct page *page ;
   struct page *partial ;
   int node ;
   unsigned int stat[24U] ;
};
struct kmem_cache_node {
   spinlock_t list_lock ;
   unsigned long nr_partial ;
   struct list_head partial ;
   atomic_long_t nr_slabs ;
   atomic_long_t total_objects ;
   struct list_head full ;
};
struct kmem_cache_order_objects {
   unsigned long x ;
};
struct kmem_cache {
   struct kmem_cache_cpu *cpu_slab ;
   unsigned long flags ;
   unsigned long min_partial ;
   int size ;
   int objsize ;
   int offset ;
   int cpu_partial ;
   struct kmem_cache_order_objects oo ;
   struct kmem_cache_order_objects max ;
   struct kmem_cache_order_objects min ;
   gfp_t allocflags ;
   int refcount ;
   void (*ctor)(void * ) ;
   int inuse ;
   int align ;
   int reserved ;
   char const   *name ;
   struct list_head list ;
   struct kobject kobj ;
   int remote_node_defrag_ratio ;
   struct kmem_cache_node *node[1024U] ;
};
struct kstat {
   u64 ino ;
   dev_t dev ;
   umode_t mode ;
   unsigned int nlink ;
   uid_t uid ;
   gid_t gid ;
   dev_t rdev ;
   loff_t size ;
   struct timespec atime ;
   struct timespec mtime ;
   struct timespec ctime ;
   unsigned long blksize ;
   unsigned long long blocks ;
};
struct cred;
typedef __u64 Elf64_Addr;
typedef __u16 Elf64_Half;
typedef __u32 Elf64_Word;
typedef __u64 Elf64_Xword;
struct elf64_sym {
   Elf64_Word st_name ;
   unsigned char st_info ;
   unsigned char st_other ;
   Elf64_Half st_shndx ;
   Elf64_Addr st_value ;
   Elf64_Xword st_size ;
};
typedef struct elf64_sym Elf64_Sym;
struct kernel_param;
struct kernel_param_ops {
   int (*set)(char const   * , struct kernel_param  const  * ) ;
   int (*get)(char * , struct kernel_param  const  * ) ;
   void (*free)(void * ) ;
};
struct kparam_string;
struct kparam_array;
union __anonunion_ldv_13512_134 {
   void *arg ;
   struct kparam_string  const  *str ;
   struct kparam_array  const  *arr ;
};
struct kernel_param {
   char const   *name ;
   struct kernel_param_ops  const  *ops ;
   u16 perm ;
   u16 flags ;
   union __anonunion_ldv_13512_134 ldv_13512 ;
};
struct kparam_string {
   unsigned int maxlen ;
   char *string ;
};
struct kparam_array {
   unsigned int max ;
   unsigned int elemsize ;
   unsigned int *num ;
   struct kernel_param_ops  const  *ops ;
   void *elem ;
};
struct jump_label_key {
   atomic_t enabled ;
};
struct tracepoint;
struct tracepoint_func {
   void *func ;
   void *data ;
};
struct tracepoint {
   char const   *name ;
   struct jump_label_key key ;
   void (*regfunc)(void) ;
   void (*unregfunc)(void) ;
   struct tracepoint_func *funcs ;
};
struct kernel_symbol {
   unsigned long value ;
   char const   *name ;
};
struct mod_arch_specific {

};
struct module_param_attrs;
struct module_kobject {
   struct kobject kobj ;
   struct module *mod ;
   struct kobject *drivers_dir ;
   struct module_param_attrs *mp ;
};
struct module_attribute {
   struct attribute attr ;
   ssize_t (*show)(struct module_attribute * , struct module_kobject * , char * ) ;
   ssize_t (*store)(struct module_attribute * , struct module_kobject * , char const   * ,
                    size_t  ) ;
   void (*setup)(struct module * , char const   * ) ;
   int (*test)(struct module * ) ;
   void (*free)(struct module * ) ;
};
struct exception_table_entry;
enum module_state {
    MODULE_STATE_LIVE = 0,
    MODULE_STATE_COMING = 1,
    MODULE_STATE_GOING = 2
} ;
struct module_ref {
   unsigned long incs ;
   unsigned long decs ;
};
struct module_sect_attrs;
struct module_notes_attrs;
struct ftrace_event_call;
struct module {
   enum module_state state ;
   struct list_head list ;
   char name[56U] ;
   struct module_kobject mkobj ;
   struct module_attribute *modinfo_attrs ;
   char const   *version ;
   char const   *srcversion ;
   struct kobject *holders_dir ;
   struct kernel_symbol  const  *syms ;
   unsigned long const   *crcs ;
   unsigned int num_syms ;
   struct kernel_param *kp ;
   unsigned int num_kp ;
   unsigned int num_gpl_syms ;
   struct kernel_symbol  const  *gpl_syms ;
   unsigned long const   *gpl_crcs ;
   struct kernel_symbol  const  *unused_syms ;
   unsigned long const   *unused_crcs ;
   unsigned int num_unused_syms ;
   unsigned int num_unused_gpl_syms ;
   struct kernel_symbol  const  *unused_gpl_syms ;
   unsigned long const   *unused_gpl_crcs ;
   struct kernel_symbol  const  *gpl_future_syms ;
   unsigned long const   *gpl_future_crcs ;
   unsigned int num_gpl_future_syms ;
   unsigned int num_exentries ;
   struct exception_table_entry *extable ;
   int (*init)(void) ;
   void *module_init ;
   void *module_core ;
   unsigned int init_size ;
   unsigned int core_size ;
   unsigned int init_text_size ;
   unsigned int core_text_size ;
   unsigned int init_ro_size ;
   unsigned int core_ro_size ;
   struct mod_arch_specific arch ;
   unsigned int taints ;
   unsigned int num_bugs ;
   struct list_head bug_list ;
   struct bug_entry *bug_table ;
   Elf64_Sym *symtab ;
   Elf64_Sym *core_symtab ;
   unsigned int num_symtab ;
   unsigned int core_num_syms ;
   char *strtab ;
   char *core_strtab ;
   struct module_sect_attrs *sect_attrs ;
   struct module_notes_attrs *notes_attrs ;
   char *args ;
   void *percpu ;
   unsigned int percpu_size ;
   unsigned int num_tracepoints ;
   struct tracepoint * const  *tracepoints_ptrs ;
   unsigned int num_trace_bprintk_fmt ;
   char const   **trace_bprintk_fmt_start ;
   struct ftrace_event_call **trace_events ;
   unsigned int num_trace_events ;
   struct list_head source_list ;
   struct list_head target_list ;
   struct task_struct *waiter ;
   void (*exit)(void) ;
   struct module_ref *refptr ;
   ctor_fn_t (**ctors)(void) ;
   unsigned int num_ctors ;
};
struct input_id {
   __u16 bustype ;
   __u16 vendor ;
   __u16 product ;
   __u16 version ;
};
struct input_absinfo {
   __s32 value ;
   __s32 minimum ;
   __s32 maximum ;
   __s32 fuzz ;
   __s32 flat ;
   __s32 resolution ;
};
struct input_keymap_entry {
   __u8 flags ;
   __u8 len ;
   __u16 index ;
   __u32 keycode ;
   __u8 scancode[32U] ;
};
struct ff_replay {
   __u16 length ;
   __u16 delay ;
};
struct ff_trigger {
   __u16 button ;
   __u16 interval ;
};
struct ff_envelope {
   __u16 attack_length ;
   __u16 attack_level ;
   __u16 fade_length ;
   __u16 fade_level ;
};
struct ff_constant_effect {
   __s16 level ;
   struct ff_envelope envelope ;
};
struct ff_ramp_effect {
   __s16 start_level ;
   __s16 end_level ;
   struct ff_envelope envelope ;
};
struct ff_condition_effect {
   __u16 right_saturation ;
   __u16 left_saturation ;
   __s16 right_coeff ;
   __s16 left_coeff ;
   __u16 deadband ;
   __s16 center ;
};
struct ff_periodic_effect {
   __u16 waveform ;
   __u16 period ;
   __s16 magnitude ;
   __s16 offset ;
   __u16 phase ;
   struct ff_envelope envelope ;
   __u32 custom_len ;
   __s16 *custom_data ;
};
struct ff_rumble_effect {
   __u16 strong_magnitude ;
   __u16 weak_magnitude ;
};
union __anonunion_u_135 {
   struct ff_constant_effect constant ;
   struct ff_ramp_effect ramp ;
   struct ff_periodic_effect periodic ;
   struct ff_condition_effect condition[2U] ;
   struct ff_rumble_effect rumble ;
};
struct ff_effect {
   __u16 type ;
   __s16 id ;
   __u16 direction ;
   struct ff_trigger trigger ;
   struct ff_replay replay ;
   union __anonunion_u_135 u ;
};
struct klist_node;
struct klist_node {
   void *n_klist ;
   struct list_head n_node ;
   struct kref n_ref ;
};
struct dma_map_ops;
struct dev_archdata {
   void *acpi_handle ;
   struct dma_map_ops *dma_ops ;
   void *iommu ;
};
struct device_private;
struct device_driver;
struct driver_private;
struct class;
struct subsys_private;
struct bus_type;
struct device_node;
struct iommu_ops;
struct bus_attribute {
   struct attribute attr ;
   ssize_t (*show)(struct bus_type * , char * ) ;
   ssize_t (*store)(struct bus_type * , char const   * , size_t  ) ;
};
struct device_attribute;
struct driver_attribute;
struct bus_type {
   char const   *name ;
   char const   *dev_name ;
   struct device *dev_root ;
   struct bus_attribute *bus_attrs ;
   struct device_attribute *dev_attrs ;
   struct driver_attribute *drv_attrs ;
   int (*match)(struct device * , struct device_driver * ) ;
   int (*uevent)(struct device * , struct kobj_uevent_env * ) ;
   int (*probe)(struct device * ) ;
   int (*remove)(struct device * ) ;
   void (*shutdown)(struct device * ) ;
   int (*suspend)(struct device * , pm_message_t  ) ;
   int (*resume)(struct device * ) ;
   struct dev_pm_ops  const  *pm ;
   struct iommu_ops *iommu_ops ;
   struct subsys_private *p ;
};
struct device_type;
struct of_device_id;
struct device_driver {
   char const   *name ;
   struct bus_type *bus ;
   struct module *owner ;
   char const   *mod_name ;
   bool suppress_bind_attrs ;
   struct of_device_id  const  *of_match_table ;
   int (*probe)(struct device * ) ;
   int (*remove)(struct device * ) ;
   void (*shutdown)(struct device * ) ;
   int (*suspend)(struct device * , pm_message_t  ) ;
   int (*resume)(struct device * ) ;
   struct attribute_group  const  **groups ;
   struct dev_pm_ops  const  *pm ;
   struct driver_private *p ;
};
struct driver_attribute {
   struct attribute attr ;
   ssize_t (*show)(struct device_driver * , char * ) ;
   ssize_t (*store)(struct device_driver * , char const   * , size_t  ) ;
};
struct class_attribute;
struct class {
   char const   *name ;
   struct module *owner ;
   struct class_attribute *class_attrs ;
   struct device_attribute *dev_attrs ;
   struct bin_attribute *dev_bin_attrs ;
   struct kobject *dev_kobj ;
   int (*dev_uevent)(struct device * , struct kobj_uevent_env * ) ;
   char *(*devnode)(struct device * , umode_t * ) ;
   void (*class_release)(struct class * ) ;
   void (*dev_release)(struct device * ) ;
   int (*suspend)(struct device * , pm_message_t  ) ;
   int (*resume)(struct device * ) ;
   struct kobj_ns_type_operations  const  *ns_type ;
   void const   *(*namespace)(struct device * ) ;
   struct dev_pm_ops  const  *pm ;
   struct subsys_private *p ;
};
struct class_attribute {
   struct attribute attr ;
   ssize_t (*show)(struct class * , struct class_attribute * , char * ) ;
   ssize_t (*store)(struct class * , struct class_attribute * , char const   * , size_t  ) ;
   void const   *(*namespace)(struct class * , struct class_attribute  const  * ) ;
};
struct device_type {
   char const   *name ;
   struct attribute_group  const  **groups ;
   int (*uevent)(struct device * , struct kobj_uevent_env * ) ;
   char *(*devnode)(struct device * , umode_t * ) ;
   void (*release)(struct device * ) ;
   struct dev_pm_ops  const  *pm ;
};
struct device_attribute {
   struct attribute attr ;
   ssize_t (*show)(struct device * , struct device_attribute * , char * ) ;
   ssize_t (*store)(struct device * , struct device_attribute * , char const   * ,
                    size_t  ) ;
};
struct device_dma_parameters {
   unsigned int max_segment_size ;
   unsigned long segment_boundary_mask ;
};
struct dma_coherent_mem;
struct device {
   struct device *parent ;
   struct device_private *p ;
   struct kobject kobj ;
   char const   *init_name ;
   struct device_type  const  *type ;
   struct mutex mutex ;
   struct bus_type *bus ;
   struct device_driver *driver ;
   void *platform_data ;
   struct dev_pm_info power ;
   struct dev_pm_domain *pm_domain ;
   int numa_node ;
   u64 *dma_mask ;
   u64 coherent_dma_mask ;
   struct device_dma_parameters *dma_parms ;
   struct list_head dma_pools ;
   struct dma_coherent_mem *dma_mem ;
   struct dev_archdata archdata ;
   struct device_node *of_node ;
   dev_t devt ;
   u32 id ;
   spinlock_t devres_lock ;
   struct list_head devres_head ;
   struct klist_node knode_class ;
   struct class *class ;
   struct attribute_group  const  **groups ;
   void (*release)(struct device * ) ;
};
struct wakeup_source {
   char *name ;
   struct list_head entry ;
   spinlock_t lock ;
   struct timer_list timer ;
   unsigned long timer_expires ;
   ktime_t total_time ;
   ktime_t max_time ;
   ktime_t last_time ;
   unsigned long event_count ;
   unsigned long active_count ;
   unsigned long relax_count ;
   unsigned long hit_count ;
   unsigned char active : 1 ;
};
struct block_device;
struct hlist_bl_node;
struct hlist_bl_head {
   struct hlist_bl_node *first ;
};
struct hlist_bl_node {
   struct hlist_bl_node *next ;
   struct hlist_bl_node **pprev ;
};
struct nameidata;
struct path;
struct vfsmount;
struct qstr {
   unsigned int hash ;
   unsigned int len ;
   unsigned char const   *name ;
};
struct inode;
struct dentry_operations;
struct super_block;
union __anonunion_d_u_136 {
   struct list_head d_child ;
   struct rcu_head d_rcu ;
};
struct dentry {
   unsigned int d_flags ;
   seqcount_t d_seq ;
   struct hlist_bl_node d_hash ;
   struct dentry *d_parent ;
   struct qstr d_name ;
   struct inode *d_inode ;
   unsigned char d_iname[32U] ;
   unsigned int d_count ;
   spinlock_t d_lock ;
   struct dentry_operations  const  *d_op ;
   struct super_block *d_sb ;
   unsigned long d_time ;
   void *d_fsdata ;
   struct list_head d_lru ;
   union __anonunion_d_u_136 d_u ;
   struct list_head d_subdirs ;
   struct list_head d_alias ;
};
struct dentry_operations {
   int (*d_revalidate)(struct dentry * , struct nameidata * ) ;
   int (*d_hash)(struct dentry  const  * , struct inode  const  * , struct qstr * ) ;
   int (*d_compare)(struct dentry  const  * , struct inode  const  * , struct dentry  const  * ,
                    struct inode  const  * , unsigned int  , char const   * , struct qstr  const  * ) ;
   int (*d_delete)(struct dentry  const  * ) ;
   void (*d_release)(struct dentry * ) ;
   void (*d_prune)(struct dentry * ) ;
   void (*d_iput)(struct dentry * , struct inode * ) ;
   char *(*d_dname)(struct dentry * , char * , int  ) ;
   struct vfsmount *(*d_automount)(struct path * ) ;
   int (*d_manage)(struct dentry * , bool  ) ;
};
struct path {
   struct vfsmount *mnt ;
   struct dentry *dentry ;
};
struct radix_tree_node;
struct radix_tree_root {
   unsigned int height ;
   gfp_t gfp_mask ;
   struct radix_tree_node *rnode ;
};
struct prio_tree_node;
struct prio_tree_node {
   struct prio_tree_node *left ;
   struct prio_tree_node *right ;
   struct prio_tree_node *parent ;
   unsigned long start ;
   unsigned long last ;
};
struct prio_tree_root {
   struct prio_tree_node *prio_tree_node ;
   unsigned short index_bits ;
   unsigned short raw ;
};
enum pid_type {
    PIDTYPE_PID = 0,
    PIDTYPE_PGID = 1,
    PIDTYPE_SID = 2,
    PIDTYPE_MAX = 3
} ;
struct pid_namespace;
struct upid {
   int nr ;
   struct pid_namespace *ns ;
   struct hlist_node pid_chain ;
};
struct pid {
   atomic_t count ;
   unsigned int level ;
   struct hlist_head tasks[3U] ;
   struct rcu_head rcu ;
   struct upid numbers[1U] ;
};
struct fiemap_extent {
   __u64 fe_logical ;
   __u64 fe_physical ;
   __u64 fe_length ;
   __u64 fe_reserved64[2U] ;
   __u32 fe_flags ;
   __u32 fe_reserved[3U] ;
};
struct shrink_control {
   gfp_t gfp_mask ;
   unsigned long nr_to_scan ;
};
struct shrinker {
   int (*shrink)(struct shrinker * , struct shrink_control * ) ;
   int seeks ;
   long batch ;
   struct list_head list ;
   atomic_long_t nr_in_batch ;
};
enum migrate_mode {
    MIGRATE_ASYNC = 0,
    MIGRATE_SYNC_LIGHT = 1,
    MIGRATE_SYNC = 2
} ;
struct export_operations;
struct iovec;
struct kiocb;
struct pipe_inode_info;
struct poll_table_struct;
struct kstatfs;
struct iattr {
   unsigned int ia_valid ;
   umode_t ia_mode ;
   uid_t ia_uid ;
   gid_t ia_gid ;
   loff_t ia_size ;
   struct timespec ia_atime ;
   struct timespec ia_mtime ;
   struct timespec ia_ctime ;
   struct file *ia_file ;
};
struct if_dqinfo {
   __u64 dqi_bgrace ;
   __u64 dqi_igrace ;
   __u32 dqi_flags ;
   __u32 dqi_valid ;
};
struct fs_disk_quota {
   __s8 d_version ;
   __s8 d_flags ;
   __u16 d_fieldmask ;
   __u32 d_id ;
   __u64 d_blk_hardlimit ;
   __u64 d_blk_softlimit ;
   __u64 d_ino_hardlimit ;
   __u64 d_ino_softlimit ;
   __u64 d_bcount ;
   __u64 d_icount ;
   __s32 d_itimer ;
   __s32 d_btimer ;
   __u16 d_iwarns ;
   __u16 d_bwarns ;
   __s32 d_padding2 ;
   __u64 d_rtb_hardlimit ;
   __u64 d_rtb_softlimit ;
   __u64 d_rtbcount ;
   __s32 d_rtbtimer ;
   __u16 d_rtbwarns ;
   __s16 d_padding3 ;
   char d_padding4[8U] ;
};
struct fs_qfilestat {
   __u64 qfs_ino ;
   __u64 qfs_nblks ;
   __u32 qfs_nextents ;
};
typedef struct fs_qfilestat fs_qfilestat_t;
struct fs_quota_stat {
   __s8 qs_version ;
   __u16 qs_flags ;
   __s8 qs_pad ;
   fs_qfilestat_t qs_uquota ;
   fs_qfilestat_t qs_gquota ;
   __u32 qs_incoredqs ;
   __s32 qs_btimelimit ;
   __s32 qs_itimelimit ;
   __s32 qs_rtbtimelimit ;
   __u16 qs_bwarnlimit ;
   __u16 qs_iwarnlimit ;
};
struct dquot;
typedef __kernel_uid32_t qid_t;
typedef long long qsize_t;
struct mem_dqblk {
   qsize_t dqb_bhardlimit ;
   qsize_t dqb_bsoftlimit ;
   qsize_t dqb_curspace ;
   qsize_t dqb_rsvspace ;
   qsize_t dqb_ihardlimit ;
   qsize_t dqb_isoftlimit ;
   qsize_t dqb_curinodes ;
   time_t dqb_btime ;
   time_t dqb_itime ;
};
struct quota_format_type;
struct mem_dqinfo {
   struct quota_format_type *dqi_format ;
   int dqi_fmt_id ;
   struct list_head dqi_dirty_list ;
   unsigned long dqi_flags ;
   unsigned int dqi_bgrace ;
   unsigned int dqi_igrace ;
   qsize_t dqi_maxblimit ;
   qsize_t dqi_maxilimit ;
   void *dqi_priv ;
};
struct dquot {
   struct hlist_node dq_hash ;
   struct list_head dq_inuse ;
   struct list_head dq_free ;
   struct list_head dq_dirty ;
   struct mutex dq_lock ;
   atomic_t dq_count ;
   wait_queue_head_t dq_wait_unused ;
   struct super_block *dq_sb ;
   unsigned int dq_id ;
   loff_t dq_off ;
   unsigned long dq_flags ;
   short dq_type ;
   struct mem_dqblk dq_dqb ;
};
struct quota_format_ops {
   int (*check_quota_file)(struct super_block * , int  ) ;
   int (*read_file_info)(struct super_block * , int  ) ;
   int (*write_file_info)(struct super_block * , int  ) ;
   int (*free_file_info)(struct super_block * , int  ) ;
   int (*read_dqblk)(struct dquot * ) ;
   int (*commit_dqblk)(struct dquot * ) ;
   int (*release_dqblk)(struct dquot * ) ;
};
struct dquot_operations {
   int (*write_dquot)(struct dquot * ) ;
   struct dquot *(*alloc_dquot)(struct super_block * , int  ) ;
   void (*destroy_dquot)(struct dquot * ) ;
   int (*acquire_dquot)(struct dquot * ) ;
   int (*release_dquot)(struct dquot * ) ;
   int (*mark_dirty)(struct dquot * ) ;
   int (*write_info)(struct super_block * , int  ) ;
   qsize_t *(*get_reserved_space)(struct inode * ) ;
};
struct quotactl_ops {
   int (*quota_on)(struct super_block * , int  , int  , struct path * ) ;
   int (*quota_on_meta)(struct super_block * , int  , int  ) ;
   int (*quota_off)(struct super_block * , int  ) ;
   int (*quota_sync)(struct super_block * , int  , int  ) ;
   int (*get_info)(struct super_block * , int  , struct if_dqinfo * ) ;
   int (*set_info)(struct super_block * , int  , struct if_dqinfo * ) ;
   int (*get_dqblk)(struct super_block * , int  , qid_t  , struct fs_disk_quota * ) ;
   int (*set_dqblk)(struct super_block * , int  , qid_t  , struct fs_disk_quota * ) ;
   int (*get_xstate)(struct super_block * , struct fs_quota_stat * ) ;
   int (*set_xstate)(struct super_block * , unsigned int  , int  ) ;
};
struct quota_format_type {
   int qf_fmt_id ;
   struct quota_format_ops  const  *qf_ops ;
   struct module *qf_owner ;
   struct quota_format_type *qf_next ;
};
struct quota_info {
   unsigned int flags ;
   struct mutex dqio_mutex ;
   struct mutex dqonoff_mutex ;
   struct rw_semaphore dqptr_sem ;
   struct inode *files[2U] ;
   struct mem_dqinfo info[2U] ;
   struct quota_format_ops  const  *ops[2U] ;
};
struct address_space;
struct writeback_control;
union __anonunion_arg_139 {
   char *buf ;
   void *data ;
};
struct __anonstruct_read_descriptor_t_138 {
   size_t written ;
   size_t count ;
   union __anonunion_arg_139 arg ;
   int error ;
};
typedef struct __anonstruct_read_descriptor_t_138 read_descriptor_t;
struct address_space_operations {
   int (*writepage)(struct page * , struct writeback_control * ) ;
   int (*readpage)(struct file * , struct page * ) ;
   int (*writepages)(struct address_space * , struct writeback_control * ) ;
   int (*set_page_dirty)(struct page * ) ;
   int (*readpages)(struct file * , struct address_space * , struct list_head * ,
                    unsigned int  ) ;
   int (*write_begin)(struct file * , struct address_space * , loff_t  , unsigned int  ,
                      unsigned int  , struct page ** , void ** ) ;
   int (*write_end)(struct file * , struct address_space * , loff_t  , unsigned int  ,
                    unsigned int  , struct page * , void * ) ;
   sector_t (*bmap)(struct address_space * , sector_t  ) ;
   void (*invalidatepage)(struct page * , unsigned long  ) ;
   int (*releasepage)(struct page * , gfp_t  ) ;
   void (*freepage)(struct page * ) ;
   ssize_t (*direct_IO)(int  , struct kiocb * , struct iovec  const  * , loff_t  ,
                        unsigned long  ) ;
   int (*get_xip_mem)(struct address_space * , unsigned long  , int  , void ** , unsigned long * ) ;
   int (*migratepage)(struct address_space * , struct page * , struct page * , enum migrate_mode  ) ;
   int (*launder_page)(struct page * ) ;
   int (*is_partially_uptodate)(struct page * , read_descriptor_t * , unsigned long  ) ;
   int (*error_remove_page)(struct address_space * , struct page * ) ;
};
struct backing_dev_info;
struct address_space {
   struct inode *host ;
   struct radix_tree_root page_tree ;
   spinlock_t tree_lock ;
   unsigned int i_mmap_writable ;
   struct prio_tree_root i_mmap ;
   struct list_head i_mmap_nonlinear ;
   struct mutex i_mmap_mutex ;
   unsigned long nrpages ;
   unsigned long writeback_index ;
   struct address_space_operations  const  *a_ops ;
   unsigned long flags ;
   struct backing_dev_info *backing_dev_info ;
   spinlock_t private_lock ;
   struct list_head private_list ;
   struct address_space *assoc_mapping ;
};
struct request_queue;
struct hd_struct;
struct gendisk;
struct block_device {
   dev_t bd_dev ;
   int bd_openers ;
   struct inode *bd_inode ;
   struct super_block *bd_super ;
   struct mutex bd_mutex ;
   struct list_head bd_inodes ;
   void *bd_claiming ;
   void *bd_holder ;
   int bd_holders ;
   bool bd_write_holder ;
   struct list_head bd_holder_disks ;
   struct block_device *bd_contains ;
   unsigned int bd_block_size ;
   struct hd_struct *bd_part ;
   unsigned int bd_part_count ;
   int bd_invalidated ;
   struct gendisk *bd_disk ;
   struct request_queue *bd_queue ;
   struct list_head bd_list ;
   unsigned long bd_private ;
   int bd_fsfreeze_count ;
   struct mutex bd_fsfreeze_mutex ;
};
struct posix_acl;
struct inode_operations;
union __anonunion_ldv_16658_140 {
   unsigned int const   i_nlink ;
   unsigned int __i_nlink ;
};
union __anonunion_ldv_16677_141 {
   struct list_head i_dentry ;
   struct rcu_head i_rcu ;
};
struct file_operations;
struct file_lock;
struct cdev;
union __anonunion_ldv_16695_142 {
   struct pipe_inode_info *i_pipe ;
   struct block_device *i_bdev ;
   struct cdev *i_cdev ;
};
struct inode {
   umode_t i_mode ;
   unsigned short i_opflags ;
   uid_t i_uid ;
   gid_t i_gid ;
   unsigned int i_flags ;
   struct posix_acl *i_acl ;
   struct posix_acl *i_default_acl ;
   struct inode_operations  const  *i_op ;
   struct super_block *i_sb ;
   struct address_space *i_mapping ;
   void *i_security ;
   unsigned long i_ino ;
   union __anonunion_ldv_16658_140 ldv_16658 ;
   dev_t i_rdev ;
   struct timespec i_atime ;
   struct timespec i_mtime ;
   struct timespec i_ctime ;
   spinlock_t i_lock ;
   unsigned short i_bytes ;
   blkcnt_t i_blocks ;
   loff_t i_size ;
   unsigned long i_state ;
   struct mutex i_mutex ;
   unsigned long dirtied_when ;
   struct hlist_node i_hash ;
   struct list_head i_wb_list ;
   struct list_head i_lru ;
   struct list_head i_sb_list ;
   union __anonunion_ldv_16677_141 ldv_16677 ;
   atomic_t i_count ;
   unsigned int i_blkbits ;
   u64 i_version ;
   atomic_t i_dio_count ;
   atomic_t i_writecount ;
   struct file_operations  const  *i_fop ;
   struct file_lock *i_flock ;
   struct address_space i_data ;
   struct dquot *i_dquot[2U] ;
   struct list_head i_devices ;
   union __anonunion_ldv_16695_142 ldv_16695 ;
   __u32 i_generation ;
   __u32 i_fsnotify_mask ;
   struct hlist_head i_fsnotify_marks ;
   atomic_t i_readcount ;
   void *i_private ;
};
struct fown_struct {
   rwlock_t lock ;
   struct pid *pid ;
   enum pid_type pid_type ;
   uid_t uid ;
   uid_t euid ;
   int signum ;
};
struct file_ra_state {
   unsigned long start ;
   unsigned int size ;
   unsigned int async_size ;
   unsigned int ra_pages ;
   unsigned int mmap_miss ;
   loff_t prev_pos ;
};
union __anonunion_f_u_143 {
   struct list_head fu_list ;
   struct rcu_head fu_rcuhead ;
};
struct file {
   union __anonunion_f_u_143 f_u ;
   struct path f_path ;
   struct file_operations  const  *f_op ;
   spinlock_t f_lock ;
   int f_sb_list_cpu ;
   atomic_long_t f_count ;
   unsigned int f_flags ;
   fmode_t f_mode ;
   loff_t f_pos ;
   struct fown_struct f_owner ;
   struct cred  const  *f_cred ;
   struct file_ra_state f_ra ;
   u64 f_version ;
   void *f_security ;
   void *private_data ;
   struct list_head f_ep_links ;
   struct list_head f_tfile_llink ;
   struct address_space *f_mapping ;
   unsigned long f_mnt_write_state ;
};
struct files_struct;
typedef struct files_struct *fl_owner_t;
struct file_lock_operations {
   void (*fl_copy_lock)(struct file_lock * , struct file_lock * ) ;
   void (*fl_release_private)(struct file_lock * ) ;
};
struct lock_manager_operations {
   int (*lm_compare_owner)(struct file_lock * , struct file_lock * ) ;
   void (*lm_notify)(struct file_lock * ) ;
   int (*lm_grant)(struct file_lock * , struct file_lock * , int  ) ;
   void (*lm_release_private)(struct file_lock * ) ;
   void (*lm_break)(struct file_lock * ) ;
   int (*lm_change)(struct file_lock ** , int  ) ;
};
struct nlm_lockowner;
struct nfs_lock_info {
   u32 state ;
   struct nlm_lockowner *owner ;
   struct list_head list ;
};
struct nfs4_lock_state;
struct nfs4_lock_info {
   struct nfs4_lock_state *owner ;
};
struct fasync_struct;
struct __anonstruct_afs_145 {
   struct list_head link ;
   int state ;
};
union __anonunion_fl_u_144 {
   struct nfs_lock_info nfs_fl ;
   struct nfs4_lock_info nfs4_fl ;
   struct __anonstruct_afs_145 afs ;
};
struct file_lock {
   struct file_lock *fl_next ;
   struct list_head fl_link ;
   struct list_head fl_block ;
   fl_owner_t fl_owner ;
   unsigned int fl_flags ;
   unsigned char fl_type ;
   unsigned int fl_pid ;
   struct pid *fl_nspid ;
   wait_queue_head_t fl_wait ;
   struct file *fl_file ;
   loff_t fl_start ;
   loff_t fl_end ;
   struct fasync_struct *fl_fasync ;
   unsigned long fl_break_time ;
   unsigned long fl_downgrade_time ;
   struct file_lock_operations  const  *fl_ops ;
   struct lock_manager_operations  const  *fl_lmops ;
   union __anonunion_fl_u_144 fl_u ;
};
struct fasync_struct {
   spinlock_t fa_lock ;
   int magic ;
   int fa_fd ;
   struct fasync_struct *fa_next ;
   struct file *fa_file ;
   struct rcu_head fa_rcu ;
};
struct file_system_type;
struct super_operations;
struct xattr_handler;
struct mtd_info;
struct super_block {
   struct list_head s_list ;
   dev_t s_dev ;
   unsigned char s_dirt ;
   unsigned char s_blocksize_bits ;
   unsigned long s_blocksize ;
   loff_t s_maxbytes ;
   struct file_system_type *s_type ;
   struct super_operations  const  *s_op ;
   struct dquot_operations  const  *dq_op ;
   struct quotactl_ops  const  *s_qcop ;
   struct export_operations  const  *s_export_op ;
   unsigned long s_flags ;
   unsigned long s_magic ;
   struct dentry *s_root ;
   struct rw_semaphore s_umount ;
   struct mutex s_lock ;
   int s_count ;
   atomic_t s_active ;
   void *s_security ;
   struct xattr_handler  const  **s_xattr ;
   struct list_head s_inodes ;
   struct hlist_bl_head s_anon ;
   struct list_head *s_files ;
   struct list_head s_mounts ;
   struct list_head s_dentry_lru ;
   int s_nr_dentry_unused ;
   spinlock_t s_inode_lru_lock ;
   struct list_head s_inode_lru ;
   int s_nr_inodes_unused ;
   struct block_device *s_bdev ;
   struct backing_dev_info *s_bdi ;
   struct mtd_info *s_mtd ;
   struct hlist_node s_instances ;
   struct quota_info s_dquot ;
   int s_frozen ;
   wait_queue_head_t s_wait_unfrozen ;
   char s_id[32U] ;
   u8 s_uuid[16U] ;
   void *s_fs_info ;
   fmode_t s_mode ;
   u32 s_time_gran ;
   struct mutex s_vfs_rename_mutex ;
   char *s_subtype ;
   char *s_options ;
   struct dentry_operations  const  *s_d_op ;
   int cleancache_poolid ;
   struct shrinker s_shrink ;
   atomic_long_t s_remove_count ;
   int s_readonly_remount ;
};
struct fiemap_extent_info {
   unsigned int fi_flags ;
   unsigned int fi_extents_mapped ;
   unsigned int fi_extents_max ;
   struct fiemap_extent *fi_extents_start ;
};
struct file_operations {
   struct module *owner ;
   loff_t (*llseek)(struct file * , loff_t  , int  ) ;
   ssize_t (*read)(struct file * , char * , size_t  , loff_t * ) ;
   ssize_t (*write)(struct file * , char const   * , size_t  , loff_t * ) ;
   ssize_t (*aio_read)(struct kiocb * , struct iovec  const  * , unsigned long  ,
                       loff_t  ) ;
   ssize_t (*aio_write)(struct kiocb * , struct iovec  const  * , unsigned long  ,
                        loff_t  ) ;
   int (*readdir)(struct file * , void * , int (*)(void * , char const   * , int  ,
                                                   loff_t  , u64  , unsigned int  ) ) ;
   unsigned int (*poll)(struct file * , struct poll_table_struct * ) ;
   long (*unlocked_ioctl)(struct file * , unsigned int  , unsigned long  ) ;
   long (*compat_ioctl)(struct file * , unsigned int  , unsigned long  ) ;
   int (*mmap)(struct file * , struct vm_area_struct * ) ;
   int (*open)(struct inode * , struct file * ) ;
   int (*flush)(struct file * , fl_owner_t  ) ;
   int (*release)(struct inode * , struct file * ) ;
   int (*fsync)(struct file * , loff_t  , loff_t  , int  ) ;
   int (*aio_fsync)(struct kiocb * , int  ) ;
   int (*fasync)(int  , struct file * , int  ) ;
   int (*lock)(struct file * , int  , struct file_lock * ) ;
   ssize_t (*sendpage)(struct file * , struct page * , int  , size_t  , loff_t * ,
                       int  ) ;
   unsigned long (*get_unmapped_area)(struct file * , unsigned long  , unsigned long  ,
                                      unsigned long  , unsigned long  ) ;
   int (*check_flags)(int  ) ;
   int (*flock)(struct file * , int  , struct file_lock * ) ;
   ssize_t (*splice_write)(struct pipe_inode_info * , struct file * , loff_t * , size_t  ,
                           unsigned int  ) ;
   ssize_t (*splice_read)(struct file * , loff_t * , struct pipe_inode_info * , size_t  ,
                          unsigned int  ) ;
   int (*setlease)(struct file * , long  , struct file_lock ** ) ;
   long (*fallocate)(struct file * , int  , loff_t  , loff_t  ) ;
};
struct inode_operations {
   struct dentry *(*lookup)(struct inode * , struct dentry * , struct nameidata * ) ;
   void *(*follow_link)(struct dentry * , struct nameidata * ) ;
   int (*permission)(struct inode * , int  ) ;
   struct posix_acl *(*get_acl)(struct inode * , int  ) ;
   int (*readlink)(struct dentry * , char * , int  ) ;
   void (*put_link)(struct dentry * , struct nameidata * , void * ) ;
   int (*create)(struct inode * , struct dentry * , umode_t  , struct nameidata * ) ;
   int (*link)(struct dentry * , struct inode * , struct dentry * ) ;
   int (*unlink)(struct inode * , struct dentry * ) ;
   int (*symlink)(struct inode * , struct dentry * , char const   * ) ;
   int (*mkdir)(struct inode * , struct dentry * , umode_t  ) ;
   int (*rmdir)(struct inode * , struct dentry * ) ;
   int (*mknod)(struct inode * , struct dentry * , umode_t  , dev_t  ) ;
   int (*rename)(struct inode * , struct dentry * , struct inode * , struct dentry * ) ;
   void (*truncate)(struct inode * ) ;
   int (*setattr)(struct dentry * , struct iattr * ) ;
   int (*getattr)(struct vfsmount * , struct dentry * , struct kstat * ) ;
   int (*setxattr)(struct dentry * , char const   * , void const   * , size_t  , int  ) ;
   ssize_t (*getxattr)(struct dentry * , char const   * , void * , size_t  ) ;
   ssize_t (*listxattr)(struct dentry * , char * , size_t  ) ;
   int (*removexattr)(struct dentry * , char const   * ) ;
   void (*truncate_range)(struct inode * , loff_t  , loff_t  ) ;
   int (*fiemap)(struct inode * , struct fiemap_extent_info * , u64  , u64  ) ;
};
struct super_operations {
   struct inode *(*alloc_inode)(struct super_block * ) ;
   void (*destroy_inode)(struct inode * ) ;
   void (*dirty_inode)(struct inode * , int  ) ;
   int (*write_inode)(struct inode * , struct writeback_control * ) ;
   int (*drop_inode)(struct inode * ) ;
   void (*evict_inode)(struct inode * ) ;
   void (*put_super)(struct super_block * ) ;
   void (*write_super)(struct super_block * ) ;
   int (*sync_fs)(struct super_block * , int  ) ;
   int (*freeze_fs)(struct super_block * ) ;
   int (*unfreeze_fs)(struct super_block * ) ;
   int (*statfs)(struct dentry * , struct kstatfs * ) ;
   int (*remount_fs)(struct super_block * , int * , char * ) ;
   void (*umount_begin)(struct super_block * ) ;
   int (*show_options)(struct seq_file * , struct dentry * ) ;
   int (*show_devname)(struct seq_file * , struct dentry * ) ;
   int (*show_path)(struct seq_file * , struct dentry * ) ;
   int (*show_stats)(struct seq_file * , struct dentry * ) ;
   ssize_t (*quota_read)(struct super_block * , int  , char * , size_t  , loff_t  ) ;
   ssize_t (*quota_write)(struct super_block * , int  , char const   * , size_t  ,
                          loff_t  ) ;
   int (*bdev_try_to_free_page)(struct super_block * , struct page * , gfp_t  ) ;
   int (*nr_cached_objects)(struct super_block * ) ;
   void (*free_cached_objects)(struct super_block * , int  ) ;
};
struct file_system_type {
   char const   *name ;
   int fs_flags ;
   struct dentry *(*mount)(struct file_system_type * , int  , char const   * , void * ) ;
   void (*kill_sb)(struct super_block * ) ;
   struct module *owner ;
   struct file_system_type *next ;
   struct hlist_head fs_supers ;
   struct lock_class_key s_lock_key ;
   struct lock_class_key s_umount_key ;
   struct lock_class_key s_vfs_rename_key ;
   struct lock_class_key i_lock_key ;
   struct lock_class_key i_mutex_key ;
   struct lock_class_key i_mutex_dir_key ;
};
typedef unsigned long kernel_ulong_t;
struct serio_device_id {
   __u8 type ;
   __u8 extra ;
   __u8 id ;
   __u8 proto ;
};
struct of_device_id {
   char name[32U] ;
   char type[32U] ;
   char compatible[128U] ;
   void *data ;
};
struct input_device_id {
   kernel_ulong_t flags ;
   __u16 bustype ;
   __u16 vendor ;
   __u16 product ;
   __u16 version ;
   kernel_ulong_t evbit[1U] ;
   kernel_ulong_t keybit[12U] ;
   kernel_ulong_t relbit[1U] ;
   kernel_ulong_t absbit[1U] ;
   kernel_ulong_t mscbit[1U] ;
   kernel_ulong_t ledbit[1U] ;
   kernel_ulong_t sndbit[1U] ;
   kernel_ulong_t ffbit[2U] ;
   kernel_ulong_t swbit[1U] ;
   kernel_ulong_t driver_info ;
};
struct ff_device;
struct input_mt_slot;
struct input_handle;
struct input_dev {
   char const   *name ;
   char const   *phys ;
   char const   *uniq ;
   struct input_id id ;
   unsigned long propbit[1U] ;
   unsigned long evbit[1U] ;
   unsigned long keybit[12U] ;
   unsigned long relbit[1U] ;
   unsigned long absbit[1U] ;
   unsigned long mscbit[1U] ;
   unsigned long ledbit[1U] ;
   unsigned long sndbit[1U] ;
   unsigned long ffbit[2U] ;
   unsigned long swbit[1U] ;
   unsigned int hint_events_per_packet ;
   unsigned int keycodemax ;
   unsigned int keycodesize ;
   void *keycode ;
   int (*setkeycode)(struct input_dev * , struct input_keymap_entry  const  * , unsigned int * ) ;
   int (*getkeycode)(struct input_dev * , struct input_keymap_entry * ) ;
   struct ff_device *ff ;
   unsigned int repeat_key ;
   struct timer_list timer ;
   int rep[2U] ;
   struct input_mt_slot *mt ;
   int mtsize ;
   int slot ;
   int trkid ;
   struct input_absinfo *absinfo ;
   unsigned long key[12U] ;
   unsigned long led[1U] ;
   unsigned long snd[1U] ;
   unsigned long sw[1U] ;
   int (*open)(struct input_dev * ) ;
   void (*close)(struct input_dev * ) ;
   int (*flush)(struct input_dev * , struct file * ) ;
   int (*event)(struct input_dev * , unsigned int  , unsigned int  , int  ) ;
   struct input_handle *grab ;
   spinlock_t event_lock ;
   struct mutex mutex ;
   unsigned int users ;
   bool going_away ;
   bool sync ;
   struct device dev ;
   struct list_head h_list ;
   struct list_head node ;
};
struct input_handler {
   void *private ;
   void (*event)(struct input_handle * , unsigned int  , unsigned int  , int  ) ;
   bool (*filter)(struct input_handle * , unsigned int  , unsigned int  , int  ) ;
   bool (*match)(struct input_handler * , struct input_dev * ) ;
   int (*connect)(struct input_handler * , struct input_dev * , struct input_device_id  const  * ) ;
   void (*disconnect)(struct input_handle * ) ;
   void (*start)(struct input_handle * ) ;
   struct file_operations  const  *fops ;
   int minor ;
   char const   *name ;
   struct input_device_id  const  *id_table ;
   struct list_head h_list ;
   struct list_head node ;
};
struct input_handle {
   void *private ;
   int open ;
   char const   *name ;
   struct input_dev *dev ;
   struct input_handler *handler ;
   struct list_head d_node ;
   struct list_head h_node ;
};
struct ff_device {
   int (*upload)(struct input_dev * , struct ff_effect * , struct ff_effect * ) ;
   int (*erase)(struct input_dev * , int  ) ;
   int (*playback)(struct input_dev * , int  , int  ) ;
   void (*set_gain)(struct input_dev * , u16  ) ;
   void (*set_autocenter)(struct input_dev * , u16  ) ;
   void (*destroy)(struct ff_device * ) ;
   void *private ;
   unsigned long ffbit[2U] ;
   struct mutex mutex ;
   int max_effects ;
   struct ff_effect *effects ;
   struct file *effect_owners[] ;
};
enum irqreturn {
    IRQ_NONE = 0,
    IRQ_HANDLED = 1,
    IRQ_WAKE_THREAD = 2
} ;
typedef enum irqreturn irqreturn_t;
struct exception_table_entry {
   unsigned long insn ;
   unsigned long fixup ;
};
struct serio_driver;
struct serio {
   void *port_data ;
   char name[32U] ;
   char phys[32U] ;
   bool manual_bind ;
   struct serio_device_id id ;
   spinlock_t lock ;
   int (*write)(struct serio * , unsigned char  ) ;
   int (*open)(struct serio * ) ;
   void (*close)(struct serio * ) ;
   int (*start)(struct serio * ) ;
   void (*stop)(struct serio * ) ;
   struct serio *parent ;
   struct list_head child_node ;
   struct list_head children ;
   unsigned int depth ;
   struct serio_driver *drv ;
   struct mutex drv_mutex ;
   struct device dev ;
   struct list_head node ;
};
struct serio_driver {
   char const   *description ;
   struct serio_device_id  const  *id_table ;
   bool manual_bind ;
   void (*write_wakeup)(struct serio * ) ;
   irqreturn_t (*interrupt)(struct serio * , unsigned char  , unsigned int  ) ;
   int (*connect)(struct serio * , struct serio_driver * ) ;
   int (*reconnect)(struct serio * ) ;
   void (*disconnect)(struct serio * ) ;
   void (*cleanup)(struct serio * ) ;
   struct device_driver driver ;
};
struct spaceorb {
   struct input_dev *dev ;
   int idx ;
   unsigned char data[64U] ;
   char phys[32U] ;
};
typedef int ldv_func_ret_type___0;
 static void set_bit(unsigned int nr , unsigned long volatile   *addr ) 
{ 


  {
  __asm__  volatile   (".section .smp_locks,\"a\"\n.balign 4\n.long 671f - .\n.previous\n671:\n\tlock; bts %1,%0": "+m" (*((long volatile   *)addr)): "Ir" (nr): "memory");
  return;
}
}
extern int printk(char const   *  , ...) ;
extern int snprintf(char * , size_t  , char const   *  , ...) ;
extern int mutex_trylock(struct mutex * ) ;
int ldv_mutex_trylock_2(struct mutex *ldv_func_arg1 ) ;
extern void mutex_unlock(struct mutex * ) ;
void ldv_mutex_unlock_3(struct mutex *ldv_func_arg1 ) ;
extern void mutex_lock(struct mutex * ) ;
void ldv_mutex_lock_1(struct mutex *ldv_func_arg1 ) ;
void ldv_mutex_lock_mutex_of_device(struct mutex *lock ) ;
int ldv_mutex_trylock_mutex_of_device(struct mutex *lock ) ;
void ldv_mutex_unlock_mutex_of_device(struct mutex *lock ) ;
extern void kfree(void const   * ) ;
extern void *__kmalloc(size_t  , gfp_t  ) ;
 static void *kmalloc(size_t size , gfp_t flags ) 
{ 
  void *tmp___2 ;

  {
  tmp___2 = __kmalloc(size, flags);
  return (tmp___2);
}
}
 static void *kzalloc(size_t size , gfp_t flags ) 
{ 
  void *tmp ;

  {
  tmp = kmalloc(size, flags | 32768U);
  return (tmp);
}
}
extern void *dev_get_drvdata(struct device  const  * ) ;
extern int dev_set_drvdata(struct device * , void * ) ;
struct input_dev *input_allocate_device(void) {
       return kzalloc(sizeof(struct input_dev), 0x10u | 0x40u | 0x80u);
}

extern void input_free_device(struct input_dev * ) ;
extern int input_register_device(struct input_dev * ) ;
extern void input_unregister_device(struct input_dev * ) ;
extern void input_event(struct input_dev * , unsigned int  , unsigned int  , int  ) ;
 static void input_report_key(struct input_dev *dev , unsigned int code ,
                                      int value ) 
{ 


  {
  input_event(dev, 1U, code, value != 0);
  return;
}
}
 static void input_report_abs(struct input_dev *dev , unsigned int code ,
                                      int value ) 
{ 


  {
  input_event(dev, 3U, code, value);
  return;
}
}
 static void input_sync(struct input_dev *dev ) 
{ 


  {
  input_event(dev, 0U, 0U, 0);
  return;
}
}
extern void input_set_abs_params(struct input_dev * , unsigned int  , int  , int  ,
                                 int  , int  ) ;
extern int serio_open(struct serio * , struct serio_driver * ) ;
extern void serio_close(struct serio * ) ;
 static void *serio_get_drvdata(struct serio *serio ) 
{ 
  void *tmp ;

  {
  tmp = dev_get_drvdata((struct device  const  *)(& serio->dev));
  return (tmp);
}
}
 static void serio_set_drvdata(struct serio *serio , void *data ) 
{ 


  {
  dev_set_drvdata(& serio->dev, data);
  return;
}
}
static int spaceorb_buttons[6U]  = {      310,      311,      308,      307, 
        305,      304};
static int spaceorb_axes[6U]  = {      0,      1,      2,      3, 
        4,      5};
static unsigned char spaceorb_xor[10U]  = 
  {      'S',      'p',      'a',      'c', 
        'e',      'W',      'a',      'r', 
        'e',      '\000'};
static unsigned char *spaceorb_errors[7U]  = {      (unsigned char *)"EEPROM storing 0 failed",      (unsigned char *)"Receive queue overflow",      (unsigned char *)"Transmit queue timeout",      (unsigned char *)"Bad packet", 
        (unsigned char *)"Power brown-out",      (unsigned char *)"EEPROM checksum error",      (unsigned char *)"Hardware fault"};
static void spaceorb_process_packet(struct spaceorb *spaceorb ) 
{ 
  struct input_dev *dev ;
  unsigned char *data ;
  unsigned char c ;
  int axes[6U] ;
  int i ;

  {
  dev = spaceorb->dev;
  data = (unsigned char *)(& spaceorb->data);
  c = 0U;
  if (spaceorb->idx <= 1) {
    return;
  } else {

  }
  i = 0;
  goto ldv_21199;
  ldv_21198: 
  c = (int )*(data + (unsigned long )i) ^ (int )c;
  i = i + 1;
  ldv_21199: ;
  if (spaceorb->idx > i) {
    goto ldv_21198;
  } else {

  }

  if ((unsigned int )c != 0U) {
    return;
  } else {

  }
  switch ((int )*data) {
  case 82: 
  spaceorb->data[spaceorb->idx + -1] = 0U;
  i = 1;
  goto ldv_21203;
  ldv_21202: 
  i = i + 1;
  ldv_21203: ;
  if (spaceorb->idx > i && (unsigned int )spaceorb->data[i] == 32U) {
    goto ldv_21202;
  } else {

  }
  printk("<6>input: %s [%s] is %s\n", dev->name, (unsigned char *)(& spaceorb->data) + (unsigned long )i,
         (char *)(& spaceorb->phys));
  goto ldv_21205;
  case 68: ;
  if (spaceorb->idx != 12) {
    return;
  } else {

  }
  i = 0;
  goto ldv_21208;
  ldv_21207: 
  spaceorb->data[i + 2] = (int )spaceorb->data[i + 2] ^ (int )spaceorb_xor[i];
  i = i + 1;
  ldv_21208: ;
  if (i <= 8) {
    goto ldv_21207;
  } else {

  }
  axes[0] = ((int )*(data + 2UL) << 3) | ((int )*(data + 3UL) >> 4);
  axes[1] = (((int )*(data + 3UL) & 15) << 6) | ((int )*(data + 4UL) >> 1);
  axes[2] = ((((int )*(data + 4UL) & 1) << 9) | ((int )*(data + 5UL) << 2)) | ((int )*(data + 4UL) >> 5);
  axes[3] = (((int )*(data + 6UL) & 31) << 5) | ((int )*(data + 7UL) >> 2);
  axes[4] = ((((int )*(data + 7UL) & 3) << 8) | ((int )*(data + 8UL) << 1)) | ((int )*(data + 7UL) >> 6);
  axes[5] = (((int )*(data + 9UL) & 63) << 4) | ((int )*(data + 10UL) >> 3);
  i = 0;
  goto ldv_21211;
  ldv_21210: 
  input_report_abs(dev, (unsigned int )spaceorb_axes[i], axes[i] - ((axes[i] & 512) != 0 ? 1024 : 0));
  i = i + 1;
  ldv_21211: ;
  if (i <= 5) {
    goto ldv_21210;
  } else {

  }
  i = 0;
  goto ldv_21214;
  ldv_21213: 
  input_report_key(dev, (unsigned int )spaceorb_buttons[i], ((int )*(data + 1UL) >> i) & 1);
  i = i + 1;
  ldv_21214: ;
  if (i <= 5) {
    goto ldv_21213;
  } else {

  }

  goto ldv_21205;
  case 75: ;
  if (spaceorb->idx != 5) {
    return;
  } else {

  }
  i = 0;
  goto ldv_21218;
  ldv_21217: 
  input_report_key(dev, (unsigned int )spaceorb_buttons[i], ((int )*(data + 2UL) >> i) & 1);
  i = i + 1;
  ldv_21218: ;
  if (i <= 5) {
    goto ldv_21217;
  } else {

  }

  goto ldv_21205;
  case 69: ;
  if (spaceorb->idx != 4) {
    return;
  } else {

  }
  printk("<3>spaceorb: Device error. [ ");
  i = 0;
  goto ldv_21222;
  ldv_21221: ;
  if (((int )*(data + 1UL) >> i) & 1) {
    printk("%s ", spaceorb_errors[i]);
  } else {

  }
  i = i + 1;
  ldv_21222: ;
  if (i <= 6) {
    goto ldv_21221;
  } else {

  }
  printk("]\n");
  goto ldv_21205;
  }
  ldv_21205: 
  input_sync(dev);
  return;
}
}
static irqreturn_t spaceorb_interrupt(struct serio *serio , unsigned char data , unsigned int flags ) 
{ 
  struct spaceorb *spaceorb ;
  void *tmp ;
  int tmp___0 ;

  {
  tmp = serio_get_drvdata(serio);
  spaceorb = (struct spaceorb *)tmp;
  if ((int )((signed char )data) >= 0) {
    if (spaceorb->idx != 0) {
      spaceorb_process_packet(spaceorb);
    } else {

    }
    spaceorb->idx = 0;
  } else {

  }
  if (spaceorb->idx <= 63) {
    tmp___0 = spaceorb->idx;
    spaceorb->idx = spaceorb->idx + 1;
    spaceorb->data[tmp___0] = (unsigned int )data & 127U;
  } else {

  }
  return (IRQ_HANDLED);
}
}
static void spaceorb_disconnect(struct serio *serio ) 
{ 
  struct spaceorb *spaceorb ;
  void *tmp ;

  {
  tmp = serio_get_drvdata(serio);
  spaceorb = (struct spaceorb *)tmp;
  serio_close(serio);
  serio_set_drvdata(serio, 0);
  input_unregister_device(spaceorb->dev);
  kfree((void const   *)spaceorb);
  return;
}
}
static int spaceorb_connect(struct serio *serio , struct serio_driver *drv ) 
{ 
  struct spaceorb *spaceorb ;
  struct input_dev *input_dev ;
  int err ;
  int i ;
  void *tmp ;

  {
  err = -12;
  tmp = kzalloc(112UL, 208U);
  spaceorb = (struct spaceorb *)tmp;
  input_dev = input_allocate_device();
  if ((unsigned long )spaceorb == (unsigned long )((struct spaceorb *)0) || (unsigned long )input_dev == (unsigned long )((struct input_dev *)0)) {
    goto fail1;
  } else {

  }
  spaceorb->dev = input_dev;
  snprintf((char *)(& spaceorb->phys), 32UL, "%s/input0", (char *)(& serio->phys));
  input_dev->name = "SpaceTec SpaceOrb 360 / Avenger";
  input_dev->phys = (char const   *)(& spaceorb->phys);
  input_dev->id.bustype = 19U;
  input_dev->id.vendor = 25U;
  input_dev->id.product = 1U;
  input_dev->id.version = 256U;
  input_dev->dev.parent = & serio->dev;
  input_dev->evbit[0] = 10UL;
  i = 0;
  goto ldv_21244;
  ldv_21243: 
  set_bit((unsigned int )spaceorb_buttons[i], (unsigned long volatile   *)(& input_dev->keybit));
  i = i + 1;
  ldv_21244: ;
  if (i <= 5) {
    goto ldv_21243;
  } else {

  }
  i = 0;
  goto ldv_21247;
  ldv_21246: 
  input_set_abs_params(input_dev, (unsigned int )spaceorb_axes[i], -508, 508, 0, 0);
  i = i + 1;
  ldv_21247: ;
  if (i <= 5) {
    goto ldv_21246;
  } else {

  }
  serio_set_drvdata(serio, (void *)spaceorb);
  err = serio_open(serio, drv);
  if (err != 0) {
    goto fail2;
  } else {

  }
  err = input_register_device(spaceorb->dev);
  if (err != 0) {
    goto fail3;
  } else {

  }
  return (0);
  fail3: 
  serio_close(serio);
  fail2: 
  serio_set_drvdata(serio, 0);
  fail1: 
  input_free_device(input_dev);
  kfree((void const   *)spaceorb);
  return (err);
}
}
struct serio_device_id  const  __mod_serio_device_table  ;
void ldv_check_final_state(void) ;
extern void ldv_check_return_value(int  ) ;
void ldv_initialize(void) ;
extern void ldv_handler_precall(void) ;
extern int nondet_int(void) ;
int LDV_IN_INTERRUPT  ;
int main(void) 
{ 
  struct serio *var_group1 ;
  unsigned char var_spaceorb_interrupt_1_p1 ;
  unsigned int var_spaceorb_interrupt_1_p2 ;
  struct serio_driver *var_group2 ;
  int res_spaceorb_connect_3 ;
  int ldv_s_spaceorb_drv_serio_driver ;
  int tmp ;
  int tmp___0 ;

  {
  ldv_s_spaceorb_drv_serio_driver = 0;
  LDV_IN_INTERRUPT = 1;
  ldv_initialize();
  goto ldv_21299;
  ldv_21298: 
  tmp = nondet_int();
  switch (tmp) {
  case 0: ;
  if (ldv_s_spaceorb_drv_serio_driver == 0) {
    ldv_handler_precall();
    res_spaceorb_connect_3 = spaceorb_connect(var_group1, var_group2);
    ldv_check_return_value(res_spaceorb_connect_3);
    if (res_spaceorb_connect_3 != 0) {
      goto ldv_module_exit;
    } else {

    }
    ldv_s_spaceorb_drv_serio_driver = ldv_s_spaceorb_drv_serio_driver + 1;
  } else {

  }
  goto ldv_21294;
  case 1: ;
  if (ldv_s_spaceorb_drv_serio_driver == 1) {
    ldv_handler_precall();
    spaceorb_disconnect(var_group1);
    ldv_s_spaceorb_drv_serio_driver = 0;
  } else {

  }
  goto ldv_21294;
  case 2: 
  ldv_handler_precall();
  spaceorb_interrupt(var_group1, (int )var_spaceorb_interrupt_1_p1, var_spaceorb_interrupt_1_p2);
  goto ldv_21294;
  default: ;
  goto ldv_21294;
  }
  ldv_21294: ;
  ldv_21299: 
  tmp___0 = nondet_int();
  if (tmp___0 != 0 || ldv_s_spaceorb_drv_serio_driver != 0) {
    goto ldv_21298;
  } else {

  }

  ldv_module_exit: ;
  ldv_check_final_state();
  return 0;
}
}
void ldv_mutex_lock_1(struct mutex *ldv_func_arg1 ) 
{ 


  {
  ldv_mutex_lock_mutex_of_device(ldv_func_arg1);
  mutex_lock(ldv_func_arg1);
  return;
}
}
int ldv_mutex_trylock_2(struct mutex *ldv_func_arg1 ) 
{ 
  ldv_func_ret_type___0 ldv_func_res ;
  int tmp ;
  int tmp___0 ;

  {
  tmp = mutex_trylock(ldv_func_arg1);
  ldv_func_res = tmp;
  tmp___0 = ldv_mutex_trylock_mutex_of_device(ldv_func_arg1);
  return (tmp___0);
  return (ldv_func_res);
}
}
void ldv_mutex_unlock_3(struct mutex *ldv_func_arg1 ) 
{ 


  {
  ldv_mutex_unlock_mutex_of_device(ldv_func_arg1);
  mutex_unlock(ldv_func_arg1);
  return;
}
}
long ldv__builtin_expect(long exp , long c ) ;
 static void ldv_error(void)  __attribute__((__no_instrument_function__)) ;
 static void ldv_error(void) 
{ 


  {
  LDV_ERROR: {reach_error();abort();}
}
}
extern int ldv_undef_int(void) ;
long ldv__builtin_expect(long exp , long c ) 
{ 


  {
  return (exp);
}
}
static int ldv_mutex_mutex_of_device  ;
int ldv_mutex_lock_interruptible_mutex_of_device(struct mutex *lock ) 
{ 
  int nondetermined ;

  {
  if (ldv_mutex_mutex_of_device == 1) {

  } else {
    ldv_error();
  }
  nondetermined = ldv_undef_int();
  if (nondetermined) {
    ldv_mutex_mutex_of_device = 2;
    return (0);
  } else {
    return (-4);
  }
}
}
int ldv_mutex_lock_killable_mutex_of_device(struct mutex *lock ) 
{ 
  int nondetermined ;

  {
  if (ldv_mutex_mutex_of_device == 1) {

  } else {
    ldv_error();
  }
  nondetermined = ldv_undef_int();
  if (nondetermined) {
    ldv_mutex_mutex_of_device = 2;
    return (0);
  } else {
    return (-4);
  }
}
}
void ldv_mutex_lock_mutex_of_device(struct mutex *lock ) 
{ 


  {
  if (ldv_mutex_mutex_of_device == 1) {

  } else {
    ldv_error();
  }
  ldv_mutex_mutex_of_device = 2;
  return;
}
}
int ldv_mutex_trylock_mutex_of_device(struct mutex *lock ) 
{ 
  int is_mutex_held_by_another_thread ;

  {
  if (ldv_mutex_mutex_of_device == 1) {

  } else {
    ldv_error();
  }
  is_mutex_held_by_another_thread = ldv_undef_int();
  if (is_mutex_held_by_another_thread) {
    return (0);
  } else {
    ldv_mutex_mutex_of_device = 2;
    return (1);
  }
}
}
int ldv_atomic_dec_and_mutex_lock_mutex_of_device(atomic_t *cnt , struct mutex *lock ) 
{ 
  int atomic_value_after_dec ;

  {
  if (ldv_mutex_mutex_of_device == 1) {

  } else {
    ldv_error();
  }
  atomic_value_after_dec = ldv_undef_int();
  if (atomic_value_after_dec == 0) {
    ldv_mutex_mutex_of_device = 2;
    return (1);
  } else {

  }
  return (0);
}
}
int ldv_mutex_is_locked_mutex_of_device(struct mutex *lock ) 
{ 
  int nondetermined ;

  {
  if (ldv_mutex_mutex_of_device == 1) {
    nondetermined = ldv_undef_int();
    if (nondetermined) {
      return (0);
    } else {
      return (1);
    }
  } else {
    return (1);
  }
}
}
void ldv_mutex_unlock_mutex_of_device(struct mutex *lock ) 
{ 


  {
  if (ldv_mutex_mutex_of_device == 2) {

  } else {
    ldv_error();
  }
  ldv_mutex_mutex_of_device = 1;
  return;
}
}
void ldv_initialize(void) 
{ 


  {
  ldv_mutex_mutex_of_device = 1;
  return;
}
}
void ldv_check_final_state(void) 
{ 


  {
  if (ldv_mutex_mutex_of_device == 1) {

  } else {
    ldv_error();
  }
  return;
}
}
