extern void abort(void);
extern void __assert_fail(const char *, const char *, unsigned int, const char *) __attribute__ ((__nothrow__ , __leaf__)) __attribute__ ((__noreturn__));
void reach_error() { __assert_fail("0", "drivers--input--mouse--vsxxxaa.ko_013.25985ed.39_7a.cil_true-unreach-call.i", 3, "reach_error"); }

/* Generated by CIL v. 1.5.1 */
/* print_CIL_Input is false */

typedef signed char __s8;
typedef unsigned char __u8;
typedef short __s16;
typedef unsigned short __u16;
typedef int __s32;
typedef unsigned int __u32;
typedef unsigned long long __u64;
typedef unsigned char u8;
typedef unsigned short u16;
typedef unsigned int u32;
typedef long long s64;
typedef unsigned long long u64;
typedef unsigned short umode_t;
typedef unsigned int __kernel_mode_t;
typedef unsigned int __kernel_uid_t;
typedef unsigned int __kernel_gid_t;
typedef unsigned long __kernel_size_t;
typedef long __kernel_ssize_t;
typedef long __kernel_time_t;
typedef int __kernel_clockid_t;
typedef long long __kernel_loff_t;
typedef __kernel_uid_t __kernel_uid32_t;
typedef __kernel_gid_t __kernel_gid32_t;
typedef __u32 __kernel_dev_t;
typedef __kernel_dev_t dev_t;
typedef __kernel_mode_t mode_t;
typedef __kernel_clockid_t clockid_t;
typedef _Bool bool;
typedef __kernel_uid32_t uid_t;
typedef __kernel_gid32_t gid_t;
typedef __kernel_loff_t loff_t;
typedef __kernel_size_t size_t;
typedef __kernel_ssize_t ssize_t;
typedef __kernel_time_t time_t;
typedef unsigned long sector_t;
typedef unsigned long blkcnt_t;
typedef unsigned int gfp_t;
typedef unsigned int fmode_t;
struct __anonstruct_atomic_t_6 {
   int counter ;
};
typedef struct __anonstruct_atomic_t_6 atomic_t;
struct __anonstruct_atomic64_t_7 {
   long counter ;
};
typedef struct __anonstruct_atomic64_t_7 atomic64_t;
struct list_head {
   struct list_head *next ;
   struct list_head *prev ;
};
struct hlist_node;
struct hlist_head {
   struct hlist_node *first ;
};
struct hlist_node {
   struct hlist_node *next ;
   struct hlist_node **pprev ;
};
struct module;
struct bug_entry {
   int bug_addr_disp ;
   int file_disp ;
   unsigned short line ;
   unsigned short flags ;
};
struct completion;
struct pt_regs;
struct pid;
struct timespec;
struct compat_timespec;
struct __anonstruct_futex_9 {
   u32 *uaddr ;
   u32 val ;
   u32 flags ;
   u32 bitset ;
   u64 time ;
   u32 *uaddr2 ;
};
struct __anonstruct_nanosleep_10 {
   clockid_t index ;
   struct timespec *rmtp ;
   struct compat_timespec *compat_rmtp ;
   u64 expires ;
};
struct pollfd;
struct __anonstruct_poll_11 {
   struct pollfd *ufds ;
   int nfds ;
   int has_timeout ;
   unsigned long tv_sec ;
   unsigned long tv_nsec ;
};
union __anonunion_ldv_1806_8 {
   struct __anonstruct_futex_9 futex ;
   struct __anonstruct_nanosleep_10 nanosleep ;
   struct __anonstruct_poll_11 poll ;
};
struct restart_block {
   long (*fn)(struct restart_block * ) ;
   union __anonunion_ldv_1806_8 ldv_1806 ;
};
struct page;
struct task_struct;
struct exec_domain;
struct pt_regs {
   unsigned long r15 ;
   unsigned long r14 ;
   unsigned long r13 ;
   unsigned long r12 ;
   unsigned long bp ;
   unsigned long bx ;
   unsigned long r11 ;
   unsigned long r10 ;
   unsigned long r9 ;
   unsigned long r8 ;
   unsigned long ax ;
   unsigned long cx ;
   unsigned long dx ;
   unsigned long si ;
   unsigned long di ;
   unsigned long orig_ax ;
   unsigned long ip ;
   unsigned long cs ;
   unsigned long flags ;
   unsigned long sp ;
   unsigned long ss ;
};
typedef void (*ctor_fn_t)(void);
struct file;
struct seq_file;
struct arch_spinlock;
struct map_segment;
struct exec_domain {
   char const   *name ;
   void (*handler)(int  , struct pt_regs * ) ;
   unsigned char pers_low ;
   unsigned char pers_high ;
   unsigned long *signal_map ;
   unsigned long *signal_invmap ;
   struct map_segment *err_map ;
   struct map_segment *socktype_map ;
   struct map_segment *sockopt_map ;
   struct map_segment *af_map ;
   struct module *module ;
   struct exec_domain *next ;
};
struct kmem_cache;
struct __anonstruct_mm_segment_t_28 {
   unsigned long seg ;
};
typedef struct __anonstruct_mm_segment_t_28 mm_segment_t;
typedef atomic64_t atomic_long_t;
struct thread_info {
   struct task_struct *task ;
   struct exec_domain *exec_domain ;
   __u32 flags ;
   __u32 status ;
   __u32 cpu ;
   int preempt_count ;
   mm_segment_t addr_limit ;
   struct restart_block restart_block ;
   void *sysenter_return ;
   int uaccess_err ;
};
struct arch_spinlock {
   unsigned int slock ;
};
typedef struct arch_spinlock arch_spinlock_t;
struct __anonstruct_arch_rwlock_t_29 {
   unsigned int lock ;
};
typedef struct __anonstruct_arch_rwlock_t_29 arch_rwlock_t;
struct lockdep_map;
struct stack_trace {
   unsigned int nr_entries ;
   unsigned int max_entries ;
   unsigned long *entries ;
   int skip ;
};
struct lockdep_subclass_key {
   char __one_byte ;
};
struct lock_class_key {
   struct lockdep_subclass_key subkeys[8U] ;
};
struct lock_class {
   struct list_head hash_entry ;
   struct list_head lock_entry ;
   struct lockdep_subclass_key *key ;
   unsigned int subclass ;
   unsigned int dep_gen_id ;
   unsigned long usage_mask ;
   struct stack_trace usage_traces[13U] ;
   struct list_head locks_after ;
   struct list_head locks_before ;
   unsigned int version ;
   unsigned long ops ;
   char const   *name ;
   int name_version ;
   unsigned long contention_point[4U] ;
   unsigned long contending_point[4U] ;
};
struct lockdep_map {
   struct lock_class_key *key ;
   struct lock_class *class_cache[2U] ;
   char const   *name ;
   int cpu ;
   unsigned long ip ;
};
struct raw_spinlock {
   arch_spinlock_t raw_lock ;
   unsigned int magic ;
   unsigned int owner_cpu ;
   void *owner ;
   struct lockdep_map dep_map ;
};
struct __anonstruct_ldv_5914_31 {
   u8 __padding[1U] ;
   struct lockdep_map dep_map ;
};
union __anonunion_ldv_5915_30 {
   struct raw_spinlock rlock ;
   struct __anonstruct_ldv_5914_31 ldv_5914 ;
};
struct spinlock {
   union __anonunion_ldv_5915_30 ldv_5915 ;
};
typedef struct spinlock spinlock_t;
struct __anonstruct_rwlock_t_32 {
   arch_rwlock_t raw_lock ;
   unsigned int magic ;
   unsigned int owner_cpu ;
   void *owner ;
   struct lockdep_map dep_map ;
};
typedef struct __anonstruct_rwlock_t_32 rwlock_t;
struct seqcount {
   unsigned int sequence ;
};
typedef struct seqcount seqcount_t;
struct timespec {
   __kernel_time_t tv_sec ;
   long tv_nsec ;
};
struct kstat {
   u64 ino ;
   dev_t dev ;
   umode_t mode ;
   unsigned int nlink ;
   uid_t uid ;
   gid_t gid ;
   dev_t rdev ;
   loff_t size ;
   struct timespec atime ;
   struct timespec mtime ;
   struct timespec ctime ;
   unsigned long blksize ;
   unsigned long long blocks ;
};
struct __wait_queue_head {
   spinlock_t lock ;
   struct list_head task_list ;
};
typedef struct __wait_queue_head wait_queue_head_t;
struct mutex {
   atomic_t count ;
   spinlock_t wait_lock ;
   struct list_head wait_list ;
   struct thread_info *owner ;
   char const   *name ;
   void *magic ;
   struct lockdep_map dep_map ;
};
struct rw_semaphore;
struct rw_semaphore {
   long count ;
   spinlock_t wait_lock ;
   struct list_head wait_list ;
   struct lockdep_map dep_map ;
};
struct device;
union ktime {
   s64 tv64 ;
};
typedef union ktime ktime_t;
struct tvec_base;
struct timer_list {
   struct list_head entry ;
   unsigned long expires ;
   struct tvec_base *base ;
   void (*function)(unsigned long  ) ;
   unsigned long data ;
   int slack ;
   int start_pid ;
   void *start_site ;
   char start_comm[16U] ;
   struct lockdep_map lockdep_map ;
};
struct work_struct;
struct work_struct {
   atomic_long_t data ;
   struct list_head entry ;
   void (*func)(struct work_struct * ) ;
   struct lockdep_map lockdep_map ;
};
struct completion {
   unsigned int done ;
   wait_queue_head_t wait ;
};
struct pm_message {
   int event ;
};
typedef struct pm_message pm_message_t;
struct dev_pm_ops {
   int (*prepare)(struct device * ) ;
   void (*complete)(struct device * ) ;
   int (*suspend)(struct device * ) ;
   int (*resume)(struct device * ) ;
   int (*freeze)(struct device * ) ;
   int (*thaw)(struct device * ) ;
   int (*poweroff)(struct device * ) ;
   int (*restore)(struct device * ) ;
   int (*suspend_noirq)(struct device * ) ;
   int (*resume_noirq)(struct device * ) ;
   int (*freeze_noirq)(struct device * ) ;
   int (*thaw_noirq)(struct device * ) ;
   int (*poweroff_noirq)(struct device * ) ;
   int (*restore_noirq)(struct device * ) ;
   int (*runtime_suspend)(struct device * ) ;
   int (*runtime_resume)(struct device * ) ;
   int (*runtime_idle)(struct device * ) ;
};
enum rpm_status {
    RPM_ACTIVE = 0,
    RPM_RESUMING = 1,
    RPM_SUSPENDED = 2,
    RPM_SUSPENDING = 3
} ;
enum rpm_request {
    RPM_REQ_NONE = 0,
    RPM_REQ_IDLE = 1,
    RPM_REQ_SUSPEND = 2,
    RPM_REQ_AUTOSUSPEND = 3,
    RPM_REQ_RESUME = 4
} ;
struct wakeup_source;
struct dev_pm_info {
   pm_message_t power_state ;
   unsigned char can_wakeup : 1 ;
   unsigned char async_suspend : 1 ;
   unsigned char in_suspend : 1 ;
   spinlock_t lock ;
   struct list_head entry ;
   struct completion completion ;
   struct wakeup_source *wakeup ;
   struct timer_list suspend_timer ;
   unsigned long timer_expires ;
   struct work_struct work ;
   wait_queue_head_t wait_queue ;
   atomic_t usage_count ;
   atomic_t child_count ;
   unsigned char disable_depth : 3 ;
   unsigned char ignore_children : 1 ;
   unsigned char idle_notification : 1 ;
   unsigned char request_pending : 1 ;
   unsigned char deferred_resume : 1 ;
   unsigned char run_wake : 1 ;
   unsigned char runtime_auto : 1 ;
   unsigned char no_callbacks : 1 ;
   unsigned char irq_safe : 1 ;
   unsigned char use_autosuspend : 1 ;
   unsigned char timer_autosuspends : 1 ;
   enum rpm_request request ;
   enum rpm_status runtime_status ;
   int runtime_error ;
   int autosuspend_delay ;
   unsigned long last_busy ;
   unsigned long active_jiffies ;
   unsigned long suspended_jiffies ;
   unsigned long accounting_timestamp ;
};
struct dev_power_domain {
   struct dev_pm_ops ops ;
};
struct vm_area_struct;
typedef __u64 Elf64_Addr;
typedef __u16 Elf64_Half;
typedef __u32 Elf64_Word;
typedef __u64 Elf64_Xword;
struct elf64_sym {
   Elf64_Word st_name ;
   unsigned char st_info ;
   unsigned char st_other ;
   Elf64_Half st_shndx ;
   Elf64_Addr st_value ;
   Elf64_Xword st_size ;
};
typedef struct elf64_sym Elf64_Sym;
struct sock;
struct kobject;
enum kobj_ns_type {
    KOBJ_NS_TYPE_NONE = 0,
    KOBJ_NS_TYPE_NET = 1,
    KOBJ_NS_TYPES = 2
} ;
struct kobj_ns_type_operations {
   enum kobj_ns_type type ;
   void const   *(*current_ns)(void) ;
   void const   *(*netlink_ns)(struct sock * ) ;
   void const   *(*initial_ns)(void) ;
};
struct attribute {
   char const   *name ;
   mode_t mode ;
   struct lock_class_key *key ;
   struct lock_class_key skey ;
};
struct attribute_group {
   char const   *name ;
   mode_t (*is_visible)(struct kobject * , struct attribute * , int  ) ;
   struct attribute **attrs ;
};
struct bin_attribute {
   struct attribute attr ;
   size_t size ;
   void *private ;
   ssize_t (*read)(struct file * , struct kobject * , struct bin_attribute * , char * ,
                   loff_t  , size_t  ) ;
   ssize_t (*write)(struct file * , struct kobject * , struct bin_attribute * , char * ,
                    loff_t  , size_t  ) ;
   int (*mmap)(struct file * , struct kobject * , struct bin_attribute * , struct vm_area_struct * ) ;
};
struct sysfs_ops {
   ssize_t (*show)(struct kobject * , struct attribute * , char * ) ;
   ssize_t (*store)(struct kobject * , struct attribute * , char const   * , size_t  ) ;
};
struct sysfs_dirent;
struct kref {
   atomic_t refcount ;
};
struct kset;
struct kobj_type;
struct kobject {
   char const   *name ;
   struct list_head entry ;
   struct kobject *parent ;
   struct kset *kset ;
   struct kobj_type *ktype ;
   struct sysfs_dirent *sd ;
   struct kref kref ;
   unsigned char state_initialized : 1 ;
   unsigned char state_in_sysfs : 1 ;
   unsigned char state_add_uevent_sent : 1 ;
   unsigned char state_remove_uevent_sent : 1 ;
   unsigned char uevent_suppress : 1 ;
};
struct kobj_type {
   void (*release)(struct kobject * ) ;
   struct sysfs_ops  const  *sysfs_ops ;
   struct attribute **default_attrs ;
   struct kobj_ns_type_operations  const  *(*child_ns_type)(struct kobject * ) ;
   void const   *(*namespace)(struct kobject * ) ;
};
struct kobj_uevent_env {
   char *envp[32U] ;
   int envp_idx ;
   char buf[2048U] ;
   int buflen ;
};
struct kset_uevent_ops {
   int (* const  filter)(struct kset * , struct kobject * ) ;
   char const   *(* const  name)(struct kset * , struct kobject * ) ;
   int (* const  uevent)(struct kset * , struct kobject * , struct kobj_uevent_env * ) ;
};
struct kset {
   struct list_head list ;
   spinlock_t list_lock ;
   struct kobject kobj ;
   struct kset_uevent_ops  const  *uevent_ops ;
};
struct kernel_param;
struct kernel_param_ops {
   int (*set)(char const   * , struct kernel_param  const  * ) ;
   int (*get)(char * , struct kernel_param  const  * ) ;
   void (*free)(void * ) ;
};
struct kparam_string;
struct kparam_array;
union __anonunion_ldv_11961_124 {
   void *arg ;
   struct kparam_string  const  *str ;
   struct kparam_array  const  *arr ;
};
struct kernel_param {
   char const   *name ;
   struct kernel_param_ops  const  *ops ;
   u16 perm ;
   u16 flags ;
   union __anonunion_ldv_11961_124 ldv_11961 ;
};
struct kparam_string {
   unsigned int maxlen ;
   char *string ;
};
struct kparam_array {
   unsigned int max ;
   unsigned int *num ;
   struct kernel_param_ops  const  *ops ;
   unsigned int elemsize ;
   void *elem ;
};
struct rcu_head {
   struct rcu_head *next ;
   void (*func)(struct rcu_head * ) ;
};
struct tracepoint;
struct tracepoint_func {
   void *func ;
   void *data ;
};
struct tracepoint {
   char const   *name ;
   int state ;
   void (*regfunc)(void) ;
   void (*unregfunc)(void) ;
   struct tracepoint_func *funcs ;
};
struct mod_arch_specific {

};
struct kernel_symbol {
   unsigned long value ;
   char const   *name ;
};
struct module_attribute {
   struct attribute attr ;
   ssize_t (*show)(struct module_attribute * , struct module * , char * ) ;
   ssize_t (*store)(struct module_attribute * , struct module * , char const   * ,
                    size_t  ) ;
   void (*setup)(struct module * , char const   * ) ;
   int (*test)(struct module * ) ;
   void (*free)(struct module * ) ;
};
struct module_param_attrs;
struct module_kobject {
   struct kobject kobj ;
   struct module *mod ;
   struct kobject *drivers_dir ;
   struct module_param_attrs *mp ;
};
struct exception_table_entry;
enum module_state {
    MODULE_STATE_LIVE = 0,
    MODULE_STATE_COMING = 1,
    MODULE_STATE_GOING = 2
} ;
struct module_ref {
   unsigned int incs ;
   unsigned int decs ;
};
struct module_sect_attrs;
struct module_notes_attrs;
struct ftrace_event_call;
struct module {
   enum module_state state ;
   struct list_head list ;
   char name[56U] ;
   struct module_kobject mkobj ;
   struct module_attribute *modinfo_attrs ;
   char const   *version ;
   char const   *srcversion ;
   struct kobject *holders_dir ;
   struct kernel_symbol  const  *syms ;
   unsigned long const   *crcs ;
   unsigned int num_syms ;
   struct kernel_param *kp ;
   unsigned int num_kp ;
   unsigned int num_gpl_syms ;
   struct kernel_symbol  const  *gpl_syms ;
   unsigned long const   *gpl_crcs ;
   struct kernel_symbol  const  *unused_syms ;
   unsigned long const   *unused_crcs ;
   unsigned int num_unused_syms ;
   unsigned int num_unused_gpl_syms ;
   struct kernel_symbol  const  *unused_gpl_syms ;
   unsigned long const   *unused_gpl_crcs ;
   struct kernel_symbol  const  *gpl_future_syms ;
   unsigned long const   *gpl_future_crcs ;
   unsigned int num_gpl_future_syms ;
   unsigned int num_exentries ;
   struct exception_table_entry *extable ;
   int (*init)(void) ;
   void *module_init ;
   void *module_core ;
   unsigned int init_size ;
   unsigned int core_size ;
   unsigned int init_text_size ;
   unsigned int core_text_size ;
   unsigned int init_ro_size ;
   unsigned int core_ro_size ;
   struct mod_arch_specific arch ;
   unsigned int taints ;
   unsigned int num_bugs ;
   struct list_head bug_list ;
   struct bug_entry *bug_table ;
   Elf64_Sym *symtab ;
   Elf64_Sym *core_symtab ;
   unsigned int num_symtab ;
   unsigned int core_num_syms ;
   char *strtab ;
   char *core_strtab ;
   struct module_sect_attrs *sect_attrs ;
   struct module_notes_attrs *notes_attrs ;
   void *percpu ;
   unsigned int percpu_size ;
   char *args ;
   struct tracepoint * const  *tracepoints_ptrs ;
   unsigned int num_tracepoints ;
   char const   **trace_bprintk_fmt_start ;
   unsigned int num_trace_bprintk_fmt ;
   struct ftrace_event_call **trace_events ;
   unsigned int num_trace_events ;
   struct list_head source_list ;
   struct list_head target_list ;
   struct task_struct *waiter ;
   void (*exit)(void) ;
   struct module_ref *refptr ;
   ctor_fn_t (**ctors)(void) ;
   unsigned int num_ctors ;
};
struct kmem_cache_cpu {
   void **freelist ;
   unsigned long tid ;
   struct page *page ;
   int node ;
   unsigned int stat[19U] ;
};
struct kmem_cache_node {
   spinlock_t list_lock ;
   unsigned long nr_partial ;
   struct list_head partial ;
   atomic_long_t nr_slabs ;
   atomic_long_t total_objects ;
   struct list_head full ;
};
struct kmem_cache_order_objects {
   unsigned long x ;
};
struct kmem_cache {
   struct kmem_cache_cpu *cpu_slab ;
   unsigned long flags ;
   unsigned long min_partial ;
   int size ;
   int objsize ;
   int offset ;
   struct kmem_cache_order_objects oo ;
   struct kmem_cache_order_objects max ;
   struct kmem_cache_order_objects min ;
   gfp_t allocflags ;
   int refcount ;
   void (*ctor)(void * ) ;
   int inuse ;
   int align ;
   int reserved ;
   char const   *name ;
   struct list_head list ;
   struct kobject kobj ;
   int remote_node_defrag_ratio ;
   struct kmem_cache_node *node[1024U] ;
};
enum irqreturn {
    IRQ_NONE = 0,
    IRQ_HANDLED = 1,
    IRQ_WAKE_THREAD = 2
} ;
typedef enum irqreturn irqreturn_t;
struct exception_table_entry {
   unsigned long insn ;
   unsigned long fixup ;
};
struct input_id {
   __u16 bustype ;
   __u16 vendor ;
   __u16 product ;
   __u16 version ;
};
struct input_absinfo {
   __s32 value ;
   __s32 minimum ;
   __s32 maximum ;
   __s32 fuzz ;
   __s32 flat ;
   __s32 resolution ;
};
struct input_keymap_entry {
   __u8 flags ;
   __u8 len ;
   __u16 index ;
   __u32 keycode ;
   __u8 scancode[32U] ;
};
struct ff_replay {
   __u16 length ;
   __u16 delay ;
};
struct ff_trigger {
   __u16 button ;
   __u16 interval ;
};
struct ff_envelope {
   __u16 attack_length ;
   __u16 attack_level ;
   __u16 fade_length ;
   __u16 fade_level ;
};
struct ff_constant_effect {
   __s16 level ;
   struct ff_envelope envelope ;
};
struct ff_ramp_effect {
   __s16 start_level ;
   __s16 end_level ;
   struct ff_envelope envelope ;
};
struct ff_condition_effect {
   __u16 right_saturation ;
   __u16 left_saturation ;
   __s16 right_coeff ;
   __s16 left_coeff ;
   __u16 deadband ;
   __s16 center ;
};
struct ff_periodic_effect {
   __u16 waveform ;
   __u16 period ;
   __s16 magnitude ;
   __s16 offset ;
   __u16 phase ;
   struct ff_envelope envelope ;
   __u32 custom_len ;
   __s16 *custom_data ;
};
struct ff_rumble_effect {
   __u16 strong_magnitude ;
   __u16 weak_magnitude ;
};
union __anonunion_u_126 {
   struct ff_constant_effect constant ;
   struct ff_ramp_effect ramp ;
   struct ff_periodic_effect periodic ;
   struct ff_condition_effect condition[2U] ;
   struct ff_rumble_effect rumble ;
};
struct ff_effect {
   __u16 type ;
   __s16 id ;
   __u16 direction ;
   struct ff_trigger trigger ;
   struct ff_replay replay ;
   union __anonunion_u_126 u ;
};
struct klist_node;
struct klist_node {
   void *n_klist ;
   struct list_head n_node ;
   struct kref n_ref ;
};
struct dma_map_ops;
struct dev_archdata {
   void *acpi_handle ;
   struct dma_map_ops *dma_ops ;
   void *iommu ;
};
struct device_private;
struct device_driver;
struct driver_private;
struct class;
struct subsys_private;
struct bus_type;
struct device_node;
struct bus_attribute {
   struct attribute attr ;
   ssize_t (*show)(struct bus_type * , char * ) ;
   ssize_t (*store)(struct bus_type * , char const   * , size_t  ) ;
};
struct device_attribute;
struct driver_attribute;
struct bus_type {
   char const   *name ;
   struct bus_attribute *bus_attrs ;
   struct device_attribute *dev_attrs ;
   struct driver_attribute *drv_attrs ;
   int (*match)(struct device * , struct device_driver * ) ;
   int (*uevent)(struct device * , struct kobj_uevent_env * ) ;
   int (*probe)(struct device * ) ;
   int (*remove)(struct device * ) ;
   void (*shutdown)(struct device * ) ;
   int (*suspend)(struct device * , pm_message_t  ) ;
   int (*resume)(struct device * ) ;
   struct dev_pm_ops  const  *pm ;
   struct subsys_private *p ;
};
struct of_device_id;
struct device_driver {
   char const   *name ;
   struct bus_type *bus ;
   struct module *owner ;
   char const   *mod_name ;
   bool suppress_bind_attrs ;
   struct of_device_id  const  *of_match_table ;
   int (*probe)(struct device * ) ;
   int (*remove)(struct device * ) ;
   void (*shutdown)(struct device * ) ;
   int (*suspend)(struct device * , pm_message_t  ) ;
   int (*resume)(struct device * ) ;
   struct attribute_group  const  **groups ;
   struct dev_pm_ops  const  *pm ;
   struct driver_private *p ;
};
struct driver_attribute {
   struct attribute attr ;
   ssize_t (*show)(struct device_driver * , char * ) ;
   ssize_t (*store)(struct device_driver * , char const   * , size_t  ) ;
};
struct class_attribute;
struct class {
   char const   *name ;
   struct module *owner ;
   struct class_attribute *class_attrs ;
   struct device_attribute *dev_attrs ;
   struct bin_attribute *dev_bin_attrs ;
   struct kobject *dev_kobj ;
   int (*dev_uevent)(struct device * , struct kobj_uevent_env * ) ;
   char *(*devnode)(struct device * , mode_t * ) ;
   void (*class_release)(struct class * ) ;
   void (*dev_release)(struct device * ) ;
   int (*suspend)(struct device * , pm_message_t  ) ;
   int (*resume)(struct device * ) ;
   struct kobj_ns_type_operations  const  *ns_type ;
   void const   *(*namespace)(struct device * ) ;
   struct dev_pm_ops  const  *pm ;
   struct subsys_private *p ;
};
struct device_type;
struct class_attribute {
   struct attribute attr ;
   ssize_t (*show)(struct class * , struct class_attribute * , char * ) ;
   ssize_t (*store)(struct class * , struct class_attribute * , char const   * , size_t  ) ;
};
struct device_type {
   char const   *name ;
   struct attribute_group  const  **groups ;
   int (*uevent)(struct device * , struct kobj_uevent_env * ) ;
   char *(*devnode)(struct device * , mode_t * ) ;
   void (*release)(struct device * ) ;
   struct dev_pm_ops  const  *pm ;
};
struct device_attribute {
   struct attribute attr ;
   ssize_t (*show)(struct device * , struct device_attribute * , char * ) ;
   ssize_t (*store)(struct device * , struct device_attribute * , char const   * ,
                    size_t  ) ;
};
struct device_dma_parameters {
   unsigned int max_segment_size ;
   unsigned long segment_boundary_mask ;
};
struct dma_coherent_mem;
struct device {
   struct device *parent ;
   struct device_private *p ;
   struct kobject kobj ;
   char const   *init_name ;
   struct device_type *type ;
   struct mutex mutex ;
   struct bus_type *bus ;
   struct device_driver *driver ;
   void *platform_data ;
   struct dev_pm_info power ;
   struct dev_power_domain *pwr_domain ;
   int numa_node ;
   u64 *dma_mask ;
   u64 coherent_dma_mask ;
   struct device_dma_parameters *dma_parms ;
   struct list_head dma_pools ;
   struct dma_coherent_mem *dma_mem ;
   struct dev_archdata archdata ;
   struct device_node *of_node ;
   struct of_device_id  const  *of_match ;
   dev_t devt ;
   spinlock_t devres_lock ;
   struct list_head devres_head ;
   struct klist_node knode_class ;
   struct class *class ;
   struct attribute_group  const  **groups ;
   void (*release)(struct device * ) ;
};
struct wakeup_source {
   char *name ;
   struct list_head entry ;
   spinlock_t lock ;
   struct timer_list timer ;
   unsigned long timer_expires ;
   ktime_t total_time ;
   ktime_t max_time ;
   ktime_t last_time ;
   unsigned long event_count ;
   unsigned long active_count ;
   unsigned long relax_count ;
   unsigned long hit_count ;
   unsigned char active : 1 ;
};
struct block_device;
struct hlist_bl_node;
struct hlist_bl_head {
   struct hlist_bl_node *first ;
};
struct hlist_bl_node {
   struct hlist_bl_node *next ;
   struct hlist_bl_node **pprev ;
};
struct nameidata;
struct path;
struct vfsmount;
struct qstr {
   unsigned int hash ;
   unsigned int len ;
   unsigned char const   *name ;
};
struct inode;
struct dentry_operations;
struct super_block;
union __anonunion_d_u_127 {
   struct list_head d_child ;
   struct rcu_head d_rcu ;
};
struct dentry {
   unsigned int d_flags ;
   seqcount_t d_seq ;
   struct hlist_bl_node d_hash ;
   struct dentry *d_parent ;
   struct qstr d_name ;
   struct inode *d_inode ;
   unsigned char d_iname[32U] ;
   unsigned int d_count ;
   spinlock_t d_lock ;
   struct dentry_operations  const  *d_op ;
   struct super_block *d_sb ;
   unsigned long d_time ;
   void *d_fsdata ;
   struct list_head d_lru ;
   union __anonunion_d_u_127 d_u ;
   struct list_head d_subdirs ;
   struct list_head d_alias ;
};
struct dentry_operations {
   int (*d_revalidate)(struct dentry * , struct nameidata * ) ;
   int (*d_hash)(struct dentry  const  * , struct inode  const  * , struct qstr * ) ;
   int (*d_compare)(struct dentry  const  * , struct inode  const  * , struct dentry  const  * ,
                    struct inode  const  * , unsigned int  , char const   * , struct qstr  const  * ) ;
   int (*d_delete)(struct dentry  const  * ) ;
   void (*d_release)(struct dentry * ) ;
   void (*d_iput)(struct dentry * , struct inode * ) ;
   char *(*d_dname)(struct dentry * , char * , int  ) ;
   struct vfsmount *(*d_automount)(struct path * ) ;
   int (*d_manage)(struct dentry * , bool  ) ;
};
struct path {
   struct vfsmount *mnt ;
   struct dentry *dentry ;
};
struct radix_tree_node;
struct radix_tree_root {
   unsigned int height ;
   gfp_t gfp_mask ;
   struct radix_tree_node *rnode ;
};
struct prio_tree_node;
struct prio_tree_node {
   struct prio_tree_node *left ;
   struct prio_tree_node *right ;
   struct prio_tree_node *parent ;
   unsigned long start ;
   unsigned long last ;
};
struct prio_tree_root {
   struct prio_tree_node *prio_tree_node ;
   unsigned short index_bits ;
   unsigned short raw ;
};
enum pid_type {
    PIDTYPE_PID = 0,
    PIDTYPE_PGID = 1,
    PIDTYPE_SID = 2,
    PIDTYPE_MAX = 3
} ;
struct pid_namespace;
struct upid {
   int nr ;
   struct pid_namespace *ns ;
   struct hlist_node pid_chain ;
};
struct pid {
   atomic_t count ;
   unsigned int level ;
   struct hlist_head tasks[3U] ;
   struct rcu_head rcu ;
   struct upid numbers[1U] ;
};
struct fiemap_extent {
   __u64 fe_logical ;
   __u64 fe_physical ;
   __u64 fe_length ;
   __u64 fe_reserved64[2U] ;
   __u32 fe_flags ;
   __u32 fe_reserved[3U] ;
};
struct export_operations;
struct iovec;
struct kiocb;
struct pipe_inode_info;
struct poll_table_struct;
struct kstatfs;
struct cred;
struct iattr {
   unsigned int ia_valid ;
   umode_t ia_mode ;
   uid_t ia_uid ;
   gid_t ia_gid ;
   loff_t ia_size ;
   struct timespec ia_atime ;
   struct timespec ia_mtime ;
   struct timespec ia_ctime ;
   struct file *ia_file ;
};
struct if_dqinfo {
   __u64 dqi_bgrace ;
   __u64 dqi_igrace ;
   __u32 dqi_flags ;
   __u32 dqi_valid ;
};
struct fs_disk_quota {
   __s8 d_version ;
   __s8 d_flags ;
   __u16 d_fieldmask ;
   __u32 d_id ;
   __u64 d_blk_hardlimit ;
   __u64 d_blk_softlimit ;
   __u64 d_ino_hardlimit ;
   __u64 d_ino_softlimit ;
   __u64 d_bcount ;
   __u64 d_icount ;
   __s32 d_itimer ;
   __s32 d_btimer ;
   __u16 d_iwarns ;
   __u16 d_bwarns ;
   __s32 d_padding2 ;
   __u64 d_rtb_hardlimit ;
   __u64 d_rtb_softlimit ;
   __u64 d_rtbcount ;
   __s32 d_rtbtimer ;
   __u16 d_rtbwarns ;
   __s16 d_padding3 ;
   char d_padding4[8U] ;
};
struct fs_qfilestat {
   __u64 qfs_ino ;
   __u64 qfs_nblks ;
   __u32 qfs_nextents ;
};
typedef struct fs_qfilestat fs_qfilestat_t;
struct fs_quota_stat {
   __s8 qs_version ;
   __u16 qs_flags ;
   __s8 qs_pad ;
   fs_qfilestat_t qs_uquota ;
   fs_qfilestat_t qs_gquota ;
   __u32 qs_incoredqs ;
   __s32 qs_btimelimit ;
   __s32 qs_itimelimit ;
   __s32 qs_rtbtimelimit ;
   __u16 qs_bwarnlimit ;
   __u16 qs_iwarnlimit ;
};
struct dquot;
typedef __kernel_uid32_t qid_t;
typedef long long qsize_t;
struct mem_dqblk {
   qsize_t dqb_bhardlimit ;
   qsize_t dqb_bsoftlimit ;
   qsize_t dqb_curspace ;
   qsize_t dqb_rsvspace ;
   qsize_t dqb_ihardlimit ;
   qsize_t dqb_isoftlimit ;
   qsize_t dqb_curinodes ;
   time_t dqb_btime ;
   time_t dqb_itime ;
};
struct quota_format_type;
struct mem_dqinfo {
   struct quota_format_type *dqi_format ;
   int dqi_fmt_id ;
   struct list_head dqi_dirty_list ;
   unsigned long dqi_flags ;
   unsigned int dqi_bgrace ;
   unsigned int dqi_igrace ;
   qsize_t dqi_maxblimit ;
   qsize_t dqi_maxilimit ;
   void *dqi_priv ;
};
struct dquot {
   struct hlist_node dq_hash ;
   struct list_head dq_inuse ;
   struct list_head dq_free ;
   struct list_head dq_dirty ;
   struct mutex dq_lock ;
   atomic_t dq_count ;
   wait_queue_head_t dq_wait_unused ;
   struct super_block *dq_sb ;
   unsigned int dq_id ;
   loff_t dq_off ;
   unsigned long dq_flags ;
   short dq_type ;
   struct mem_dqblk dq_dqb ;
};
struct quota_format_ops {
   int (*check_quota_file)(struct super_block * , int  ) ;
   int (*read_file_info)(struct super_block * , int  ) ;
   int (*write_file_info)(struct super_block * , int  ) ;
   int (*free_file_info)(struct super_block * , int  ) ;
   int (*read_dqblk)(struct dquot * ) ;
   int (*commit_dqblk)(struct dquot * ) ;
   int (*release_dqblk)(struct dquot * ) ;
};
struct dquot_operations {
   int (*write_dquot)(struct dquot * ) ;
   struct dquot *(*alloc_dquot)(struct super_block * , int  ) ;
   void (*destroy_dquot)(struct dquot * ) ;
   int (*acquire_dquot)(struct dquot * ) ;
   int (*release_dquot)(struct dquot * ) ;
   int (*mark_dirty)(struct dquot * ) ;
   int (*write_info)(struct super_block * , int  ) ;
   qsize_t *(*get_reserved_space)(struct inode * ) ;
};
struct quotactl_ops {
   int (*quota_on)(struct super_block * , int  , int  , struct path * ) ;
   int (*quota_on_meta)(struct super_block * , int  , int  ) ;
   int (*quota_off)(struct super_block * , int  ) ;
   int (*quota_sync)(struct super_block * , int  , int  ) ;
   int (*get_info)(struct super_block * , int  , struct if_dqinfo * ) ;
   int (*set_info)(struct super_block * , int  , struct if_dqinfo * ) ;
   int (*get_dqblk)(struct super_block * , int  , qid_t  , struct fs_disk_quota * ) ;
   int (*set_dqblk)(struct super_block * , int  , qid_t  , struct fs_disk_quota * ) ;
   int (*get_xstate)(struct super_block * , struct fs_quota_stat * ) ;
   int (*set_xstate)(struct super_block * , unsigned int  , int  ) ;
};
struct quota_format_type {
   int qf_fmt_id ;
   struct quota_format_ops  const  *qf_ops ;
   struct module *qf_owner ;
   struct quota_format_type *qf_next ;
};
struct quota_info {
   unsigned int flags ;
   struct mutex dqio_mutex ;
   struct mutex dqonoff_mutex ;
   struct rw_semaphore dqptr_sem ;
   struct inode *files[2U] ;
   struct mem_dqinfo info[2U] ;
   struct quota_format_ops  const  *ops[2U] ;
};
struct address_space;
struct writeback_control;
union __anonunion_arg_130 {
   char *buf ;
   void *data ;
};
struct __anonstruct_read_descriptor_t_129 {
   size_t written ;
   size_t count ;
   union __anonunion_arg_130 arg ;
   int error ;
};
typedef struct __anonstruct_read_descriptor_t_129 read_descriptor_t;
struct address_space_operations {
   int (*writepage)(struct page * , struct writeback_control * ) ;
   int (*readpage)(struct file * , struct page * ) ;
   int (*writepages)(struct address_space * , struct writeback_control * ) ;
   int (*set_page_dirty)(struct page * ) ;
   int (*readpages)(struct file * , struct address_space * , struct list_head * ,
                    unsigned int  ) ;
   int (*write_begin)(struct file * , struct address_space * , loff_t  , unsigned int  ,
                      unsigned int  , struct page ** , void ** ) ;
   int (*write_end)(struct file * , struct address_space * , loff_t  , unsigned int  ,
                    unsigned int  , struct page * , void * ) ;
   sector_t (*bmap)(struct address_space * , sector_t  ) ;
   void (*invalidatepage)(struct page * , unsigned long  ) ;
   int (*releasepage)(struct page * , gfp_t  ) ;
   void (*freepage)(struct page * ) ;
   ssize_t (*direct_IO)(int  , struct kiocb * , struct iovec  const  * , loff_t  ,
                        unsigned long  ) ;
   int (*get_xip_mem)(struct address_space * , unsigned long  , int  , void ** , unsigned long * ) ;
   int (*migratepage)(struct address_space * , struct page * , struct page * ) ;
   int (*launder_page)(struct page * ) ;
   int (*is_partially_uptodate)(struct page * , read_descriptor_t * , unsigned long  ) ;
   int (*error_remove_page)(struct address_space * , struct page * ) ;
};
struct backing_dev_info;
struct address_space {
   struct inode *host ;
   struct radix_tree_root page_tree ;
   spinlock_t tree_lock ;
   unsigned int i_mmap_writable ;
   struct prio_tree_root i_mmap ;
   struct list_head i_mmap_nonlinear ;
   spinlock_t i_mmap_lock ;
   unsigned int truncate_count ;
   unsigned long nrpages ;
   unsigned long writeback_index ;
   struct address_space_operations  const  *a_ops ;
   unsigned long flags ;
   struct backing_dev_info *backing_dev_info ;
   spinlock_t private_lock ;
   struct list_head private_list ;
   struct address_space *assoc_mapping ;
   struct mutex unmap_mutex ;
};
struct hd_struct;
struct gendisk;
struct block_device {
   dev_t bd_dev ;
   int bd_openers ;
   struct inode *bd_inode ;
   struct super_block *bd_super ;
   struct mutex bd_mutex ;
   struct list_head bd_inodes ;
   void *bd_claiming ;
   void *bd_holder ;
   int bd_holders ;
   bool bd_write_holder ;
   struct list_head bd_holder_disks ;
   struct block_device *bd_contains ;
   unsigned int bd_block_size ;
   struct hd_struct *bd_part ;
   unsigned int bd_part_count ;
   int bd_invalidated ;
   struct gendisk *bd_disk ;
   struct list_head bd_list ;
   unsigned long bd_private ;
   int bd_fsfreeze_count ;
   struct mutex bd_fsfreeze_mutex ;
};
struct posix_acl;
struct inode_operations;
union __anonunion_ldv_17020_131 {
   struct list_head i_dentry ;
   struct rcu_head i_rcu ;
};
struct file_operations;
struct file_lock;
struct cdev;
union __anonunion_ldv_17047_132 {
   struct pipe_inode_info *i_pipe ;
   struct block_device *i_bdev ;
   struct cdev *i_cdev ;
};
struct inode {
   umode_t i_mode ;
   uid_t i_uid ;
   gid_t i_gid ;
   struct inode_operations  const  *i_op ;
   struct super_block *i_sb ;
   spinlock_t i_lock ;
   unsigned int i_flags ;
   struct mutex i_mutex ;
   unsigned long i_state ;
   unsigned long dirtied_when ;
   struct hlist_node i_hash ;
   struct list_head i_wb_list ;
   struct list_head i_lru ;
   struct list_head i_sb_list ;
   union __anonunion_ldv_17020_131 ldv_17020 ;
   unsigned long i_ino ;
   atomic_t i_count ;
   unsigned int i_nlink ;
   dev_t i_rdev ;
   unsigned int i_blkbits ;
   u64 i_version ;
   loff_t i_size ;
   struct timespec i_atime ;
   struct timespec i_mtime ;
   struct timespec i_ctime ;
   blkcnt_t i_blocks ;
   unsigned short i_bytes ;
   struct rw_semaphore i_alloc_sem ;
   struct file_operations  const  *i_fop ;
   struct file_lock *i_flock ;
   struct address_space *i_mapping ;
   struct address_space i_data ;
   struct dquot *i_dquot[2U] ;
   struct list_head i_devices ;
   union __anonunion_ldv_17047_132 ldv_17047 ;
   __u32 i_generation ;
   __u32 i_fsnotify_mask ;
   struct hlist_head i_fsnotify_marks ;
   atomic_t i_readcount ;
   atomic_t i_writecount ;
   void *i_security ;
   struct posix_acl *i_acl ;
   struct posix_acl *i_default_acl ;
   void *i_private ;
};
struct fown_struct {
   rwlock_t lock ;
   struct pid *pid ;
   enum pid_type pid_type ;
   uid_t uid ;
   uid_t euid ;
   int signum ;
};
struct file_ra_state {
   unsigned long start ;
   unsigned int size ;
   unsigned int async_size ;
   unsigned int ra_pages ;
   unsigned int mmap_miss ;
   loff_t prev_pos ;
};
union __anonunion_f_u_133 {
   struct list_head fu_list ;
   struct rcu_head fu_rcuhead ;
};
struct file {
   union __anonunion_f_u_133 f_u ;
   struct path f_path ;
   struct file_operations  const  *f_op ;
   spinlock_t f_lock ;
   int f_sb_list_cpu ;
   atomic_long_t f_count ;
   unsigned int f_flags ;
   fmode_t f_mode ;
   loff_t f_pos ;
   struct fown_struct f_owner ;
   struct cred  const  *f_cred ;
   struct file_ra_state f_ra ;
   u64 f_version ;
   void *f_security ;
   void *private_data ;
   struct list_head f_ep_links ;
   struct address_space *f_mapping ;
   unsigned long f_mnt_write_state ;
};
struct files_struct;
typedef struct files_struct *fl_owner_t;
struct file_lock_operations {
   void (*fl_copy_lock)(struct file_lock * , struct file_lock * ) ;
   void (*fl_release_private)(struct file_lock * ) ;
};
struct lock_manager_operations {
   int (*fl_compare_owner)(struct file_lock * , struct file_lock * ) ;
   void (*fl_notify)(struct file_lock * ) ;
   int (*fl_grant)(struct file_lock * , struct file_lock * , int  ) ;
   void (*fl_release_private)(struct file_lock * ) ;
   void (*fl_break)(struct file_lock * ) ;
   int (*fl_change)(struct file_lock ** , int  ) ;
};
struct nlm_lockowner;
struct nfs_lock_info {
   u32 state ;
   struct nlm_lockowner *owner ;
   struct list_head list ;
};
struct nfs4_lock_state;
struct nfs4_lock_info {
   struct nfs4_lock_state *owner ;
};
struct fasync_struct;
struct __anonstruct_afs_135 {
   struct list_head link ;
   int state ;
};
union __anonunion_fl_u_134 {
   struct nfs_lock_info nfs_fl ;
   struct nfs4_lock_info nfs4_fl ;
   struct __anonstruct_afs_135 afs ;
};
struct file_lock {
   struct file_lock *fl_next ;
   struct list_head fl_link ;
   struct list_head fl_block ;
   fl_owner_t fl_owner ;
   unsigned char fl_flags ;
   unsigned char fl_type ;
   unsigned int fl_pid ;
   struct pid *fl_nspid ;
   wait_queue_head_t fl_wait ;
   struct file *fl_file ;
   loff_t fl_start ;
   loff_t fl_end ;
   struct fasync_struct *fl_fasync ;
   unsigned long fl_break_time ;
   struct file_lock_operations  const  *fl_ops ;
   struct lock_manager_operations  const  *fl_lmops ;
   union __anonunion_fl_u_134 fl_u ;
};
struct fasync_struct {
   spinlock_t fa_lock ;
   int magic ;
   int fa_fd ;
   struct fasync_struct *fa_next ;
   struct file *fa_file ;
   struct rcu_head fa_rcu ;
};
struct file_system_type;
struct super_operations;
struct xattr_handler;
struct mtd_info;
struct super_block {
   struct list_head s_list ;
   dev_t s_dev ;
   unsigned char s_dirt ;
   unsigned char s_blocksize_bits ;
   unsigned long s_blocksize ;
   loff_t s_maxbytes ;
   struct file_system_type *s_type ;
   struct super_operations  const  *s_op ;
   struct dquot_operations  const  *dq_op ;
   struct quotactl_ops  const  *s_qcop ;
   struct export_operations  const  *s_export_op ;
   unsigned long s_flags ;
   unsigned long s_magic ;
   struct dentry *s_root ;
   struct rw_semaphore s_umount ;
   struct mutex s_lock ;
   int s_count ;
   atomic_t s_active ;
   void *s_security ;
   struct xattr_handler  const  **s_xattr ;
   struct list_head s_inodes ;
   struct hlist_bl_head s_anon ;
   struct list_head *s_files ;
   struct list_head s_dentry_lru ;
   int s_nr_dentry_unused ;
   struct block_device *s_bdev ;
   struct backing_dev_info *s_bdi ;
   struct mtd_info *s_mtd ;
   struct list_head s_instances ;
   struct quota_info s_dquot ;
   int s_frozen ;
   wait_queue_head_t s_wait_unfrozen ;
   char s_id[32U] ;
   u8 s_uuid[16U] ;
   void *s_fs_info ;
   fmode_t s_mode ;
   u32 s_time_gran ;
   struct mutex s_vfs_rename_mutex ;
   char *s_subtype ;
   char *s_options ;
   struct dentry_operations  const  *s_d_op ;
};
struct fiemap_extent_info {
   unsigned int fi_flags ;
   unsigned int fi_extents_mapped ;
   unsigned int fi_extents_max ;
   struct fiemap_extent *fi_extents_start ;
};
struct file_operations {
   struct module *owner ;
   loff_t (*llseek)(struct file * , loff_t  , int  ) ;
   ssize_t (*read)(struct file * , char * , size_t  , loff_t * ) ;
   ssize_t (*write)(struct file * , char const   * , size_t  , loff_t * ) ;
   ssize_t (*aio_read)(struct kiocb * , struct iovec  const  * , unsigned long  ,
                       loff_t  ) ;
   ssize_t (*aio_write)(struct kiocb * , struct iovec  const  * , unsigned long  ,
                        loff_t  ) ;
   int (*readdir)(struct file * , void * , int (*)(void * , char const   * , int  ,
                                                   loff_t  , u64  , unsigned int  ) ) ;
   unsigned int (*poll)(struct file * , struct poll_table_struct * ) ;
   long (*unlocked_ioctl)(struct file * , unsigned int  , unsigned long  ) ;
   long (*compat_ioctl)(struct file * , unsigned int  , unsigned long  ) ;
   int (*mmap)(struct file * , struct vm_area_struct * ) ;
   int (*open)(struct inode * , struct file * ) ;
   int (*flush)(struct file * , fl_owner_t  ) ;
   int (*release)(struct inode * , struct file * ) ;
   int (*fsync)(struct file * , int  ) ;
   int (*aio_fsync)(struct kiocb * , int  ) ;
   int (*fasync)(int  , struct file * , int  ) ;
   int (*lock)(struct file * , int  , struct file_lock * ) ;
   ssize_t (*sendpage)(struct file * , struct page * , int  , size_t  , loff_t * ,
                       int  ) ;
   unsigned long (*get_unmapped_area)(struct file * , unsigned long  , unsigned long  ,
                                      unsigned long  , unsigned long  ) ;
   int (*check_flags)(int  ) ;
   int (*flock)(struct file * , int  , struct file_lock * ) ;
   ssize_t (*splice_write)(struct pipe_inode_info * , struct file * , loff_t * , size_t  ,
                           unsigned int  ) ;
   ssize_t (*splice_read)(struct file * , loff_t * , struct pipe_inode_info * , size_t  ,
                          unsigned int  ) ;
   int (*setlease)(struct file * , long  , struct file_lock ** ) ;
   long (*fallocate)(struct file * , int  , loff_t  , loff_t  ) ;
};
struct inode_operations {
   struct dentry *(*lookup)(struct inode * , struct dentry * , struct nameidata * ) ;
   void *(*follow_link)(struct dentry * , struct nameidata * ) ;
   int (*permission)(struct inode * , int  , unsigned int  ) ;
   int (*check_acl)(struct inode * , int  , unsigned int  ) ;
   int (*readlink)(struct dentry * , char * , int  ) ;
   void (*put_link)(struct dentry * , struct nameidata * , void * ) ;
   int (*create)(struct inode * , struct dentry * , int  , struct nameidata * ) ;
   int (*link)(struct dentry * , struct inode * , struct dentry * ) ;
   int (*unlink)(struct inode * , struct dentry * ) ;
   int (*symlink)(struct inode * , struct dentry * , char const   * ) ;
   int (*mkdir)(struct inode * , struct dentry * , int  ) ;
   int (*rmdir)(struct inode * , struct dentry * ) ;
   int (*mknod)(struct inode * , struct dentry * , int  , dev_t  ) ;
   int (*rename)(struct inode * , struct dentry * , struct inode * , struct dentry * ) ;
   void (*truncate)(struct inode * ) ;
   int (*setattr)(struct dentry * , struct iattr * ) ;
   int (*getattr)(struct vfsmount * , struct dentry * , struct kstat * ) ;
   int (*setxattr)(struct dentry * , char const   * , void const   * , size_t  , int  ) ;
   ssize_t (*getxattr)(struct dentry * , char const   * , void * , size_t  ) ;
   ssize_t (*listxattr)(struct dentry * , char * , size_t  ) ;
   int (*removexattr)(struct dentry * , char const   * ) ;
   void (*truncate_range)(struct inode * , loff_t  , loff_t  ) ;
   int (*fiemap)(struct inode * , struct fiemap_extent_info * , u64  , u64  ) ;
};
struct super_operations {
   struct inode *(*alloc_inode)(struct super_block * ) ;
   void (*destroy_inode)(struct inode * ) ;
   void (*dirty_inode)(struct inode * ) ;
   int (*write_inode)(struct inode * , struct writeback_control * ) ;
   int (*drop_inode)(struct inode * ) ;
   void (*evict_inode)(struct inode * ) ;
   void (*put_super)(struct super_block * ) ;
   void (*write_super)(struct super_block * ) ;
   int (*sync_fs)(struct super_block * , int  ) ;
   int (*freeze_fs)(struct super_block * ) ;
   int (*unfreeze_fs)(struct super_block * ) ;
   int (*statfs)(struct dentry * , struct kstatfs * ) ;
   int (*remount_fs)(struct super_block * , int * , char * ) ;
   void (*umount_begin)(struct super_block * ) ;
   int (*show_options)(struct seq_file * , struct vfsmount * ) ;
   int (*show_devname)(struct seq_file * , struct vfsmount * ) ;
   int (*show_path)(struct seq_file * , struct vfsmount * ) ;
   int (*show_stats)(struct seq_file * , struct vfsmount * ) ;
   ssize_t (*quota_read)(struct super_block * , int  , char * , size_t  , loff_t  ) ;
   ssize_t (*quota_write)(struct super_block * , int  , char const   * , size_t  ,
                          loff_t  ) ;
   int (*bdev_try_to_free_page)(struct super_block * , struct page * , gfp_t  ) ;
};
struct file_system_type {
   char const   *name ;
   int fs_flags ;
   struct dentry *(*mount)(struct file_system_type * , int  , char const   * , void * ) ;
   void (*kill_sb)(struct super_block * ) ;
   struct module *owner ;
   struct file_system_type *next ;
   struct list_head fs_supers ;
   struct lock_class_key s_lock_key ;
   struct lock_class_key s_umount_key ;
   struct lock_class_key s_vfs_rename_key ;
   struct lock_class_key i_lock_key ;
   struct lock_class_key i_mutex_key ;
   struct lock_class_key i_mutex_dir_key ;
   struct lock_class_key i_alloc_sem_key ;
};
typedef unsigned long kernel_ulong_t;
struct serio_device_id {
   __u8 type ;
   __u8 extra ;
   __u8 id ;
   __u8 proto ;
};
struct of_device_id {
   char name[32U] ;
   char type[32U] ;
   char compatible[128U] ;
   void *data ;
};
struct input_device_id {
   kernel_ulong_t flags ;
   __u16 bustype ;
   __u16 vendor ;
   __u16 product ;
   __u16 version ;
   kernel_ulong_t evbit[1U] ;
   kernel_ulong_t keybit[12U] ;
   kernel_ulong_t relbit[1U] ;
   kernel_ulong_t absbit[1U] ;
   kernel_ulong_t mscbit[1U] ;
   kernel_ulong_t ledbit[1U] ;
   kernel_ulong_t sndbit[1U] ;
   kernel_ulong_t ffbit[2U] ;
   kernel_ulong_t swbit[1U] ;
   kernel_ulong_t driver_info ;
};
struct ff_device;
struct input_mt_slot;
struct input_handle;
struct input_dev {
   char const   *name ;
   char const   *phys ;
   char const   *uniq ;
   struct input_id id ;
   unsigned long propbit[1U] ;
   unsigned long evbit[1U] ;
   unsigned long keybit[12U] ;
   unsigned long relbit[1U] ;
   unsigned long absbit[1U] ;
   unsigned long mscbit[1U] ;
   unsigned long ledbit[1U] ;
   unsigned long sndbit[1U] ;
   unsigned long ffbit[2U] ;
   unsigned long swbit[1U] ;
   unsigned int hint_events_per_packet ;
   unsigned int keycodemax ;
   unsigned int keycodesize ;
   void *keycode ;
   int (*setkeycode)(struct input_dev * , struct input_keymap_entry  const  * , unsigned int * ) ;
   int (*getkeycode)(struct input_dev * , struct input_keymap_entry * ) ;
   struct ff_device *ff ;
   unsigned int repeat_key ;
   struct timer_list timer ;
   int rep[2U] ;
   struct input_mt_slot *mt ;
   int mtsize ;
   int slot ;
   int trkid ;
   struct input_absinfo *absinfo ;
   unsigned long key[12U] ;
   unsigned long led[1U] ;
   unsigned long snd[1U] ;
   unsigned long sw[1U] ;
   int (*open)(struct input_dev * ) ;
   void (*close)(struct input_dev * ) ;
   int (*flush)(struct input_dev * , struct file * ) ;
   int (*event)(struct input_dev * , unsigned int  , unsigned int  , int  ) ;
   struct input_handle *grab ;
   spinlock_t event_lock ;
   struct mutex mutex ;
   unsigned int users ;
   bool going_away ;
   bool sync ;
   struct device dev ;
   struct list_head h_list ;
   struct list_head node ;
};
struct input_handler {
   void *private ;
   void (*event)(struct input_handle * , unsigned int  , unsigned int  , int  ) ;
   bool (*filter)(struct input_handle * , unsigned int  , unsigned int  , int  ) ;
   bool (*match)(struct input_handler * , struct input_dev * ) ;
   int (*connect)(struct input_handler * , struct input_dev * , struct input_device_id  const  * ) ;
   void (*disconnect)(struct input_handle * ) ;
   void (*start)(struct input_handle * ) ;
   struct file_operations  const  *fops ;
   int minor ;
   char const   *name ;
   struct input_device_id  const  *id_table ;
   struct list_head h_list ;
   struct list_head node ;
};
struct input_handle {
   void *private ;
   int open ;
   char const   *name ;
   struct input_dev *dev ;
   struct input_handler *handler ;
   struct list_head d_node ;
   struct list_head h_node ;
};
struct ff_device {
   int (*upload)(struct input_dev * , struct ff_effect * , struct ff_effect * ) ;
   int (*erase)(struct input_dev * , int  ) ;
   int (*playback)(struct input_dev * , int  , int  ) ;
   void (*set_gain)(struct input_dev * , u16  ) ;
   void (*set_autocenter)(struct input_dev * , u16  ) ;
   void (*destroy)(struct ff_device * ) ;
   void *private ;
   unsigned long ffbit[2U] ;
   struct mutex mutex ;
   int max_effects ;
   struct ff_effect *effects ;
   struct file *effect_owners[] ;
};
struct serio_driver;
struct serio {
   void *port_data ;
   char name[32U] ;
   char phys[32U] ;
   bool manual_bind ;
   struct serio_device_id id ;
   spinlock_t lock ;
   int (*write)(struct serio * , unsigned char  ) ;
   int (*open)(struct serio * ) ;
   void (*close)(struct serio * ) ;
   int (*start)(struct serio * ) ;
   void (*stop)(struct serio * ) ;
   struct serio *parent ;
   struct list_head child_node ;
   struct list_head children ;
   unsigned int depth ;
   struct serio_driver *drv ;
   struct mutex drv_mutex ;
   struct device dev ;
   struct list_head node ;
};
struct serio_driver {
   char const   *description ;
   struct serio_device_id  const  *id_table ;
   bool manual_bind ;
   void (*write_wakeup)(struct serio * ) ;
   irqreturn_t (*interrupt)(struct serio * , unsigned char  , unsigned int  ) ;
   int (*connect)(struct serio * , struct serio_driver * ) ;
   int (*reconnect)(struct serio * ) ;
   void (*disconnect)(struct serio * ) ;
   void (*cleanup)(struct serio * ) ;
   struct device_driver driver ;
};
struct vsxxxaa {
   struct input_dev *dev ;
   struct serio *serio ;
   unsigned char buf[15U] ;
   unsigned char count ;
   unsigned char version ;
   unsigned char country ;
   unsigned char type ;
   char name[64U] ;
   char phys[32U] ;
};
 static void __set_bit(int nr , unsigned long volatile   *addr ) 
{ 


  {
  __asm__  volatile   ("bts %1,%0": "+m" (*((long volatile   *)addr)): "Ir" (nr): "memory");
  return;
}
}
extern int printk(char const   *  , ...) ;
extern int snprintf(char * , size_t  , char const   *  , ...) ;
extern void *memmove(void * , void const   * , size_t  ) ;
extern size_t strlcpy(char * , char const   * , size_t  ) ;
extern size_t strlcat(char * , char const   * , __kernel_size_t  ) ;
extern void __ldv_spin_lock(spinlock_t * ) ;
void ldv___ldv_spin_lock_4(spinlock_t *ldv_func_arg1 ) ;
void ldv_spin_lock_node_size_lock_of_pglist_data(void) ;
extern void __const_udelay(unsigned long  ) ;
extern struct module __this_module ;
extern void kfree(void const   * ) ;
extern void *__kmalloc(size_t  , gfp_t  ) ;
 static void *kmalloc(size_t size , gfp_t flags ) 
{ 
  void *tmp___2 ;

  {
  tmp___2 = __kmalloc(size, flags);
  return (tmp___2);
}
}
 static void *kzalloc(size_t size , gfp_t flags ) 
{ 
  void *tmp ;

  {
  tmp = kmalloc(size, flags | 32768U);
  return (tmp);
}
}
extern void *dev_get_drvdata(struct device  const  * ) ;
extern void dev_set_drvdata(struct device * , void * ) ;
struct input_dev *input_allocate_device(void) {
       return kzalloc(sizeof(struct input_dev), 0x10u | 0x40u | 0x80u);
}

extern void input_free_device(struct input_dev * ) ;
extern int input_register_device(struct input_dev * ) ;
extern void input_unregister_device(struct input_dev * ) ;
extern void input_event(struct input_dev * , unsigned int  , unsigned int  , int  ) ;
 static void input_report_key(struct input_dev *dev , unsigned int code ,
                                      int value ) 
{ 


  {
  input_event(dev, 1U, code, value != 0);
  return;
}
}
 static void input_report_rel(struct input_dev *dev , unsigned int code ,
                                      int value ) 
{ 


  {
  input_event(dev, 2U, code, value);
  return;
}
}
 static void input_report_abs(struct input_dev *dev , unsigned int code ,
                                      int value ) 
{ 


  {
  input_event(dev, 3U, code, value);
  return;
}
}
 static void input_sync(struct input_dev *dev ) 
{ 


  {
  input_event(dev, 0U, 0U, 0);
  return;
}
}
extern void input_set_abs_params(struct input_dev * , unsigned int  , int  , int  ,
                                 int  , int  ) ;
extern int serio_open(struct serio * , struct serio_driver * ) ;
extern void serio_close(struct serio * ) ;
extern int __serio_register_driver(struct serio_driver * , struct module * , char const   * ) ;
 static int serio_register_driver(struct serio_driver *drv ) 
{ 
  int tmp ;

  {
  tmp = __serio_register_driver(drv, & __this_module, "vsxxxaa");
  return (tmp);
}
}
extern void serio_unregister_driver(struct serio_driver * ) ;
 static int serio_write(struct serio *serio , unsigned char data ) 
{ 
  int tmp ;

  {
  if ((unsigned long )serio->write != (unsigned long )((int (*)(struct serio * , unsigned char  ))0)) {
    tmp = (*(serio->write))(serio, (int )data);
    return (tmp);
  } else {
    return (-1);
  }
}
}
 static void *serio_get_drvdata(struct serio *serio ) 
{ 
  void *tmp ;

  {
  tmp = dev_get_drvdata((struct device  const  *)(& serio->dev));
  return (tmp);
}
}
 static void serio_set_drvdata(struct serio *serio , void *data ) 
{ 


  {
  dev_set_drvdata(& serio->dev, data);
  return;
}
}
static void vsxxxaa_drop_bytes(struct vsxxxaa *mouse , int num ) 
{ 


  {
  if ((int )mouse->count <= num) {
    mouse->count = 0U;
  } else {
    memmove((void *)(& mouse->buf), (void const   *)(& mouse->buf) + ((unsigned long )num + 0xffffffffffffffffUL),
            (size_t )(15 - num));
    mouse->count = (int )mouse->count - (int )((unsigned char )num);
  }
  return;
}
}
static void vsxxxaa_queue_byte(struct vsxxxaa *mouse , unsigned char byte ) 
{ 
  unsigned char tmp ;

  {
  if ((unsigned int )mouse->count == 15U) {
    printk("<3>%s on %s: Dropping a byte of full buffer.\n", (char *)(& mouse->name),
           (char *)(& mouse->phys));
    vsxxxaa_drop_bytes(mouse, 1);
  } else {

  }
  tmp = mouse->count;
  mouse->count = (unsigned char )((int )mouse->count + 1);
  mouse->buf[(int )tmp] = byte;
  return;
}
}
static void vsxxxaa_detection_done(struct vsxxxaa *mouse ) 
{ 


  {
  switch ((int )mouse->type) {
  case 2: 
  strlcpy((char *)(& mouse->name), "DEC VSXXX-AA/-GA mouse", 64UL);
  goto ldv_19661;
  case 4: 
  strlcpy((char *)(& mouse->name), "DEC VSXXX-AB digitizer", 64UL);
  goto ldv_19661;
  default: 
  snprintf((char *)(& mouse->name), 64UL, "unknown DEC pointer device (type = 0x%02x)",
           (int )mouse->type);
  goto ldv_19661;
  }
  ldv_19661: 
  printk("<6>Found %s version 0x%02x from country 0x%02x on port %s\n", (char *)(& mouse->name),
         (int )mouse->version, (int )mouse->country, (char *)(& mouse->phys));
  return;
}
}
static int vsxxxaa_check_packet(struct vsxxxaa *mouse , int packet_len ) 
{ 
  int i ;

  {
  if ((int )((signed char )mouse->buf[0]) >= 0) {
    return (1);
  } else {

  }
  i = 1;
  goto ldv_19670;
  ldv_19669: ;
  if ((int )((signed char )mouse->buf[i]) < 0) {
    printk("<3>Need to drop %d bytes of a broken packet.\n", i + -1);
    return (i + -1);
  } else {

  }
  i = i + 1;
  ldv_19670: ;
  if (i < packet_len) {
    goto ldv_19669;
  } else {

  }

  return (0);
}
}
 static int vsxxxaa_smells_like_packet(struct vsxxxaa *mouse , unsigned char type ,
                                               size_t len ) 
{ 


  {
  return ((size_t )mouse->count >= len && ((int )mouse->buf[0] & 224) == (int )type);
}
}
static void vsxxxaa_handle_REL_packet(struct vsxxxaa *mouse ) 
{ 
  struct input_dev *dev ;
  unsigned char *buf ;
  int left ;
  int middle ;
  int right ;
  int dx ;
  int dy ;

  {
  dev = mouse->dev;
  buf = (unsigned char *)(& mouse->buf);
  dx = (int )*(buf + 1UL) & 127;
  dx = (((int )*buf >> 4) & 1 ? 1 : -1) * dx;
  dy = (int )*(buf + 2UL) & 127;
  dy = (((int )*buf >> 3) & 1 ? -1 : 1) * dy;
  left = (int )*buf & 4;
  middle = (int )*buf & 2;
  right = (int )*buf & 1;
  vsxxxaa_drop_bytes(mouse, 3);
  input_report_key(dev, 272U, left);
  input_report_key(dev, 274U, middle);
  input_report_key(dev, 273U, right);
  input_report_key(dev, 330U, 0);
  input_report_rel(dev, 0U, dx);
  input_report_rel(dev, 1U, dy);
  input_sync(dev);
  return;
}
}
static void vsxxxaa_handle_ABS_packet(struct vsxxxaa *mouse ) 
{ 
  struct input_dev *dev ;
  unsigned char *buf ;
  int left ;
  int middle ;
  int right ;
  int touch ;
  int x ;
  int y ;

  {
  dev = mouse->dev;
  buf = (unsigned char *)(& mouse->buf);
  x = (((int )*(buf + 2UL) & 63) << 6) | ((int )*(buf + 1UL) & 63);
  y = (((int )*(buf + 4UL) & 63) << 6) | ((int )*(buf + 3UL) & 63);
  y = 1023 - y;
  left = (int )*buf & 2;
  middle = (int )*buf & 4;
  right = (int )*buf & 8;
  touch = (int )*buf & 16;
  vsxxxaa_drop_bytes(mouse, 5);
  input_report_key(dev, 272U, left);
  input_report_key(dev, 274U, middle);
  input_report_key(dev, 273U, right);
  input_report_key(dev, 330U, touch);
  input_report_abs(dev, 0U, x);
  input_report_abs(dev, 1U, y);
  input_sync(dev);
  return;
}
}
static void vsxxxaa_handle_POR_packet(struct vsxxxaa *mouse ) 
{ 
  struct input_dev *dev ;
  unsigned char *buf ;
  int left ;
  int middle ;
  int right ;
  unsigned char error ;
  unsigned long __ms ;
  unsigned long tmp ;
  unsigned long __ms___0 ;
  unsigned long tmp___0 ;

  {
  dev = mouse->dev;
  buf = (unsigned char *)(& mouse->buf);
  mouse->version = (unsigned int )*buf & 15U;
  mouse->country = (unsigned int )((int )*(buf + 1UL) >> 4) & 7U;
  mouse->type = (unsigned int )*(buf + 1UL) & 15U;
  error = (unsigned int )*(buf + 2UL) & 127U;
  left = (int )*buf & 4;
  middle = (int )*buf & 2;
  right = (int )*buf & 1;
  vsxxxaa_drop_bytes(mouse, 4);
  vsxxxaa_detection_done(mouse);
  if ((unsigned int )error <= 31U) {
    input_report_key(dev, 272U, left);
    input_report_key(dev, 274U, middle);
    input_report_key(dev, 273U, right);
    input_report_key(dev, 330U, 0);
    input_sync(dev);
    if ((unsigned int )error != 0U) {
      printk("<6>Your %s on %s reports error=0x%02x\n", (char *)(& mouse->name), (char *)(& mouse->phys),
             (int )error);
    } else {

    }
  } else {

  }
  printk("<5>%s on %s: Forcing standard packet format, incremental streaming mode and 72 samples/sec\n",
         (char *)(& mouse->name), (char *)(& mouse->phys));
  serio_write(mouse->serio, 83);
  __ms = 50UL;
  goto ldv_19709;
  ldv_19708: 
  __const_udelay(4295000UL);
  ldv_19709: 
  tmp = __ms;
  __ms = __ms - 1UL;
  if (tmp != 0UL) {
    goto ldv_19708;
  } else {

  }
  serio_write(mouse->serio, 82);
  __ms___0 = 50UL;
  goto ldv_19713;
  ldv_19712: 
  __const_udelay(4295000UL);
  ldv_19713: 
  tmp___0 = __ms___0;
  __ms___0 = __ms___0 - 1UL;
  if (tmp___0 != 0UL) {
    goto ldv_19712;
  } else {

  }
  serio_write(mouse->serio, 76);
  return;
}
}
static void vsxxxaa_parse_buffer(struct vsxxxaa *mouse ) 
{ 
  unsigned char *buf ;
  int stray_bytes ;
  int tmp ;
  int tmp___0 ;
  int tmp___1 ;

  {
  buf = (unsigned char *)(& mouse->buf);
  ldv_19724: ;
  goto ldv_19721;
  ldv_19720: 
  printk("<3>%s on %s: Dropping a byte to regain sync with mouse data stream...\n",
         (char *)(& mouse->name), (char *)(& mouse->phys));
  vsxxxaa_drop_bytes(mouse, 1);
  ldv_19721: ;
  if ((unsigned int )mouse->count != 0U && (int )((signed char )*buf) >= 0) {
    goto ldv_19720;
  } else {

  }
  tmp___1 = vsxxxaa_smells_like_packet(mouse, 128, 3UL);
  if (tmp___1 != 0) {
    stray_bytes = vsxxxaa_check_packet(mouse, 3);
    if (stray_bytes == 0) {
      vsxxxaa_handle_REL_packet(mouse);
    } else {

    }
  } else {
    tmp___0 = vsxxxaa_smells_like_packet(mouse, 192, 5UL);
    if (tmp___0 != 0) {
      stray_bytes = vsxxxaa_check_packet(mouse, 5);
      if (stray_bytes == 0) {
        vsxxxaa_handle_ABS_packet(mouse);
      } else {

      }
    } else {
      tmp = vsxxxaa_smells_like_packet(mouse, 160, 4UL);
      if (tmp != 0) {
        stray_bytes = vsxxxaa_check_packet(mouse, 4);
        if (stray_bytes == 0) {
          vsxxxaa_handle_POR_packet(mouse);
        } else {

        }
      } else {
        goto ldv_19723;
      }
    }
  }
  if (stray_bytes > 0) {
    printk("<3>Dropping %d bytes now...\n", stray_bytes);
    vsxxxaa_drop_bytes(mouse, stray_bytes);
  } else {

  }
  goto ldv_19724;
  ldv_19723: ;
  return;
}
}
static irqreturn_t vsxxxaa_interrupt(struct serio *serio , unsigned char data , unsigned int flags ) 
{ 
  struct vsxxxaa *mouse ;
  void *tmp ;

  {
  tmp = serio_get_drvdata(serio);
  mouse = (struct vsxxxaa *)tmp;
  vsxxxaa_queue_byte(mouse, (int )data);
  vsxxxaa_parse_buffer(mouse);
  return (IRQ_HANDLED);
}
}
static void vsxxxaa_disconnect(struct serio *serio ) 
{ 
  struct vsxxxaa *mouse ;
  void *tmp ;

  {
  tmp = serio_get_drvdata(serio);
  mouse = (struct vsxxxaa *)tmp;
  serio_close(serio);
  serio_set_drvdata(serio, 0);
  input_unregister_device(mouse->dev);
  kfree((void const   *)mouse);
  return;
}
}
static int vsxxxaa_connect(struct serio *serio , struct serio_driver *drv ) 
{ 
  struct vsxxxaa *mouse ;
  struct input_dev *input_dev ;
  int err ;
  void *tmp ;

  {
  err = -12;
  tmp = kzalloc(136UL, 208U);
  mouse = (struct vsxxxaa *)tmp;
  input_dev = input_allocate_device();
  if ((unsigned long )mouse == (unsigned long )((struct vsxxxaa *)0) || (unsigned long )input_dev == (unsigned long )((struct input_dev *)0)) {
    goto fail1;
  } else {

  }
  mouse->dev = input_dev;
  mouse->serio = serio;
  strlcat((char *)(& mouse->name), "DEC VSXXX-AA/-GA mouse or VSXXX-AB digitizer",
          64UL);
  snprintf((char *)(& mouse->phys), 32UL, "%s/input0", (char *)(& serio->phys));
  input_dev->name = (char const   *)(& mouse->name);
  input_dev->phys = (char const   *)(& mouse->phys);
  input_dev->id.bustype = 19U;
  input_dev->dev.parent = & serio->dev;
  __set_bit(1, (unsigned long volatile   *)(& input_dev->evbit));
  __set_bit(2, (unsigned long volatile   *)(& input_dev->evbit));
  __set_bit(3, (unsigned long volatile   *)(& input_dev->evbit));
  __set_bit(272, (unsigned long volatile   *)(& input_dev->keybit));
  __set_bit(274, (unsigned long volatile   *)(& input_dev->keybit));
  __set_bit(273, (unsigned long volatile   *)(& input_dev->keybit));
  __set_bit(330, (unsigned long volatile   *)(& input_dev->keybit));
  __set_bit(0, (unsigned long volatile   *)(& input_dev->relbit));
  __set_bit(1, (unsigned long volatile   *)(& input_dev->relbit));
  input_set_abs_params(input_dev, 0U, 0, 1023, 0, 0);
  input_set_abs_params(input_dev, 1U, 0, 1023, 0, 0);
  serio_set_drvdata(serio, (void *)mouse);
  err = serio_open(serio, drv);
  if (err != 0) {
    goto fail2;
  } else {

  }
  serio_write(serio, 84);
  err = input_register_device(input_dev);
  if (err != 0) {
    goto fail3;
  } else {

  }
  return (0);
  fail3: 
  serio_close(serio);
  fail2: 
  serio_set_drvdata(serio, 0);
  fail1: 
  input_free_device(input_dev);
  kfree((void const   *)mouse);
  return (err);
}
}
static struct serio_device_id vsxxaa_serio_ids[2U]  = {      {2U, 255U, 255U, 8U}, 
        {0U, (unsigned char)0, (unsigned char)0, (unsigned char)0}};
struct serio_device_id  const  __mod_serio_device_table  ;
static struct serio_driver vsxxxaa_drv  = 
     {"Driver for DEC VSXXX-AA and -GA mice and VSXXX-AB tablet", (struct serio_device_id  const  *)(& vsxxaa_serio_ids),
    (_Bool)0, 0, & vsxxxaa_interrupt, & vsxxxaa_connect, 0, & vsxxxaa_disconnect,
    0, {"vsxxxaa", 0, 0, 0, (_Bool)0, 0, 0, 0, 0, 0, 0, 0, 0, 0}};
static int vsxxxaa_init(void) 
{ 
  int tmp ;

  {
  tmp = serio_register_driver(& vsxxxaa_drv);
  return (tmp);
}
}
static void vsxxxaa_exit(void) 
{ 


  {
  serio_unregister_driver(& vsxxxaa_drv);
  return;
}
}
void ldv_check_final_state(void) ;
extern void ldv_check_return_value(int  ) ;
void ldv_initialize(void) ;
extern void ldv_handler_precall(void) ;
extern int nondet_int(void) ;
int LDV_IN_INTERRUPT  ;
int main(void) 
{ 
  struct serio *var_group1 ;
  struct serio_driver *var_group2 ;
  int res_vsxxxaa_connect_11 ;
  unsigned char var_vsxxxaa_interrupt_9_p1 ;
  unsigned int var_vsxxxaa_interrupt_9_p2 ;
  int ldv_s_vsxxxaa_drv_serio_driver ;
  int tmp ;
  int tmp___0 ;
  int tmp___1 ;

  {
  ldv_s_vsxxxaa_drv_serio_driver = 0;
  LDV_IN_INTERRUPT = 1;
  ldv_initialize();
  ldv_handler_precall();
  tmp = vsxxxaa_init();
  if (tmp != 0) {
    goto ldv_final;
  } else {

  }
  goto ldv_19794;
  ldv_19793: 
  tmp___0 = nondet_int();
  switch (tmp___0) {
  case 0: ;
  if (ldv_s_vsxxxaa_drv_serio_driver == 0) {
    ldv_handler_precall();
    res_vsxxxaa_connect_11 = vsxxxaa_connect(var_group1, var_group2);
    ldv_check_return_value(res_vsxxxaa_connect_11);
    if (res_vsxxxaa_connect_11 != 0) {
      goto ldv_module_exit;
    } else {

    }
    ldv_s_vsxxxaa_drv_serio_driver = ldv_s_vsxxxaa_drv_serio_driver + 1;
  } else {

  }
  goto ldv_19789;
  case 1: ;
  if (ldv_s_vsxxxaa_drv_serio_driver == 1) {
    ldv_handler_precall();
    vsxxxaa_disconnect(var_group1);
    ldv_s_vsxxxaa_drv_serio_driver = 0;
  } else {

  }
  goto ldv_19789;
  case 2: 
  ldv_handler_precall();
  vsxxxaa_interrupt(var_group1, (int )var_vsxxxaa_interrupt_9_p1, var_vsxxxaa_interrupt_9_p2);
  goto ldv_19789;
  default: ;
  goto ldv_19789;
  }
  ldv_19789: ;
  ldv_19794: 
  tmp___1 = nondet_int();
  if (tmp___1 != 0 || ldv_s_vsxxxaa_drv_serio_driver != 0) {
    goto ldv_19793;
  } else {

  }

  ldv_module_exit: 
  ldv_handler_precall();
  vsxxxaa_exit();
  ldv_final: 
  ldv_check_final_state();
  return 0;
}
}
void ldv___ldv_spin_lock_4(spinlock_t *ldv_func_arg1 ) 
{ 


  {
  ldv_spin_lock_node_size_lock_of_pglist_data();
  __ldv_spin_lock(ldv_func_arg1);
  return;
}
}
long ldv__builtin_expect(long exp , long c ) ;
 static void ldv_error(void) 
{ 


  {
  LDV_ERROR: {reach_error();abort();}
}
}
extern int ldv_undef_int(void) ;
long ldv__builtin_expect(long exp , long c ) 
{ 


  {
  return (exp);
}
}
static int ldv_spin_d_lock_of_dentry  ;
void ldv_spin_lock_d_lock_of_dentry(void) 
{ 


  {
  if (ldv_spin_d_lock_of_dentry == 1) {

  } else {
    ldv_error();
  }
  ldv_spin_d_lock_of_dentry = 2;
  return;
}
}
void ldv_spin_unlock_d_lock_of_dentry(void) 
{ 


  {
  if (ldv_spin_d_lock_of_dentry == 2) {

  } else {
    ldv_error();
  }
  ldv_spin_d_lock_of_dentry = 1;
  return;
}
}
int ldv_spin_trylock_d_lock_of_dentry(void) 
{ 
  int is_spin_held_by_another_thread ;

  {
  if (ldv_spin_d_lock_of_dentry == 1) {

  } else {
    ldv_error();
  }
  is_spin_held_by_another_thread = ldv_undef_int();
  if (is_spin_held_by_another_thread) {
    return (0);
  } else {
    ldv_spin_d_lock_of_dentry = 2;
    return (1);
  }
}
}
void ldv_spin_unlock_wait_d_lock_of_dentry(void) 
{ 


  {
  if (ldv_spin_d_lock_of_dentry == 1) {

  } else {
    ldv_error();
  }
  return;
}
}
int ldv_spin_is_locked_d_lock_of_dentry(void) 
{ 
  int is_spin_held_by_another_thread ;

  {
  is_spin_held_by_another_thread = ldv_undef_int();
  if (ldv_spin_d_lock_of_dentry == 1 && ! is_spin_held_by_another_thread) {
    return (0);
  } else {
    return (1);
  }
}
}
int ldv_spin_can_lock_d_lock_of_dentry(void) 
{ 
  int tmp ;
  int tmp___0 ;

  {
  tmp = ldv_spin_is_locked_d_lock_of_dentry();
  if (tmp) {
    tmp___0 = 0;
  } else {
    tmp___0 = 1;
  }
  return (tmp___0);
}
}
int ldv_spin_is_contended_d_lock_of_dentry(void) 
{ 
  int is_spin_contended ;

  {
  is_spin_contended = ldv_undef_int();
  if (is_spin_contended) {
    return (0);
  } else {
    return (1);
  }
}
}
int ldv_atomic_dec_and_lock_d_lock_of_dentry(void) 
{ 
  int atomic_value_after_dec ;

  {
  if (ldv_spin_d_lock_of_dentry == 1) {

  } else {
    ldv_error();
  }
  atomic_value_after_dec = ldv_undef_int();
  if (atomic_value_after_dec == 0) {
    ldv_spin_d_lock_of_dentry = 2;
    return (1);
  } else {

  }
  return (0);
}
}
static int ldv_spin_i_lock_of_inode  ;
void ldv_spin_lock_i_lock_of_inode(void) 
{ 


  {
  if (ldv_spin_i_lock_of_inode == 1) {

  } else {
    ldv_error();
  }
  ldv_spin_i_lock_of_inode = 2;
  return;
}
}
void ldv_spin_unlock_i_lock_of_inode(void) 
{ 


  {
  if (ldv_spin_i_lock_of_inode == 2) {

  } else {
    ldv_error();
  }
  ldv_spin_i_lock_of_inode = 1;
  return;
}
}
int ldv_spin_trylock_i_lock_of_inode(void) 
{ 
  int is_spin_held_by_another_thread ;

  {
  if (ldv_spin_i_lock_of_inode == 1) {

  } else {
    ldv_error();
  }
  is_spin_held_by_another_thread = ldv_undef_int();
  if (is_spin_held_by_another_thread) {
    return (0);
  } else {
    ldv_spin_i_lock_of_inode = 2;
    return (1);
  }
}
}
void ldv_spin_unlock_wait_i_lock_of_inode(void) 
{ 


  {
  if (ldv_spin_i_lock_of_inode == 1) {

  } else {
    ldv_error();
  }
  return;
}
}
int ldv_spin_is_locked_i_lock_of_inode(void) 
{ 
  int is_spin_held_by_another_thread ;

  {
  is_spin_held_by_another_thread = ldv_undef_int();
  if (ldv_spin_i_lock_of_inode == 1 && ! is_spin_held_by_another_thread) {
    return (0);
  } else {
    return (1);
  }
}
}
int ldv_spin_can_lock_i_lock_of_inode(void) 
{ 
  int tmp ;
  int tmp___0 ;

  {
  tmp = ldv_spin_is_locked_i_lock_of_inode();
  if (tmp) {
    tmp___0 = 0;
  } else {
    tmp___0 = 1;
  }
  return (tmp___0);
}
}
int ldv_spin_is_contended_i_lock_of_inode(void) 
{ 
  int is_spin_contended ;

  {
  is_spin_contended = ldv_undef_int();
  if (is_spin_contended) {
    return (0);
  } else {
    return (1);
  }
}
}
int ldv_atomic_dec_and_lock_i_lock_of_inode(void) 
{ 
  int atomic_value_after_dec ;

  {
  if (ldv_spin_i_lock_of_inode == 1) {

  } else {
    ldv_error();
  }
  atomic_value_after_dec = ldv_undef_int();
  if (atomic_value_after_dec == 0) {
    ldv_spin_i_lock_of_inode = 2;
    return (1);
  } else {

  }
  return (0);
}
}
static int ldv_spin_lock_of_NOT_ARG_SIGN  ;
void ldv_spin_lock_lock_of_NOT_ARG_SIGN(void) 
{ 


  {
  if (ldv_spin_lock_of_NOT_ARG_SIGN == 1) {

  } else {
    ldv_error();
  }
  ldv_spin_lock_of_NOT_ARG_SIGN = 2;
  return;
}
}
void ldv_spin_unlock_lock_of_NOT_ARG_SIGN(void) 
{ 


  {
  if (ldv_spin_lock_of_NOT_ARG_SIGN == 2) {

  } else {
    ldv_error();
  }
  ldv_spin_lock_of_NOT_ARG_SIGN = 1;
  return;
}
}
int ldv_spin_trylock_lock_of_NOT_ARG_SIGN(void) 
{ 
  int is_spin_held_by_another_thread ;

  {
  if (ldv_spin_lock_of_NOT_ARG_SIGN == 1) {

  } else {
    ldv_error();
  }
  is_spin_held_by_another_thread = ldv_undef_int();
  if (is_spin_held_by_another_thread) {
    return (0);
  } else {
    ldv_spin_lock_of_NOT_ARG_SIGN = 2;
    return (1);
  }
}
}
void ldv_spin_unlock_wait_lock_of_NOT_ARG_SIGN(void) 
{ 


  {
  if (ldv_spin_lock_of_NOT_ARG_SIGN == 1) {

  } else {
    ldv_error();
  }
  return;
}
}
int ldv_spin_is_locked_lock_of_NOT_ARG_SIGN(void) 
{ 
  int is_spin_held_by_another_thread ;

  {
  is_spin_held_by_another_thread = ldv_undef_int();
  if (ldv_spin_lock_of_NOT_ARG_SIGN == 1 && ! is_spin_held_by_another_thread) {
    return (0);
  } else {
    return (1);
  }
}
}
int ldv_spin_can_lock_lock_of_NOT_ARG_SIGN(void) 
{ 
  int tmp ;
  int tmp___0 ;

  {
  tmp = ldv_spin_is_locked_lock_of_NOT_ARG_SIGN();
  if (tmp) {
    tmp___0 = 0;
  } else {
    tmp___0 = 1;
  }
  return (tmp___0);
}
}
int ldv_spin_is_contended_lock_of_NOT_ARG_SIGN(void) 
{ 
  int is_spin_contended ;

  {
  is_spin_contended = ldv_undef_int();
  if (is_spin_contended) {
    return (0);
  } else {
    return (1);
  }
}
}
int ldv_atomic_dec_and_lock_lock_of_NOT_ARG_SIGN(void) 
{ 
  int atomic_value_after_dec ;

  {
  if (ldv_spin_lock_of_NOT_ARG_SIGN == 1) {

  } else {
    ldv_error();
  }
  atomic_value_after_dec = ldv_undef_int();
  if (atomic_value_after_dec == 0) {
    ldv_spin_lock_of_NOT_ARG_SIGN = 2;
    return (1);
  } else {

  }
  return (0);
}
}
static int ldv_spin_lock_of_serio  ;
void ldv_spin_lock_lock_of_serio(void) 
{ 


  {
  if (ldv_spin_lock_of_serio == 1) {

  } else {
    ldv_error();
  }
  ldv_spin_lock_of_serio = 2;
  return;
}
}
void ldv_spin_unlock_lock_of_serio(void) 
{ 


  {
  if (ldv_spin_lock_of_serio == 2) {

  } else {
    ldv_error();
  }
  ldv_spin_lock_of_serio = 1;
  return;
}
}
int ldv_spin_trylock_lock_of_serio(void) 
{ 
  int is_spin_held_by_another_thread ;

  {
  if (ldv_spin_lock_of_serio == 1) {

  } else {
    ldv_error();
  }
  is_spin_held_by_another_thread = ldv_undef_int();
  if (is_spin_held_by_another_thread) {
    return (0);
  } else {
    ldv_spin_lock_of_serio = 2;
    return (1);
  }
}
}
void ldv_spin_unlock_wait_lock_of_serio(void) 
{ 


  {
  if (ldv_spin_lock_of_serio == 1) {

  } else {
    ldv_error();
  }
  return;
}
}
int ldv_spin_is_locked_lock_of_serio(void) 
{ 
  int is_spin_held_by_another_thread ;

  {
  is_spin_held_by_another_thread = ldv_undef_int();
  if (ldv_spin_lock_of_serio == 1 && ! is_spin_held_by_another_thread) {
    return (0);
  } else {
    return (1);
  }
}
}
int ldv_spin_can_lock_lock_of_serio(void) 
{ 
  int tmp ;
  int tmp___0 ;

  {
  tmp = ldv_spin_is_locked_lock_of_serio();
  if (tmp) {
    tmp___0 = 0;
  } else {
    tmp___0 = 1;
  }
  return (tmp___0);
}
}
int ldv_spin_is_contended_lock_of_serio(void) 
{ 
  int is_spin_contended ;

  {
  is_spin_contended = ldv_undef_int();
  if (is_spin_contended) {
    return (0);
  } else {
    return (1);
  }
}
}
int ldv_atomic_dec_and_lock_lock_of_serio(void) 
{ 
  int atomic_value_after_dec ;

  {
  if (ldv_spin_lock_of_serio == 1) {

  } else {
    ldv_error();
  }
  atomic_value_after_dec = ldv_undef_int();
  if (atomic_value_after_dec == 0) {
    ldv_spin_lock_of_serio = 2;
    return (1);
  } else {

  }
  return (0);
}
}
static int ldv_spin_node_size_lock_of_pglist_data  ;
void ldv_spin_lock_node_size_lock_of_pglist_data(void) 
{ 


  {
  if (ldv_spin_node_size_lock_of_pglist_data == 1) {

  } else {
    ldv_error();
  }
  ldv_spin_node_size_lock_of_pglist_data = 2;
  return;
}
}
void ldv_spin_unlock_node_size_lock_of_pglist_data(void) 
{ 


  {
  if (ldv_spin_node_size_lock_of_pglist_data == 2) {

  } else {
    ldv_error();
  }
  ldv_spin_node_size_lock_of_pglist_data = 1;
  return;
}
}
int ldv_spin_trylock_node_size_lock_of_pglist_data(void) 
{ 
  int is_spin_held_by_another_thread ;

  {
  if (ldv_spin_node_size_lock_of_pglist_data == 1) {

  } else {
    ldv_error();
  }
  is_spin_held_by_another_thread = ldv_undef_int();
  if (is_spin_held_by_another_thread) {
    return (0);
  } else {
    ldv_spin_node_size_lock_of_pglist_data = 2;
    return (1);
  }
}
}
void ldv_spin_unlock_wait_node_size_lock_of_pglist_data(void) 
{ 


  {
  if (ldv_spin_node_size_lock_of_pglist_data == 1) {

  } else {
    ldv_error();
  }
  return;
}
}
int ldv_spin_is_locked_node_size_lock_of_pglist_data(void) 
{ 
  int is_spin_held_by_another_thread ;

  {
  is_spin_held_by_another_thread = ldv_undef_int();
  if (ldv_spin_node_size_lock_of_pglist_data == 1 && ! is_spin_held_by_another_thread) {
    return (0);
  } else {
    return (1);
  }
}
}
int ldv_spin_can_lock_node_size_lock_of_pglist_data(void) 
{ 
  int tmp ;
  int tmp___0 ;

  {
  tmp = ldv_spin_is_locked_node_size_lock_of_pglist_data();
  if (tmp) {
    tmp___0 = 0;
  } else {
    tmp___0 = 1;
  }
  return (tmp___0);
}
}
int ldv_spin_is_contended_node_size_lock_of_pglist_data(void) 
{ 
  int is_spin_contended ;

  {
  is_spin_contended = ldv_undef_int();
  if (is_spin_contended) {
    return (0);
  } else {
    return (1);
  }
}
}
int ldv_atomic_dec_and_lock_node_size_lock_of_pglist_data(void) 
{ 
  int atomic_value_after_dec ;

  {
  if (ldv_spin_node_size_lock_of_pglist_data == 1) {

  } else {
    ldv_error();
  }
  atomic_value_after_dec = ldv_undef_int();
  if (atomic_value_after_dec == 0) {
    ldv_spin_node_size_lock_of_pglist_data = 2;
    return (1);
  } else {

  }
  return (0);
}
}
void ldv_initialize(void) 
{ 


  {
  ldv_spin_d_lock_of_dentry = 1;
  ldv_spin_i_lock_of_inode = 1;
  ldv_spin_lock_of_NOT_ARG_SIGN = 1;
  ldv_spin_lock_of_serio = 1;
  ldv_spin_node_size_lock_of_pglist_data = 1;
  return;
}
}
void ldv_check_final_state(void) 
{ 


  {
  if (ldv_spin_d_lock_of_dentry == 1) {

  } else {
    ldv_error();
  }
  if (ldv_spin_i_lock_of_inode == 1) {

  } else {
    ldv_error();
  }
  if (ldv_spin_lock_of_NOT_ARG_SIGN == 1) {

  } else {
    ldv_error();
  }
  if (ldv_spin_lock_of_serio == 1) {

  } else {
    ldv_error();
  }
  if (ldv_spin_node_size_lock_of_pglist_data == 1) {

  } else {
    ldv_error();
  }
  return;
}
}
